0,0,0,26,
1,0,0,4,
2,0,0,18,
3,0,0,9,
4,0,0,7,
2,0,0,13,
5,0,0,7,
6,0,0,6,
7,0,0,9,
8,0,0,9,
9,0,0,3,
10,0,0,3,
11,0,0,3,
12,0,0,3,
13,0,0,2,
14,0,0,4,
15,0,0,3,
16,0,0,3,
17,0,0,3,
18,0,0,3,
19,0,0,3,
20,0,0,3,
21,0,0,6,
22,0,0,7,
23,0,0,7,
24,0,0,3,
25,0,0,3,
26,0,0,3,
27,0,0,5,
28,0,0,5,
29,0,0,12,
30,0,0,3,
31,0,0,3,
32,0,0,8,
33,0,0,8,
34,0,0,3,
35,0,0,4,
36,0,0,3,
37,0,0,3,
38,0,0,3,
39,0,0,3,
40,0,0,3,
41,0,0,3,
42,0,0,4,
43,0,0,4,
44,0,0,4,
45,0,0,4,
46,0,0,3,
47,0,0,3,
48,0,0,3,
49,0,0,3,
50,0,0,4,
51,0,0,6,
52,0,0,6,
53,0,0,3,
54,0,0,4,
55,0,0,4,
56,0,0,6,
57,0,0,6,
58,0,0,6,
59,0,0,6,
60,0,0,7,
61,0,0,7,
62,0,0,7,
63,0,0,7,
64,0,0,8,
65,0,0,8,
66,0,0,8,
67,0,0,8,
68,0,0,3,
69,0,0,3,
70,0,0,4,
71,0,0,4,
72,0,0,4,
73,0,0,3,
74,0,0,3,
75,0,0,3,
76,0,0,2,
77,0,0,2,
78,0,0,2,
79,0,0,20,
