0,2,-22,-32,0,0,100,0,0,0,40,40,0,-41,-16,0,0,100,0,928,0,80,32,0,
0,2,-22,-32,0,0,100,0,40,0,40,40,0,-41,-16,0,0,100,0,928,0,80,32,0,
0,2,-38,-38,0,0,100,0,0,40,40,40,0,-55,-16,0,0,100,0,928,0,80,32,0,
0,2,-49,-35,0,0,100,0,40,40,40,40,0,-68,-16,0,0,100,0,928,0,80,32,0,
0,2,-60,-32,0,0,100,0,0,0,40,40,0,-79,-16,0,0,100,0,928,0,80,32,0,
0,2,-60,-32,0,0,100,0,40,0,40,40,0,-79,-16,0,0,100,0,928,0,80,32,0,
0,2,-72,-38,0,0,100,0,0,40,40,40,0,-89,-16,0,0,100,0,928,0,80,32,0,
0,2,-80,-35,0,0,100,0,40,40,40,40,0,-99,-16,0,0,100,0,928,0,80,32,0,
0,2,-87,-32,0,0,100,0,0,0,40,40,0,-106,-16,0,0,100,0,928,0,80,32,0,
0,2,-87,-32,0,0,100,0,40,0,40,40,0,-106,-16,0,0,100,0,928,0,80,32,0,
0,2,-101,-38,0,0,100,0,0,40,40,40,0,-118,-16,0,0,100,0,928,0,80,32,0,
0,2,-111,-35,0,0,100,0,40,40,40,40,0,-130,-16,0,0,100,0,928,0,80,32,0,
0,2,-120,-32,0,0,100,0,0,0,40,40,0,-139,-16,0,0,100,0,928,0,80,32,0,
0,2,-120,-32,0,0,100,0,40,0,40,40,0,-139,-16,0,0,100,0,928,0,80,32,0,
0,2,-135,-38,0,0,100,0,0,40,40,40,0,-152,-16,0,0,100,0,928,0,80,32,0,
0,2,-146,-35,0,0,100,0,40,40,40,40,0,-165,-16,0,0,100,0,928,0,80,32,0,
0,2,-156,-32,0,0,100,0,0,0,40,40,0,-175,-16,0,0,100,0,928,0,80,32,0,
0,2,-156,-32,0,0,100,0,40,0,40,40,0,-175,-16,0,0,100,0,928,0,80,32,0,
0,2,-159,-83,0,0,100,0,0,40,40,40,0,-175,-16,0,0,50,0,928,0,80,32,0,
0,1,-158,-162,0,0,100,0,120,0,40,48,0,
0,1,-158,-165,0,0,100,0,120,48,40,48,0,
0,1,-158,-168,0,0,100,0,120,0,40,48,0,
0,1,-158,-171,0,0,100,0,120,48,40,48,0,
0,1,-158,-174,0,0,100,0,120,0,40,48,0,
0,5,-9,-95,0,0,100,0,840,0,40,40,0,-384,-73,1,0,100,0,200,0,40,40,0,-158,-174,0,0,100,0,120,48,40,48,0,-28,-79,0,0,100,0,928,0,80,32,0,-405,-57,1,0,100,0,928,0,80,32,0,
0,9,-261,60,1,0,100,0,640,40,40,40,0,-19,3,0,0,100,0,320,40,40,40,0,-22,-97,0,0,100,0,800,40,40,40,0,-367,-77,1,0,100,0,160,40,40,40,0,-158,-171,0,0,100,0,120,0,40,48,0,-284,82,1,0,100,0,928,0,80,32,0,-36,25,0,0,100,0,928,0,80,32,0,-39,-75,0,0,100,0,928,0,80,32,0,-390,-55,1,0,100,0,928,0,80,32,0,
0,11,-31,-90,0,0,100,0,840,40,40,40,0,-27,3,0,0,100,0,360,40,40,40,0,-94,64,0,0,100,0,520,40,40,40,0,-255,58,1,0,100,0,680,40,40,40,0,-354,-70,1,0,100,0,200,40,40,40,0,-160,-117,0,0,100,0,0,0,40,40,0,-50,-71,0,0,100,0,928,0,80,32,0,-46,22,0,0,100,0,928,0,80,32,0,-113,83,0,0,100,0,928,0,80,32,0,-276,77,1,0,100,0,928,0,80,32,0,-375,-51,1,0,100,0,928,0,80,32,0,
0,12,-39,-84,0,0,100,0,800,0,40,40,0,-34,3,0,0,100,0,320,0,40,40,0,-97,60,0,0,100,0,480,0,40,40,0,-251,54,1,0,100,0,640,0,40,40,0,-341,-64,1,0,100,0,160,0,40,40,0,-159,-87,0,0,100,0,0,0,40,40,0,-177,-16,0,0,30,0,928,0,80,32,0,-58,-68,0,0,100,0,928,0,80,32,0,-53,19,0,0,100,0,928,0,80,32,0,-116,76,0,0,100,0,928,0,80,32,0,-272,70,1,0,100,0,928,0,80,32,0,-362,-48,1,0,100,0,928,0,80,32,0,
0,12,-39,-84,0,0,100,0,840,0,40,40,0,-34,3,0,0,100,0,360,0,40,40,0,-97,60,0,0,100,0,520,0,40,40,0,-251,54,1,0,100,0,680,0,40,40,0,-341,-64,1,0,100,0,200,0,40,40,0,-159,-57,0,0,100,0,0,0,40,40,0,-177,-16,0,0,60,0,928,0,80,32,0,-58,-68,0,0,100,0,928,0,80,32,0,-53,19,0,0,100,0,928,0,80,32,0,-116,76,0,0,100,0,928,0,80,32,0,-272,70,1,0,100,0,928,0,80,32,0,-362,-48,1,0,100,0,928,0,80,32,0,
0,12,-61,-83,0,0,100,0,800,40,40,40,0,-55,-8,0,0,100,0,320,40,40,40,0,-108,42,0,0,100,0,480,40,40,40,0,-233,37,1,0,100,0,640,40,40,40,0,-309,-64,1,0,100,0,160,40,40,40,0,-158,-32,0,0,100,0,80,40,40,40,0,-177,-16,0,0,100,0,928,0,80,32,0,-78,-61,0,0,100,0,928,0,80,32,0,-72,14,0,0,100,0,928,0,80,32,0,-125,64,0,0,100,0,928,0,80,32,0,-256,59,1,0,100,0,928,0,80,32,0,-332,-42,1,0,100,0,928,0,80,32,0,
0,12,-70,-77,0,0,100,0,840,40,40,40,0,-63,-8,0,0,100,0,360,40,40,40,0,-111,38,0,0,100,0,520,40,40,40,0,-227,34,1,0,100,0,680,40,40,40,0,-296,-58,1,0,100,0,200,40,40,40,0,-159,-35,0,0,100,0,40,0,40,40,0,-178,-16,0,0,100,0,928,0,80,32,0,-89,-58,0,0,100,0,928,0,80,32,0,-82,11,0,0,100,0,928,0,80,32,0,-130,57,0,0,100,0,928,0,80,32,0,-248,53,1,0,100,0,928,0,80,32,0,-317,-39,1,0,100,0,928,0,80,32,0,
0,12,-78,-70,0,0,100,0,800,0,40,40,0,-70,-8,0,0,100,0,320,0,40,40,0,-114,35,0,0,100,0,480,0,40,40,0,-223,31,1,0,100,0,640,0,40,40,0,-283,-51,1,0,100,0,160,0,40,40,0,-160,-48,0,0,100,0,0,0,40,40,0,-179,-16,0,0,100,0,928,0,80,32,0,-97,-54,0,0,100,0,928,0,80,32,0,-89,8,0,0,100,0,928,0,80,32,0,-133,51,0,0,100,0,928,0,80,32,0,-244,47,1,0,100,0,928,0,80,32,0,-304,-35,1,0,100,0,928,0,80,32,0,
0,12,-78,-70,0,0,100,0,840,0,40,40,0,-70,-8,0,0,100,0,360,0,40,40,0,-114,35,0,0,100,0,520,0,40,40,0,-223,31,1,0,100,0,680,0,40,40,0,-283,-51,1,0,100,0,200,0,40,40,0,-160,-32,0,0,100,0,0,0,40,40,0,-179,-16,0,0,100,0,928,0,80,32,0,-97,-54,0,0,100,0,928,0,80,32,0,-89,8,0,0,100,0,928,0,80,32,0,-133,51,0,0,100,0,928,0,80,32,0,-244,47,1,0,100,0,928,0,80,32,0,-304,-35,1,0,100,0,928,0,80,32,0,
0,12,-101,-69,0,0,100,0,800,40,40,40,0,-91,-19,0,0,100,0,320,40,40,40,0,-125,16,0,0,100,0,480,40,40,40,0,-206,14,1,0,100,0,640,40,40,40,0,-251,-51,1,0,100,0,160,40,40,40,0,-160,-34,0,0,100,0,0,0,40,40,0,-179,-16,0,0,100,0,928,0,80,32,0,-118,-47,0,0,100,0,928,0,80,32,0,-108,3,0,0,100,0,928,0,80,32,0,-142,38,0,0,100,0,928,0,80,32,0,-229,36,1,0,100,0,928,0,80,32,0,-274,-29,1,0,100,0,928,0,80,32,0,
0,12,-109,-63,0,0,100,0,840,40,40,40,0,-99,-19,0,0,100,0,360,40,40,40,0,-128,13,0,0,100,0,520,40,40,40,0,-200,11,1,0,100,0,680,40,40,40,0,-237,-45,1,0,100,0,200,40,40,40,0,-160,-32,0,0,100,0,0,0,40,40,0,-179,-16,0,0,100,0,928,0,80,32,0,-128,-44,0,0,100,0,928,0,80,32,0,-118,0,0,0,100,0,928,0,80,32,0,-147,32,0,0,100,0,928,0,80,32,0,-221,30,1,0,100,0,928,0,80,32,0,-258,-26,1,0,100,0,928,0,80,32,0,
0,12,-118,-56,0,0,100,0,800,0,40,40,0,-106,-19,0,0,100,0,320,0,40,40,0,-131,9,0,0,100,0,480,0,40,40,0,-195,8,1,0,100,0,640,0,40,40,0,-225,-39,1,0,100,0,160,0,40,40,0,-160,-32,0,0,100,0,0,0,40,40,0,-179,-16,0,0,100,0,928,0,80,32,0,-137,-40,0,0,100,0,928,0,80,32,0,-125,-3,0,0,100,0,928,0,80,32,0,-150,25,0,0,100,0,928,0,80,32,0,-216,24,1,0,100,0,928,0,80,32,0,-246,-23,1,0,100,0,928,0,80,32,0,
0,12,-118,-56,0,0,100,0,840,0,40,40,0,-106,-19,0,0,100,0,360,0,40,40,0,-131,9,0,0,100,0,520,0,40,40,0,-195,8,1,0,100,0,680,0,40,40,0,-225,-39,1,0,100,0,200,0,40,40,0,-160,-32,0,0,100,0,0,0,40,40,0,-179,-16,0,0,100,0,928,0,80,32,0,-137,-40,0,0,100,0,928,0,80,32,0,-125,-3,0,0,100,0,928,0,80,32,0,-150,25,0,0,100,0,928,0,80,32,0,-216,24,1,0,100,0,928,0,80,32,0,-246,-23,1,0,100,0,928,0,80,32,0,
0,12,-128,-60,0,0,100,0,800,40,40,40,0,-115,-27,0,0,100,0,320,40,40,40,0,-137,-1,0,0,100,0,480,40,40,40,0,-187,-2,1,0,100,0,640,40,40,40,0,-212,-43,1,0,100,0,160,40,40,40,0,-160,-32,0,0,100,0,0,0,40,40,0,-179,-16,0,0,100,0,928,0,80,32,0,-145,-38,0,0,100,0,928,0,80,32,0,-132,-5,0,0,100,0,928,0,80,32,0,-154,21,0,0,100,0,928,0,80,32,0,-210,20,1,0,100,0,928,0,80,32,0,-235,-21,1,0,100,0,928,0,80,32,0,
0,12,-133,-54,0,0,100,0,840,40,40,40,0,-120,-25,0,0,100,0,360,40,40,40,0,-138,-2,0,0,100,0,520,40,40,40,0,-184,-2,1,0,100,0,680,40,40,40,0,-204,-37,1,0,100,0,200,40,40,40,0,-160,-32,0,0,100,0,0,0,40,40,0,-179,-16,0,0,100,0,928,0,80,32,0,-152,-35,0,0,100,0,928,0,80,32,0,-139,-6,0,0,100,0,928,0,80,32,0,-157,17,0,0,100,0,928,0,80,32,0,-205,17,1,0,100,0,928,0,80,32,0,-225,-18,1,0,100,0,928,0,80,32,0,
0,12,-137,-49,0,0,100,0,800,0,40,40,0,-124,-24,0,0,100,0,320,0,40,40,0,-139,-3,0,0,100,0,480,0,40,40,0,-181,-3,1,0,100,0,640,0,40,40,0,-196,-32,1,0,100,0,160,0,40,40,0,-160,-32,0,0,100,0,0,0,40,40,0,-179,-16,0,0,100,0,928,0,80,32,0,-156,-33,0,0,100,0,928,0,80,32,0,-143,-8,0,0,100,0,928,0,80,32,0,-158,13,0,0,100,0,928,0,80,32,0,-202,13,1,0,100,0,928,0,80,32,0,-217,-16,1,0,100,0,928,0,80,32,0,
0,12,-137,-49,0,0,100,0,840,0,40,40,0,-124,-24,0,0,100,0,360,0,40,40,0,-139,-3,0,0,100,0,520,0,40,40,0,-181,-3,1,0,100,0,680,0,40,40,0,-196,-32,1,0,100,0,200,0,40,40,0,-160,-32,0,0,100,0,40,0,40,40,0,-179,-16,0,0,100,0,928,0,80,32,0,-156,-33,0,0,100,0,928,0,80,32,0,-143,-8,0,0,100,0,928,0,80,32,0,-158,13,0,0,100,0,928,0,80,32,0,-202,13,1,0,100,0,928,0,80,32,0,-217,-16,1,0,100,0,928,0,80,32,0,
0,12,-139,-55,0,0,100,0,800,40,40,40,0,-126,-30,0,0,100,0,320,40,40,40,0,-141,-9,0,0,100,0,480,40,40,40,0,-179,-9,1,0,100,0,640,40,40,40,0,-194,-38,1,0,100,0,160,40,40,40,0,-162,-38,0,0,100,0,0,40,40,40,0,-179,-16,0,0,100,0,928,0,80,32,0,-156,-33,0,0,100,0,928,0,80,32,0,-143,-8,0,0,100,0,928,0,80,32,0,-158,13,0,0,100,0,928,0,80,32,0,-202,13,1,0,100,0,928,0,80,32,0,-217,-16,1,0,100,0,928,0,80,32,0,
0,12,-137,-52,0,0,100,0,840,40,40,40,0,-139,-6,0,0,100,0,520,40,40,40,0,-124,-27,0,0,100,0,360,40,40,40,0,-181,-6,1,0,100,0,680,40,40,40,0,-196,-35,1,0,100,0,200,40,40,40,0,-160,-35,0,0,100,0,40,40,40,40,0,-179,-16,0,0,100,0,928,0,80,32,0,-156,-33,0,0,100,0,928,0,80,32,0,-143,-8,0,0,100,0,928,0,80,32,0,-158,13,0,0,100,0,928,0,80,32,0,-202,13,1,0,100,0,928,0,80,32,0,-217,-16,1,0,100,0,928,0,80,32,0,
0,12,-137,-49,0,0,100,0,800,0,40,40,0,-124,-24,0,0,100,0,320,0,40,40,0,-139,-3,0,0,100,0,480,0,40,40,0,-181,-3,1,0,100,0,640,0,40,40,0,-196,-32,1,0,100,0,160,0,40,40,0,-160,-32,0,0,100,0,0,0,40,40,0,-179,-16,0,0,100,0,928,0,80,32,0,-156,-33,0,0,100,0,928,0,80,32,0,-143,-8,0,0,100,0,928,0,80,32,0,-158,13,0,0,100,0,928,0,80,32,0,-202,13,1,0,100,0,928,0,80,32,0,-217,-16,1,0,100,0,928,0,80,32,0,
0,12,-137,-49,0,0,100,0,840,0,40,40,0,-124,-24,0,0,100,0,360,0,40,40,0,-139,-3,0,0,100,0,520,0,40,40,0,-181,-3,1,0,100,0,680,0,40,40,0,-196,-32,1,0,100,0,200,0,40,40,0,-160,-32,0,0,100,0,40,0,40,40,0,-179,-16,0,0,100,0,928,0,80,32,0,-156,-33,0,0,100,0,928,0,80,32,0,-143,-8,0,0,100,0,928,0,80,32,0,-158,13,0,0,100,0,928,0,80,32,0,-202,13,1,0,100,0,928,0,80,32,0,-217,-16,1,0,100,0,928,0,80,32,0,
0,12,-139,-55,0,0,100,0,800,40,40,40,0,-126,-30,0,0,100,0,320,40,40,40,0,-141,-9,0,0,100,0,480,40,40,40,0,-179,-9,1,0,100,0,640,40,40,40,0,-194,-38,1,0,100,0,160,40,40,40,0,-162,-38,0,0,100,0,0,40,40,40,0,-179,-16,0,0,100,0,928,0,80,32,0,-156,-33,0,0,100,0,928,0,80,32,0,-143,-8,0,0,100,0,928,0,80,32,0,-158,13,0,0,100,0,928,0,80,32,0,-202,13,1,0,100,0,928,0,80,32,0,-217,-16,1,0,100,0,928,0,80,32,0,
0,12,-137,-52,0,0,100,0,840,40,40,40,0,-124,-27,0,0,100,0,360,40,40,40,0,-139,-6,0,0,100,0,520,40,40,40,0,-181,-6,1,0,100,0,680,40,40,40,0,-196,-35,1,0,100,0,200,40,40,40,0,-160,-35,0,0,100,0,40,40,40,40,0,-179,-16,0,0,100,0,928,0,80,32,0,-156,-33,0,0,100,0,928,0,80,32,0,-143,-8,0,0,100,0,928,0,80,32,0,-158,13,0,0,100,0,928,0,80,32,0,-202,13,1,0,100,0,928,0,80,32,0,-217,-16,1,0,100,0,928,0,80,32,0,
0,12,-137,-49,0,0,100,0,800,0,40,40,0,-124,-24,0,0,100,0,320,0,40,40,0,-139,-3,0,0,100,0,480,0,40,40,0,-181,-3,1,0,100,0,640,0,40,40,0,-196,-32,1,0,100,0,160,0,40,40,0,-160,-32,0,0,100,0,0,0,40,40,0,-179,-16,0,0,100,0,928,0,80,32,0,-156,-33,0,0,100,0,928,0,80,32,0,-143,-8,0,0,100,0,928,0,80,32,0,-158,13,0,0,100,0,928,0,80,32,0,-202,13,1,0,100,0,928,0,80,32,0,-217,-16,1,0,100,0,928,0,80,32,0,
0,12,-137,-49,0,0,100,0,840,0,40,40,0,-124,-24,0,0,100,0,360,0,40,40,0,-139,-3,0,0,100,0,520,0,40,40,0,-181,-3,1,0,100,0,680,0,40,40,0,-196,-32,1,0,100,0,200,0,40,40,0,-160,-32,0,0,100,0,40,0,40,40,0,-179,-16,0,0,100,0,928,0,80,32,0,-156,-33,0,0,100,0,928,0,80,32,0,-143,-8,0,0,100,0,928,0,80,32,0,-158,13,0,0,100,0,928,0,80,32,0,-202,13,1,0,100,0,928,0,80,32,0,-217,-16,1,0,100,0,928,0,80,32,0,
0,12,-139,-55,0,0,100,0,800,40,40,40,0,-126,-30,0,0,100,0,320,40,40,40,0,-141,-9,0,0,100,0,480,40,40,40,0,-179,-9,1,0,100,0,640,40,40,40,0,-194,-38,1,0,100,0,160,40,40,40,0,-162,-38,0,0,100,0,0,40,40,40,0,-179,-16,0,0,100,0,928,0,80,32,0,-156,-33,0,0,100,0,928,0,80,32,0,-143,-8,0,0,100,0,928,0,80,32,0,-158,13,0,0,100,0,928,0,80,32,0,-202,13,1,0,100,0,928,0,80,32,0,-217,-16,1,0,100,0,928,0,80,32,0,
0,12,-137,-52,0,0,100,0,840,40,40,40,0,-124,-27,0,0,100,0,360,40,40,40,0,-139,-6,0,0,100,0,520,40,40,40,0,-181,-6,1,0,100,0,680,40,40,40,0,-196,-35,1,0,100,0,200,40,40,40,0,-160,-35,0,0,100,0,40,40,40,40,0,-179,-16,0,0,100,0,928,0,80,32,0,-156,-33,0,0,100,0,928,0,80,32,0,-143,-8,0,0,100,0,928,0,80,32,0,-158,13,0,0,100,0,928,0,80,32,0,-202,13,1,0,100,0,928,0,80,32,0,-217,-16,1,0,100,0,928,0,80,32,0,
0,12,-137,-49,0,0,100,0,800,0,40,40,0,-124,-24,0,0,100,0,320,0,40,40,0,-139,-3,0,0,100,0,480,0,40,40,0,-181,-3,1,0,100,0,640,0,40,40,0,-196,-32,1,0,100,0,160,0,40,40,0,-160,-32,0,0,100,0,0,0,40,40,0,-179,-16,0,0,100,0,928,0,80,32,0,-156,-33,0,0,100,0,928,0,80,32,0,-143,-8,0,0,100,0,928,0,80,32,0,-158,13,0,0,100,0,928,0,80,32,0,-202,13,1,0,100,0,928,0,80,32,0,-217,-16,1,0,100,0,928,0,80,32,0,
0,12,-137,-49,0,0,100,0,840,0,40,40,0,-124,-24,0,0,100,0,360,0,40,40,0,-139,-3,0,0,100,0,520,0,40,40,0,-181,-3,1,0,100,0,680,0,40,40,0,-196,-32,1,0,100,0,200,0,40,40,0,-160,-32,0,0,100,0,40,0,40,40,0,-179,-16,0,0,100,0,928,0,80,32,0,-156,-33,0,0,100,0,928,0,80,32,0,-143,-8,0,0,100,0,928,0,80,32,0,-158,13,0,0,100,0,928,0,80,32,0,-202,13,1,0,100,0,928,0,80,32,0,-217,-16,1,0,100,0,928,0,80,32,0,
0,14,-139,-55,0,0,100,0,800,40,40,40,0,-126,-30,0,0,100,0,320,40,40,40,0,-141,-9,0,0,100,0,480,40,40,40,0,-179,-9,1,0,100,0,640,40,40,40,0,-194,-38,1,0,100,0,160,40,40,40,0,-162,-38,0,0,100,0,0,40,40,40,0,-16,-89,0,0,100,0,720,736,360,176,0,-12,-169,0,0,100,0,720,560,360,176,0,-179,-16,0,0,100,0,928,0,80,32,0,-156,-33,0,0,100,0,928,0,80,32,0,-143,-8,0,0,100,0,928,0,80,32,0,-158,13,0,0,100,0,928,0,80,32,0,-202,13,1,0,100,0,928,0,80,32,0,-217,-16,1,0,100,0,928,0,80,32,0,
0,14,-137,-52,0,0,100,0,840,40,40,40,0,-124,-27,0,0,100,0,360,40,40,40,0,-139,-6,0,0,100,0,520,40,40,40,0,-181,-6,1,0,100,0,680,40,40,40,0,-196,-35,1,0,100,0,200,40,40,40,0,-160,-35,0,0,100,0,40,40,40,40,0,-26,-89,0,0,100,0,1080,736,360,176,0,-20,-169,0,0,100,0,1080,560,360,176,0,-179,-16,0,0,100,0,928,0,80,32,0,-156,-33,0,0,100,0,928,0,80,32,0,-143,-8,0,0,100,0,928,0,80,32,0,-158,13,0,0,100,0,928,0,80,32,0,-202,13,1,0,100,0,928,0,80,32,0,-217,-16,1,0,100,0,928,0,80,32,0,
0,14,-137,-49,0,0,100,0,800,0,40,40,0,-124,-24,0,0,100,0,320,0,40,40,0,-139,-3,0,0,100,0,480,0,40,40,0,-181,-3,1,0,100,0,640,0,40,40,0,-196,-32,1,0,100,0,160,0,40,40,0,-160,-32,0,0,100,0,0,0,40,40,0,-36,-89,0,0,100,0,0,736,360,176,0,-28,-169,0,0,100,0,0,560,360,176,0,-179,-16,0,0,100,0,928,0,80,32,0,-156,-33,0,0,100,0,928,0,80,32,0,-143,-8,0,0,100,0,928,0,80,32,0,-158,13,0,0,100,0,928,0,80,32,0,-202,13,1,0,100,0,928,0,80,32,0,-217,-16,1,0,100,0,928,0,80,32,0,
0,14,-137,-49,0,0,100,0,840,0,40,40,0,-124,-24,0,0,100,0,360,0,40,40,0,-139,-3,0,0,100,0,520,0,40,40,0,-181,-3,1,0,100,0,680,0,40,40,0,-196,-32,1,0,100,0,200,0,40,40,0,-160,-32,0,0,100,0,40,0,40,40,0,-46,-89,0,0,100,0,360,736,360,176,0,-36,-169,0,0,100,0,360,560,360,176,0,-179,-16,0,0,100,0,928,0,80,32,0,-156,-33,0,0,100,0,928,0,80,32,0,-143,-8,0,0,100,0,928,0,80,32,0,-158,13,0,0,100,0,928,0,80,32,0,-202,13,1,0,100,0,928,0,80,32,0,-217,-16,1,0,100,0,928,0,80,32,0,
0,14,-139,-55,0,0,100,0,800,40,40,40,0,-126,-30,0,0,100,0,320,40,40,40,0,-141,-9,0,0,100,0,480,40,40,40,0,-179,-9,1,0,100,0,640,40,40,40,0,-194,-38,1,0,100,0,160,40,40,40,0,-162,-38,0,0,100,0,0,40,40,40,0,-56,-89,0,0,100,0,720,736,360,176,0,-44,-169,0,0,100,0,720,560,360,176,0,-179,-16,0,0,100,0,928,0,80,32,0,-156,-33,0,0,100,0,928,0,80,32,0,-143,-8,0,0,100,0,928,0,80,32,0,-158,13,0,0,100,0,928,0,80,32,0,-202,13,1,0,100,0,928,0,80,32,0,-217,-16,1,0,100,0,928,0,80,32,0,
0,14,-137,-52,0,0,100,0,840,40,40,40,0,-124,-27,0,0,100,0,360,40,40,40,0,-139,-6,0,0,100,0,520,40,40,40,0,-181,-6,1,0,100,0,680,40,40,40,0,-196,-35,1,0,100,0,200,40,40,40,0,-160,-35,0,0,100,0,40,40,40,40,0,-66,-89,0,0,100,0,1080,736,360,176,0,-52,-169,0,0,100,0,1080,560,360,176,0,-179,-16,0,0,100,0,928,0,80,32,0,-156,-33,0,0,100,0,928,0,80,32,0,-143,-8,0,0,100,0,928,0,80,32,0,-158,13,0,0,100,0,928,0,80,32,0,-202,13,1,0,100,0,928,0,80,32,0,-217,-16,1,0,100,0,928,0,80,32,0,
0,14,-137,-49,0,0,100,0,800,0,40,40,0,-124,-24,0,0,100,0,320,0,40,40,0,-139,-3,0,0,100,0,480,0,40,40,0,-181,-3,1,0,100,0,640,0,40,40,0,-196,-32,1,0,100,0,160,0,40,40,0,-160,-32,0,0,100,0,0,0,40,40,0,-76,-89,0,0,100,0,0,736,360,176,0,-60,-169,0,0,100,0,0,560,360,176,0,-179,-16,0,0,100,0,928,0,80,32,0,-156,-33,0,0,100,0,928,0,80,32,0,-143,-8,0,0,100,0,928,0,80,32,0,-158,13,0,0,100,0,928,0,80,32,0,-202,13,1,0,100,0,928,0,80,32,0,-217,-16,1,0,100,0,928,0,80,32,0,
0,14,-137,-49,0,0,100,0,840,0,40,40,0,-124,-24,0,0,100,0,360,0,40,40,0,-139,-3,0,0,100,0,520,0,40,40,0,-181,-3,1,0,100,0,680,0,40,40,0,-196,-32,1,0,100,0,200,0,40,40,0,-160,-32,0,0,100,0,40,0,40,40,0,-86,-89,0,0,100,0,360,736,360,176,0,-68,-169,0,0,100,0,360,560,360,176,0,-179,-16,0,0,100,0,928,0,80,32,0,-156,-33,0,0,100,0,928,0,80,32,0,-143,-8,0,0,100,0,928,0,80,32,0,-158,13,0,0,100,0,928,0,80,32,0,-202,13,1,0,100,0,928,0,80,32,0,-217,-16,1,0,100,0,928,0,80,32,0,
0,14,-136,-30,0,0,100,0,320,40,40,40,0,-150,-9,0,0,100,0,480,40,40,40,0,-188,-9,0,0,100,0,640,40,40,40,0,-203,-38,0,0,100,0,160,40,40,40,0,-167,-38,0,0,100,0,0,40,40,40,0,-149,-55,0,0,100,0,800,40,40,40,0,-96,-89,0,0,100,0,720,736,360,176,0,-76,-169,0,0,100,0,720,560,360,176,0,-184,-16,0,0,100,0,928,0,80,32,0,-166,-33,0,0,100,0,928,0,80,32,0,-153,-8,0,0,100,0,928,0,80,32,0,-167,13,0,0,100,0,928,0,80,32,0,-205,13,0,0,100,0,928,0,80,32,0,-220,-16,0,0,100,0,928,0,80,32,0,
0,14,-143,-27,0,0,100,0,360,40,40,40,0,-157,-6,0,0,100,0,520,40,40,40,0,-195,-6,0,0,100,0,680,40,40,40,0,-210,-35,0,0,100,0,200,40,40,40,0,-174,-35,0,0,100,0,40,40,40,40,0,-156,-52,0,0,100,0,840,40,40,40,0,-106,-89,0,0,100,0,1080,736,360,176,0,-84,-169,0,0,100,0,1080,560,360,176,0,-193,-16,0,0,100,0,928,0,80,32,0,-175,-33,0,0,100,0,928,0,80,32,0,-162,-8,0,0,100,0,928,0,80,32,0,-176,13,0,0,100,0,928,0,80,32,0,-214,13,0,0,100,0,928,0,80,32,0,-229,-16,0,0,100,0,928,0,80,32,0,
0,14,-149,-24,0,0,100,0,320,0,40,40,0,-163,-3,0,0,100,0,480,0,40,40,0,-201,-3,0,0,100,0,640,0,40,40,0,-216,-32,0,0,100,0,160,0,40,40,0,-180,-32,0,0,100,0,0,0,40,40,0,-162,-49,0,0,100,0,800,0,40,40,0,-116,-89,0,0,100,0,0,736,360,176,0,-92,-169,0,0,100,0,0,560,360,176,0,-199,-16,0,0,100,0,928,0,80,32,0,-181,-33,0,0,100,0,928,0,80,32,0,-168,-8,0,0,100,0,928,0,80,32,0,-182,13,0,0,100,0,928,0,80,32,0,-220,13,0,0,100,0,928,0,80,32,0,-235,-16,0,0,100,0,928,0,80,32,0,
0,14,-149,-24,0,0,100,0,360,0,40,40,0,-163,-3,0,0,100,0,520,0,40,40,0,-201,-3,0,0,100,0,680,0,40,40,0,-216,-32,0,0,100,0,200,0,40,40,0,-180,-32,0,0,100,0,40,0,40,40,0,-162,-49,0,0,100,0,840,0,40,40,0,-126,-89,0,0,100,0,360,736,360,176,0,-100,-169,0,0,100,0,360,560,360,176,0,-199,-16,0,0,100,0,928,0,80,32,0,-181,-33,0,0,100,0,928,0,80,32,0,-168,-8,0,0,100,0,928,0,80,32,0,-182,13,0,0,100,0,928,0,80,32,0,-220,13,0,0,100,0,928,0,80,32,0,-235,-16,0,0,100,0,928,0,80,32,0,
0,14,-160,-30,0,0,100,0,320,40,40,40,0,-174,-9,0,0,100,0,480,40,40,40,0,-212,-9,0,0,100,0,640,40,40,40,0,-228,-38,0,0,100,0,160,40,40,40,0,-191,-38,0,0,100,0,0,40,40,40,0,-173,-55,0,0,100,0,800,40,40,40,0,-136,-89,0,0,100,0,720,736,360,176,0,-108,-169,0,0,100,0,720,560,360,176,0,-208,-16,0,0,100,0,928,0,80,32,0,-190,-33,0,0,100,0,928,0,80,32,0,-177,-8,0,0,100,0,928,0,80,32,0,-191,13,0,0,100,0,928,0,80,32,0,-229,13,0,0,100,0,928,0,80,32,0,-245,-16,0,0,100,0,928,0,80,32,0,
0,16,-168,-27,0,0,100,0,360,40,40,40,0,-182,-6,0,0,100,0,520,40,40,40,0,-220,-6,0,0,100,0,680,40,40,40,0,-235,-35,0,0,100,0,200,40,40,40,0,-199,-35,0,0,100,0,40,40,40,40,0,-181,-52,0,0,100,0,840,40,40,40,0,-706,-70,1,0,100,0,360,736,360,176,0,-708,-150,1,0,100,0,360,560,360,176,0,-146,-89,0,0,100,0,1080,736,360,176,0,-116,-169,0,0,100,0,1080,560,360,176,0,-218,-16,0,0,100,0,928,0,80,32,0,-200,-33,0,0,100,0,928,0,80,32,0,-187,-8,0,0,100,0,928,0,80,32,0,-201,13,0,0,100,0,928,0,80,32,0,-239,13,0,0,100,0,928,0,80,32,0,-254,-16,0,0,100,0,928,0,80,32,0,
0,16,-174,-24,0,0,100,0,320,0,40,40,0,-188,-3,0,0,100,0,480,0,40,40,0,-226,-3,0,0,100,0,640,0,40,40,0,-241,-32,0,0,100,0,160,0,40,40,0,-205,-32,0,0,100,0,0,0,40,40,0,-187,-49,0,0,100,0,800,0,40,40,0,-696,-70,1,0,100,0,720,736,360,176,0,-700,-150,1,0,100,0,720,560,360,176,0,-156,-89,0,0,100,0,0,736,360,176,0,-124,-169,0,0,100,0,0,560,360,176,0,-224,-16,0,0,100,0,928,0,80,32,0,-206,-33,0,0,100,0,928,0,80,32,0,-193,-8,0,0,100,0,928,0,80,32,0,-207,13,0,0,100,0,928,0,80,32,0,-245,13,0,0,100,0,928,0,80,32,0,-260,-16,0,0,100,0,928,0,80,32,0,
0,16,-177,-48,0,0,100,0,360,120,40,40,0,-188,-3,0,0,100,0,520,0,40,40,0,-226,-3,0,0,100,0,680,0,40,40,0,-241,-32,0,0,100,0,200,0,40,40,0,-205,-32,0,0,100,0,40,0,40,40,0,-187,-49,0,0,100,0,840,0,40,40,0,-686,-70,1,0,100,0,1080,736,360,176,0,-692,-150,1,0,100,0,1080,560,360,176,0,-166,-89,0,0,100,0,360,736,360,176,0,-132,-169,0,0,100,0,360,560,360,176,0,-224,-16,0,0,100,0,928,0,80,32,0,-206,-33,0,0,100,0,928,0,80,32,0,-193,-8,0,0,50,0,928,0,80,32,0,-207,13,0,0,100,0,928,0,80,32,0,-245,13,0,0,100,0,928,0,80,32,0,-260,-16,0,0,100,0,928,0,80,32,0,
0,15,-177,-53,0,0,100,0,400,120,40,40,0,-199,-55,0,0,100,0,800,40,40,40,0,-200,-9,0,0,100,0,480,40,40,40,0,-238,-9,0,0,100,0,640,40,40,40,0,-253,-38,0,0,100,0,160,40,40,40,0,-217,-38,0,0,100,0,0,40,40,40,0,-676,-70,1,0,100,0,0,736,360,176,0,-684,-150,1,0,100,0,0,560,360,176,0,-176,-89,0,0,100,0,720,736,360,176,0,-140,-169,0,0,100,0,720,560,360,176,0,-234,-16,0,0,100,0,928,0,80,32,0,-216,-33,0,0,100,0,928,0,80,32,0,-217,13,0,0,100,0,928,0,80,32,0,-255,13,0,0,100,0,928,0,80,32,0,-270,-16,0,0,100,0,928,0,80,32,0,
0,15,-177,-58,0,0,100,0,440,120,40,40,0,-207,-6,0,0,100,0,520,40,40,40,0,-245,-6,0,0,100,0,680,40,40,40,0,-261,-35,0,0,100,0,200,40,40,40,0,-224,-35,0,0,100,0,40,40,40,40,0,-206,-52,0,0,100,0,840,40,40,40,0,-666,-70,1,0,100,0,360,736,360,176,0,-676,-150,1,0,100,0,360,560,360,176,0,-186,-89,0,0,100,0,1080,736,360,176,0,-148,-169,0,0,100,0,1080,560,360,176,0,-243,-16,0,0,100,0,928,0,80,32,0,-225,-33,0,0,100,0,928,0,80,32,0,-226,13,0,0,100,0,928,0,80,32,0,-264,13,0,0,100,0,928,0,80,32,0,-280,-16,0,0,100,0,928,0,80,32,0,
0,15,-177,-58,0,0,100,0,320,160,40,40,0,-213,-49,0,0,100,0,800,0,40,40,0,-214,-3,0,0,100,0,480,0,40,40,0,-252,-3,0,0,100,0,640,0,40,40,0,-267,-32,0,0,100,0,160,0,40,40,0,-231,-32,0,0,100,0,0,0,40,40,0,-656,-70,1,0,100,0,720,736,360,176,0,-668,-150,1,0,100,0,720,560,360,176,0,-196,-89,0,0,100,0,0,736,360,176,0,-156,-169,0,0,100,0,0,560,360,176,0,-250,-16,0,0,100,0,928,0,80,32,0,-232,-33,0,0,100,0,928,0,80,32,0,-233,13,0,0,100,0,928,0,80,32,0,-271,13,0,0,100,0,928,0,80,32,0,-286,-16,0,0,100,0,928,0,80,32,0,
0,15,-177,-53,0,0,100,0,360,160,40,40,0,-213,-49,0,0,100,0,840,0,40,40,0,-214,-3,0,0,100,0,520,0,40,40,0,-252,-3,0,0,100,0,680,0,40,40,0,-267,-32,0,0,100,0,200,0,40,40,0,-231,-32,0,0,100,0,40,0,40,40,0,-646,-70,1,0,100,0,1080,736,360,176,0,-660,-150,1,0,100,0,1080,560,360,176,0,-206,-89,0,0,100,0,360,736,360,176,0,-164,-169,0,0,100,0,360,560,360,176,0,-250,-16,0,0,100,0,928,0,80,32,0,-232,-33,0,0,100,0,928,0,80,32,0,-233,13,0,0,100,0,928,0,80,32,0,-271,13,0,0,100,0,928,0,80,32,0,-286,-16,0,0,100,0,928,0,80,32,0,
0,15,-177,-48,0,0,100,0,400,160,40,40,0,-226,-9,0,0,100,0,480,40,40,40,0,-264,-9,0,0,100,0,640,40,40,40,0,-279,-38,0,0,100,0,160,40,40,40,0,-243,-38,0,0,100,0,0,40,40,40,0,-225,-55,0,0,100,0,800,40,40,40,0,-636,-70,1,0,100,0,0,736,360,176,0,-652,-150,1,0,100,0,0,560,360,176,0,-216,-89,0,0,100,0,720,736,360,176,0,-172,-169,0,0,100,0,720,560,360,176,0,-260,-16,0,0,100,0,928,0,80,32,0,-242,-33,0,0,100,0,928,0,80,32,0,-243,13,0,0,100,0,928,0,80,32,0,-281,13,0,0,100,0,928,0,80,32,0,-296,-16,0,0,100,0,928,0,80,32,0,
0,15,-177,-43,0,0,100,0,440,160,40,40,0,-234,-6,0,0,100,0,520,40,40,40,0,-272,-6,0,0,100,0,680,40,40,40,0,-288,-35,0,0,100,0,200,40,40,40,0,-251,-35,0,0,100,0,40,40,40,40,0,-233,-52,0,0,100,0,840,40,40,40,0,-626,-70,1,0,100,0,360,736,360,176,0,-644,-150,1,0,100,0,360,560,360,176,0,-226,-89,0,0,100,0,1080,736,360,176,0,-180,-169,0,0,100,0,1080,560,360,176,0,-270,-16,0,0,100,0,928,0,80,32,0,-252,-33,0,0,100,0,928,0,80,32,0,-253,13,0,0,100,0,928,0,80,32,0,-291,13,0,0,100,0,928,0,80,32,0,-307,-16,0,0,100,0,928,0,80,32,0,
0,15,-177,-38,0,0,100,0,400,40,40,40,0,-240,-49,0,0,100,0,800,0,40,40,0,-241,-3,0,0,100,0,480,0,40,40,0,-279,-3,0,0,100,0,640,0,40,40,0,-294,-32,0,0,100,0,160,0,40,40,0,-258,-32,0,0,100,0,0,0,40,40,0,-616,-70,1,0,100,0,720,736,360,176,0,-636,-150,1,0,100,0,720,560,360,176,0,-236,-89,0,0,100,0,0,736,360,176,0,-188,-169,0,0,100,0,0,560,360,176,0,-277,-16,0,0,100,0,928,0,80,32,0,-259,-33,0,0,100,0,928,0,80,32,0,-260,13,0,0,100,0,928,0,80,32,0,-298,13,0,0,100,0,928,0,80,32,0,-313,-16,0,0,100,0,928,0,80,32,0,
0,15,-177,-38,0,0,100,0,360,0,40,40,0,-238,-58,0,0,100,0,840,120,40,40,0,-239,-9,0,0,100,0,480,120,40,40,0,-279,-3,0,0,100,0,680,0,40,40,0,-299,-41,0,0,100,0,160,120,40,40,0,-258,-32,0,0,100,0,40,0,40,40,0,-606,-70,1,0,100,0,1080,736,360,176,0,-628,-150,1,0,100,0,1080,560,360,176,0,-246,-89,0,0,100,0,360,736,360,176,0,-196,-169,0,0,100,0,360,560,360,176,0,-277,-16,0,0,100,0,928,0,80,32,0,-259,-33,0,0,50,0,928,0,80,32,0,-260,13,0,0,50,0,928,0,80,32,0,-298,13,0,0,100,0,928,0,80,32,0,-313,-16,0,0,50,0,928,0,80,32,0,
0,11,-238,-63,0,0,100,0,880,120,40,40,0,-239,-14,0,0,100,0,520,120,40,40,0,-280,-9,0,0,100,0,640,120,40,40,0,-299,-36,0,0,100,0,200,120,40,40,0,-259,-39,0,0,100,0,0,120,40,40,0,-596,-70,1,0,100,0,0,736,360,176,0,-620,-150,1,0,100,0,0,560,360,176,0,-256,-89,0,0,100,0,720,736,360,176,0,-204,-169,0,0,100,0,720,560,360,176,0,-277,-16,0,0,50,0,928,0,80,32,0,-298,13,0,0,50,0,928,0,80,32,0,
0,9,-238,-68,0,0,100,0,920,120,40,40,0,-239,-19,0,0,100,0,560,120,40,40,0,-283,-7,0,0,100,0,680,120,40,40,0,-299,-41,0,0,100,0,240,120,40,40,0,-255,-40,0,0,100,0,40,120,40,40,0,-586,-70,1,0,100,0,360,736,360,176,0,-612,-150,1,0,100,0,360,560,360,176,0,-266,-89,0,0,100,0,1080,736,360,176,0,-212,-169,0,0,100,0,1080,560,360,176,0,
0,9,-255,-45,0,0,100,0,80,120,40,40,0,-238,-68,0,0,100,0,800,160,40,40,0,-239,-24,0,0,100,0,600,120,40,40,0,-283,-12,0,0,100,0,720,120,40,40,0,-299,-46,0,0,100,0,280,120,40,40,0,-576,-70,1,0,100,0,720,736,360,176,0,-604,-150,1,0,100,0,720,560,360,176,0,-276,-89,0,0,100,0,0,736,360,176,0,-220,-169,0,0,100,0,0,560,360,176,0,
0,9,-255,-50,0,0,100,0,120,120,40,40,0,-238,-63,0,0,100,0,840,160,40,40,0,-239,-24,0,0,100,0,480,160,40,40,0,-283,-17,0,0,100,0,760,120,40,40,0,-299,-46,0,0,100,0,160,160,40,40,0,-566,-70,1,0,100,0,1080,736,360,176,0,-596,-150,1,0,100,0,1080,560,360,176,0,-286,-89,0,0,100,0,360,736,360,176,0,-228,-169,0,0,100,0,360,560,360,176,0,
0,9,-255,-50,0,0,100,0,0,160,40,40,0,-238,-58,0,0,100,0,880,160,40,40,0,-239,-19,0,0,100,0,520,160,40,40,0,-283,-17,0,0,100,0,640,160,40,40,0,-299,-41,0,0,100,0,200,160,40,40,0,-556,-70,1,0,100,0,0,736,360,176,0,-588,-150,1,0,100,0,0,560,360,176,0,-296,-89,0,0,100,0,720,736,360,176,0,-236,-169,0,0,100,0,720,560,360,176,0,
0,9,-255,-45,0,0,100,0,40,160,40,40,0,-238,-53,0,0,100,0,920,160,40,40,0,-239,-14,0,0,100,0,560,160,40,40,0,-283,-12,0,0,100,0,680,160,40,40,0,-299,-36,0,0,100,0,240,160,40,40,0,-546,-70,1,0,100,0,360,736,360,176,0,-580,-150,1,0,100,0,360,560,360,176,0,-306,-89,0,0,100,0,1080,736,360,176,0,-244,-169,0,0,100,0,1080,560,360,176,0,
0,9,-255,-40,0,0,100,0,80,160,40,40,0,-238,-48,0,0,100,0,880,40,40,40,0,-239,-9,0,0,100,0,600,160,40,40,0,-283,-7,0,0,100,0,720,160,40,40,0,-299,-31,0,0,100,0,280,160,40,40,0,-536,-70,1,0,100,0,720,736,360,176,0,-572,-150,1,0,100,0,720,560,360,176,0,-316,-89,0,0,100,0,0,736,360,176,0,-252,-169,0,0,100,0,0,560,360,176,0,
0,9,-255,-35,0,0,100,0,120,160,40,40,0,-238,-48,0,0,100,0,840,0,40,40,0,-239,-4,0,0,100,0,560,40,40,40,0,-283,-2,0,0,100,0,760,160,40,40,0,-299,-26,0,0,100,0,240,40,40,40,0,-526,-70,1,0,100,0,1080,736,360,176,0,-564,-150,1,0,100,0,1080,560,360,176,0,-326,-89,0,0,100,0,360,736,360,176,0,-260,-169,0,0,100,0,360,560,360,176,0,
0,8,-255,-30,0,0,100,0,80,40,40,40,0,-239,-4,0,0,100,0,520,0,40,40,0,-283,3,0,0,100,0,720,40,40,40,0,-299,-26,0,0,100,0,200,0,40,40,0,-516,-70,1,0,100,0,0,736,360,176,0,-556,-150,1,0,100,0,0,560,360,176,0,-336,-89,0,0,100,0,720,736,360,176,0,-268,-169,0,0,100,0,720,560,360,176,0,
0,7,-255,-30,0,0,100,0,40,0,40,40,0,-283,3,0,0,100,0,680,0,40,40,0,-506,-70,1,0,100,0,360,736,360,176,0,-548,-150,1,0,100,0,360,560,360,176,0,-16,-89,0,0,100,0,720,736,360,176,0,-346,-89,0,0,100,0,1080,736,360,176,0,-276,-169,0,0,100,0,1080,560,360,176,0,
0,5,-496,-70,1,0,100,0,720,736,360,176,0,-540,-150,1,0,100,0,720,560,360,176,0,-26,-89,0,0,100,0,1080,736,360,176,0,-356,-89,0,0,100,0,0,736,360,176,0,-284,-169,0,0,100,0,0,560,360,176,0,
0,5,-486,-70,1,0,100,0,1080,736,360,176,0,-532,-150,1,0,100,0,1080,560,360,176,0,-36,-89,0,0,100,0,0,736,360,176,0,-366,-89,0,0,100,0,360,736,360,176,0,-292,-169,0,0,100,0,360,560,360,176,0,
0,5,-476,-70,1,0,100,0,0,736,360,176,0,-524,-150,1,0,100,0,0,560,360,176,0,-46,-89,0,0,100,0,360,736,360,176,0,-376,-89,0,0,100,0,720,736,360,176,0,-300,-169,0,0,100,0,720,560,360,176,0,
0,5,-466,-70,1,0,100,0,360,736,360,176,0,-516,-150,1,0,100,0,360,560,360,176,0,-56,-89,0,0,100,0,720,736,360,176,0,-386,-89,0,0,100,0,1080,736,360,176,0,-308,-169,0,0,100,0,1080,560,360,176,0,
0,5,-456,-70,1,0,100,0,720,736,360,176,0,-508,-150,1,0,100,0,720,560,360,176,0,-66,-89,0,0,100,0,1080,736,360,176,0,-396,-89,0,0,100,0,0,736,360,176,0,-316,-169,0,0,100,0,0,560,360,176,0,
0,5,-446,-70,1,0,100,0,1080,736,360,176,0,-500,-150,1,0,100,0,1080,560,360,176,0,-76,-89,0,0,100,0,0,736,360,176,0,-406,-89,0,0,100,0,360,736,360,176,0,-324,-169,0,0,100,0,360,560,360,176,0,
0,5,-436,-70,1,0,100,0,0,736,360,176,0,-492,-150,1,0,100,0,0,560,360,176,0,-86,-89,0,0,100,0,360,736,360,176,0,-416,-89,0,0,100,0,720,736,360,176,0,-332,-169,0,0,100,0,720,560,360,176,0,
0,6,-426,-70,1,0,100,0,360,736,360,176,0,-484,-150,1,0,100,0,360,560,360,176,0,-96,-89,0,0,100,0,720,736,360,176,0,-12,-169,0,0,100,0,720,560,360,176,0,-426,-89,0,0,100,0,1080,736,360,176,0,-340,-169,0,0,100,0,1080,560,360,176,0,
0,6,-416,-70,1,0,100,0,720,736,360,176,0,-476,-150,1,0,100,0,720,560,360,176,0,-106,-89,0,0,100,0,1080,736,360,176,0,-20,-169,0,0,100,0,1080,560,360,176,0,-436,-89,0,0,100,0,0,736,360,176,0,-348,-169,0,0,100,0,0,560,360,176,0,
0,6,-406,-70,1,0,100,0,1080,736,360,176,0,-468,-150,1,0,100,0,1080,560,360,176,0,-116,-89,0,0,100,0,0,736,360,176,0,-28,-169,0,0,100,0,0,560,360,176,0,-446,-89,0,0,100,0,360,736,360,176,0,-356,-169,0,0,100,0,360,560,360,176,0,
0,6,-396,-70,1,0,100,0,0,736,360,176,0,-460,-150,1,0,100,0,0,560,360,176,0,-36,-169,0,0,100,0,360,560,360,176,0,-126,-89,0,0,100,0,360,736,360,176,0,-456,-89,0,0,100,0,720,736,360,176,0,-364,-169,0,0,100,0,720,560,360,176,0,
0,6,-386,-70,1,0,100,0,360,736,360,176,0,-452,-150,1,0,100,0,360,560,360,176,0,-136,-89,0,0,100,0,720,736,360,176,0,-44,-169,0,0,100,0,720,560,360,176,0,-466,-89,0,0,100,0,1080,736,360,176,0,-372,-169,0,0,100,0,1080,560,360,176,0,
0,7,-706,-70,1,0,100,0,360,736,360,176,0,-376,-70,1,0,100,0,720,736,360,176,0,-444,-150,1,0,100,0,720,560,360,176,0,-146,-89,0,0,100,0,1080,736,360,176,0,-52,-169,0,0,100,0,1080,560,360,176,0,-476,-89,0,0,100,0,0,736,360,176,0,-380,-169,0,0,100,0,0,560,360,176,0,
0,7,-696,-70,1,0,100,0,720,736,360,176,0,-366,-70,1,0,100,0,1080,736,360,176,0,-436,-150,1,0,100,0,1080,560,360,176,0,-134,-89,0,0,100,0,0,736,360,176,0,-60,-169,0,0,100,0,0,560,360,176,0,-486,-89,0,0,100,0,360,736,360,176,0,-388,-169,0,0,100,0,360,560,360,176,0,
0,7,-686,-70,1,0,100,0,1080,736,360,176,0,-356,-70,1,0,100,0,0,736,360,176,0,-428,-150,1,0,100,0,0,560,360,176,0,-166,-89,0,0,100,0,360,736,360,176,0,-68,-169,0,0,100,0,360,560,360,176,0,-496,-89,0,0,100,0,720,736,360,176,0,-396,-169,0,0,100,0,720,560,360,176,0,
0,9,-236,-330,0,0,100,0,1008,0,80,80,0,-359,-476,0,0,100,0,0,200,360,360,0,-676,-70,1,0,100,0,0,736,360,176,0,-346,-70,1,0,100,0,360,736,360,176,0,-420,-150,1,0,100,0,360,560,360,176,0,-176,-89,0,0,100,0,720,736,360,176,0,-76,-169,0,0,100,0,720,560,360,176,0,-506,-89,0,0,100,0,1080,736,360,176,0,-404,-169,0,0,100,0,1080,560,360,176,0,
0,11,-184,-327,0,0,100,0,1008,80,96,80,0,-236,-314,0,0,100,0,1088,0,80,80,0,-272,-348,0,0,100,0,1600,80,208,96,0,-359,-461,0,0,100,0,0,200,360,360,0,-666,-70,1,0,100,0,360,736,360,176,0,-336,-70,1,0,100,0,720,736,360,176,0,-412,-150,1,0,100,0,720,560,360,176,0,-186,-89,0,0,100,0,1080,736,360,176,0,-84,-169,0,0,100,0,1080,560,360,176,0,-516,-89,0,0,100,0,0,736,360,176,0,-412,-169,0,0,100,0,0,560,360,176,0,
0,11,-184,-307,0,0,100,0,1104,80,96,80,0,-236,-298,0,0,100,0,1088,0,80,80,0,-272,-335,0,0,100,0,1600,80,208,96,0,-359,-446,0,0,100,0,360,200,360,360,0,-656,-70,1,0,100,0,720,736,360,176,0,-326,-70,1,0,100,0,1080,736,360,176,0,-404,-150,1,0,100,0,1080,560,360,176,0,-196,-89,0,0,100,0,0,736,360,176,0,-92,-169,0,0,100,0,0,560,360,176,0,-526,-89,0,0,100,0,360,736,360,176,0,-420,-169,0,0,100,0,360,560,360,176,0,
0,11,-184,-286,0,0,100,0,1104,80,96,80,0,-236,-281,0,0,100,0,1168,0,80,80,0,-272,-323,0,0,100,0,1440,176,208,96,0,-359,-431,0,0,100,0,360,200,360,360,0,-646,-70,1,0,100,0,1080,736,360,176,0,-316,-70,1,0,100,0,0,736,360,176,0,-396,-150,1,0,100,0,0,560,360,176,0,-206,-89,0,0,100,0,360,736,360,176,0,-100,-169,0,0,100,0,360,560,360,176,0,-536,-89,0,0,100,0,720,736,360,176,0,-428,-169,0,0,100,0,720,560,360,176,0,
0,11,-184,-266,0,0,100,0,1200,80,96,80,0,-236,-265,0,0,100,0,1168,0,80,80,0,-272,-311,0,0,100,0,1440,176,208,96,0,-359,-416,0,0,100,0,720,200,360,360,0,-636,-70,1,0,100,0,0,736,360,176,0,-306,-70,1,0,100,0,360,736,360,176,0,-388,-150,1,0,100,0,360,560,360,176,0,-216,-89,0,0,100,0,720,736,360,176,0,-108,-169,0,0,100,0,720,560,360,176,0,-546,-89,0,0,100,0,1080,736,360,176,0,-436,-169,0,0,100,0,1080,560,360,176,0,
0,14,-153,-335,0,0,100,0,1008,0,80,80,0,-184,-246,0,0,100,0,1200,80,96,80,0,-236,-248,0,0,100,0,1248,0,80,80,0,-254,-333,0,0,100,0,1440,176,208,96,0,-272,-299,0,0,100,0,1648,176,208,96,0,-359,-400,0,0,100,0,720,200,360,360,0,-626,-70,1,0,100,0,360,736,360,176,0,-708,-150,1,0,100,0,360,560,360,176,0,-296,-70,1,0,100,0,720,736,360,176,0,-380,-150,1,0,100,0,720,560,360,176,0,-226,-89,0,0,100,0,1080,736,360,176,0,-116,-169,0,0,100,0,1080,560,360,176,0,-556,-89,0,0,100,0,0,736,360,176,0,-444,-169,0,0,100,0,0,560,360,176,0,
0,14,-153,-319,0,0,100,0,1088,0,80,80,0,-184,-226,0,0,100,0,1296,80,96,80,0,-236,-232,0,0,100,0,1248,0,80,80,0,-254,-324,0,0,100,0,1440,176,208,96,0,-272,-286,0,0,100,0,1648,176,208,96,0,-359,-385,0,0,100,0,1080,200,360,360,0,-700,-150,1,0,100,0,720,560,360,176,0,-616,-70,1,0,100,0,720,736,360,176,0,-286,-70,1,0,100,0,1080,736,360,176,0,-372,-150,1,0,100,0,1080,560,360,176,0,-236,-89,0,0,100,0,0,736,360,176,0,-124,-169,0,0,100,0,0,560,360,176,0,-566,-89,0,0,100,0,360,736,360,176,0,-452,-169,0,0,100,0,360,560,360,176,0,
0,16,-291,-319,0,0,100,0,1424,0,96,80,0,-153,-302,0,0,100,0,1088,0,80,80,0,-184,-206,0,0,100,0,1296,80,96,80,0,-236,-216,0,0,100,0,1008,0,80,80,0,-254,-315,0,0,100,0,1648,176,208,96,0,-272,-274,0,0,100,0,1392,80,208,96,0,-332,-325,0,0,100,0,1600,80,208,96,0,-359,-370,0,0,100,0,1080,200,360,360,0,-606,-70,1,0,100,0,1080,736,360,176,0,-692,-150,1,0,100,0,1080,560,360,176,0,-276,-70,1,0,100,0,0,736,360,176,0,-364,-150,1,0,100,0,0,560,360,176,0,-246,-89,0,0,100,0,360,736,360,176,0,-132,-169,0,0,100,0,360,560,360,176,0,-576,-89,0,0,100,0,720,736,360,176,0,-460,-169,0,0,100,0,720,560,360,176,0,
0,16,-291,-303,0,0,100,0,1424,0,96,80,0,-153,-286,0,0,100,0,1168,0,80,80,0,-184,-185,0,0,100,0,1008,80,96,80,0,-236,-199,0,0,100,0,1008,0,80,80,0,-254,-306,0,0,100,0,1648,176,208,96,0,-272,-262,0,0,100,0,1392,80,208,96,0,-332,-309,0,0,100,0,1440,176,208,96,0,-359,-355,0,0,100,0,0,200,360,360,0,-596,-70,1,0,100,0,0,736,360,176,0,-684,-149,1,0,100,0,0,560,360,176,0,-266,-70,1,0,100,0,360,736,360,176,0,-356,-150,1,0,100,0,360,560,360,176,0,-256,-89,0,0,100,0,720,736,360,176,0,-140,-169,0,0,100,0,720,560,360,176,0,-586,-89,0,0,100,0,1080,736,360,176,0,-468,-169,0,0,100,0,1080,560,360,176,0,
0,16,-291,-287,0,0,100,0,1520,0,96,80,0,-153,-270,0,0,100,0,1168,0,80,80,0,-184,-165,0,0,100,0,1008,80,96,80,0,-236,-183,0,0,100,0,1088,0,80,80,0,-254,-297,0,0,100,0,1392,80,208,96,0,-272,-250,0,0,100,0,1600,80,208,96,0,-332,-294,0,0,100,0,1440,176,208,96,0,-359,-340,0,0,100,0,0,200,360,360,0,-586,-70,1,0,100,0,360,736,360,176,0,-676,-150,1,0,100,0,360,560,360,176,0,-256,-70,1,0,100,0,720,736,360,176,0,-348,-150,1,0,100,0,720,560,360,176,0,-266,-89,0,0,100,0,1080,736,360,176,0,-148,-169,0,0,100,0,1080,560,360,176,0,-596,-89,0,0,100,0,0,736,360,176,0,-476,-169,0,0,100,0,0,560,360,176,0,
0,18,-241,-328,0,0,100,0,1328,0,96,80,0,-291,-270,0,0,100,0,1520,0,96,80,0,-201,-323,0,0,100,0,1008,80,96,80,0,-153,-254,0,0,100,0,1248,0,80,80,0,-184,-145,0,0,100,0,1104,80,96,80,0,-236,-166,0,0,100,0,1088,0,80,80,0,-254,-288,0,0,100,0,1392,80,208,96,0,-272,-238,0,0,100,0,1600,80,208,96,0,-332,-278,0,0,100,0,1648,176,208,96,0,-359,-325,0,0,100,0,360,200,360,360,0,-668,-150,1,0,100,0,720,560,360,176,0,-576,-70,1,0,100,0,720,736,360,176,0,-246,-70,1,0,100,0,1080,736,360,176,0,-340,-150,1,0,100,0,1080,560,360,176,0,-276,-89,0,0,100,0,0,736,360,176,0,-156,-169,0,0,100,0,0,560,360,176,0,-606,-89,0,0,100,0,360,736,360,176,0,-484,-169,0,0,100,0,360,560,360,176,0,
0,19,-241,-305,0,0,100,0,1424,0,96,80,0,-291,-254,0,0,100,0,1616,0,96,80,0,-253,-324,0,0,100,0,1008,0,80,80,0,-201,-285,0,0,100,0,1104,80,96,80,0,-153,-238,0,0,100,0,1248,0,80,80,0,-184,-152,0,0,100,0,1104,80,96,80,0,-236,-150,0,0,100,0,1168,0,80,80,0,-254,-279,0,0,100,0,1600,80,208,96,0,-272,-225,0,0,100,0,1440,176,208,96,0,-332,-262,0,0,100,0,1648,176,208,96,0,-359,-310,0,0,100,0,360,200,360,360,0,-566,-70,1,0,100,0,1080,736,360,176,0,-660,-150,1,0,100,0,1080,560,360,176,0,-236,-70,1,0,100,0,0,736,360,176,0,-332,-150,1,0,100,0,0,560,360,176,0,-286,-89,0,0,100,0,360,736,360,176,0,-164,-169,0,0,100,0,360,560,360,176,0,-616,-89,0,0,100,0,720,736,360,176,0,-492,-169,0,0,100,0,720,560,360,176,0,
0,20,-241,-284,0,0,100,0,1424,0,96,80,0,-291,-239,0,0,100,0,1616,0,96,80,0,-253,-297,0,0,100,0,1088,0,80,80,0,-201,-248,0,0,100,0,1104,80,96,80,0,-153,-222,0,0,100,0,1008,0,80,80,0,-184,-145,0,0,100,0,1200,80,96,80,0,-236,-156,0,0,100,0,1168,0,80,80,0,-254,-269,0,0,100,0,1600,80,208,96,0,-272,-213,0,0,100,0,1440,176,208,96,0,-332,-247,0,0,100,0,1392,80,208,96,0,-302,-318,0,0,100,0,1440,176,208,96,0,-359,-295,0,0,100,0,720,200,360,360,0,-556,-70,1,0,100,0,0,736,360,176,0,-652,-149,1,0,100,0,0,560,360,176,0,-226,-70,1,0,100,0,360,736,360,176,0,-324,-150,1,0,100,0,360,560,360,176,0,-296,-89,0,0,100,0,720,736,360,176,0,-172,-169,0,0,100,0,720,560,360,176,0,-626,-89,0,0,100,0,1080,736,360,176,0,-500,-169,0,0,100,0,1080,560,360,176,0,
0,21,-170,-312,0,0,100,0,1424,0,96,80,0,-241,-261,0,0,100,0,1520,0,96,80,0,-291,-221,0,0,100,0,1328,0,96,80,0,-253,-271,0,0,100,0,1088,0,80,80,0,-201,-210,0,0,100,0,1200,80,96,80,0,-153,-206,0,0,100,0,1008,0,80,80,0,-184,-145,0,0,100,0,1200,80,96,80,0,-236,-150,0,0,100,0,1248,0,80,80,0,-254,-260,0,0,100,0,1440,176,208,96,0,-272,-201,0,0,100,0,1648,176,208,96,0,-332,-231,0,0,100,0,1392,80,208,96,0,-302,-300,0,0,100,0,1648,176,208,96,0,-359,-279,0,0,100,0,720,200,360,360,0,-546,-70,1,0,100,0,360,736,360,176,0,-644,-150,1,0,100,0,360,560,360,176,0,-216,-70,1,0,100,0,720,736,360,176,0,-316,-150,1,0,100,0,720,560,360,176,0,-306,-89,0,0,100,0,1080,736,360,176,0,-180,-169,0,0,100,0,1080,560,360,176,0,-636,-89,0,0,100,0,0,736,360,176,0,-508,-169,0,0,100,0,0,560,360,176,0,
0,21,-170,-287,0,0,100,0,1424,0,96,80,0,-241,-238,0,0,100,0,1520,0,96,80,0,-291,-206,0,0,100,0,1328,0,96,80,0,-253,-244,0,0,100,0,1168,0,80,80,0,-201,-173,0,0,100,0,1200,80,96,80,0,-153,-190,0,0,100,0,1088,0,80,80,0,-184,-145,0,0,100,0,1296,80,96,80,0,-236,-150,0,0,100,0,1248,0,80,80,0,-254,-251,0,0,100,0,1440,176,208,96,0,-272,-189,0,0,100,0,1648,176,208,96,0,-332,-215,0,0,100,0,1600,80,208,96,0,-302,-281,0,0,100,0,1648,176,208,96,0,-359,-264,0,0,100,0,1080,200,360,360,0,-536,-70,1,0,100,0,720,736,360,176,0,-636,-150,1,0,100,0,720,560,360,176,0,-206,-70,1,0,100,0,1080,736,360,176,0,-308,-150,1,0,100,0,1080,560,360,176,0,-316,-89,0,0,100,0,0,736,360,176,0,-188,-169,0,0,100,0,0,560,360,176,0,-646,-89,0,0,100,0,360,736,360,176,0,-516,-169,0,0,100,0,360,560,360,176,0,
0,21,-170,-263,0,0,100,0,1520,0,96,80,0,-241,-216,0,0,100,0,1616,0,96,80,0,-291,-190,0,0,100,0,1424,0,96,80,0,-253,-218,0,0,100,0,1168,0,80,80,0,-202,-135,0,0,100,0,1296,80,96,80,0,-153,-173,0,0,100,0,1088,0,80,80,0,-184,-145,0,0,100,0,1296,80,96,80,0,-236,-150,0,0,100,0,1008,0,80,80,0,-254,-242,0,0,100,0,1648,176,208,96,0,-272,-176,0,0,100,0,1392,80,208,96,0,-332,-199,0,0,100,0,1600,80,208,96,0,-302,-263,0,0,100,0,1392,80,208,96,0,-359,-249,0,0,100,0,1080,200,360,360,0,-526,-70,1,0,100,0,1080,736,360,176,0,-628,-150,1,0,100,0,1080,560,360,176,0,-196,-70,1,0,100,0,0,736,360,176,0,-299,-150,1,0,100,0,0,560,360,176,0,-327,-89,0,0,100,0,360,736,360,176,0,-196,-169,0,0,100,0,360,560,360,176,0,-656,-89,0,0,100,0,720,736,360,176,0,-524,-169,0,0,100,0,720,560,360,176,0,
0,21,-170,-238,0,0,100,0,1520,0,96,80,0,-241,-193,0,0,100,0,1616,0,96,80,0,-291,-174,0,0,100,0,1424,0,96,80,0,-253,-191,0,0,100,0,1248,0,80,80,0,-201,-147,0,0,100,0,1296,80,96,80,0,-153,-157,0,0,100,0,1168,0,80,80,0,-184,-145,0,0,100,0,1008,80,96,80,0,-236,-150,0,0,100,0,1008,0,80,80,0,-254,-233,0,0,100,0,1648,176,208,96,0,-272,-164,0,0,100,0,1392,80,208,96,0,-332,-184,0,0,100,0,1440,176,208,96,0,-302,-245,0,0,100,0,1392,80,208,96,0,-359,-234,0,0,100,0,0,200,360,360,0,-516,-70,1,0,100,0,0,736,360,176,0,-621,-149,1,0,100,0,0,560,360,176,0,-186,-70,1,0,100,0,360,736,360,176,0,-292,-150,1,0,100,0,360,560,360,176,0,-336,-89,0,0,100,0,720,736,360,176,0,-204,-169,0,0,100,0,720,560,360,176,0,-666,-89,0,0,100,0,1080,736,360,176,0,-532,-169,0,0,100,0,1080,560,360,176,0,
0,22,-170,-214,0,0,100,0,1616,0,96,80,0,-241,-170,0,0,100,0,1328,0,96,80,0,-291,-157,0,0,100,0,1520,0,96,80,0,-253,-165,0,0,100,0,1248,0,80,80,0,-201,-135,0,0,100,0,1008,80,96,80,0,-153,-141,0,0,100,0,1168,0,80,80,0,-184,-145,0,0,100,0,1008,80,96,80,0,-236,-150,0,0,100,0,1088,0,80,80,0,-254,-224,0,0,100,0,1392,80,208,96,0,-272,-152,0,0,100,0,1600,80,208,96,0,-332,-168,0,0,100,0,1440,176,208,96,0,-302,-226,0,0,100,0,1600,80,208,96,0,-359,-236,0,0,100,0,0,200,360,360,0,-506,-70,1,0,100,0,360,736,360,176,0,-612,-150,1,0,100,0,360,560,360,176,0,-176,-70,1,0,100,0,720,736,360,176,0,-284,-150,1,0,100,0,720,560,360,176,0,-16,-89,0,0,100,0,720,736,360,176,0,-346,-89,0,0,100,0,1080,736,360,176,0,-212,-169,0,0,100,0,1080,560,360,176,0,-676,-89,0,0,100,0,0,736,360,176,0,-540,-169,0,0,100,0,0,560,360,176,0,
0,22,-170,-189,0,0,100,0,1616,0,96,80,0,-241,-148,0,0,100,0,1328,0,96,80,0,-291,-142,0,0,100,0,1520,0,96,80,0,-253,-138,0,0,100,0,1008,0,80,80,0,-201,-135,0,0,100,0,1008,80,96,80,0,-153,-125,0,0,100,0,1248,0,80,80,0,-184,-145,0,0,100,0,1104,80,96,80,0,-236,-150,0,0,100,0,1088,0,80,80,0,-254,-215,0,0,100,0,1392,80,208,96,0,-272,-140,0,0,100,0,1600,80,208,96,0,-332,-152,0,0,100,0,1648,176,208,96,0,-302,-208,0,0,100,0,1600,80,208,96,0,-359,-239,0,0,100,0,360,200,360,360,0,-496,-70,1,0,100,0,720,736,360,176,0,-604,-150,1,0,100,0,720,560,360,176,0,-166,-70,1,0,100,0,1080,736,360,176,0,-276,-150,1,0,100,0,1080,560,360,176,0,-26,-89,0,0,100,0,1080,736,360,176,0,-356,-89,0,0,100,0,0,736,360,176,0,-220,-169,0,0,100,0,0,560,360,176,0,-686,-89,0,0,100,0,360,736,360,176,0,-548,-169,0,0,100,0,360,560,360,176,0,
0,23,-160,-295,0,0,100,0,40,40,40,40,0,-170,-164,0,0,100,0,1328,0,96,80,0,-241,-125,0,0,100,0,1424,0,96,80,0,-291,-125,0,0,100,0,1616,0,96,80,0,-253,-111,0,0,100,0,1008,0,80,80,0,-201,-135,0,0,100,0,1104,80,96,80,0,-153,-135,0,0,100,0,1248,0,80,80,0,-184,-145,0,0,100,0,1104,80,96,80,0,-236,-150,0,0,100,0,1168,0,80,80,0,-254,-205,0,0,100,0,1600,80,208,96,0,-272,-128,0,0,100,0,1440,176,208,96,0,-332,-137,0,0,100,0,1648,176,208,96,0,-302,-190,0,0,100,0,1440,176,208,96,0,-359,-236,0,0,100,0,360,200,360,360,0,-486,-70,1,0,100,0,1080,736,360,176,0,-596,-150,1,0,100,0,1080,560,360,176,0,-156,-70,1,0,100,0,0,736,360,176,0,-268,-150,1,0,100,0,0,560,360,176,0,-36,-89,0,0,100,0,0,736,360,176,0,-366,-89,0,0,100,0,360,736,360,176,0,-228,-169,0,0,100,0,360,560,360,176,0,-696,-89,0,0,100,0,720,736,360,176,0,-556,-169,0,0,100,0,720,560,360,176,0,
0,24,-230,-295,0,0,100,0,640,40,40,40,0,-160,-279,0,0,100,0,40,40,40,40,0,-170,-140,0,0,100,0,1328,0,96,80,0,-241,-130,0,0,100,0,1424,0,96,80,0,-291,-131,0,0,100,0,1616,0,96,80,0,-253,-85,0,0,100,0,1088,0,80,80,0,-201,-135,0,0,100,0,1104,80,96,80,0,-153,-125,0,0,100,0,1008,0,80,80,0,-184,-145,0,0,100,0,1200,80,96,80,0,-236,-150,0,0,100,0,1168,0,80,80,0,-254,-196,0,0,100,0,1600,80,208,96,0,-272,-115,0,0,100,0,1440,176,208,96,0,-332,-121,0,0,100,0,1392,80,216,96,0,-302,-171,0,0,100,0,1440,176,208,96,0,-359,-234,0,0,100,0,720,200,360,360,0,-476,-70,1,0,100,0,0,736,360,176,0,-588,-149,1,0,100,0,0,560,360,176,0,-146,-70,1,0,100,0,360,736,360,176,0,-260,-150,1,0,100,0,360,560,360,176,0,-46,-89,0,0,100,0,360,736,360,176,0,-376,-89,0,0,100,0,720,736,360,176,0,-236,-169,0,0,100,0,720,560,360,176,0,-706,-89,0,0,100,0,1080,736,360,176,0,-565,-169,0,0,100,0,1080,560,360,176,0,
0,24,-230,-270,0,0,100,0,680,40,40,40,0,-158,-259,0,0,100,0,0,0,40,40,0,-170,-115,0,0,100,0,1424,0,96,80,0,-241,-136,0,0,100,0,1520,0,96,80,0,-291,-138,0,0,100,0,1328,0,96,80,0,-253,-101,0,0,100,0,1088,0,80,80,0,-201,-135,0,0,100,0,1200,80,96,80,0,-153,-125,0,0,100,0,1008,0,80,80,0,-184,-145,0,0,100,0,1200,80,96,80,0,-236,-150,0,0,100,0,1248,0,80,80,0,-254,-187,0,0,100,0,1440,176,208,96,0,-272,-103,0,0,100,0,1648,176,208,96,0,-332,-127,0,0,100,0,1392,80,208,96,0,-302,-153,0,0,100,0,1648,176,208,96,0,-359,-234,0,0,100,0,720,200,360,360,0,-466,-70,1,0,100,0,360,736,360,176,0,-580,-150,1,0,100,0,360,560,360,176,0,-136,-70,1,0,100,0,720,736,360,176,0,-252,-150,1,0,100,0,720,560,360,176,0,-56,-89,0,0,100,0,720,736,360,176,0,-386,-89,0,0,100,0,1080,736,360,176,0,-244,-169,0,0,100,0,1080,560,360,176,0,-716,-89,0,0,100,0,0,736,360,176,0,-572,-169,0,0,100,0,0,560,360,176,0,
0,23,-230,-249,0,0,100,0,680,40,40,40,0,-158,-242,0,0,100,0,0,0,40,40,0,-170,-122,0,0,100,0,1424,0,96,80,0,-241,-131,0,0,100,0,1520,0,96,80,0,-291,-132,0,0,100,0,1328,0,96,80,0,-253,-85,0,0,100,0,1168,0,80,80,0,-201,-135,0,0,100,0,1200,80,96,80,0,-153,-125,0,0,100,0,1088,0,80,80,0,-184,-145,0,0,100,0,1296,80,96,80,0,-236,-150,0,0,100,0,1248,0,80,80,0,-254,-178,0,0,100,0,1440,176,208,96,0,-272,-91,0,0,100,0,1648,176,208,96,0,-332,-132,0,0,100,0,1600,80,208,96,0,-302,-158,0,0,100,0,1648,176,208,96,0,-359,-234,0,0,100,0,1080,200,360,360,0,-456,-70,1,0,100,0,720,736,360,176,0,-572,-150,1,0,100,0,720,560,360,176,0,-126,-70,1,0,100,0,1080,736,360,176,0,-244,-150,1,0,100,0,1080,560,360,176,0,-66,-89,0,0,100,0,1080,736,360,176,0,-396,-89,0,0,100,0,0,736,360,176,0,-252,-169,0,0,100,0,0,560,360,176,0,-580,-169,0,0,100,0,360,560,360,176,0,
0,23,-228,-225,0,0,100,0,640,0,40,40,0,-158,-226,0,0,100,0,40,0,40,40,0,-170,-129,0,0,100,0,1520,0,96,80,0,-241,-125,0,0,100,0,1616,0,96,80,0,-291,-125,0,0,100,0,1424,0,96,80,0,-253,-85,0,0,100,0,1168,0,80,80,0,-201,-135,0,0,100,0,1296,80,96,80,0,-153,-125,0,0,100,0,1088,0,80,80,0,-184,-145,0,0,100,0,1296,80,96,80,0,-236,-150,0,0,100,0,1008,0,80,80,0,-254,-169,0,0,100,0,1648,176,208,96,0,-272,-96,0,0,100,0,1392,80,208,96,0,-332,-126,0,0,100,0,1600,80,208,96,0,-302,-162,0,0,100,0,1392,80,208,96,0,-359,-234,0,0,100,0,1080,200,360,360,0,-446,-70,1,0,100,0,1080,736,360,176,0,-564,-150,1,0,100,0,1080,560,360,176,0,-116,-70,1,0,100,0,0,736,360,176,0,-236,-150,1,0,100,0,0,560,360,176,0,-76,-89,0,0,100,0,0,736,360,176,0,-406,-89,0,0,100,0,360,736,360,176,0,-260,-169,0,0,100,0,360,560,360,176,0,-588,-169,0,0,100,0,720,560,360,176,0,
0,23,-228,-204,0,0,100,0,640,0,40,40,0,-158,-209,0,0,100,0,40,0,40,40,0,-170,-122,0,0,100,0,1520,0,96,80,0,-241,-125,0,0,100,0,1616,0,96,80,0,-291,-125,0,0,100,0,1424,0,96,80,0,-253,-85,0,0,100,0,1248,0,80,80,0,-201,-135,0,0,100,0,1296,80,96,80,0,-153,-125,0,0,100,0,1168,0,80,80,0,-184,-145,0,0,100,0,1008,80,96,80,0,-236,-150,0,0,100,0,1008,0,80,80,0,-254,-160,0,0,100,0,1648,176,208,96,0,-272,-102,0,0,100,0,1392,80,208,96,0,-332,-121,0,0,100,0,1440,176,208,96,0,-302,-157,0,0,100,0,1392,80,208,96,0,-359,-234,0,0,100,0,0,200,360,360,0,-436,-70,1,0,100,0,0,736,360,176,0,-556,-150,1,0,100,0,0,560,360,176,0,-106,-70,1,0,100,0,360,736,360,176,0,-228,-150,1,0,100,0,360,560,360,176,0,-86,-89,0,0,100,0,360,736,360,176,0,-416,-89,0,0,100,0,720,736,360,176,0,-268,-169,0,0,100,0,720,560,360,176,0,-596,-169,0,0,100,0,1080,560,360,176,0,
0,23,-228,-182,0,0,100,0,680,0,40,40,0,-161,-198,0,0,100,0,0,40,40,40,0,-170,-115,0,0,100,0,1616,0,96,80,0,-241,-125,0,0,100,0,1328,0,96,80,0,-291,-125,0,0,100,0,1520,0,96,80,0,-253,-85,0,0,100,0,1248,0,80,80,0,-201,-135,0,0,100,0,1008,80,96,80,0,-153,-125,0,0,100,0,1168,0,80,80,0,-184,-145,0,0,100,0,1008,80,96,80,0,-236,-150,0,0,100,0,1088,0,80,80,0,-254,-151,0,0,100,0,1392,80,208,96,0,-272,-97,0,0,100,0,1600,80,208,96,0,-332,-121,0,0,100,0,1440,176,208,96,0,-302,-153,0,0,100,0,1600,80,208,96,0,-359,-234,0,0,100,0,0,200,360,360,0,-426,-70,1,0,100,0,360,736,360,176,0,-548,-150,1,0,100,0,360,560,360,176,0,-96,-70,1,0,100,0,720,736,360,176,0,-220,-150,1,0,100,0,720,560,360,176,0,-96,-89,0,0,100,0,720,736,360,176,0,-426,-89,0,0,100,0,1080,736,360,176,0,-276,-169,0,0,100,0,1080,560,360,176,0,-604,-169,0,0,100,0,0,560,360,176,0,
0,23,-228,-161,0,0,100,0,680,0,40,40,0,-161,-181,0,0,100,0,0,40,40,40,0,-170,-115,0,0,100,0,1616,0,96,80,0,-241,-125,0,0,100,0,1328,0,96,80,0,-291,-125,0,0,100,0,1520,0,96,80,0,-253,-85,0,0,100,0,1008,0,80,80,0,-201,-135,0,0,100,0,1008,80,96,80,0,-153,-125,0,0,100,0,1248,0,80,80,0,-184,-145,0,0,100,0,1104,80,96,80,0,-236,-150,0,0,100,0,1088,0,80,80,0,-254,-141,0,0,100,0,1392,80,208,96,0,-272,-91,0,0,100,0,1600,80,208,96,0,-332,-121,0,0,100,0,1648,176,208,96,0,-302,-153,0,0,100,0,1600,80,208,96,0,-359,-234,0,0,100,0,360,200,360,360,0,-416,-70,1,0,100,0,720,736,360,176,0,-540,-150,1,0,100,0,720,560,360,176,0,-86,-70,1,0,100,0,1080,736,360,176,0,-212,-150,1,0,100,0,1080,560,360,176,0,-106,-89,0,0,100,0,1080,736,360,176,0,-436,-89,0,0,100,0,0,736,360,176,0,-284,-169,0,0,100,0,0,560,360,176,0,-612,-169,0,0,100,0,360,560,360,176,0,
0,24,-210,-279,0,0,100,0,360,40,40,40,0,-231,-146,0,0,100,0,640,40,40,40,0,-160,-161,0,0,100,0,40,40,40,40,0,-170,-115,0,0,100,0,1328,0,96,80,0,-241,-125,0,0,100,0,1424,0,96,80,0,-291,-125,0,0,100,0,1616,0,96,80,0,-253,-85,0,0,100,0,1008,0,80,80,0,-201,-135,0,0,100,0,1104,80,96,80,0,-153,-125,0,0,100,0,1248,0,80,80,0,-184,-145,0,0,100,0,1104,80,96,80,0,-236,-150,0,0,100,0,1168,0,80,80,0,-254,-132,0,0,100,0,1600,80,208,96,0,-272,-91,0,0,100,0,1440,176,208,96,0,-332,-121,0,0,100,0,1648,176,208,96,0,-302,-153,0,0,100,0,1440,176,208,96,0,-359,-234,0,0,100,0,360,200,360,360,0,-406,-70,1,0,100,0,1080,736,360,176,0,-532,-150,1,0,100,0,1080,560,360,176,0,-76,-70,1,0,100,0,0,736,360,176,0,-204,-150,1,0,100,0,0,560,360,176,0,-116,-89,0,0,100,0,0,736,360,176,0,-446,-89,0,0,100,0,360,736,360,176,0,-292,-169,0,0,100,0,360,560,360,176,0,-620,-169,0,0,100,0,720,560,360,176,0,
0,24,-210,-262,0,0,100,0,360,40,40,40,0,-160,-145,0,0,100,0,40,40,40,40,0,-170,-115,0,0,100,0,1328,0,96,80,0,-241,-125,0,0,100,0,1424,0,96,80,0,-291,-125,0,0,100,0,1616,0,96,80,0,-231,-125,0,0,100,0,640,40,40,40,0,-253,-85,0,0,100,0,1088,0,80,80,0,-201,-135,0,0,100,0,1104,80,96,80,0,-153,-125,0,0,100,0,1008,0,80,80,0,-184,-145,0,0,100,0,1200,80,96,80,0,-236,-150,0,0,100,0,1168,0,80,80,0,-254,-123,0,0,100,0,1600,80,208,96,0,-272,-91,0,0,100,0,1440,176,208,96,0,-332,-121,0,0,100,0,1392,80,208,96,0,-302,-153,0,0,100,0,1440,176,208,96,0,-359,-234,0,0,100,0,720,200,360,360,0,-396,-70,1,0,100,0,0,736,360,176,0,-524,-150,1,0,100,0,0,560,360,176,0,-66,-70,1,0,100,0,360,736,360,176,0,-196,-150,1,0,100,0,360,560,360,176,0,-126,-89,0,0,100,0,360,736,360,176,0,-456,-89,0,0,100,0,720,736,360,176,0,-300,-169,0,0,100,0,720,560,360,176,0,-628,-169,0,0,100,0,1080,560,360,176,0,
0,23,-208,-243,0,0,100,0,320,0,40,40,0,-170,-115,0,0,100,0,1424,0,96,80,0,-241,-125,0,0,100,0,1520,0,96,80,0,-291,-125,0,0,100,0,1328,0,96,80,0,-158,-108,0,0,100,0,0,0,40,40,0,-253,-85,0,0,100,0,1088,0,80,80,0,-201,-135,0,0,100,0,1200,80,96,80,0,-153,-125,0,0,100,0,1008,0,80,80,0,-184,-145,0,0,100,0,1200,80,96,80,0,-236,-150,0,0,100,0,1248,0,80,80,0,-254,-114,0,0,100,0,1440,176,208,96,0,-272,-91,0,0,100,0,1648,176,208,96,0,-332,-121,0,0,100,0,1392,80,208,96,0,-302,-153,0,0,100,0,1648,176,208,96,0,-359,-234,0,0,100,0,720,200,360,360,0,-386,-70,1,0,100,0,360,736,360,176,0,-516,-150,1,0,100,0,360,560,360,176,0,-55,-70,1,0,100,0,720,736,360,176,0,-188,-150,1,0,100,0,720,560,360,176,0,-136,-89,0,0,100,0,720,736,360,176,0,-466,-89,0,0,100,0,1080,736,360,176,0,-308,-169,0,0,100,0,1080,560,360,176,0,-636,-169,0,0,100,0,0,560,360,176,0,
0,23,-208,-226,0,0,100,0,320,0,40,40,0,-170,-115,0,0,100,0,1424,0,96,80,0,-241,-125,0,0,100,0,1520,0,96,80,0,-291,-125,0,0,100,0,1328,0,96,80,0,-253,-85,0,0,100,0,1168,0,80,80,0,-201,-135,0,0,100,0,1200,80,96,80,0,-153,-125,0,0,100,0,1088,0,80,80,0,-184,-145,0,0,100,0,1296,80,96,80,0,-236,-150,0,0,100,0,1248,0,80,80,0,-254,-120,0,0,100,0,1440,176,208,96,0,-272,-91,0,0,100,0,1648,176,208,96,0,-332,-121,0,0,100,0,1600,80,208,96,0,-302,-153,0,0,100,0,1648,176,208,96,0,-359,-234,0,0,100,0,1080,200,360,360,0,-706,-70,1,0,100,0,360,736,360,176,0,-376,-70,1,0,100,0,720,736,360,176,0,-508,-150,1,0,100,0,720,560,360,176,0,-45,-70,1,0,100,0,1080,736,360,176,0,-180,-150,1,0,100,0,1080,560,360,176,0,-146,-89,0,0,100,0,1080,736,360,176,0,-476,-89,0,0,100,0,0,736,360,176,0,-316,-169,0,0,100,0,0,560,360,176,0,-644,-169,0,0,100,0,360,560,360,176,0,
0,23,-208,-209,0,0,100,0,360,0,40,40,0,-170,-115,0,0,100,0,1520,0,96,80,0,-241,-125,0,0,100,0,1616,0,96,80,0,-291,-125,0,0,100,0,1424,0,96,80,0,-253,-85,0,0,100,0,1168,0,80,80,0,-201,-135,0,0,100,0,1296,80,96,80,0,-153,-125,0,0,100,0,1088,0,80,80,0,-184,-145,0,0,100,0,1296,80,96,80,0,-236,-150,0,0,100,0,1008,0,80,80,0,-254,-125,0,0,100,0,1648,176,208,96,0,-272,-91,0,0,100,0,1392,80,208,96,0,-332,-121,0,0,100,0,1600,80,208,96,0,-302,-153,0,0,100,0,1392,80,208,96,0,-359,-234,0,0,100,0,1080,200,360,360,0,-696,-70,1,0,100,0,720,736,360,176,0,-366,-70,1,0,100,0,1080,736,360,176,0,-500,-150,1,0,100,0,1080,560,360,176,0,-36,-70,1,0,100,0,0,736,360,176,0,-172,-150,1,0,100,0,0,560,360,176,0,-156,-89,0,0,100,0,0,736,360,176,0,-486,-89,0,0,100,0,360,736,360,176,0,-324,-169,0,0,100,0,360,560,360,176,0,-652,-169,0,0,100,0,720,560,360,176,0,
0,23,-208,-193,0,0,100,0,360,0,40,40,0,-170,-115,0,0,100,0,1520,0,96,80,0,-241,-125,0,0,100,0,1616,0,96,80,0,-291,-125,0,0,100,0,1424,0,96,80,0,-253,-85,0,0,100,0,1248,0,80,80,0,-201,-135,0,0,100,0,1296,80,96,80,0,-153,-125,0,0,100,0,1168,0,80,80,0,-184,-145,0,0,100,0,1008,80,96,80,0,-236,-150,0,0,100,0,1008,0,80,80,0,-254,-120,0,0,100,0,1648,176,208,96,0,-272,-91,0,0,100,0,1392,80,208,96,0,-332,-121,0,0,100,0,1440,176,208,96,0,-302,-153,0,0,100,0,1392,80,208,96,0,-359,-234,0,0,100,0,0,200,360,360,0,-686,-70,1,0,100,0,1080,736,360,176,0,-356,-70,1,0,100,0,0,736,360,176,0,-492,-150,1,0,100,0,0,560,360,176,0,-26,-70,1,0,100,0,360,736,360,176,0,-164,-150,1,0,100,0,360,560,360,176,0,-166,-89,0,0,100,0,360,736,360,176,0,-496,-89,0,0,100,0,720,736,360,176,0,-332,-169,0,0,100,0,720,560,360,176,0,-660,-169,0,0,100,0,1080,560,360,176,0,
0,23,-211,-182,0,0,100,0,320,40,40,40,0,-170,-115,0,0,100,0,1616,0,96,80,0,-241,-125,0,0,100,0,1328,0,96,80,0,-291,-125,0,0,100,0,1520,0,96,80,0,-253,-85,0,0,100,0,1248,0,80,80,0,-201,-135,0,0,100,0,1008,80,96,80,0,-153,-125,0,0,100,0,1168,0,80,80,0,-184,-145,0,0,100,0,1008,80,96,80,0,-236,-150,0,0,100,0,1088,0,80,80,0,-254,-114,0,0,100,0,1392,80,208,96,0,-272,-91,0,0,100,0,1600,80,208,96,0,-332,-121,0,0,100,0,1440,176,208,96,0,-302,-153,0,0,100,0,1600,80,208,96,0,-359,-234,0,0,100,0,0,200,360,360,0,-676,-70,1,0,100,0,0,736,360,176,0,-346,-70,1,0,100,0,360,736,360,176,0,-484,-150,1,0,100,0,360,560,360,176,0,-16,-70,1,0,100,0,720,736,360,176,0,-156,-150,1,0,100,0,720,560,360,176,0,-176,-89,0,0,100,0,720,736,360,176,0,-506,-89,0,0,100,0,1080,736,360,176,0,-340,-169,0,0,100,0,1080,560,360,176,0,-668,-169,0,0,100,0,0,560,360,176,0,
0,24,-211,-166,0,0,100,0,320,40,40,40,0,-170,-115,0,0,100,0,1616,0,96,80,0,-241,-125,0,0,100,0,1328,0,96,80,0,-291,-125,0,0,100,0,1520,0,96,80,0,-253,-85,0,0,100,0,1008,0,80,80,0,-201,-135,0,0,100,0,1008,80,96,80,0,-153,-125,0,0,100,0,1248,0,80,80,0,-184,-145,0,0,100,0,1104,80,96,80,0,-236,-150,0,0,100,0,1088,0,80,80,0,-254,-114,0,0,100,0,1392,80,208,96,0,-272,-91,0,0,100,0,1600,80,208,96,0,-332,-121,0,0,100,0,1648,176,216,96,0,-302,-153,0,0,100,0,1600,80,208,96,0,-359,-234,0,0,100,0,360,200,360,360,0,-666,-70,1,0,100,0,360,736,360,176,0,-336,-70,1,0,100,0,720,736,360,176,0,-476,-150,1,0,100,0,720,560,360,176,0,-5,-70,1,0,100,0,1080,736,360,176,0,-148,-150,1,0,100,0,1080,560,360,176,0,-186,-89,0,0,100,0,1080,736,360,176,0,-20,-169,0,0,100,0,1080,560,360,176,0,-516,-89,0,0,100,0,0,736,360,176,0,-348,-169,0,0,100,0,0,560,360,176,0,-676,-169,0,0,100,0,360,560,360,176,0,
0,24,-210,-146,0,0,100,0,360,40,40,40,0,-170,-115,0,0,100,0,1328,0,96,80,0,-241,-125,0,0,100,0,1424,0,96,80,0,-291,-125,0,0,100,0,1616,0,96,80,0,-253,-85,0,0,100,0,1008,0,80,80,0,-201,-135,0,0,100,0,1104,80,96,80,0,-153,-125,0,0,100,0,1248,0,80,80,0,-184,-145,0,0,100,0,1104,80,96,80,0,-236,-150,0,0,100,0,1168,0,80,80,0,-254,-114,0,0,100,0,1600,80,208,96,0,-272,-91,0,0,100,0,1440,176,208,96,0,-332,-121,0,0,100,0,1648,176,208,96,0,-302,-153,0,0,100,0,1440,176,208,96,0,-359,-234,0,0,100,0,360,200,360,360,0,-656,-70,1,0,100,0,720,736,360,176,0,-326,-70,1,0,100,0,1080,736,360,176,0,-468,-150,1,0,100,0,1080,560,360,176,0,-7,-70,1,0,100,0,0,736,360,176,0,-140,-150,1,0,100,0,0,560,360,176,0,-196,-89,0,0,100,0,0,736,360,176,0,-28,-169,0,0,100,0,0,560,360,176,0,-526,-89,0,0,100,0,360,736,360,176,0,-356,-169,0,0,100,0,360,560,360,176,0,-684,-169,0,0,100,0,720,560,360,176,0,
0,23,-210,-156,0,0,100,0,360,40,40,40,0,-170,-115,0,0,100,0,1328,0,96,80,0,-241,-125,0,0,100,0,1424,0,96,80,0,-291,-125,0,0,100,0,1616,0,96,80,0,-253,-85,0,0,100,0,1088,0,80,80,0,-201,-135,0,0,100,0,1104,80,96,80,0,-153,-125,0,0,100,0,1008,0,80,80,0,-184,-145,0,0,100,0,1200,80,96,80,0,-236,-150,0,0,100,0,1168,0,80,80,0,-254,-114,0,0,100,0,1600,80,208,96,0,-272,-91,0,0,100,0,1440,176,208,96,0,-332,-121,0,0,100,0,1392,80,208,96,0,-302,-153,0,0,100,0,1440,176,208,96,0,-359,-234,0,0,100,0,720,200,360,360,0,-646,-70,1,0,100,0,1080,736,360,176,0,-316,-70,1,0,100,0,0,736,360,176,0,-460,-150,1,0,100,0,0,560,360,176,0,-132,-150,1,0,100,0,360,560,360,176,0,-206,-89,0,0,100,0,360,736,360,176,0,-36,-169,0,0,100,0,360,560,360,176,0,-536,-89,0,0,100,0,720,736,360,176,0,-364,-169,0,0,100,0,720,560,360,176,0,-692,-169,0,0,100,0,1080,560,360,176,0,
0,10,-372,-283,0,0,100,0,1536,304,384,384,0,-636,-70,1,0,100,0,0,736,360,176,0,-306,-70,1,0,100,0,360,736,360,176,0,-452,-150,1,0,100,0,360,560,360,176,0,-124,-150,1,0,100,0,720,560,360,176,0,-216,-89,0,0,100,0,720,736,360,176,0,-44,-169,0,0,100,0,720,560,360,176,0,-546,-89,0,0,100,0,1080,736,360,176,0,-372,-169,0,0,100,0,1080,560,360,176,0,-701,-169,0,0,100,0,0,560,360,176,0,
0,10,-372,-283,0,0,100,0,1536,688,384,384,0,-626,-70,1,0,50,0,360,736,360,176,0,-296,-70,1,0,50,0,720,736,360,176,0,-444,-150,1,0,50,0,720,560,360,176,0,-116,-150,1,0,50,0,1080,560,360,176,0,-226,-89,0,0,50,0,1080,736,360,176,0,-52,-169,0,0,50,0,1080,560,360,176,0,-556,-89,0,0,50,0,0,736,360,176,0,-380,-169,0,0,50,0,0,560,360,176,0,-708,-169,0,0,50,0,360,560,360,176,0,
0,1,-372,-283,0,0,100,0,0,1072,384,384,0,
0,1,-372,-283,0,0,100,0,384,1072,384,384,0,
0,1,-372,-283,0,0,100,0,768,1072,384,384,0,
0,1,-372,-283,0,0,100,0,1152,1072,384,384,0,
0,1,-372,-283,0,0,100,0,1536,1072,384,384,0,
0,1,-372,-283,0,0,100,0,0,1456,384,384,0,
0,1,-372,-283,0,0,100,0,384,1456,384,384,0,
0,1,-372,-283,0,0,80,0,768,1456,384,384,0,
0,1,-372,-283,0,0,60,0,1152,1456,384,384,0,
0,1,-372,-283,0,0,40,0,1536,1456,384,384,0,
0,1,-372,-283,0,0,20,0,1536,1456,384,384,0,
0,1,-372,-283,0,0,5,0,1536,1456,384,384,0,
0,2,-381,-14,1,0,100,0,640,40,40,40,0,-404,8,1,0,100,0,928,0,80,32,0,
0,2,-375,-11,1,0,100,0,680,40,40,40,0,-396,8,1,0,100,0,928,0,80,32,0,
0,2,-370,-8,1,0,100,0,640,0,40,40,0,-391,8,1,0,100,0,928,0,80,32,0,
0,2,-370,-8,1,0,100,0,680,0,40,40,0,-391,8,1,0,100,0,928,0,80,32,0,
0,2,-360,-14,1,0,100,0,640,40,40,40,0,-383,8,1,0,100,0,928,0,80,32,0,
0,2,-353,-11,1,0,100,0,680,40,40,40,0,-374,8,1,0,100,0,928,0,80,32,0,
0,2,-348,-8,1,0,100,0,640,0,40,40,0,-369,8,1,0,100,0,928,0,80,32,0,
0,2,-348,-8,1,0,100,0,680,0,40,40,0,-369,8,1,0,100,0,928,0,80,32,0,
0,2,-337,-14,1,0,100,0,640,40,40,40,0,-360,8,1,0,100,0,928,0,80,32,0,
0,2,-330,-11,1,0,100,0,680,40,40,40,0,-351,8,1,0,100,0,928,0,80,32,0,
0,2,-324,-8,1,0,100,0,640,0,40,40,0,-345,8,1,0,100,0,928,0,80,32,0,
0,2,-324,-8,1,0,100,0,680,0,40,40,0,-345,8,1,0,100,0,928,0,80,32,0,
0,2,-312,-14,1,0,100,0,640,40,40,40,0,-335,8,1,0,100,0,928,0,80,32,0,
0,2,-304,-11,1,0,100,0,680,40,40,40,0,-325,8,1,0,100,0,928,0,80,32,0,
0,2,-297,-8,1,0,100,0,640,0,40,40,0,-318,8,1,0,100,0,928,0,80,32,0,
0,2,-297,-8,1,0,100,0,680,0,40,40,0,-318,8,1,0,100,0,928,0,80,32,0,
0,2,-282,-14,1,0,100,0,640,40,40,40,0,-305,8,1,0,100,0,928,0,80,32,0,
0,2,-272,-13,1,0,100,0,680,40,40,40,0,-293,6,1,0,100,0,928,0,80,32,0,
0,2,-262,-8,1,0,100,0,640,0,40,40,0,-283,8,1,0,100,0,928,0,80,32,0,
0,2,-262,-8,0,0,100,0,760,80,40,40,0,-283,8,1,0,100,0,928,0,80,32,0,
0,2,-263,-8,0,0,100,0,760,0,40,40,0,-283,8,1,0,100,0,928,0,80,32,0,
0,2,-263,-8,0,0,100,0,760,40,40,40,0,-283,8,1,0,100,0,928,0,80,32,0,
0,2,-263,-8,0,0,100,0,760,80,40,40,0,-283,8,1,0,100,0,928,0,80,32,0,
0,2,-263,-23,0,0,100,0,760,0,40,40,0,-283,8,1,0,100,0,928,0,80,32,0,
0,2,-263,-26,0,0,100,0,760,40,40,40,0,-283,8,1,0,100,0,928,0,80,32,0,
0,2,-263,-10,0,0,100,0,760,80,40,40,0,-283,8,1,0,100,0,928,0,80,32,0,
0,2,-263,-8,0,0,100,0,600,80,40,40,0,-283,8,1,0,100,0,928,0,80,32,0,
0,2,-263,-8,0,0,100,0,760,0,40,40,0,-283,8,1,0,100,0,928,0,80,32,0,
