0,4,-36,-29,0,0,100,0,0,0,72,56,0,-34,-78,0,0,100,0,72,0,72,64,0,-20,16,0,0,65,0,576,0,40,16,0,-34,-24,0,0,65,0,576,0,40,16,0,
0,5,-24,-29,0,0,100,0,0,56,64,56,0,-133,-90,0,1,100,0,160,0,168,88,0,-59,-85,0,0,100,0,64,64,96,80,0,-20,16,0,0,65,0,576,0,40,16,0,-49,-24,0,0,65,0,576,0,40,16,0,
0,5,-25,-68,0,0,100,0,0,144,80,96,0,-133,-90,0,1,100,0,160,88,168,72,0,-59,-85,0,0,100,0,64,64,96,80,0,-20,16,0,0,65,0,616,0,48,16,0,-49,-24,0,0,65,0,576,0,40,16,0,
0,5,-25,-68,0,0,100,0,80,144,80,96,0,-133,-90,0,1,100,0,160,160,168,64,0,-59,-85,0,0,100,0,64,64,96,80,0,-20,16,0,0,65,0,616,0,48,16,0,-49,-24,0,0,65,0,576,0,40,16,0,
0,4,-110,-88,0,0,100,0,0,240,160,120,0,-47,-92,0,0,100,0,160,224,80,88,0,-29,16,0,0,65,0,576,0,40,16,0,-36,-21,0,0,65,0,576,0,40,16,0,
0,4,-110,-64,0,0,100,0,0,360,160,96,0,-47,-92,0,0,100,0,160,312,80,88,0,-29,16,0,0,65,0,576,0,40,16,0,-36,-21,0,0,65,0,576,0,40,16,0,
0,5,-46,-33,0,0,100,0,0,456,72,64,0,-100,-105,0,1,100,0,240,224,104,104,0,-70,-64,0,0,100,0,72,456,72,64,0,-29,16,0,0,65,0,576,0,40,16,0,-44,-21,0,0,65,0,576,0,40,16,0,
0,5,-29,-41,0,0,100,0,0,520,72,72,0,-100,-105,0,1,100,0,240,328,104,104,0,-70,-64,0,0,100,0,72,520,72,64,0,-28,16,0,0,65,0,576,0,40,16,0,-44,-21,0,0,65,0,576,0,40,16,0,
0,5,-126,-58,0,0,100,0,0,592,152,88,0,-101,-42,0,1,100,0,240,432,56,40,0,-70,-64,0,0,100,0,72,520,72,64,0,-31,16,0,0,65,0,576,0,40,16,0,-44,-21,0,0,65,0,576,0,40,16,0,
0,4,-126,-58,0,0,100,0,0,680,152,88,0,-51,-63,0,0,100,0,88,768,72,64,0,-31,16,0,0,65,0,576,0,40,16,0,-48,-21,0,0,65,0,576,0,40,16,0,
0,4,-62,-58,0,0,100,0,0,768,88,88,0,-49,-63,0,0,100,0,56,1136,72,64,0,-31,16,0,0,65,0,576,0,40,16,0,-50,-21,0,0,65,0,576,0,40,16,0,
0,10,-42,-18,0,1,100,0,552,0,16,16,0,-39,-35,0,1,100,0,520,0,16,16,0,-32,-27,0,1,100,0,536,0,16,16,0,-47,-43,0,1,100,0,536,16,16,16,0,-43,-39,0,0,100,0,0,856,80,72,0,-81,-54,0,0,100,0,88,832,72,64,0,-68,-58,0,0,50,0,88,832,72,64,0,-57,-60,0,0,20,0,88,832,72,64,0,-22,16,0,0,65,0,576,0,40,16,0,-74,-11,0,0,65,0,576,0,40,16,0,
0,11,-36,-25,0,1,100,0,536,0,16,16,0,-61,-36,0,1,100,0,520,16,16,16,0,-40,-44,0,1,100,0,552,0,16,16,0,-47,-20,0,1,100,0,552,16,24,24,0,-43,-39,0,0,100,0,0,928,80,72,0,-176,-68,0,1,100,0,160,0,168,88,0,-102,-63,0,0,100,0,64,64,96,80,0,-75,-52,0,0,50,0,88,832,72,64,0,-58,-66,0,0,20,0,88,832,72,64,0,-22,16,0,0,65,0,576,0,40,16,0,-93,0,0,0,65,0,576,0,40,16,0,
0,12,4,-78,0,1,100,0,552,0,16,16,0,-28,-91,0,1,100,0,552,0,16,16,0,-53,-55,0,1,100,0,536,0,16,16,0,-49,-29,0,1,100,0,520,0,16,16,0,-42,-76,0,1,100,0,520,16,16,16,0,-11,-69,0,1,100,0,536,16,16,16,0,-13,-92,0,1,100,0,552,16,24,24,0,-40,-79,0,0,100,0,80,896,56,72,0,-178,-67,0,1,100,0,160,88,168,72,0,-104,-62,0,0,100,0,64,64,96,80,0,-35,10,0,0,65,0,576,16,40,16,0,-95,1,0,0,65,0,576,0,40,16,0,
0,12,-7,-138,0,1,60,0,552,0,16,16,0,-47,-110,0,1,80,0,536,0,16,16,0,0,-123,0,1,100,0,520,0,16,16,0,-57,-80,0,1,50,0,520,0,16,16,0,3,-95,0,1,50,0,520,0,16,16,0,-21,-123,0,1,100,0,520,16,16,16,0,11,-134,0,1,100,0,536,16,16,16,0,-45,-110,0,0,100,0,136,896,64,72,0,-180,-66,0,1,100,0,160,160,168,64,0,-106,-61,0,0,100,0,64,64,96,80,0,-46,2,0,0,65,0,576,16,40,16,0,-97,2,0,0,65,0,576,0,40,16,0,
0,12,-34,-145,0,1,100,0,552,16,24,24,0,-19,-126,0,1,100,0,520,0,16,16,0,-4,-156,0,1,60,0,552,0,16,16,0,-66,-120,0,1,50,0,536,0,16,16,0,-68,-80,0,1,20,0,520,0,16,16,0,41,-128,0,1,20,0,520,0,16,16,0,-5,-141,0,1,100,0,520,16,16,16,0,-19,-150,0,1,100,0,536,16,16,16,0,-50,-123,0,0,100,0,0,1000,64,72,0,-105,-53,0,0,100,0,64,1000,96,72,0,-54,-7,0,0,65,0,576,16,40,16,0,-99,3,0,0,65,0,576,0,40,16,0,
0,11,-156,-53,0,1,100,0,160,968,112,80,0,-18,-158,0,1,100,0,552,16,24,24,0,2,-129,0,1,100,0,520,0,16,16,0,-73,-125,0,1,20,0,520,0,16,16,0,-26,-135,0,1,50,0,520,0,16,16,0,-26,-105,0,1,100,0,520,16,16,16,0,-43,-142,0,1,100,0,536,16,16,16,0,-60,-126,0,0,100,0,0,1072,56,72,0,-103,-33,0,0,100,0,56,1072,72,64,0,-58,-8,0,0,65,0,576,16,40,16,0,-103,7,0,0,65,0,576,0,40,16,0,
0,11,-42,-129,0,1,100,0,552,16,24,24,0,-47,-105,0,1,100,0,520,0,16,16,0,-97,-117,0,1,20,0,520,0,16,16,0,-65,-146,0,1,50,0,520,0,16,16,0,16,-130,0,1,50,0,520,16,16,16,0,-4,-163,0,1,50,0,536,16,16,16,0,-74,-124,0,0,100,0,0,1144,56,72,0,-154,-41,0,1,100,0,160,1048,112,72,0,-102,-35,0,0,100,0,56,1136,72,64,0,-68,-13,0,0,65,0,576,16,40,16,0,-103,7,0,0,65,0,576,0,40,16,0,
0,20,-155,-27,0,1,100,0,160,1120,112,56,0,-102,-35,0,0,100,0,56,1136,72,64,0,-123,-86,0,1,100,0,520,16,16,16,0,-123,-124,0,1,100,0,536,16,16,16,0,-160,-49,0,1,100,0,536,16,16,16,0,-196,-91,0,1,100,0,552,16,24,24,0,-44,-20,0,1,100,0,552,16,24,24,0,-174,-34,0,1,100,0,552,16,24,24,0,-61,-7,0,1,100,0,552,0,16,16,0,-152,-90,0,1,100,0,552,0,16,16,0,-137,-1,0,1,100,0,552,0,16,16,0,-95,9,0,1,100,0,536,0,16,16,0,-175,-66,0,1,100,0,536,0,16,16,0,-184,-49,0,1,100,0,520,0,16,16,0,-156,-10,0,1,100,0,520,0,16,16,0,-88,-149,0,1,100,0,520,0,16,16,0,-94,-107,0,1,100,0,520,0,16,16,0,-159,-92,0,0,100,0,272,928,128,104,0,-93,-16,0,0,65,0,576,0,40,16,0,-103,7,0,0,65,0,576,0,40,16,0,
0,18,-102,-45,0,0,100,0,56,1200,72,64,0,-165,-110,0,1,80,0,520,16,16,16,0,-28,-12,0,1,80,0,536,16,16,16,0,-205,-98,0,1,80,0,536,16,16,16,0,-189,-17,0,1,80,0,536,16,16,16,0,-128,-159,0,1,80,0,552,16,24,24,0,-50,-1,0,1,80,0,552,16,24,24,0,-152,11,0,1,80,0,552,16,24,24,0,-202,-53,0,1,80,0,552,0,16,16,0,-186,-34,0,1,80,0,536,0,16,16,0,-172,1,0,1,80,0,536,0,16,16,0,-204,-79,0,1,80,0,520,0,16,16,0,-134,-28,0,1,80,0,520,0,16,16,0,-90,30,0,1,80,0,520,0,16,16,0,-125,-120,0,1,80,0,520,0,16,16,0,-158,-68,0,0,100,0,272,1032,128,80,0,-93,-16,0,0,65,0,576,0,40,16,0,-103,7,0,0,65,0,576,0,40,16,0,
0,15,-104,-47,0,0,100,0,128,1176,80,72,0,-140,-182,0,1,40,0,520,16,16,16,0,-168,-27,0,1,40,0,536,16,16,16,0,-167,53,0,1,40,0,536,16,16,16,0,-232,-11,0,1,40,0,552,16,24,24,0,-246,-119,0,1,40,0,552,0,16,16,0,-246,-86,0,1,40,0,536,0,16,16,0,-33,23,0,1,40,0,536,0,16,16,0,-202,21,0,1,40,0,520,0,16,16,0,-13,-4,0,1,40,0,520,0,16,16,0,-88,44,0,1,40,0,520,0,16,16,0,-175,-134,0,1,40,0,520,0,16,16,0,-158,-60,0,0,100,0,272,1112,128,72,0,-93,-16,0,0,65,0,576,0,40,16,0,-103,7,0,0,65,0,576,0,40,16,0,
0,4,-104,-44,0,0,100,0,208,1184,80,64,0,-101,-54,0,0,100,0,288,1184,64,56,0,-93,-16,0,0,65,0,576,0,40,16,0,-103,7,0,0,65,0,576,0,40,16,0,
0,8,-112,-30,0,0,100,0,280,496,72,56,0,-106,-32,0,0,50,0,280,496,72,56,0,-102,-37,0,0,20,0,280,496,72,56,0,-104,-65,0,0,100,0,208,496,72,56,0,-97,-59,0,0,50,0,208,496,72,56,0,-91,-50,0,0,20,0,208,496,72,56,0,-94,-21,0,0,65,0,576,0,40,16,0,-106,14,0,0,65,0,576,0,40,16,0,
0,8,-136,-26,0,0,100,0,280,552,56,72,0,-123,-29,0,0,50,0,280,552,56,72,0,-110,-32,0,0,20,0,280,552,56,72,0,-126,-66,0,0,100,0,208,552,64,56,0,-117,-62,0,0,50,0,208,552,64,56,0,-109,-56,0,0,20,0,208,552,64,56,0,-112,-26,0,0,65,0,576,0,40,16,0,-123,17,0,0,65,0,576,0,40,16,0,
0,11,-197,-39,0,1,100,0,328,0,88,88,0,-192,-16,0,0,100,0,304,624,104,48,0,-140,-18,0,0,10,0,280,552,56,72,0,-130,-15,0,0,5,0,280,552,56,72,0,-193,-75,0,1,100,0,416,24,72,64,0,-173,-67,0,0,100,0,208,624,96,56,0,-172,-39,0,1,100,0,488,40,120,16,0,-129,-68,0,0,30,0,208,552,64,56,0,-124,-70,0,0,10,0,208,552,64,56,0,-119,-26,0,0,65,0,576,0,40,16,0,-128,18,0,0,65,0,576,0,40,16,0,
0,11,-238,-141,0,0,100,0,360,88,128,192,0,-311,-73,3,0,100,0,680,56,192,192,0,-223,-212,0,0,100,0,680,56,192,192,0,-250,-102,3,1,100,0,488,56,192,192,0,-288,-190,0,1,100,0,488,56,192,192,0,-118,-54,0,0,100,0,280,768,72,48,0,-142,-57,0,0,100,0,304,672,96,88,0,-134,-99,0,0,100,0,208,768,72,48,0,-145,-98,0,0,100,0,208,680,80,88,0,-120,-26,0,0,65,0,576,0,40,16,0,-138,20,0,0,65,0,576,0,40,16,0,
0,16,-238,-141,0,1,40,0,360,88,128,192,0,-311,-73,3,1,40,0,680,56,192,192,0,-223,-212,0,1,40,0,680,56,192,192,0,-250,-102,3,1,40,0,488,56,192,192,0,-288,-190,0,1,100,0,488,56,192,192,0,-238,-141,0,0,100,0,360,88,128,192,0,-311,-73,3,0,100,0,680,56,192,192,0,-223,-212,0,0,100,0,680,56,192,192,0,-250,-102,3,1,100,0,488,56,192,192,0,-288,-190,0,1,100,0,488,56,192,192,0,-117,-58,0,0,100,0,280,816,72,48,0,-141,-61,0,0,100,0,304,672,96,88,0,-134,-99,0,0,100,0,208,816,72,48,0,-145,-98,0,0,100,0,208,680,80,88,0,-120,-26,0,0,65,0,576,0,40,16,0,-137,20,0,0,65,0,576,0,40,16,0,
0,14,-238,-141,0,1,100,0,360,88,128,192,0,-311,-73,3,1,100,0,680,56,192,192,0,-223,-212,0,1,100,0,680,56,192,192,0,-250,-102,3,1,100,0,488,56,192,192,0,-288,-190,0,1,100,0,488,56,192,192,0,-238,-141,0,0,100,0,360,88,128,192,0,-311,-73,3,0,100,0,680,56,192,192,0,-223,-212,0,0,100,0,680,56,192,192,0,-250,-102,3,1,100,0,488,56,192,192,0,-288,-190,0,1,100,0,488,56,192,192,0,-139,-64,0,0,100,0,304,672,96,88,0,-145,-98,0,0,100,0,208,680,80,88,0,-120,-26,0,0,65,0,576,0,40,16,0,-136,20,0,0,65,0,576,16,40,16,0,
0,9,-268,-186,0,1,100,0,352,280,184,280,0,-332,-51,3,0,100,0,760,248,192,192,0,-214,-233,0,0,100,0,760,248,192,192,0,-263,-111,3,1,100,0,536,248,224,224,0,-312,-218,0,1,100,0,536,248,224,224,0,-138,-67,0,0,100,0,304,672,96,88,0,-145,-98,0,0,100,0,208,680,80,88,0,-120,-26,0,0,65,0,576,0,40,16,0,-134,20,0,0,65,0,576,16,40,16,0,
0,13,-269,-205,0,1,100,0,408,560,192,312,0,-358,-25,3,0,100,0,872,472,216,216,0,-203,-293,0,0,100,0,872,472,216,216,0,-262,-71,3,1,100,0,600,472,272,272,0,-357,-284,0,1,100,0,600,472,272,272,0,-332,-51,3,0,50,0,760,248,192,192,0,-214,-233,0,0,50,0,760,248,192,192,0,-263,-111,3,1,50,0,536,248,224,224,0,-312,-218,0,1,50,0,536,248,224,224,0,-138,-55,0,0,100,0,472,960,96,72,0,-137,-97,0,0,100,0,400,1048,72,88,0,-132,20,0,0,65,0,576,16,40,16,0,-120,-26,0,0,65,0,576,0,40,16,0,
0,9,-358,-25,3,0,50,0,872,472,216,216,0,-203,-293,0,0,50,0,872,472,216,216,0,-262,-71,3,1,50,0,600,472,272,272,0,-357,-284,0,1,50,0,600,472,272,272,0,-289,-226,0,1,50,0,952,0,232,352,0,-137,-56,0,0,100,0,472,960,96,72,0,-137,-97,0,0,100,0,400,1048,72,88,0,-131,20,0,0,65,0,576,16,40,16,0,-120,-26,0,0,65,0,576,0,40,16,0,
0,9,-358,-25,3,0,20,0,872,472,216,216,0,-203,-293,0,0,20,0,872,472,216,216,0,-262,-71,3,1,20,0,600,472,272,272,0,-357,-284,0,1,20,0,600,472,272,272,0,-289,-226,0,1,20,0,952,0,232,352,0,-127,-36,0,0,100,0,472,1032,96,72,0,-137,-97,0,0,100,0,400,1048,72,88,0,-126,20,0,0,65,0,576,0,40,16,0,-120,-26,0,0,65,0,576,0,40,16,0,
0,4,-127,-36,0,0,100,0,472,1104,96,72,0,-145,-98,0,0,100,0,208,680,80,88,0,-126,20,0,0,65,0,576,0,40,16,0,-120,-26,0,0,65,0,576,0,40,16,0,
0,4,-141,-45,0,0,100,0,640,984,96,80,0,-128,-68,0,0,100,0,568,984,72,56,0,-131,20,0,0,65,0,576,0,40,16,0,-116,-26,0,0,65,0,576,0,40,16,0,
0,6,-143,-51,0,0,100,0,736,984,72,88,0,-65,-79,0,0,100,0,568,984,72,56,0,-86,-77,0,0,50,0,568,984,72,56,0,-107,-72,0,0,20,0,568,984,72,56,0,-140,20,0,0,65,0,576,0,40,16,0,-50,-19,0,0,65,0,576,16,40,16,0,
0,8,-104,-80,0,0,100,0,736,984,72,88,0,-121,-75,0,0,50,0,736,984,72,88,0,-138,-64,0,0,20,0,736,984,72,88,0,3,-49,0,0,100,0,288,1184,64,56,0,-20,-63,0,0,50,0,568,984,72,56,0,-48,-76,0,0,20,0,568,984,72,56,0,-101,9,0,0,65,0,576,16,40,16,0,12,-8,0,0,65,0,576,0,40,16,0,
0,8,-38,-85,0,0,100,0,736,984,72,88,0,-60,-88,0,0,50,0,736,984,72,88,0,-82,-89,0,0,20,0,736,984,72,88,0,4,-49,0,0,100,0,288,1184,64,56,0,-13,-55,0,0,50,0,568,984,72,56,0,-25,-62,0,0,20,0,568,984,72,56,0,-35,-15,0,0,65,0,576,0,40,16,0,13,-8,0,0,65,0,576,0,40,16,0,
0,6,-37,-85,0,0,100,0,736,984,72,88,0,-48,-87,0,0,50,0,736,984,72,88,0,-58,-88,0,0,20,0,736,984,72,88,0,4,-49,0,0,100,0,288,1184,64,56,0,-34,-15,0,0,65,0,576,0,40,16,0,13,-8,0,0,65,0,576,0,40,16,0,
0,4,-36,-85,0,0,100,0,736,984,72,88,0,4,-49,0,0,100,0,288,1184,64,56,0,-33,-15,0,0,65,0,576,0,40,16,0,13,-8,0,0,65,0,576,0,40,16,0,
0,3,-44,-78,0,0,100,0,408,872,104,88,0,-33,-15,0,0,65,0,576,0,40,16,0,13,-8,0,0,65,0,576,0,40,16,0,
0,3,-44,-78,0,0,100,0,512,872,104,88,0,-33,-15,0,0,65,0,576,0,40,16,0,13,-8,0,0,65,0,576,0,40,16,0,
0,3,-44,-78,0,0,100,0,616,872,104,88,0,-33,-15,0,0,65,0,576,0,40,16,0,13,-8,0,0,65,0,576,0,40,16,0,
0,3,-44,-78,0,0,100,0,720,872,104,88,0,-33,-15,0,0,65,0,576,0,40,16,0,13,-8,0,0,65,0,576,0,40,16,0,
0,3,-44,-78,0,0,100,0,824,872,104,88,0,-33,-15,0,0,65,0,576,0,40,16,0,13,-8,0,0,65,0,576,0,40,16,0,
0,3,-44,-78,0,0,100,0,928,872,104,88,0,-33,-15,0,0,65,0,576,0,40,16,0,13,-8,0,0,65,0,576,0,40,16,0,
0,3,-44,-78,0,0,100,0,1032,872,104,88,0,-33,-15,0,0,65,0,576,0,40,16,0,13,-8,0,0,65,0,576,0,40,16,0,
0,3,-44,-78,0,0,100,0,1136,872,104,88,0,-33,-15,0,0,65,0,576,0,40,16,0,13,-8,0,0,65,0,576,0,40,16,0,
