1,0,0,4,
2,0,0,4,
3,0,0,4,
4,0,0,4,
5,0,0,4,
6,0,0,4,
7,0,0,4,
8,0,0,4,
9,0,0,4,
10,0,0,4,
10,0,0,4,
11,0,0,4,
12,0,0,4,
13,0,0,4,
14,0,0,4,
15,0,0,4,
16,0,0,4,
17,0,0,4,
18,0,0,4,
19,0,0,4,
20,0,0,4,
21,0,0,4,
22,0,0,4,
23,0,0,4,
24,0,0,4,
25,0,0,4,
26,0,0,4,
27,0,0,4,
28,0,0,4,
29,0,0,4,
30,0,0,4,
31,0,0,4,
32,0,0,4,
33,0,0,4,
34,0,0,4,
35,0,0,4,
36,0,0,4,
37,0,0,4,
38,0,0,4,
39,0,0,4,
40,0,0,4,
41,0,0,4,
42,0,0,4,
43,0,0,4,
44,0,0,4,
45,0,0,4,
46,0,0,4,
47,0,0,4,
48,0,0,4,
49,0,0,4,
50,0,0,4,
51,0,0,4,
52,0,0,4,
53,0,0,4,
54,0,0,3,
55,0,0,2,
56,0,0,2,
57,0,0,2,
58,0,0,2,
59,0,0,2,
60,0,0,2,
61,0,0,2,
62,0,0,2,
63,0,0,2,
64,0,0,2,
65,0,0,2,
66,0,0,2,
67,0,0,2,
68,0,0,2,
69,0,0,2,
70,0,0,2,
71,0,0,2,
72,0,0,2,
73,0,0,2,
74,0,0,2,
75,0,0,2,
76,0,0,2,
77,0,0,2,
78,0,0,2,
79,0,0,2,
80,0,0,2,
81,0,0,2,
82,0,0,2,
83,0,0,2,
84,0,0,2,
85,0,0,2,
86,0,0,2,
87,0,0,2,
88,0,0,2,
89,0,0,2,
90,0,0,2,
91,0,0,2,
92,0,0,2,
93,0,0,2,
94,0,0,2,
95,0,0,2,
96,0,0,2,
97,0,0,2,
98,0,0,2,
99,0,0,2,
100,0,0,2,
101,0,0,2,
102,0,0,2,
103,0,0,2,
104,0,0,2,
105,0,0,2,
106,0,0,2,
107,0,0,2,
108,0,0,2,
109,0,0,2,
110,0,0,2,
111,0,0,2,
112,0,0,2,
113,0,0,2,
114,0,0,2,
115,0,0,2,
116,0,0,2,
117,0,0,2,
118,0,0,2,
119,0,0,2,
120,0,0,2,
121,0,0,2,
122,0,0,2,
123,0,0,2,
124,0,0,2,
125,0,0,2,
126,0,0,2,
127,0,0,2,
128,0,0,2,
129,0,0,2,
130,0,0,2,
131,0,0,2,
132,0,0,2,
133,0,0,2,
134,0,0,2,
135,0,0,2,
136,0,0,2,
137,0,0,2,
138,0,0,2,
139,0,0,2,
140,0,0,2,
141,0,0,2,
142,0,0,3,
143,0,0,3,
144,0,0,4,
145,0,0,4,
146,0,0,5,
147,0,0,5,
148,0,0,5,
149,0,0,5,
150,0,0,5,
151,0,0,5,
152,0,0,5,
153,0,0,5,
154,0,0,4,
155,0,0,4,
156,0,0,4,
157,0,0,4,
158,0,0,4,
159,0,0,4,
160,0,0,4,
161,0,0,4,
162,0,0,4,
163,0,0,4,
164,0,0,4,
165,0,0,4,
166,0,0,4,
167,0,0,4,
168,0,0,4,
169,0,0,4,
170,0,0,4,
171,0,0,4,
172,0,0,4,
173,0,0,7,
173,0,0,6,
174,0,0,4,
175,0,0,4,
176,0,0,4,
174,0,0,4,
175,0,0,4,
176,0,0,4,
174,0,0,3,
175,0,0,3,
176,0,0,8,
177,0,0,4,
178,0,0,4,
179,0,0,4,
180,0,0,4,
