0,0,0,5,
1,0,0,5,
2,0,0,5,
3,0,0,5,
4,0,0,5,
5,0,0,5,
6,0,0,4,
7,0,0,4,
8,0,0,5,
9,0,0,5,
10,0,0,5,
11,0,0,5,
12,0,0,5,
14,0,0,5,
15,0,0,6,
16,0,0,7,
17,0,0,4,
18,0,0,4,
19,0,0,4,
20,0,0,4,
21,0,0,4,
22,0,0,4,
23,0,0,4,
24,0,0,4,
25,0,0,4,
26,0,0,4,
27,0,0,4,
28,0,0,4,
29,0,0,4,
30,0,0,4,
31,0,0,4,
32,0,0,4,
33,0,0,4,
34,0,0,4,
35,0,0,4,
36,0,0,4,
37,0,0,5,
38,0,0,5,
39,0,0,5,
40,0,0,5,
41,0,0,5,
42,0,0,5,
43,0,0,5,
44,0,0,5,
45,0,0,5,
46,0,0,5,
47,0,0,5,
48,0,0,5,
49,0,0,5,
50,0,0,5,
51,0,0,5,
52,0,0,5,
53,0,0,5,
54,0,0,5,
55,0,0,5,
56,0,0,5,
57,0,0,5,
58,0,0,5,
59,0,0,5,
60,0,0,5,
61,0,0,5,
62,0,0,5,
63,0,0,5,
