0,0,0,12,
1,0,0,12,
2,0,0,12,
3,0,0,4,
4,0,0,7,
5,0,0,14,
6,0,0,12,
7,0,0,7,
8,0,0,6,
9,0,0,4,
10,0,0,4,
11,0,0,4,
12,0,0,4,
13,0,0,4,
14,0,0,6,
15,0,0,6,
16,0,0,6,
17,0,0,6,
18,0,0,7,
19,0,0,7,
20,0,0,4,
21,0,0,3,
22,0,0,3,
23,0,0,6,
24,0,0,6,
25,0,0,7,
26,0,0,9,
27,0,0,10,
28,0,0,4,
29,0,0,4,
30,0,0,6,
31,0,0,6,
32,0,0,6,
33,0,0,6,
34,0,0,7,
35,0,0,7,
36,0,0,7,
37,0,0,7,
38,0,0,8,
39,0,0,8,
40,0,0,6,
41,0,0,6,
42,0,0,6,
43,0,0,7,
44,0,0,7,
45,0,0,7,
46,0,0,4,
47,0,0,4,
48,0,0,4,
49,0,0,4,
50,0,0,4,
51,0,0,6,
52,0,0,7,
53,0,0,9,
54,0,0,9,
55,0,0,9,
56,0,0,9,
57,0,0,9,
58,0,0,9,
59,0,0,3,
60,0,0,3,
61,0,0,3,
62,0,0,3,
63,0,0,4,
64,0,0,4,
65,0,0,4,
66,0,0,4,
67,0,0,7,
68,0,0,9,
69,0,0,12,
70,0,0,14,
71,0,0,10,
72,0,0,3,
73,0,0,4,
74,0,0,4,
75,0,0,6,
76,0,0,6,
77,0,0,6,
78,0,0,6,
79,0,0,19,
80,0,0,6,
81,0,0,7,
82,0,0,8,
83,0,0,6,
84,0,0,6,
85,0,0,6,
86,0,0,6,
87,0,0,6,
88,0,0,6,
89,0,0,6,
90,0,0,6,
91,0,0,6,
92,0,0,6,
93,0,0,6,
