0,0,0,5,
1,0,0,5,
2,0,0,5,
3,0,0,6,
4,0,0,8,
5,0,0,8,
6,0,0,6,
7,0,0,6,
8,0,0,4,
9,0,0,6,
10,0,0,4,
11,0,0,6,
12,0,0,6,
13,0,0,6,
14,0,0,4,
15,0,0,6,
16,0,0,6,
17,0,0,4,
18,0,0,8,
19,0,0,6,
20,0,0,8,
21,0,0,12,
22,0,0,6,
23,0,0,6,
24,0,0,8,
25,0,0,8,
26,0,0,8,
27,0,0,8,
28,0,0,8,
29,0,0,12,
30,0,0,5,
31,0,0,8,
32,0,0,5,
33,0,0,6,
34,0,0,6,
35,0,0,6,
36,0,0,6,
37,0,0,6,
38,0,0,6,
39,0,0,4,
40,0,0,4,
41,0,0,8,
42,0,0,8,
43,0,0,4,
44,0,0,4,
45,0,0,4,
46,0,0,4,
47,0,0,4,
48,0,0,4,
50,0,0,8,
51,0,0,8,
52,0,0,8,
49,0,0,8,
50,0,0,8,
51,0,0,8,
52,0,0,8,
