0,3,-53,-85,0,0,100,0,0,192,96,96,0,-73,-53,0,0,100,0,704,960,128,64,0,-64,-34,0,0,65,0,1024,0,128,64,0,
0,3,-53,-85,0,0,100,0,96,192,96,96,0,-73,-63,0,0,100,0,704,1024,128,64,0,-64,-34,0,0,65,0,1024,0,128,64,0,
0,4,-53,-85,0,0,100,0,0,192,96,96,0,-71,-63,0,0,100,0,704,1024,128,64,0,-75,-66,0,0,100,0,704,832,128,64,0,-64,-34,0,0,65,0,1024,0,128,64,0,
0,4,-53,-85,0,0,100,0,0,192,96,96,0,-71,-63,0,0,100,0,704,1024,128,64,0,-102,-66,0,0,100,0,672,896,160,64,0,-64,-34,0,0,65,0,1024,0,128,64,0,
0,3,-53,-85,0,0,100,0,0,192,96,96,0,-71,-63,0,0,100,0,704,1024,128,64,0,-64,-34,0,0,65,0,1024,0,128,64,0,
0,2,-125,-93,0,0,100,0,672,320,128,128,0,-112,-34,0,0,65,0,1024,0,128,64,0,
0,3,-205,-149,0,1,100,0,1152,0,192,192,0,-165,-93,0,0,100,0,192,192,96,96,0,-160,-34,0,0,65,0,1024,0,128,64,0,
0,6,-109,-61,0,1,20,0,864,288,96,96,0,-253,-117,0,1,100,0,1152,192,320,192,0,-205,-149,0,1,100,0,1344,0,192,192,0,-205,-149,0,1,20,0,1152,0,192,192,0,-165,-95,0,0,100,0,192,192,96,96,0,-160,-34,0,0,65,0,1024,0,128,64,0,
0,7,-141,-69,0,1,100,0,864,288,96,96,0,-165,-221,0,1,100,0,864,192,144,96,0,-325,-181,0,1,100,0,1472,192,256,192,0,-189,-197,0,1,100,0,1536,0,192,192,0,-205,-149,0,1,20,0,1344,0,192,192,0,-133,-197,0,0,100,0,288,192,128,128,0,-136,-34,0,0,65,0,1024,0,128,64,0,
0,6,-189,-85,0,1,100,0,960,288,96,96,0,-317,-181,0,1,50,0,1728,192,160,192,0,-165,-221,0,1,100,0,1008,192,144,96,0,-173,-205,0,1,100,0,1728,0,160,192,0,-109,-181,0,0,100,0,416,192,128,128,0,-112,-34,0,0,65,0,1024,0,128,64,0,
0,4,-181,-245,0,1,100,0,864,384,192,96,0,-229,-101,0,1,100,0,1056,288,96,96,0,-77,-133,0,0,100,0,416,192,128,128,0,-80,-34,0,0,65,0,1024,0,128,64,0,
0,5,-180,-248,0,1,50,0,864,384,192,96,0,-253,-109,0,1,50,0,1056,288,96,96,0,-61,-101,0,0,100,0,544,192,128,128,0,-69,-66,0,0,100,0,704,1024,128,64,0,-64,-34,0,0,65,0,1024,0,128,64,0,
0,3,-53,-85,0,0,100,0,96,192,96,96,0,-73,-63,0,0,100,0,704,1024,128,64,0,-64,-34,0,0,65,0,1024,0,128,64,0,
0,2,-93,-93,0,0,100,0,672,320,128,128,0,-80,-34,0,0,65,0,1024,0,128,64,0,
0,3,-205,-117,0,1,100,0,1152,384,288,192,0,-117,-109,0,0,100,0,32,320,128,128,0,-112,-34,0,0,65,0,1024,0,128,64,0,
0,7,-213,-101,0,1,100,0,864,192,144,96,0,-277,-229,0,1,100,0,1152,576,192,288,0,-213,-117,0,1,100,0,1440,384,288,192,0,-253,-221,0,1,50,0,864,672,96,192,0,-205,-117,0,1,50,0,1152,384,288,192,0,-100,-109,0,0,100,0,160,320,128,128,0,-112,-34,0,0,65,0,1024,0,128,64,0,
0,7,-213,-109,0,1,100,0,1008,192,144,96,0,-229,-205,0,1,100,0,1344,576,192,288,0,-237,-197,0,1,100,0,864,672,96,192,0,-205,-117,0,1,100,0,1728,384,160,192,0,-213,-117,0,1,50,0,1440,384,288,192,0,-93,-101,0,0,100,0,288,320,128,128,0,-102,-34,0,0,65,0,1024,0,128,64,0,
0,6,-237,-133,0,1,100,0,864,384,192,96,0,-213,-85,0,1,50,0,1536,672,192,192,0,-189,-125,0,1,100,0,864,672,96,192,0,-205,-117,0,1,20,0,1728,384,160,192,0,-93,-101,0,0,100,0,544,320,128,128,0,-101,-34,0,0,65,0,1024,0,128,64,0,
0,4,-237,-133,0,1,20,0,864,384,192,96,0,-165,-93,0,1,100,0,1056,672,96,192,0,-69,-83,1,0,100,0,192,192,96,96,0,-96,-34,0,0,65,0,1024,0,128,64,0,
0,3,-149,-77,0,1,30,0,1056,672,96,192,0,-69,-171,1,0,100,0,192,192,96,96,0,-102,-34,0,0,65,0,1024,0,128,64,0,
0,2,-109,-221,0,0,100,0,32,448,128,128,0,-120,-30,0,0,65,0,1024,0,128,64,0,
0,2,-111,-225,0,0,100,0,160,448,128,128,0,-128,-27,0,0,65,0,1024,0,128,64,0,
0,4,-112,-228,0,0,100,0,288,448,128,128,0,-17,-240,0,0,50,0,0,0,96,128,0,-40,-50,0,0,20,0,1024,0,128,64,0,-136,-25,0,0,65,0,1024,0,128,64,0,
0,5,-245,-197,0,1,100,0,0,1152,192,256,0,-197,-69,0,0,100,0,416,448,128,128,0,-27,-237,0,0,100,0,0,0,96,128,0,-48,-50,0,0,65,0,1024,0,128,64,0,-180,-18,0,0,65,0,1024,0,128,64,0,
0,7,-269,-107,0,1,100,90,864,192,144,96,0,-285,-197,0,1,100,0,192,1152,192,256,0,-245,-197,0,1,30,0,0,1152,192,256,0,-195,-67,0,0,100,0,160,704,128,128,0,-25,-228,0,0,100,0,96,0,96,128,0,-56,-50,0,0,65,0,1024,0,128,64,0,-176,-18,0,0,65,0,1024,0,128,64,0,
0,9,-173,-181,0,1,100,0,1152,864,96,192,0,-271,-103,0,1,100,90,1008,192,144,96,0,-293,-37,0,1,100,0,384,1408,256,128,0,-285,-197,0,1,30,0,192,1152,192,256,0,-175,-69,0,0,100,0,544,704,128,128,0,-181,-293,0,1,100,0,384,1152,256,256,0,-117,-146,0,0,100,0,192,0,96,96,0,-170,-18,0,0,65,0,1024,0,128,64,0,-136,-50,0,0,65,0,1024,0,128,64,0,
0,10,-293,-128,0,1,100,90,864,384,192,96,0,-293,-37,0,1,30,0,384,1408,256,128,0,-205,-37,0,1,100,0,640,1408,192,128,0,-148,-69,0,0,100,0,32,576,128,128,0,-181,-261,0,1,100,0,640,1152,192,256,0,-189,-293,0,1,30,0,384,1152,256,256,0,-141,-149,0,1,100,0,1248,864,96,192,0,-115,-143,0,0,100,0,192,96,96,96,0,-167,-18,0,0,65,0,1024,0,128,64,0,-128,-50,0,0,65,0,1024,0,128,64,0,
0,7,-293,-128,0,1,30,90,864,384,192,96,0,-138,-78,0,0,100,0,32,576,128,128,0,-181,-261,0,1,30,0,640,1152,192,256,0,-109,-133,0,1,80,0,1344,864,96,192,0,-114,-142,0,0,100,0,672,96,96,96,0,-128,-50,0,0,65,0,1024,0,128,64,0,-160,-18,0,0,65,0,1024,0,128,64,0,
0,5,-138,-110,0,0,100,0,160,576,128,128,0,-101,-133,0,1,20,0,1344,864,96,192,0,-89,-193,0,0,100,0,960,64,96,128,0,-152,-26,0,0,65,0,1024,0,128,64,0,-104,-50,0,0,65,0,1024,0,128,64,0,
0,4,-114,-158,0,0,100,0,160,576,128,128,0,-65,-209,0,0,100,0,288,0,96,128,0,-128,-34,0,0,65,0,1024,0,128,64,0,-83,-50,0,0,65,0,1024,0,128,64,0,
0,4,-103,-177,0,0,100,0,288,576,128,128,0,-62,-219,0,0,100,0,288,0,96,128,0,-122,-34,0,0,65,0,1024,0,128,64,0,-80,-50,0,0,65,0,1024,0,128,64,0,
0,4,-101,-180,0,0,100,0,288,576,128,128,0,-60,-219,0,0,100,0,288,0,96,96,0,-120,-34,0,0,65,0,1024,0,128,64,0,-78,-50,0,0,65,0,1024,0,128,64,0,
0,4,-105,-179,0,0,100,0,416,576,128,128,0,-68,-219,0,0,100,0,384,0,96,128,0,-131,-34,0,0,65,0,1024,0,128,64,0,-88,-50,0,0,65,0,1024,0,128,64,0,
0,7,-309,-37,0,1,100,0,960,1712,192,112,0,-309,-301,0,1,100,0,832,1152,320,384,0,-249,-75,0,0,100,0,672,448,128,128,0,-277,-301,0,1,100,0,1152,1152,320,384,0,-209,-116,0,0,100,0,448,96,128,96,0,-187,-58,0,0,65,0,1024,0,128,64,0,-241,-18,0,0,65,0,1024,0,128,64,0,
0,9,-301,-109,0,1,100,0,1344,1696,192,128,0,-285,-205,0,1,100,0,0,1600,192,256,0,-309,-301,0,1,30,0,832,1152,320,384,0,-245,-72,0,0,100,0,160,704,128,128,0,-184,-58,0,0,65,0,1024,0,128,64,0,-253,-205,0,1,100,0,0,1408,128,192,0,-277,-301,0,1,30,0,1152,1152,320,384,0,-176,-115,0,0,100,0,576,0,96,96,0,-240,-18,0,0,65,0,1024,0,128,64,0,
0,10,-301,-141,0,1,100,0,1536,1280,192,192,0,-301,-109,0,1,30,0,1344,1696,192,128,0,-325,-173,0,1,100,0,192,1600,192,256,0,-285,-205,0,1,30,0,0,1600,192,256,0,-245,-72,0,0,100,0,288,704,128,128,0,-317,-205,0,1,100,0,192,1408,192,192,0,-253,-205,0,1,30,0,0,1408,128,192,0,-176,-115,0,0,100,0,672,0,96,96,0,-184,-58,0,0,65,0,1024,0,128,64,0,-240,-18,0,0,65,0,1024,0,128,64,0,
0,9,-301,-205,0,1,100,0,768,1536,192,288,0,-333,-109,0,1,100,0,384,1664,192,192,0,-325,-173,0,1,30,0,192,1600,192,256,0,-245,-72,0,0,100,0,416,704,128,128,0,-285,-141,0,1,100,0,384,1536,192,128,0,-317,-205,0,1,30,0,192,1408,192,192,0,-176,-115,0,0,100,0,768,0,96,96,0,-184,-58,0,0,65,0,1024,0,128,64,0,-240,-18,0,0,65,0,1024,0,128,64,0,
0,8,-333,-109,0,1,30,0,384,1664,192,192,0,-301,-205,0,1,100,0,1152,1536,192,288,0,-301,-205,0,1,30,0,960,1536,192,288,0,-245,-72,0,0,100,0,32,704,128,128,0,-285,-141,0,1,30,0,384,1536,192,128,0,-176,-115,0,0,100,0,480,0,96,96,0,-184,-58,0,0,65,0,1024,0,128,64,0,-240,-18,0,0,65,0,1024,0,128,64,0,
0,4,-245,-72,0,0,100,0,160,704,128,128,0,-176,-115,0,0,100,0,576,0,96,96,0,-184,-58,0,0,65,0,1024,0,128,64,0,-240,-18,0,0,65,0,1024,0,128,64,0,
0,6,-301,-205,0,1,100,0,576,1536,192,288,0,-301,-205,0,1,50,0,1152,1536,192,288,0,-245,-72,0,0,100,0,32,704,128,128,0,-176,-115,0,0,100,0,576,0,96,96,0,-184,-58,0,0,65,0,1024,0,128,64,0,-240,-18,0,0,65,0,1024,0,128,64,0,
0,6,-301,-205,0,1,100,0,768,1536,192,288,0,-301,-205,0,1,30,0,576,1536,192,288,0,-245,-72,0,0,100,0,160,704,128,128,0,-176,-115,0,0,100,0,672,0,96,96,0,-184,-58,0,0,65,0,1024,0,128,64,0,-240,-18,0,0,65,0,1024,0,128,64,0,
0,6,-301,-205,0,1,100,0,960,1536,192,288,0,-301,-205,0,1,30,0,768,1536,192,288,0,-245,-72,0,0,100,0,288,704,128,128,0,-176,-115,0,0,100,0,768,0,96,96,0,-184,-58,0,0,65,0,1024,0,128,64,0,-240,-18,0,0,65,0,1024,0,128,64,0,
0,6,-301,-205,0,1,100,0,1152,1536,192,288,0,-301,-205,0,1,30,0,960,1536,192,288,0,-245,-72,0,0,100,0,416,704,128,128,0,-176,-115,0,0,100,0,480,0,96,96,0,-184,-58,0,0,65,0,1024,0,128,64,0,-240,-18,0,0,65,0,1024,0,128,64,0,
0,6,-301,-205,0,1,100,0,576,1536,192,288,0,-301,-205,0,1,30,0,1152,1536,192,288,0,-245,-72,0,0,100,0,160,704,128,128,0,-173,-123,0,0,100,0,480,96,96,96,0,-181,-58,0,0,65,0,1024,0,128,64,0,-240,-18,0,0,65,0,1024,0,128,64,0,
0,7,-177,-170,0,1,100,0,1536,1632,64,64,0,-301,-205,0,1,100,0,768,1536,192,288,0,-301,-205,0,1,30,0,576,1536,192,288,0,-245,-72,0,0,100,0,288,704,128,128,0,-149,-181,0,0,100,0,864,64,96,128,0,-160,-58,0,0,65,0,1024,0,128,64,0,-240,-18,0,0,65,0,1024,0,128,64,0,
0,7,-161,-186,0,1,100,0,1536,1632,64,64,0,-301,-205,0,1,90,0,1344,1536,192,128,0,-301,-205,0,1,50,0,768,1536,192,288,0,-245,-72,0,0,100,0,416,704,128,128,0,-65,-236,0,0,100,0,864,64,96,128,0,-80,-66,0,0,65,0,1024,0,128,64,0,-240,-18,0,0,65,0,1024,0,128,64,0,
0,11,-176,-160,0,1,100,0,1600,1696,32,32,0,-158,-167,0,1,100,0,1568,1696,32,32,0,-151,-177,0,1,100,0,1536,1696,32,32,0,-153,-194,0,1,100,0,1536,1632,64,64,0,-301,-205,0,1,100,0,1536,1472,192,88,0,-301,-205,0,1,50,0,1344,1536,192,128,0,-301,-205,0,1,20,0,768,1536,192,288,0,-229,-71,0,0,100,0,544,704,128,128,0,-15,-253,0,0,50,0,864,64,96,128,0,-32,-74,0,0,30,0,1024,0,128,64,0,-232,-18,0,0,65,0,1024,0,128,64,0,
0,11,-144,-172,0,1,100,0,1568,1696,32,32,0,-176,-160,0,1,100,0,1632,1696,32,32,0,-158,-167,0,1,100,0,1600,1696,32,32,0,-151,-177,0,1,100,0,1568,1696,32,32,0,-149,-189,0,1,100,0,1600,1632,64,64,0,-301,-208,0,1,50,0,1536,1472,192,88,0,-301,-205,0,1,20,0,1344,1536,192,128,0,-221,-79,0,0,100,0,544,704,128,128,0,9,-261,0,0,20,0,864,64,96,128,0,-8,-82,0,0,20,0,1024,0,128,64,0,-224,-20,0,0,65,0,1024,0,128,64,0,
0,8,-134,-165,0,1,100,0,1600,1696,32,32,0,-144,-172,0,1,100,0,1536,1696,32,32,0,-158,-167,0,1,100,0,1632,1696,32,32,0,-151,-177,0,1,100,0,1600,1696,32,32,0,-141,-181,0,1,100,0,1664,1632,64,64,0,-301,-209,0,1,20,0,1536,1472,192,88,0,-181,-101,0,0,100,0,544,704,128,128,0,-176,-26,0,0,65,0,1024,0,128,64,0,
0,7,-122,-169,0,1,100,0,1568,1696,32,32,0,-134,-165,0,1,100,0,1536,1696,32,32,0,-144,-172,0,1,100,0,1568,1696,32,32,0,-151,-177,0,1,100,0,1632,1696,32,32,0,-125,-173,0,1,100,0,1536,1632,64,64,0,-117,-133,0,0,100,0,544,704,128,128,0,-112,-42,0,0,65,0,1024,0,128,64,0,
0,7,-111,-148,0,1,100,0,1568,1696,32,32,0,-122,-169,0,1,100,0,1600,1696,32,32,0,-134,-165,0,1,100,0,1568,1696,32,32,0,-144,-172,0,1,100,0,1600,1696,32,32,0,-109,-157,0,1,100,0,1600,1632,64,64,0,-81,-141,0,0,100,0,672,704,128,128,0,-88,-50,0,0,65,0,1024,0,128,64,0,
0,8,-94,-144,0,1,100,0,1568,1696,32,32,0,-111,-148,0,1,100,0,1536,1696,32,32,0,-122,-169,0,1,100,0,1632,1696,32,32,0,-134,-165,0,1,100,0,1600,1696,32,32,0,-144,-172,0,1,100,0,1632,1696,32,32,0,-101,-149,0,1,100,0,1664,1632,64,64,0,-81,-61,0,0,65,0,1024,0,128,64,0,-73,-132,0,0,100,0,32,832,128,128,0,
0,7,-87,-126,0,1,100,0,1568,1696,32,32,0,-94,-144,0,1,100,0,1536,1696,32,32,0,-111,-148,0,1,100,0,1568,1696,32,32,0,-134,-165,0,1,100,0,1632,1696,32,32,0,-93,-141,0,1,100,0,1664,1632,64,64,0,-80,-61,0,0,65,0,1024,0,128,64,0,-72,-128,0,0,100,0,32,832,128,128,0,
0,7,-69,-125,0,1,100,0,1568,1696,32,32,0,-87,-126,0,1,100,0,1536,1696,32,32,0,-94,-144,0,1,100,0,1568,1696,32,32,0,-111,-148,0,1,100,0,1600,1696,32,32,0,-77,-133,0,1,100,0,1664,1632,64,64,0,-72,-127,0,0,100,0,160,832,128,128,0,-80,-61,0,0,65,0,1024,0,128,64,0,
0,8,-59,-107,0,1,100,0,1568,1696,32,32,0,-69,-125,0,1,100,0,1600,1696,32,32,0,-87,-126,0,1,100,0,1568,1696,32,32,0,-94,-144,0,1,100,0,1600,1696,32,32,0,-111,-148,0,1,100,0,1632,1696,32,32,0,-61,-125,0,1,100,0,1536,1632,64,64,0,-72,-127,0,0,100,0,160,832,128,128,0,-80,-61,0,0,65,0,1024,0,128,64,0,
0,7,-59,-107,0,1,100,0,1536,1696,32,32,0,-69,-125,0,1,100,0,1632,1696,32,32,0,-87,-126,0,1,100,0,1600,1696,32,32,0,-94,-144,0,1,100,0,1632,1696,32,32,0,-53,-125,0,1,100,0,1600,1632,64,64,0,-72,-128,0,0,100,0,288,832,128,128,0,-80,-61,0,0,65,0,1024,0,128,64,0,
0,6,-41,-99,0,1,100,0,1568,1696,32,32,0,-59,-107,0,1,100,0,1568,1696,32,32,0,-87,-126,0,1,100,0,1632,1696,32,32,0,-37,-125,0,1,100,0,1664,1632,64,64,0,-72,-128,0,0,100,0,288,832,128,128,0,-80,-61,0,0,65,0,1024,0,128,64,0,
0,6,-17,-112,0,1,100,0,1568,1696,32,32,0,-41,-99,0,1,100,0,1536,1696,32,32,0,-59,-107,0,1,100,0,1600,1696,32,32,0,-21,-133,0,1,100,0,1536,1632,64,64,0,-72,-129,0,0,100,0,416,832,128,128,0,-80,-61,0,0,65,0,1024,0,128,64,0,
0,7,-2,-108,0,1,100,0,1568,1696,32,32,0,-17,-112,0,1,100,0,1536,1696,32,32,0,-41,-99,0,1,100,0,1568,1696,32,32,0,-59,-107,0,1,100,0,1632,1696,32,32,0,-13,-133,0,1,100,0,1600,1632,64,64,0,-72,-129,0,0,100,0,416,832,128,128,0,-80,-61,0,0,65,0,1024,0,128,64,0,
0,7,12,-113,0,1,100,0,1568,1696,32,32,0,-2,-108,0,1,100,0,1536,1696,32,32,0,-17,-112,0,1,100,0,1568,1696,32,32,0,-41,-99,0,1,100,0,1600,1696,32,32,0,3,-141,0,1,100,0,1664,1632,64,64,0,-72,-130,0,0,100,0,32,832,128,128,0,-80,-61,0,0,65,0,1024,0,128,64,0,
0,7,12,-113,0,1,100,0,1536,1696,32,32,0,-2,-108,0,1,100,0,1568,1696,32,32,0,-17,-112,0,1,100,0,1600,1696,32,32,0,-41,-99,0,1,100,0,1632,1696,32,32,0,11,-149,0,1,50,0,1536,1632,64,64,0,-72,-131,0,0,100,0,544,576,128,128,0,-80,-61,0,0,65,0,1024,0,128,64,0,
0,7,27,-123,0,1,100,0,1568,1696,32,32,0,12,-113,0,1,100,0,1568,1696,32,32,0,-2,-108,0,1,100,0,1600,1696,32,32,0,-17,-112,0,1,100,0,1632,1696,32,32,0,19,-157,0,1,20,0,1536,1632,64,64,0,-72,-130,0,0,100,0,544,960,128,128,0,-80,-61,0,0,65,0,1024,0,128,64,0,
0,5,27,-123,0,1,100,0,1600,1696,32,32,0,12,-113,0,1,100,0,1632,1696,32,32,0,-2,-108,0,1,100,0,1632,1696,32,32,0,-72,-129,0,0,100,0,544,832,128,128,0,-80,-61,0,0,65,0,1024,0,128,64,0,
0,2,-72,-128,0,0,100,0,32,960,128,128,0,-80,-61,0,0,65,0,1024,0,128,64,0,
0,2,-72,-127,0,0,100,0,160,960,128,128,0,-80,-61,0,0,65,0,1024,0,128,64,0,
0,2,-72,-126,0,0,100,0,288,960,128,128,0,-80,-61,0,0,65,0,1024,0,128,64,0,
0,2,-72,-127,0,0,100,0,416,960,128,128,0,-80,-61,0,0,65,0,1024,0,128,64,0,
