0,0,0,6,
1,0,0,6,
2,0,0,3,
3,0,0,5,
4,0,0,7,
5,0,0,8,
6,0,0,6,
7,0,0,8,
8,0,0,5,
9,0,0,5,
10,0,0,2,
11,0,0,3,
12,0,0,5,
13,0,0,6,
14,0,0,7,
15,0,0,7,
16,0,0,7,
17,0,0,6,
18,0,0,6,
19,0,0,9,
20,0,0,7,
21,0,0,6,
22,0,0,5,
23,0,0,3,
24,0,0,3,
25,0,0,6,
26,0,0,6,
27,0,0,6,
28,0,0,9,
29,0,0,9,
30,0,0,12,
31,0,0,1,
32,0,0,6,
33,0,0,6,
34,0,0,6,
35,0,0,6,
36,0,0,8,
37,0,0,13,
38,0,0,5,
39,0,0,6,
40,0,0,6,
41,0,0,6,
42,0,0,6,
43,0,0,5,
44,0,0,18,
45,0,0,1,
46,0,0,9,
47,0,0,7,
48,0,0,6,
49,0,0,12,
50,0,0,1,
51,0,0,3,
52,0,0,6,
53,0,0,6,
54,0,0,6,
55,0,0,6,
56,0,0,6,
57,0,0,9,
58,0,0,9,
59,0,0,9,
60,0,0,9,
61,0,0,9,
62,0,0,1,
63,0,0,4,
64,0,0,4,
65,0,0,4,
66,0,0,4,
67,0,0,4,
68,0,0,4,
69,0,0,4,
70,0,0,4,
71,0,0,4,
72,0,0,4,
73,0,0,4,
74,0,0,1,
75,0,0,6,
76,0,0,6,
77,0,0,6,
78,0,0,6,
79,0,0,6,
80,0,0,6,
81,0,0,5,
82,0,0,5,
83,0,0,7,
84,0,0,8,
85,0,0,6,
86,0,0,6,
87,0,0,6,
88,0,0,6,
89,0,0,6,
90,0,0,6,
91,0,0,6,
92,0,0,6,
93,0,0,6,
94,0,0,6,
95,0,0,5,
96,0,0,5,
97,0,0,3,
98,0,0,3,
99,0,0,2,
100,0,0,3,
101,0,0,20,
102,0,0,6,
103,0,0,6,
