0,0,0,12,
1,0,0,6,
2,0,0,12,
3,0,0,7,
4,0,0,9,
5,0,0,19,
6,0,0,7,
7,0,0,3,
8,0,0,3,
9,0,0,4,
10,0,0,4,
11,0,0,4,
12,0,0,4,
13,0,0,4,
14,0,0,4,
15,0,0,4,
16,0,0,4,
17,0,0,4,
18,0,0,4,
19,0,0,4,
20,0,0,4,
21,0,0,4,
22,0,0,4,
23,0,0,4,
24,0,0,4,
25,0,0,4,
26,0,0,4,
27,0,0,4,
28,0,0,4,
29,0,0,4,
30,0,0,4,
31,0,0,4,
32,0,0,4,
33,0,0,7,
34,0,0,6,
35,0,0,6,
36,0,0,6,
37,0,0,6,
38,0,0,6,
39,0,0,6,
40,0,0,6,
41,0,0,6,
42,0,0,6,
43,0,0,6,
44,0,0,3,
45,0,0,3,
46,0,0,4,
47,0,0,4,
48,0,0,4,
49,0,0,4,
50,0,0,4,
51,0,0,4,
52,0,0,4,
53,0,0,4,
54,0,0,4,
55,0,0,4,
56,0,0,4,
57,0,0,4,
58,0,0,4,
59,0,0,6,
60,0,0,6,
61,0,0,6,
62,0,0,6,
63,0,0,6,
64,0,0,6,
65,0,0,6,
66,0,0,6,
67,0,0,6,
68,0,0,6,
69,0,0,6,
70,0,0,6,
71,0,0,6,
72,0,0,6,
73,0,0,6,
74,0,0,7,
75,0,0,10,
76,0,0,6,
77,0,0,7,
78,0,0,33,
79,0,0,7,
80,0,0,21,
81,0,0,7,
82,0,0,7,
83,0,0,7,
84,0,0,7,
85,0,0,7,
86,0,0,7,
85,0,0,7,
86,0,0,7,
87,0,0,7,
88,0,0,7,
87,0,0,7,
88,0,0,7,
89,0,0,6,
90,0,0,6,
91,0,0,6,
92,0,0,6,
93,0,0,6,
94,0,0,6,
95,0,0,6,
96,0,0,6,
97,0,0,4,
98,0,0,4,
100,0,0,6,
101,0,0,20,
