0,0,0,6,
1,0,0,6,
2,0,0,6,
3,0,0,6,
4,0,0,7,
5,0,0,8,
6,0,0,8,
7,0,0,6,
8,0,0,6,
9,0,0,10,
10,0,0,8,
11,0,0,9,
12,0,0,10,
13,0,0,8,
14,0,0,6,
15,0,0,8,
16,0,0,8,
17,0,0,8,
18,0,0,8,
19,0,0,6,
20,0,0,6,
21,0,0,8,
22,0,0,4,
23,0,0,10,
24,0,0,8,
25,0,0,7,
26,0,0,20,
27,0,0,16,
28,0,0,12,
29,0,0,12,
30,0,0,12,
31,0,0,12,
32,0,0,12,
33,0,0,8,
34,0,0,6,
35,0,0,7,
36,0,0,8,
37,0,0,9,
38,0,0,10,
39,0,0,8,
40,0,0,10,
41,0,0,8,
42,0,0,12,
43,0,0,6,
44,0,0,7,
45,0,0,8,
46,0,0,10,
47,0,0,9,
48,0,0,4,
49,0,0,3,
50,0,0,2,
51,0,0,4,
52,0,0,8,
53,0,0,4,
54,0,0,4,
55,0,0,8,
56,0,0,4,
57,0,0,4,
58,0,0,6,
59,0,0,4,
60,0,0,4,
61,0,0,10,
62,0,0,8,
63,0,0,6,
64,0,0,8,
65,0,0,6,
66,0,0,4,
67,0,0,6,
68,0,0,16,
69,0,0,16,
70,0,0,10,
71,0,0,8,
72,0,0,6,
73,0,0,4,
74,0,0,18,
75,0,0,8,
76,0,0,6,
77,0,0,5,
78,0,0,4,
79,0,0,6,
80,0,0,6,
81,0,0,6,
82,0,0,6,
83,0,0,6,
84,0,0,8,
85,0,0,9,
86,0,0,4,
106,0,0,6,
107,0,0,8,
108,0,0,10,
87,0,0,14,
88,0,0,8,
89,0,0,14,
90,0,0,5,
91,0,0,6,
92,0,0,10,
93,0,0,8,
94,0,0,10,
95,0,0,7,
96,0,0,6,
97,0,0,5,
98,0,0,10,
99,0,0,12,
100,0,0,14,
101,0,0,20,
102,0,0,8,
103,0,0,7,
104,0,0,6,
105,0,0,6,
