19,0,0,9,
20,0,0,8,
21,0,0,7,
22,0,0,12,
23,0,0,8,
24,0,0,7,
25,0,0,14,
26,0,0,10,
27,0,0,10,
28,0,0,10,
29,0,0,8,
34,0,0,8,
35,0,0,8,
36,0,0,8,
33,0,0,8,
34,0,0,8,
35,0,0,8,
36,0,0,8,
29,0,0,8,
30,0,0,8,
31,0,0,8,
32,0,0,8,
33,0,0,8,
34,0,0,8,
35,0,0,8,
