17,0,0,8,
18,0,0,6,
19,0,0,6,
20,0,0,6,
21,0,0,6,
22,0,0,6,
23,0,0,10,
24,0,0,10,
25,0,0,10,
26,0,0,8,
27,0,0,6,
28,0,0,6,
29,0,0,6,
9,0,0,6,
10,0,0,6,
11,0,0,6,
12,0,0,6,
13,0,0,6,
14,0,0,6,
15,0,0,6,
16,0,0,6,
9,0,0,6,
10,0,0,6,
11,0,0,6,
12,0,0,6,
13,0,0,6,
14,0,0,6,
15,0,0,6,
