32,0,0,8,
33,0,0,12,
34,0,0,10,
35,0,0,10,
36,0,0,10,
37,0,0,10,
38,0,0,10,
39,0,0,10,
40,0,0,10,
41,0,0,10,
42,0,0,20,
43,0,0,10,
44,0,0,6,
45,0,0,5,
46,0,0,5,
47,0,0,5,
48,0,0,5,
49,0,0,5,
50,0,0,5,
51,0,0,5,
52,0,0,5,
53,0,0,5,
54,0,0,5,
55,0,0,15,
56,0,0,5,
57,0,0,5,
58,0,0,5,
59,0,0,5,
60,0,0,5,
61,0,0,5,
62,0,0,5,
63,0,0,5,
64,0,0,5,
65,0,0,5,
66,0,0,5,
67,0,0,5,
68,0,0,5,
69,0,0,5,
70,0,0,5,
71,0,0,5,
72,0,0,5,
73,0,0,5,
74,0,0,5,
75,0,0,5,
76,0,0,5,
