56,0,0,4,
57,0,0,8,
58,0,0,4,
51,0,0,3,
52,0,0,3,
53,0,0,6,
54,0,0,8,
55,0,0,4,
56,0,0,4,
57,0,0,8,
58,0,0,4,
73,0,0,4,
74,0,0,6,
75,0,0,10,
76,0,0,9,
77,0,0,6,
56,0,0,4,
57,0,0,8,
58,0,0,6,
59,0,0,6,
60,0,0,7,
61,0,0,8,
62,0,0,8,
63,0,0,8,
64,0,0,8,
65,0,0,8,
66,0,0,6,
67,0,0,4,
