29,0,0,12,
30,0,0,6,
31,0,0,3,
32,0,0,3,
33,0,0,3,
34,0,0,6,
35,0,0,3,
36,0,0,3,
37,0,0,6,
38,0,0,6,
39,0,0,6,
40,0,0,6,
41,0,0,10,
42,0,0,8,
43,0,0,6,
44,0,0,8,
41,0,0,10,
42,0,0,8,
43,0,0,6,
44,0,0,8,
41,0,0,12,
42,0,0,10,
40,0,0,12,
51,0,0,8,
52,0,0,8,
51,0,0,8,
52,0,0,10,
45,0,0,6,
46,0,0,6,
50,0,0,8,
47,0,0,7,
48,0,0,6,
