17,0,0,4,
18,0,0,2,
19,0,0,2,
20,0,0,3,
21,0,0,3,
22,0,0,5,
23,0,0,3,
24,0,0,2,
25,0,0,2,
26,0,0,2,
27,0,0,3,
28,0,0,4,
29,0,0,3,
30,0,0,2,
18,0,0,2,
19,0,0,2,
20,0,0,3,
21,0,0,4,
22,0,0,8,
23,0,0,3,
24,0,0,2,
25,0,0,2,
26,0,0,3,
27,0,0,4,
28,0,0,5,
29,0,0,5,
30,0,0,5,
31,0,0,6,
32,0,0,6,
33,0,0,8,
34,0,0,4,
35,0,0,4,
36,0,0,6,
37,0,0,6,
38,0,0,7,
39,0,0,7,
40,0,0,7,
41,0,0,7,
