23,0,0,4,
24,0,0,4,
25,0,0,4,
26,0,0,4,
27,0,0,18,
28,0,0,6,
29,0,0,7,
30,0,0,14,
31,0,0,12,
32,0,0,12,
31,0,0,9,
32,0,0,9,
33,0,0,7,
34,0,0,7,
35,0,0,6,
34,0,0,6,
35,0,0,4,
34,0,0,6,
35,0,0,4,
34,0,0,6,
35,0,0,4,
36,0,0,9,
37,0,0,16,
38,0,0,9,
