22,0,0,8,
23,0,0,20,
24,0,0,20,
23,0,0,20,
25,0,0,20,
23,0,0,15,
31,0,0,5,
23,0,0,5,
31,0,0,5,
23,0,0,15,
26,0,0,6,
27,0,0,10,
28,0,0,12,
29,0,0,12,
28,0,0,12,
29,0,0,12,
28,0,0,12,
29,0,0,12,
28,0,0,12,
29,0,0,12,
