38,0,0,6,
39,0,0,12,
40,0,0,4,
41,0,0,3,
42,0,0,4,
43,0,0,5,
44,0,0,6,
45,0,0,5,
46,0,0,4,
47,0,0,3,
48,0,0,2,
49,0,0,8,
50,0,0,16,
49,0,0,6,
51,0,0,7,
52,0,0,12,
53,0,0,12,
54,0,0,12,
55,0,0,12,
56,0,0,4,
57,0,0,9,
