17,0,0,7,
18,0,0,7,
19,0,0,7,
20,0,0,7,
21,0,0,7,
22,0,0,7,
23,0,0,7,
24,0,0,7,
25,0,0,7,
26,0,0,7,
27,0,0,7,
28,0,0,7,
29,0,0,7,
30,0,0,7,
31,0,0,7,
32,0,0,7,
33,0,0,5,
34,0,0,7,
35,0,0,5,
36,0,0,12,
