23,0,0,8,
24,0,0,7,
25,0,0,4,
26,0,0,8,
25,0,0,4,
24,0,0,4,
23,0,0,8,
24,0,0,8,
25,0,0,7,
26,0,0,6,
25,0,0,8,
24,0,0,30,
23,0,0,8,
24,0,0,7,
25,0,0,4,
26,0,0,8,
25,0,0,4,
24,0,0,4,
23,0,0,8,
24,0,0,8,
25,0,0,7,
26,0,0,6,
25,0,0,8,
24,0,0,30,
