4,0,0,5,
34,0,0,5,
35,0,0,8,
36,0,0,5,
37,0,0,5,
38,0,0,5,
39,0,0,4,
40,0,0,5,
41,0,0,5,
66,0,0,5,
43,0,0,5,
44,0,0,5,
45,0,0,2,
55,0,0,2,
56,0,0,2,
57,0,0,2,
58,0,0,2,
59,0,0,2,
60,0,0,2,
61,0,0,2,
54,0,0,2,
55,0,0,2,
56,0,0,2,
57,0,0,2,
58,0,0,2,
59,0,0,2,
60,0,0,2,
61,0,0,2,
62,0,0,3,
63,0,0,2,
64,0,0,2,
65,0,0,2,
30,0,0,2,
29,0,0,6,
27,0,0,8,
28,0,0,8,
29,0,0,8,
