20,0,0,6,
21,0,0,6,
22,0,0,12,
23,0,0,6,
24,0,0,6,
25,0,0,12,
26,0,0,6,
20,0,0,6,
21,0,0,6,
22,0,0,12,
23,0,0,6,
24,0,0,6,
25,0,0,12,
26,0,0,6,
27,0,0,6,
28,0,0,9,
29,0,0,9,
30,0,0,6,
31,0,0,6,
32,0,0,3,
33,0,0,4,
34,0,0,4,
