18,0,0,12,
19,0,0,18,
20,0,0,12,
21,0,0,18,
22,0,0,6,
23,0,0,12,
24,0,0,30,
25,0,0,3,
26,0,0,2,
27,0,0,4,
28,0,0,4,
29,0,0,3,
30,0,0,4,
31,0,0,4,
32,0,0,4,
33,0,0,4,
34,0,0,4,
31,0,0,4,
32,0,0,4,
33,0,0,4,
34,0,0,4,
