22,0,0,8,
23,0,0,8,
24,0,0,8,
25,0,0,8,
22,0,0,8,
23,0,0,8,
24,0,0,8,
25,0,0,8,
22,0,0,8,
23,0,0,8,
24,0,0,8,
25,0,0,8,
22,0,0,8,
23,0,0,8,
24,0,0,8,
25,0,0,8,
22,0,0,8,
23,0,0,8,
24,0,0,8,
25,0,0,8,
22,0,0,8,
23,0,0,8,
24,0,0,8,
25,0,0,8,
