18,0,0,12,
19,0,0,12,
20,0,0,12,
21,0,0,12,
22,0,0,12,
27,0,0,12,
28,0,0,12,
29,0,0,12,
31,0,0,6,
32,0,0,7,
33,0,0,10,
34,0,0,9,
35,0,0,9,
36,0,0,10,
37,0,0,10,
38,0,0,10,
40,0,0,10,
41,0,0,10,
42,0,0,10,
39,0,0,10,
40,0,0,10,
41,0,0,10,
42,0,0,10,
