17,0,0,6,
18,0,0,6,
19,0,0,6,
20,0,0,6,
21,0,0,6,
22,0,0,6,
23,0,0,6,
24,0,0,6,
25,0,0,6,
26,0,0,6,
27,0,0,6,
28,0,0,6,
29,0,0,8,
30,0,0,3,
31,0,0,3,
32,0,0,4,
33,0,0,6,
34,0,0,8,
35,0,0,8,
36,0,0,8,
37,0,0,8,
38,0,0,10,
