35,0,0,4,
36,0,0,7,
37,0,0,7,
38,0,0,6,
39,0,0,3,
40,0,0,6,
41,0,0,6,
42,0,0,7,
43,0,0,15,
44,0,0,3,
45,0,0,7,
46,0,0,5,
47,0,0,5,
48,0,0,5,
49,0,0,6,
50,0,0,6,
51,0,0,6,
52,0,0,7,
53,0,0,6,
54,0,0,12,
55,0,0,12,
56,0,0,12,
57,0,0,12,
