52,0,0,6,
53,0,0,4,
54,0,0,6,
55,0,0,6,
56,0,0,4,
57,0,0,4,
58,0,0,12,
59,0,0,0,
60,0,0,6,
61,0,0,6,
62,0,0,4,
63,0,0,1,
64,0,0,4,
65,0,0,3,
66,0,0,3,
67,0,0,7,
68,0,0,3,
69,0,0,3,
70,0,0,3,
71,0,0,3,
72,0,0,3,
73,0,0,3,
74,0,0,3,
75,0,0,3,
76,0,0,0,
77,0,0,3,
78,0,0,3,
79,0,0,3,
80,0,0,3,
81,0,0,3,
82,0,0,3,
83,0,0,3,
84,0,0,3,
85,0,0,3,
86,0,0,3,
87,0,0,3,
88,0,0,3,
89,0,0,0,
90,0,0,7,
91,0,0,7,
92,0,0,3,
93,0,0,3,
94,0,0,3,
95,0,0,3,
96,0,0,3,
97,0,0,3,
98,0,0,3,
99,0,0,3,
100,0,0,3,
101,0,0,3,
102,0,0,3,
103,0,0,3,
104,0,0,3,
105,0,0,3,
106,0,0,3,
107,0,0,3,
108,0,0,3,
109,0,0,3,
110,0,0,3,
111,0,0,3,
112,0,0,3,
113,0,0,0,
114,0,0,7,
115,0,0,7,
