31,0,0,7,
32,0,0,7,
33,0,0,6,
34,0,0,6,
35,0,0,35,
36,0,0,8,
37,0,0,10,
38,0,0,12,
39,0,0,10,
40,0,0,35,
41,0,0,7,
42,0,0,6,
43,0,0,15,
44,0,0,6,
45,0,0,8,
46,0,0,8,
47,0,0,8,
48,0,0,12,
49,0,0,12,
50,0,0,12,
51,0,0,12,
52,0,0,12,
53,0,0,12,
54,0,0,12,
55,0,0,12,
56,0,0,12,
