42,0,0,10,
43,0,0,10,
42,0,0,10,
43,0,0,10,
42,0,0,10,
43,0,0,10,
42,0,0,10,
43,0,0,10,
44,0,0,6,
45,0,0,6,
46,0,0,6,
47,0,0,6,
48,0,0,6,
49,0,0,6,
50,0,0,6,
51,0,0,6,
52,0,0,6,
53,0,0,20,
54,0,0,6,
55,0,0,8,
56,0,0,18,
57,0,0,4,
58,0,0,8,
57,0,0,4,
58,0,0,12,
59,0,0,6,
