17,0,0,7,
18,0,0,6,
19,0,0,5,
20,0,0,5,
21,0,0,5,
22,0,0,5,
23,0,0,5,
24,0,0,5,
25,0,0,5,
26,0,0,5,
27,0,0,12,
28,0,0,6,
34,0,0,7,
35,0,0,9,
29,0,0,7,
30,0,0,8,
31,0,0,8,
32,0,0,8,
33,0,0,8,
30,0,0,8,
31,0,0,8,
32,0,0,8,
33,0,0,8,
30,0,0,8,
31,0,0,8,
32,0,0,8,
33,0,0,8,
