28,0,0,6,
29,0,0,6,
30,0,0,6,
31,0,0,6,
32,0,0,6,
33,0,0,6,
34,0,0,6,
35,0,0,6,
36,0,0,6,
37,0,0,6,
38,0,0,6,
39,0,0,6,
40,0,0,6,
41,0,0,6,
42,0,0,6,
43,0,0,6,
44,0,0,6,
45,0,0,11,
46,0,0,11,
47,0,0,11,
