25,0,0,3,
26,0,0,6,
27,0,0,3,
28,0,0,3,
29,0,0,1,
30,0,0,1,
28,0,0,1,
29,0,0,1,
30,0,0,1,
28,0,0,1,
29,0,0,1,
30,0,0,1,
31,0,0,1,
32,0,0,12,
33,0,0,3,
34,0,0,12,
35,0,0,7,
36,0,0,18,
35,0,0,7,
34,0,0,36,
37,0,0,7,
34,0,0,7,
38,0,0,7,
34,0,0,7,
37,0,0,7,
34,0,0,7,
38,0,0,7,
