0,0,0,9,
21,0,0,9,
22,0,0,4,
23,0,0,9,
24,0,0,4,
25,0,0,9,
26,0,0,6,
27,0,0,6,
26,0,0,9,
27,0,0,9,
28,0,0,9,
29,0,0,9,
30,0,0,9,
31,0,0,6,
32,0,0,6,
33,0,0,6,
34,0,0,6,
35,0,0,6,
36,0,0,4,
37,0,0,4,
38,0,0,7,
39,0,0,7,
40,0,0,7,
41,0,0,7,
42,0,0,7,
43,0,0,7,
44,0,0,7,
45,0,0,7,
46,0,0,7,
47,0,0,7,
48,0,0,7,
49,0,0,7,
50,0,0,7,
51,0,0,7,
52,0,0,7,
53,0,0,7,
54,0,0,7,
55,0,0,7,
56,0,0,7,
57,0,0,7,
58,0,0,7,
59,0,0,7,
60,0,0,7,
61,0,0,7,
62,0,0,7,
