32,0,0,4,
33,0,0,3,
34,0,0,3,
35,0,0,3,
36,0,0,1,
37,0,0,1,
38,0,0,1,
39,0,0,1,
40,0,0,3,
41,0,0,4,
42,0,0,6,
43,0,0,7,
44,0,0,9,
45,0,0,10,
46,0,0,36,
47,0,0,12,
48,0,0,4,
49,0,0,3,
50,0,0,1,
51,0,0,1,
52,0,0,4,
53,0,0,7,
54,0,0,12,
