19,0,0,10,
20,0,0,10,
21,0,0,8,
19,0,0,35,
20,0,0,10,
21,0,0,8,
19,0,0,10,
20,0,0,10,
21,0,0,8,
19,0,0,35,
20,0,0,10,
21,0,0,8,
19,0,0,10,
20,0,0,10,
21,0,0,8,
19,0,0,35,
20,0,0,10,
21,0,0,8,
19,0,0,35,
