5,0,0,6,
6,0,0,12,
7,0,0,6,
8,0,0,6,
9,0,0,6,
10,0,0,6,
11,0,0,18,
12,0,0,8,
13,0,0,8,
14,0,0,8,
15,0,0,8,
16,0,0,8,
17,0,0,8,
18,0,0,8,
19,0,0,9,
20,0,0,9,
21,0,0,10,
22,0,0,10,
23,0,0,28,
24,0,0,9,
25,0,0,9,
26,0,0,10,
27,0,0,10,
28,0,0,20,
