0,2,-37,-64,0,0,100,0,0,0,80,64,0,-24,-8,0,0,65,0,464,0,48,16,0,
0,2,-37,-64,0,0,100,0,80,0,80,64,0,-24,-8,0,0,65,0,464,0,48,16,0,
0,2,-37,-64,0,0,100,0,160,0,80,64,0,-24,-8,0,0,65,0,464,0,48,16,0,
0,2,-37,-64,0,0,100,0,240,0,80,64,0,-24,-8,0,0,65,0,464,0,48,16,0,
0,3,-41,-57,0,1,60,0,0,368,80,64,0,-37,-64,0,0,100,0,0,64,80,64,0,-24,-8,0,0,65,0,464,0,48,16,0,
0,3,-41,-57,0,1,60,0,80,368,80,64,0,-37,-64,0,0,100,0,80,64,80,64,0,-24,-8,0,0,65,0,464,0,48,16,0,
0,3,-41,-57,0,1,60,0,160,368,80,64,0,-37,-64,0,0,100,0,160,64,80,64,0,-24,-8,0,0,65,0,464,0,48,16,0,
0,3,-41,-57,0,1,60,0,240,368,80,64,0,-37,-64,0,0,100,0,240,64,80,64,0,-24,-8,0,0,65,0,464,0,48,16,0,
0,3,-41,-57,0,1,80,0,0,368,80,64,0,-37,-64,0,0,100,0,0,128,80,64,0,-24,-8,0,0,65,0,464,0,48,16,0,
0,3,-41,-57,0,1,100,0,80,368,80,64,0,-37,-64,0,0,100,0,80,128,80,64,0,-24,-8,0,0,65,0,464,0,48,16,0,
0,4,-41,-57,0,1,100,0,80,368,80,64,0,-26,-53,0,0,100,0,320,0,32,32,0,-37,-64,0,0,100,0,160,192,80,64,0,-24,-8,0,0,65,0,464,0,48,16,0,
0,4,-41,-57,0,1,100,0,80,368,80,64,0,-27,-56,0,0,100,0,320,0,32,32,0,-37,-64,0,0,100,0,240,192,80,64,0,-24,-8,0,0,65,0,464,0,48,16,0,
0,4,-41,-57,0,1,100,0,80,368,80,64,0,-27,-64,0,0,100,0,320,0,32,32,0,-37,-64,0,0,100,0,0,192,80,64,0,-24,-8,0,0,65,0,464,0,48,16,0,
0,5,-50,-92,0,0,30,0,80,256,80,64,0,-41,-57,0,1,100,0,160,368,80,64,0,-28,-73,0,0,100,0,320,0,32,32,0,-37,-64,0,0,100,0,80,192,80,64,0,-24,-8,0,0,65,0,464,0,48,16,0,
0,5,-50,-92,0,0,50,0,160,256,80,64,0,-41,-57,0,1,100,0,160,368,80,64,0,-28,-76,0,0,100,0,320,0,32,32,0,-37,-64,0,0,100,0,160,192,80,64,0,-24,-8,0,0,65,0,464,0,48,16,0,
0,6,-50,-92,0,1,10,0,240,256,80,64,0,-50,-92,0,0,80,0,240,256,80,64,0,-41,-57,0,1,100,0,240,368,80,64,0,-28,-72,0,0,100,0,320,0,32,32,0,-37,-64,0,0,100,0,240,192,80,64,0,-24,-8,0,0,65,0,464,0,48,16,0,
0,6,-50,-92,0,1,20,0,0,256,80,64,0,-50,-92,0,0,80,0,0,256,80,64,0,-41,-57,0,1,100,0,0,368,80,64,0,-28,-71,0,0,100,0,320,0,32,32,0,-37,-64,0,0,100,0,0,192,80,64,0,-24,-8,0,0,65,0,464,0,48,16,0,
0,6,-50,-92,0,1,10,0,80,256,80,64,0,-50,-92,0,0,80,0,80,256,80,64,0,-41,-57,0,1,100,0,80,368,80,64,0,-28,-70,0,0,100,0,320,0,32,32,0,-37,-64,0,0,100,0,80,192,80,64,0,-24,-8,0,0,65,0,464,0,48,16,0,
0,6,-50,-92,0,1,5,0,160,256,80,64,0,-50,-92,0,0,80,0,160,256,80,64,0,-41,-57,0,1,100,0,160,368,80,64,0,-28,-71,0,0,100,0,320,0,32,32,0,-37,-64,0,0,100,0,160,192,80,64,0,-24,-8,0,0,65,0,464,0,48,16,0,
0,6,-50,-92,0,1,20,0,240,256,80,64,0,-50,-92,0,0,80,0,240,256,80,64,0,-41,-57,0,1,100,0,240,368,80,64,0,-28,-72,0,0,100,0,320,0,32,32,0,-37,-64,0,0,100,0,240,192,80,64,0,-24,-8,0,0,65,0,464,0,48,16,0,
0,13,-39,-45,0,0,80,0,480,48,16,16,0,12,-84,0,0,80,0,480,64,16,16,0,-34,-74,0,0,80,0,496,48,16,16,0,0,-96,0,1,20,0,480,48,16,16,0,0,-96,0,0,50,0,480,48,16,16,0,-54,-96,0,1,10,0,336,64,80,64,0,-54,-96,0,0,80,0,336,64,80,64,0,-50,-92,0,1,20,0,240,256,80,64,0,-50,-92,0,0,40,0,240,256,80,64,0,-41,-57,0,1,100,0,0,368,80,64,0,-28,-72,0,0,100,0,320,0,32,32,0,-37,-64,0,0,100,0,240,192,80,64,0,-24,-8,0,0,65,0,464,0,48,16,0,
0,15,-41,-43,0,0,80,0,480,48,16,16,0,13,-84,0,0,80,0,480,64,16,16,0,-36,-76,0,0,80,0,496,48,16,16,0,2,-98,0,1,20,0,480,48,16,16,0,2,-98,0,0,50,0,480,48,16,16,0,-75,-75,0,1,30,0,448,48,16,16,0,-75,-75,0,0,50,0,448,48,16,16,0,-83,-113,0,1,10,0,342,129,130,86,0,-83,-113,0,0,80,0,342,129,130,86,0,-54,-96,0,1,10,0,336,64,80,64,0,-54,-96,0,0,30,0,336,64,80,64,0,-41,-57,0,1,100,0,0,368,80,64,0,-28,-72,0,0,100,0,320,0,32,32,0,-37,-64,0,0,100,0,240,192,80,64,0,-24,-8,0,0,65,0,464,0,48,16,0,
0,15,-43,-41,0,1,80,0,496,48,16,16,0,14,-83,0,1,60,0,480,64,16,16,0,-37,-77,0,1,80,0,480,64,16,16,0,5,-100,0,1,30,0,496,48,16,16,0,5,-100,0,1,50,0,496,48,16,16,0,-76,-74,0,1,30,0,448,48,16,16,0,-76,-74,0,1,50,0,448,48,16,16,0,-94,-120,0,1,10,0,331,224,160,111,0,-94,-120,0,0,50,0,331,224,160,111,0,-83,-109,0,1,10,0,342,129,130,86,0,-83,-109,0,0,30,0,342,129,130,86,0,-41,-57,0,1,60,0,80,368,80,64,0,-28,-71,0,0,100,0,320,0,32,32,0,-37,-64,0,0,100,0,0,192,80,64,0,-24,-8,0,0,65,0,464,0,48,16,0,
0,14,-44,-40,0,1,80,0,496,48,16,16,0,15,-82,0,1,40,0,480,64,16,16,0,-38,-77,0,1,60,0,480,64,16,16,0,6,-100,0,1,20,0,496,48,16,16,0,6,-100,0,1,50,0,496,48,16,16,0,12,-64,0,1,60,0,464,48,16,16,0,-77,-73,0,1,30,0,464,48,16,16,0,-77,-73,0,1,50,0,464,48,16,16,0,-94,-119,0,1,20,0,331,224,160,111,0,-94,-119,0,0,30,0,331,224,160,111,0,-41,-57,0,1,60,0,80,368,80,64,0,-28,-71,0,0,100,0,320,0,32,32,0,-37,-64,0,0,100,0,0,192,80,64,0,-24,-8,0,0,65,0,464,0,48,16,0,
0,13,-44,-38,0,1,60,0,480,64,16,16,0,16,-81,0,1,20,0,480,64,16,16,0,-39,-76,0,1,30,0,480,64,16,16,0,8,-99,0,1,20,0,496,48,16,16,0,8,-99,0,1,30,0,496,48,16,16,0,13,-63,0,1,60,0,464,48,16,16,0,-78,-71,0,1,40,0,448,64,16,16,0,-94,-118,0,1,10,0,331,224,160,111,0,-94,-118,0,0,10,0,331,224,160,111,0,-41,-57,0,1,40,0,160,368,80,64,0,-28,-70,0,0,100,0,320,0,32,32,0,-37,-64,0,0,100,0,80,192,80,64,0,-24,-8,0,0,65,0,464,0,48,16,0,
0,8,11,-100,0,1,20,0,496,48,16,16,0,-45,-37,0,1,50,0,480,64,16,16,0,14,-62,0,1,40,0,448,64,16,16,0,-79,-70,0,1,30,0,448,64,16,16,0,-41,-57,0,1,40,0,160,368,80,64,0,-28,-70,0,0,100,0,320,0,32,32,0,-37,-64,0,0,100,0,80,192,80,64,0,-24,-8,0,0,65,0,464,0,48,16,0,
0,8,13,-100,0,1,20,0,480,64,16,16,0,-46,-36,0,1,20,0,480,64,16,16,0,15,-61,0,1,10,0,448,64,16,16,0,-80,-69,0,1,20,0,448,64,16,16,0,-41,-57,0,1,20,0,240,368,80,64,0,-28,-70,0,0,100,0,320,0,32,32,0,-37,-64,0,0,100,0,80,192,80,64,0,-24,-8,0,0,65,0,464,0,48,16,0,
0,2,-37,-64,0,0,100,0,320,368,80,64,0,-24,-8,0,0,65,0,464,0,48,16,0,
0,3,-40,-50,0,0,100,0,320,432,32,32,0,-40,-59,0,0,100,0,0,432,80,64,0,-24,-8,0,0,65,0,464,0,48,16,0,
0,3,-40,-50,0,0,100,0,352,432,32,32,0,-40,-59,0,0,100,0,80,432,80,64,0,-24,-8,0,0,65,0,464,0,48,16,0,
0,3,-40,-50,0,0,100,0,384,432,32,32,0,-40,-59,0,0,100,0,160,432,80,64,0,-24,-8,0,0,65,0,464,0,48,16,0,
0,3,-40,-50,0,0,100,0,320,464,32,32,0,-40,-59,0,0,100,0,240,432,80,64,0,-24,-8,0,0,65,0,464,0,48,16,0,
0,3,-40,-50,0,0,100,0,352,464,32,32,0,-40,-59,0,0,100,0,0,432,80,64,0,-24,-8,0,0,65,0,464,0,48,16,0,
0,3,-40,-50,0,0,100,0,384,464,32,32,0,-40,-59,0,0,100,0,80,432,80,64,0,-24,-8,0,0,65,0,464,0,48,16,0,
0,2,-40,-59,0,0,100,0,160,432,80,64,0,-24,-8,0,0,65,0,464,0,48,16,0,
0,2,-40,-59,0,0,100,0,240,432,80,64,0,-24,-8,0,0,65,0,464,0,48,16,0,
0,2,-40,-59,0,0,100,0,0,496,80,64,0,-24,-8,0,0,65,0,464,0,48,16,0,
0,2,-40,-59,0,0,100,0,80,496,80,64,0,-24,-8,0,0,65,0,464,0,48,16,0,
0,3,-28,-18,0,0,100,0,416,432,16,16,0,-40,-59,0,0,100,0,160,496,80,64,0,-24,-8,0,0,65,0,464,0,48,16,0,
0,3,-29,-17,0,0,100,0,432,432,16,16,0,-40,-59,0,0,100,0,240,496,80,64,0,-24,-8,0,0,65,0,464,0,48,16,0,
0,3,-29,-17,0,0,100,0,448,432,16,16,0,-40,-59,0,0,100,0,320,496,80,64,0,-24,-8,0,0,65,0,464,0,48,16,0,
0,3,-29,-17,0,0,100,0,416,448,16,16,0,-40,-59,0,0,100,0,320,496,80,64,0,-24,-8,0,0,65,0,464,0,48,16,0,
0,3,-29,-17,0,0,100,0,432,448,16,16,0,-40,-59,0,0,100,0,320,496,80,64,0,-24,-8,0,0,65,0,464,0,48,16,0,
0,3,-28,-18,0,0,100,0,448,448,16,16,0,-40,-59,0,0,100,0,320,496,80,64,0,-24,-8,0,0,65,0,464,0,48,16,0,
0,2,-40,-59,0,0,100,0,320,496,80,64,0,-24,-8,0,0,65,0,464,0,48,16,0,
