0,9,-31,-59,0,0,100,0,16,160,64,80,0,-15,-61,0,0,100,0,16,96,32,32,0,-60,-62,0,0,100,0,312,144,72,64,0,-10,-55,0,0,100,0,383,144,73,64,0,-6,-40,0,0,100,0,48,128,32,32,0,-28,-40,0,0,100,0,16,128,32,32,0,-48,-48,0,0,100,0,320,32,80,64,0,-23,-8,0,0,65,0,113,32,47,17,0,-53,-48,0,0,100,0,312,96,96,48,0,
0,9,-31,-59,0,0,100,0,80,160,64,80,0,-15,-60,0,0,100,0,48,96,32,32,0,-60,-61,0,0,100,0,312,144,72,64,0,-10,-54,0,0,100,0,383,144,73,64,0,-6,-39,0,0,100,0,48,128,32,32,0,-28,-39,0,0,100,0,16,128,32,32,0,-48,-48,0,0,100,0,400,32,80,64,0,-53,-48,0,0,100,0,408,96,96,48,0,-23,-8,0,0,65,0,113,32,47,17,0,
0,9,-31,-59,0,0,100,0,144,160,64,80,0,-15,-60,0,0,100,0,16,96,32,32,0,-60,-60,0,0,100,0,312,144,72,64,0,-10,-53,0,0,100,0,383,144,73,64,0,-6,-38,0,0,100,0,48,128,32,32,0,-28,-38,0,0,100,0,16,128,32,32,0,-48,-48,0,0,100,0,480,32,80,64,0,-53,-48,0,0,100,0,504,96,96,48,0,-23,-8,0,0,65,0,113,32,47,17,0,
0,9,-31,-59,0,0,100,0,208,160,64,80,0,-15,-61,0,0,100,0,80,96,32,32,0,-60,-61,0,0,100,0,312,144,72,64,0,-10,-54,0,0,100,0,383,144,73,64,0,-6,-39,0,0,100,0,48,128,32,32,0,-28,-39,0,0,100,0,16,128,32,32,0,-48,-48,0,0,100,0,560,32,80,64,0,-53,-48,0,0,100,0,600,96,96,48,0,-23,-8,0,0,65,0,113,32,47,17,0,
0,12,-31,-70,1,1,100,-180,464,304,32,32,0,-41,-56,1,1,30,-270,384,336,32,32,0,-4,-76,1,1,100,90,464,304,32,32,0,6,-62,0,1,30,-90,384,336,32,32,0,-22,-56,0,0,100,0,16,96,32,32,0,-41,-86,1,0,100,0,312,144,72,64,0,-34,-78,0,0,100,0,312,144,72,64,0,-31,-66,0,0,100,0,16,241,64,79,0,-35,-47,1,0,100,0,320,32,80,64,0,-2,-51,1,0,100,0,16,560,48,48,0,-37,-52,0,0,100,0,16,560,48,48,0,-21,-8,0,0,65,0,113,32,47,17,0,
0,10,1,-81,3,1,100,-90,384,304,48,32,0,-34,-76,2,1,100,-270,384,304,48,32,0,-22,-57,0,0,100,0,16,96,32,32,0,-40,-87,1,0,100,0,312,144,72,64,0,-37,-79,0,0,100,0,312,144,72,64,0,-34,-66,0,0,100,0,144,321,64,79,0,-38,-48,1,0,100,0,400,32,80,64,0,-2,-43,1,0,100,0,64,560,48,48,0,-37,-44,0,0,100,0,64,560,48,48,0,-22,-8,0,0,65,0,113,32,47,17,0,
0,16,-74,-64,0,1,100,0,320,208,112,96,0,-64,-30,2,0,50,0,312,144,72,64,0,-67,-17,0,0,50,-270,312,144,48,64,0,-30,-34,0,0,100,0,80,128,32,32,0,-33,-46,0,0,100,0,112,96,32,32,0,-37,-66,0,0,100,0,80,241,64,79,0,-37,-49,0,0,100,0,320,368,80,64,0,-49,-53,0,0,100,0,16,608,48,48,0,-19,-58,0,0,100,0,64,608,48,48,0,-31,-70,1,1,30,-180,464,304,32,32,0,-4,-76,1,1,30,90,464,304,32,32,0,19,-38,0,1,50,-180,464,304,32,32,0,-73,-62,1,1,50,-180,464,304,32,32,0,-20,-19,1,1,100,270,496,304,48,64,0,-84,-63,0,1,100,0,496,304,48,64,0,-27,-8,0,0,65,0,113,32,47,17,0,
0,14,-31,-20,0,1,100,0,432,208,48,32,0,-29,-34,0,0,100,0,80,128,32,32,0,-27,-18,0,0,100,180,360,184,8,8,0,-34,-45,0,0,100,0,112,96,32,32,0,-37,-69,0,0,100,0,144,241,64,79,0,-49,-53,0,0,100,0,112,608,48,48,0,-19,-58,0,0,100,0,160,608,48,48,0,-40,-52,0,0,100,0,400,368,80,64,0,-43,-15,2,1,100,0,384,336,32,32,0,-57,-36,0,1,100,-90,384,304,48,32,0,-28,-5,0,1,50,0,448,336,32,32,0,3,-17,1,1,30,-180,464,304,32,32,0,-58,-47,0,1,30,0,464,304,32,32,0,-27,-8,0,0,65,0,113,32,47,17,0,
0,9,-30,-47,0,0,100,0,112,96,32,32,0,-39,-30,0,0,100,180,312,144,72,64,0,-35,-69,0,0,100,0,208,241,64,79,0,-35,-49,0,0,100,0,480,368,80,64,0,-48,-51,0,0,100,0,16,656,48,48,0,-10,-56,0,0,100,0,64,656,48,48,0,-8,-9,2,1,10,-270,464,304,32,32,0,-40,-12,2,1,30,0,384,336,32,32,0,-28,-8,0,0,65,0,113,32,47,17,0,
0,10,-81,-34,0,1,100,0,432,240,80,48,0,-40,-48,0,0,100,0,80,96,32,32,0,-44,-69,0,0,100,0,208,321,64,79,0,-51,-52,0,0,100,0,320,432,80,64,0,-66,-54,2,0,100,-90,16,608,48,48,0,-19,-41,2,0,100,0,64,656,48,48,0,-76,-41,0,1,100,0,480,208,72,32,0,-34,-8,0,0,65,0,113,32,47,17,0,-85,-22,1,1,100,0,384,304,48,32,0,-78,-44,0,1,100,-180,384,336,32,32,0,
0,13,-40,-34,0,1,100,0,512,240,96,48,0,-18,-37,0,0,100,0,144,128,32,32,0,-35,-49,0,0,100,0,16,96,32,32,0,-39,-69,0,0,100,0,16,321,64,79,0,-11,-55,0,0,40,0,456,144,72,64,0,-59,-44,0,1,100,0,552,208,56,32,0,-53,-63,0,0,50,0,528,144,72,64,0,-56,-48,0,0,100,0,560,368,80,64,0,-68,-51,0,0,100,0,16,560,48,48,0,-28,-40,0,0,100,0,112,560,48,48,0,-32,-8,0,0,65,0,113,32,47,17,0,-67,-44,3,1,100,0,384,336,32,32,0,8,-20,3,1,100,-180,384,304,48,32,0,
0,11,-26,-35,0,1,100,0,320,304,64,48,0,-16,-38,0,0,100,0,176,128,32,32,0,-7,-56,0,0,100,0,456,144,72,64,0,-31,-48,0,0,100,0,16,96,32,32,0,-37,-69,0,0,100,0,80,321,64,79,0,-38,-44,0,1,100,0,384,336,32,32,0,-43,-47,0,0,100,0,640,368,80,64,0,-55,-42,2,0,100,0,16,560,48,48,0,-15,-38,0,0,100,0,112,560,48,48,0,18,-23,3,1,20,0,384,336,32,32,0,-29,-8,0,0,65,0,113,32,47,17,0,
0,10,-7,-30,0,1,100,0,384,304,48,32,0,-16,-38,0,0,100,0,176,128,32,32,0,-7,-56,0,0,100,0,456,144,72,64,0,-31,-48,0,0,100,0,16,96,32,32,0,-37,-69,0,0,100,0,80,321,64,79,0,-45,-47,0,0,100,0,400,432,80,64,0,-47,-35,2,0,100,0,16,560,48,48,0,0,-31,3,0,100,0,16,560,48,48,0,-40,-43,0,1,100,0,416,336,32,32,0,-29,-8,0,0,65,0,113,32,47,17,0,
0,9,9,-33,0,1,100,0,432,304,32,32,0,-16,-38,0,0,100,0,176,128,32,32,0,-7,-56,0,0,100,0,456,144,72,64,0,-31,-48,0,0,100,0,16,96,32,32,0,-37,-69,0,0,100,0,80,321,64,79,0,-44,-47,0,0,100,0,720,368,80,64,0,-44,-37,0,0,100,0,112,752,48,48,0,0,-36,1,0,100,0,112,752,48,48,0,-29,-8,0,0,65,0,113,32,47,17,0,
0,9,7,-30,0,1,100,0,464,304,32,32,0,-16,-38,0,0,100,0,176,128,32,32,0,-7,-56,0,0,100,0,456,144,72,64,0,-31,-48,0,0,100,0,16,96,32,32,0,-37,-69,0,0,100,0,80,321,64,79,0,-44,-48,0,0,100,0,800,368,80,64,0,-39,-37,0,0,100,0,112,752,48,48,0,-6,-36,1,0,100,0,112,752,48,48,0,-29,-8,0,0,65,0,113,32,47,17,0,
0,8,-16,-38,0,0,100,0,176,128,32,32,0,-31,-48,0,0,100,0,16,96,32,32,0,-37,-69,0,0,100,0,80,321,64,79,0,-7,-56,0,0,100,0,456,144,72,64,0,-45,-48,0,0,100,0,800,368,80,64,0,-40,-37,0,0,100,0,112,752,48,48,0,-7,-36,1,0,100,0,112,752,48,48,0,-29,-8,0,0,65,0,113,32,47,17,0,
0,7,-30,-47,0,0,100,0,112,96,32,32,0,-39,-30,0,0,100,180,312,144,72,64,0,-35,-69,0,0,100,0,208,241,64,79,0,-44,-48,0,0,100,0,800,368,80,64,0,-42,-38,0,0,100,0,16,560,48,48,0,-4,-37,1,0,100,0,16,560,48,48,0,-28,-8,0,0,65,0,113,32,47,17,0,
0,14,-10,-25,0,0,100,0,192,96,16,16,0,-49,-38,2,0,100,0,312,144,72,64,0,-16,-61,0,0,100,0,16,96,32,32,0,-16,-32,0,0,100,0,176,80,32,16,0,-16,-36,0,0,100,0,176,64,32,16,0,-34,-70,0,0,100,0,144,400,64,80,0,-3,-37,0,0,100,0,64,752,48,48,0,-6,-45,0,0,100,0,16,752,48,48,0,-43,-60,0,0,100,0,720,496,80,64,0,-20,-30,0,0,100,0,176,96,16,16,0,-25,-32,0,0,100,0,144,80,32,16,0,-19,-37,0,0,100,0,144,64,32,16,0,-64,-49,3,0,100,0,384,144,72,64,0,-23,-8,0,0,65,0,113,32,47,17,0,
0,11,-60,-71,0,0,100,0,312,144,72,64,0,-23,-50,0,0,100,0,208,64,32,32,0,-25,-41,0,0,100,0,160,704,48,48,0,-2,-50,0,0,100,0,112,704,48,48,0,-35,-55,0,0,100,0,320,560,80,64,0,-11,-50,0,0,100,0,240,64,32,32,0,-11,-65,0,0,100,0,112,128,32,32,0,-17,-62,0,0,100,0,144,96,32,32,0,-34,-70,0,0,100,0,208,400,64,80,0,-18,-83,2,0,100,90,384,144,72,64,0,-23,-8,0,0,65,0,113,32,47,17,0,
0,7,-47,-73,2,0,100,-90,384,144,72,64,0,-53,-67,2,0,100,0,312,144,72,64,0,-22,-46,2,0,100,-90,112,560,48,48,0,-47,-43,1,0,100,0,112,560,48,48,0,-38,-69,0,0,100,0,16,400,64,80,0,-23,-61,1,0,100,0,144,96,32,32,0,-26,-8,0,0,65,0,113,32,47,17,0,
0,15,-13,-49,0,0,100,0,288,32,16,16,0,-41,-96,0,0,100,-270,384,144,72,64,0,-29,-95,1,0,100,-90,384,144,72,64,0,-12,-50,0,0,100,0,272,32,16,16,0,-10,-48,0,0,100,0,272,48,16,16,0,-15,-45,1,0,100,0,288,48,16,16,0,-24,-51,1,0,100,0,240,32,32,32,0,-19,-50,0,0,100,0,208,32,32,32,0,-24,-61,1,0,100,0,144,96,32,32,0,-30,-64,1,0,100,0,112,128,32,32,0,-39,-42,1,0,100,-90,16,560,48,48,0,-55,-53,3,0,100,-180,16,560,48,48,0,-42,-53,1,0,100,0,720,432,80,64,0,-39,-69,1,0,100,0,208,400,64,80,0,-30,-8,0,0,65,0,113,32,47,17,0,
0,13,-64,-100,0,1,50,0,496,632,128,120,0,-99,-107,0,1,50,0,320,624,160,128,0,-29,-41,3,0,100,0,312,144,72,64,0,-68,-45,2,0,100,0,312,144,72,64,0,0,0,0,0,100,0,16,480,16,8,0,-20,-41,0,0,100,0,240,96,32,32,0,-27,-61,0,0,100,0,16,96,32,32,0,-46,-70,0,0,100,0,80,400,64,80,0,-36,-41,0,0,100,0,208,96,32,32,0,-56,-60,0,0,100,0,480,432,80,64,0,-46,-62,0,0,100,0,16,608,48,48,0,-67,-71,0,0,100,0,16,608,48,48,0,-36,-8,0,0,65,0,113,32,47,17,0,
0,12,-80,-109,0,1,30,0,480,752,160,128,0,-99,-107,0,1,30,0,320,752,160,128,0,-28,-40,3,0,100,0,312,144,72,64,0,-69,-44,2,0,100,0,312,144,72,64,0,-20,-41,0,0,100,0,240,128,32,32,0,-27,-61,0,0,100,0,16,96,32,32,0,-46,-70,0,0,100,0,80,400,64,80,0,-36,-41,0,0,100,0,208,128,32,32,0,-49,-59,0,0,100,0,560,432,80,64,0,-37,-63,0,0,100,-90,64,560,48,48,0,-65,-62,0,0,100,0,112,608,48,48,0,-36,-8,0,0,65,0,113,32,47,17,0,
0,12,-87,-108,0,1,20,0,472,880,160,128,0,-99,-107,0,1,20,0,320,880,160,128,0,-28,-40,3,0,100,0,312,144,72,64,0,-69,-44,2,0,100,0,312,144,72,64,0,-20,-41,0,0,100,0,240,128,32,32,0,-27,-61,0,0,100,0,16,96,32,32,0,-46,-70,0,0,100,0,80,400,64,80,0,-36,-41,0,0,100,0,208,128,32,32,0,-49,-59,0,0,100,0,640,496,80,64,0,-62,-61,0,0,100,0,16,656,48,48,0,-25,-54,2,0,100,0,552,96,48,48,0,-36,-8,0,0,65,0,113,32,47,17,0,
0,10,-28,-40,3,0,100,0,312,144,72,64,0,-69,-44,2,0,100,0,312,144,72,64,0,-20,-41,0,0,100,0,240,128,32,32,0,-27,-61,0,0,100,0,16,96,32,32,0,-46,-70,0,0,100,0,80,400,64,80,0,-36,-41,0,0,100,0,208,128,32,32,0,-50,-60,0,0,100,0,320,496,80,64,0,-13,-46,2,0,100,0,656,96,48,48,0,-66,-54,0,0,100,0,16,656,48,48,0,-36,-8,0,0,65,0,113,32,47,17,0,
0,9,-28,-40,3,0,100,0,312,144,72,64,0,-69,-44,2,0,100,0,312,144,72,64,0,-20,-41,0,0,100,0,240,128,32,32,0,-27,-61,0,0,100,0,16,96,32,32,0,-46,-70,0,0,100,0,80,400,64,80,0,-36,-41,0,0,100,0,208,128,32,32,0,-50,-57,0,0,100,0,640,432,80,64,0,-63,-45,0,0,100,0,312,96,96,48,0,-36,-8,0,0,65,0,113,32,47,17,0,
0,9,-28,-40,3,0,100,0,312,144,72,64,0,-20,-41,0,0,100,0,240,128,32,32,0,-69,-44,2,0,100,0,312,144,72,64,0,-27,-61,0,0,100,0,16,96,32,32,0,-46,-70,0,0,100,0,80,400,64,80,0,-36,-41,0,0,100,0,208,128,32,32,0,-50,-57,0,0,100,0,400,496,80,64,0,-55,-45,0,0,100,0,416,96,96,48,0,-36,-8,0,0,65,0,113,32,47,17,0,
0,9,-28,-40,3,0,100,0,312,144,72,64,0,-69,-44,2,0,100,0,312,144,72,64,0,-20,-41,0,0,100,0,240,128,32,32,0,-27,-61,0,0,100,0,16,96,32,32,0,-46,-70,0,0,100,0,80,400,64,80,0,-36,-41,0,0,100,0,208,128,32,32,0,-50,-57,0,0,100,0,480,496,80,64,0,-63,-45,0,0,100,0,504,96,96,48,0,-36,-8,0,0,65,0,113,32,47,17,0,
0,9,-28,-40,3,0,100,0,312,144,72,64,0,-69,-44,2,0,100,0,312,144,72,64,0,-20,-41,0,0,100,0,240,128,32,32,0,-27,-61,0,0,100,0,16,96,32,32,0,-46,-70,0,0,100,0,80,400,64,80,0,-36,-41,0,0,100,0,208,128,32,32,0,-50,-57,0,0,100,0,560,496,80,64,0,-63,-45,0,0,100,0,600,96,96,48,0,-36,-8,0,0,65,0,113,32,47,17,0,
0,15,-11,-53,0,0,100,0,288,32,16,16,0,-40,-98,0,0,100,-270,384,144,72,64,0,-9,-53,0,0,100,0,272,32,16,16,0,-28,-97,1,0,100,-90,384,144,72,64,0,-9,-48,0,0,100,0,272,48,16,16,0,-15,-49,1,0,100,0,288,48,16,16,0,-23,-55,1,0,100,0,240,32,32,32,0,-24,-61,1,0,100,0,144,96,32,32,0,-30,-64,1,0,100,0,112,128,32,32,0,-55,-56,3,0,100,-180,16,560,48,48,0,-39,-43,1,0,100,-90,16,560,48,48,0,-43,-54,1,0,100,0,800,432,80,64,0,-39,-69,1,0,100,0,208,400,64,80,0,-20,-49,0,0,100,0,208,32,32,32,0,-30,-8,0,0,65,0,113,32,47,17,0,
0,14,-12,-27,0,0,100,0,192,96,16,16,0,-18,-32,0,0,100,0,176,80,32,16,0,-17,-37,0,0,100,0,176,64,32,16,0,-52,-41,2,0,100,0,312,144,72,64,0,-16,-61,0,0,100,0,16,96,32,32,0,-34,-70,0,0,100,0,144,400,64,80,0,-4,-38,0,0,100,0,64,752,48,48,0,-6,-46,0,0,100,0,16,752,48,48,0,-44,-62,0,0,100,0,800,496,80,64,0,-65,-50,3,0,100,0,384,144,72,64,0,-20,-33,0,0,100,0,176,96,16,16,0,-26,-34,0,0,100,0,144,80,32,16,0,-20,-37,0,0,100,0,144,64,32,16,0,-23,-8,0,0,65,0,113,32,47,17,0,
0,8,-16,-38,0,0,100,0,176,128,32,32,0,-31,-48,0,0,100,0,16,96,32,32,0,-37,-69,0,0,100,0,16,481,64,79,0,-7,-56,0,0,100,0,456,144,72,64,0,-13,-60,0,0,100,0,160,656,48,48,0,-17,-52,0,0,100,0,336,368,80,64,0,-31,-65,1,0,100,-90,64,656,48,48,0,-29,-8,0,0,65,0,113,32,47,17,0,
0,7,-30,-47,0,0,100,0,112,96,32,32,0,-39,-30,0,0,100,180,312,144,72,64,0,-35,-69,0,0,100,0,208,241,64,79,0,-44,-48,0,0,100,0,800,368,80,64,0,-50,-44,0,0,100,0,112,656,48,48,0,-3,-47,0,0,100,0,160,656,48,48,0,-28,-8,0,0,65,0,113,32,47,17,0,
0,15,-13,-49,0,0,100,0,288,32,16,16,0,-41,-96,0,0,100,-270,384,144,72,64,0,-29,-95,1,0,100,-90,384,144,72,64,0,-12,-50,0,0,100,0,272,32,16,16,0,-10,-48,0,0,100,0,272,48,16,16,0,-15,-45,1,0,100,0,288,48,16,16,0,-24,-51,1,0,100,0,240,32,32,32,0,-19,-50,0,0,100,0,208,32,32,32,0,-24,-61,1,0,100,0,144,96,32,32,0,-30,-64,1,0,100,0,112,128,32,32,0,-41,-49,0,0,100,0,64,704,48,48,0,-52,-48,0,0,100,0,16,704,48,48,0,-42,-53,1,0,100,0,720,432,80,64,0,-39,-69,1,0,100,0,208,400,64,80,0,-30,-8,0,0,65,0,113,32,47,17,0,
0,14,-12,-27,0,0,100,0,192,96,16,16,0,-18,-32,0,0,100,0,176,80,32,16,0,-17,-37,0,0,100,0,176,64,32,16,0,-52,-41,2,0,100,0,312,144,72,64,0,-16,-61,0,0,100,0,16,96,32,32,0,-34,-70,0,0,100,0,144,400,64,80,0,-3,-37,0,0,100,0,64,752,48,48,0,-6,-45,0,0,100,0,16,752,48,48,0,-44,-62,0,0,100,0,800,496,80,64,0,-65,-50,3,0,100,0,384,144,72,64,0,-20,-33,0,0,100,0,176,96,16,16,0,-26,-34,0,0,100,0,144,80,32,16,0,-20,-37,0,0,100,0,144,64,32,16,0,-23,-8,0,0,65,0,113,32,47,17,0,
