44,0,0,12,
45,0,0,12,
46,0,0,12,
47,0,0,12,
48,0,0,12,
49,0,0,12,
50,0,0,10,
51,0,0,6,
52,0,0,6,
53,0,0,6,
54,0,0,6,
55,0,0,6,
56,0,0,6,
57,0,0,7,
58,0,0,8,
59,0,0,4,
60,0,0,5,
61,0,0,6,
62,0,0,7,
63,0,0,7,
64,0,0,4,
65,0,0,4,
66,0,0,4,
67,0,0,4,
68,0,0,4,
69,0,0,5,
70,0,0,5,
71,0,0,5,
72,0,0,5,
73,0,0,5,
74,0,0,6,
75,0,0,6,
76,0,0,6,
77,0,0,6,
78,0,0,6,
79,0,0,10,
80,0,0,12,
81,0,0,14,
82,0,0,14,
