0,3,12,-50,0,1,100,270,0,56,40,32,0,-43,-72,0,0,100,0,320,0,96,88,0,-33,-12,0,0,100,0,96,96,64,24,0,
0,3,8,-45,0,1,100,270,40,56,40,32,0,-43,-72,0,0,100,0,416,0,96,88,0,-33,-12,0,0,100,0,96,96,64,24,0,
0,3,9,-46,0,1,100,270,80,56,40,32,0,-43,-72,0,0,100,0,512,0,96,88,0,-33,-12,0,0,100,0,96,96,64,24,0,
0,3,11,-46,0,1,100,270,120,56,40,32,0,-43,-72,0,0,100,0,416,0,96,88,0,-33,-12,0,0,100,0,96,96,64,24,0,
0,2,-62,-72,0,0,100,0,608,0,96,88,0,-33,-12,0,0,100,0,96,96,64,24,0,
0,2,-65,-72,0,0,100,0,704,0,96,88,0,-33,-12,0,0,100,0,96,96,64,24,0,
0,2,-70,-72,0,0,100,0,320,88,96,88,0,-40,-12,0,0,100,0,96,96,64,24,0,
0,3,-79,-60,0,1,100,0,0,288,80,80,0,-86,-72,0,0,100,0,416,88,96,88,0,-49,-12,0,0,100,0,96,96,64,24,0,
0,5,-96,-87,0,1,100,0,80,288,88,136,0,-8,-71,0,1,100,0,160,264,24,8,0,-89,-56,0,0,100,0,0,152,80,56,0,-88,-72,0,0,100,0,512,88,96,88,0,-68,-12,0,0,100,0,96,96,64,24,0,
0,9,-85,16,0,1,100,0,152,264,8,16,0,-53,16,0,1,100,0,136,264,16,24,0,-29,-8,0,1,100,0,104,264,32,24,0,-5,-48,0,1,100,0,64,264,40,24,0,3,-80,0,1,100,0,16,264,48,16,0,-29,-80,0,1,100,0,0,264,16,16,0,-102,-56,0,0,100,0,0,208,96,56,0,-103,-72,0,0,100,0,608,88,96,88,0,-69,-12,0,0,100,0,96,96,64,24,0,
0,2,-103,-72,0,0,100,0,704,88,96,88,0,-69,-12,0,0,100,0,96,96,64,24,0,
0,3,-102,-48,0,1,100,0,176,56,40,24,0,-103,-72,0,0,100,0,608,88,96,88,0,-69,-12,0,0,100,0,96,96,64,24,0,
0,3,-118,-64,0,1,100,0,216,0,56,40,0,-103,-72,0,0,100,0,704,88,96,88,0,-69,-12,0,0,100,0,96,96,64,24,0,
0,3,-142,-80,0,1,100,0,176,136,80,64,0,-103,-72,0,0,100,0,608,88,96,88,0,-69,-12,0,0,100,0,96,96,64,24,0,
0,3,-150,-72,0,1,100,0,216,40,88,48,0,-103,-72,0,0,100,0,704,88,96,88,0,-69,-12,0,0,100,0,96,96,64,24,0,
0,3,-158,-72,0,1,100,0,96,160,80,40,0,-103,-72,0,0,100,0,608,88,96,88,0,-69,-12,0,0,100,0,96,96,64,24,0,
0,3,-166,-72,0,1,100,0,248,88,56,24,0,-103,-72,0,0,100,0,704,88,96,88,0,-69,-12,0,0,100,0,96,96,64,24,0,
0,2,-43,-72,0,0,100,0,320,176,96,88,0,-33,-12,0,0,100,0,96,96,64,24,0,
0,2,-43,-72,0,0,100,0,416,176,96,88,0,-32,-12,0,0,100,0,96,96,64,24,0,
0,4,-46,-47,0,1,100,0,168,56,56,24,0,-32,-58,0,0,100,0,456,352,48,48,0,-43,-72,0,0,100,0,512,176,96,88,0,-32,-12,0,0,100,0,96,96,64,24,0,
0,4,-36,-72,0,1,100,0,0,0,48,56,0,-33,-59,0,0,100,0,456,352,48,48,0,-43,-72,0,0,100,0,512,176,96,88,0,-32,-12,0,0,100,0,96,96,64,24,0,
0,4,-38,-64,0,1,100,0,48,0,48,56,0,-33,-59,0,0,100,0,456,352,48,48,0,-43,-72,0,0,100,0,512,176,96,88,0,-32,-12,0,0,100,0,96,96,64,24,0,
0,4,-34,-70,0,1,100,0,96,0,48,56,0,-33,-59,0,0,100,0,456,352,48,48,0,-43,-72,0,0,100,0,512,176,96,88,0,-32,-12,0,0,100,0,96,96,64,24,0,
0,4,-31,-68,0,1,100,0,144,0,48,56,0,-33,-59,0,0,100,0,456,352,48,48,0,-43,-72,0,0,100,0,512,176,96,88,0,-32,-12,0,0,100,0,96,96,64,24,0,
0,5,-29,-55,0,1,80,0,0,96,48,56,0,0,-32,0,1,100,0,0,0,48,56,0,4,-21,0,0,100,0,418,353,36,26,0,-43,-72,0,0,100,0,608,176,96,88,0,-32,-12,0,0,100,0,96,96,64,24,0,
0,5,-30,-60,0,1,60,0,48,96,48,56,0,0,-32,0,1,100,180,48,0,48,56,0,4,-21,0,0,100,0,418,353,36,26,0,-43,-72,0,0,100,0,704,176,96,88,0,-32,-12,0,0,100,0,96,96,64,24,0,
0,4,5,-17,0,1,100,90,0,56,40,32,0,4,-21,0,0,100,0,418,353,36,26,0,-43,-72,0,0,100,0,704,176,96,88,0,-32,-12,0,0,100,0,96,96,64,24,0,
0,3,4,-21,0,0,100,0,418,353,36,26,0,-43,-72,0,0,100,0,704,176,96,88,0,-32,-12,0,0,100,0,96,96,64,24,0,
0,3,4,-21,0,0,100,0,418,353,36,26,0,-43,-72,0,0,100,0,320,264,96,88,0,-31,-12,0,0,100,0,96,96,64,24,0,
0,3,4,-21,0,0,100,0,418,353,36,26,0,-50,-72,0,0,100,0,416,264,96,88,0,-31,-12,0,0,100,0,96,96,64,24,0,
0,3,4,-21,0,0,100,0,418,353,36,26,0,-50,-72,0,0,100,0,512,264,96,88,0,-31,-12,0,0,100,0,96,96,64,24,0,
0,3,4,-21,0,0,100,0,418,353,36,26,0,-50,-72,0,0,100,0,608,264,96,88,0,-31,-12,0,0,100,0,96,96,64,24,0,
0,3,4,-21,0,0,100,0,418,353,36,26,0,-50,-72,0,0,100,0,704,264,96,88,0,-31,-12,0,0,100,0,96,96,64,24,0,
0,3,4,-21,0,0,100,0,418,353,36,26,0,-50,-72,0,0,100,0,320,352,96,88,0,-31,-12,0,0,100,0,96,96,64,24,0,
0,3,4,-21,0,0,100,0,418,353,36,26,0,-50,-72,0,0,100,0,504,352,96,88,0,-31,-12,0,0,100,0,96,96,64,24,0,
0,3,4,-21,0,0,100,0,418,353,36,26,0,-50,-72,0,0,100,0,600,352,96,88,0,-31,-12,0,0,100,0,96,96,64,24,0,
