0,10,-92,-37,0,1,100,0,544,224,176,64,0,-12,-39,0,0,100,0,264,216,24,32,0,-12,-54,0,0,100,0,480,80,64,64,0,-53,-30,0,0,100,0,128,480,64,48,0,-70,-29,0,1,100,0,544,0,72,56,0,-25,-63,0,0,100,0,0,0,56,72,0,-49,-84,0,1,100,0,688,0,88,64,0,-40,-68,0,0,100,0,192,480,72,48,0,-56,-74,0,1,100,0,616,0,72,56,0,-28,-12,0,0,65,0,232,160,56,24,0,
0,10,-92,-37,0,1,100,0,544,288,176,64,0,-12,-39,0,0,100,0,264,216,24,32,0,-12,-54,0,0,100,0,480,144,64,64,0,-53,-30,0,0,100,0,128,480,64,48,0,-70,-29,0,1,100,0,544,56,72,56,0,-25,-63,0,0,100,0,56,0,56,72,0,-49,-84,0,1,100,0,776,0,88,64,0,-41,-68,0,0,100,0,192,480,72,48,0,-57,-74,0,1,100,0,616,56,72,56,0,-28,-12,0,0,65,0,232,160,56,24,0,
0,10,-92,-37,0,1,100,0,544,352,176,64,0,-13,-38,0,0,100,0,264,216,24,32,0,-12,-54,0,0,100,0,480,208,64,64,0,-54,-29,0,0,100,0,128,480,64,48,0,-71,-28,0,1,100,0,544,112,72,56,0,-25,-63,0,0,100,0,112,0,56,72,0,-49,-84,0,1,100,0,688,64,88,64,0,-42,-68,0,0,100,0,192,480,72,48,0,-58,-74,0,1,100,0,616,112,72,56,0,-28,-12,0,0,65,0,232,160,56,24,0,
0,10,-92,-37,0,1,100,0,544,416,176,64,0,-13,-38,0,0,100,0,264,216,24,32,0,-12,-54,0,0,100,0,480,272,64,64,0,-55,-29,0,0,100,0,128,480,64,48,0,-72,-28,0,1,100,0,544,168,72,56,0,-25,-63,0,0,100,0,168,0,56,72,0,-49,-84,0,1,100,0,776,64,88,64,0,-41,-68,0,0,100,0,192,480,72,48,0,-58,-74,0,1,100,0,616,168,72,56,0,-28,-12,0,0,65,0,232,160,56,24,0,
0,6,10,-73,0,1,100,0,240,600,48,24,0,-46,-72,0,1,100,0,184,600,56,48,0,-2,-49,0,1,100,0,256,624,40,16,0,-35,-33,0,1,100,0,224,640,80,32,0,-53,-72,0,0,100,0,224,0,96,80,0,-28,-12,0,0,65,0,232,160,56,24,0,
0,7,-40,-100,1,1,100,0,64,712,64,72,0,-6,-29,0,1,100,0,80,784,72,40,0,-86,-37,0,1,100,0,0,776,80,48,0,-64,-37,0,0,100,0,46,212,85,44,0,-40,-85,0,0,100,0,224,304,64,72,0,-55,-72,0,0,100,0,320,0,96,80,0,-31,-12,0,0,65,0,232,160,56,24,0,
0,7,-37,-101,1,1,100,0,184,816,64,72,0,-22,-35,0,1,100,0,200,888,80,40,0,-94,-51,0,1,100,0,128,872,72,56,0,-41,-82,0,0,100,0,224,304,64,72,0,-55,-72,0,0,100,0,416,0,96,80,0,-52,-29,0,0,100,0,256,184,32,16,0,-33,-12,0,0,65,0,232,160,56,24,0,
0,5,-49,-90,1,1,100,0,64,832,64,64,0,-97,-55,0,1,100,0,0,872,72,64,0,-44,-82,0,0,100,0,160,304,64,72,0,-55,-72,0,0,100,0,0,80,96,80,0,-33,-12,0,0,65,0,232,160,56,24,0,
0,5,-83,-91,0,1,100,0,160,712,120,104,0,-62,-68,0,0,100,0,137,184,82,68,0,-53,-72,0,0,100,0,96,80,96,80,0,-36,-72,0,0,100,0,0,352,56,64,0,-34,-12,0,0,65,0,232,160,56,24,0,
0,5,-67,-97,0,1,100,0,304,608,112,104,0,-53,-72,0,0,100,0,192,80,96,80,0,-38,-71,0,0,100,0,0,352,56,64,0,-46,-17,0,0,100,0,264,200,24,16,0,-34,-12,0,0,65,0,232,160,56,24,0,
0,4,-33,-76,0,1,100,0,392,560,56,48,0,-53,-72,0,0,100,0,288,80,96,80,0,-36,-72,0,0,100,0,0,352,56,64,0,-34,-12,0,0,65,0,232,160,56,24,0,
0,3,-49,-105,0,1,100,0,280,712,104,72,0,-50,-79,0,0,100,0,384,80,96,80,0,-31,-12,0,0,65,0,232,160,56,24,0,
0,3,-43,-91,0,1,100,0,280,784,96,80,0,-46,-70,0,0,100,0,288,160,96,80,0,-24,-12,0,0,65,0,232,160,56,24,0,
0,3,-44,-82,0,0,100,0,224,304,64,72,0,-55,-72,0,0,100,0,0,80,96,80,0,-33,-12,0,0,65,0,232,160,56,24,0,
0,10,-47,-83,0,0,100,0,0,416,48,72,0,-43,-86,0,1,50,180,96,416,72,64,0,6,-83,1,0,100,0,0,416,48,72,0,8,-85,1,1,50,0,48,416,48,64,0,-28,-47,0,0,100,0,256,376,32,32,0,-47,-71,0,0,100,0,384,320,96,80,0,1,-46,0,0,100,0,200,416,24,24,0,1,-46,0,0,100,0,224,376,32,32,0,-27,-41,0,0,100,0,0,264,72,40,0,-27,-12,0,0,65,0,232,160,56,24,0,
0,10,-74,-44,0,0,100,90,0,416,48,72,0,-76,-42,0,1,50,90,48,416,48,64,0,8,-45,2,0,100,90,0,416,48,72,0,18,-43,2,1,50,90,48,416,48,64,0,-28,-47,0,0,100,0,256,376,32,32,0,-47,-71,0,0,100,0,384,320,96,80,0,1,-46,0,0,100,0,200,416,24,24,0,1,-46,0,0,100,0,224,376,32,32,0,-27,-41,0,0,100,0,72,264,72,40,0,-27,-12,0,0,65,0,232,160,56,24,0,
0,10,-36,-42,0,0,100,180,0,416,48,72,0,-64,-31,0,1,50,0,96,416,72,64,0,-6,-41,1,0,100,180,0,416,48,72,0,-2,-30,1,1,50,0,96,416,72,64,0,-28,-47,0,0,100,0,256,376,32,32,0,-47,-71,0,0,100,0,384,320,96,80,0,1,-46,0,0,100,0,200,416,24,24,0,1,-46,0,0,100,0,224,376,32,32,0,-27,-41,0,0,100,0,144,264,72,40,0,-27,-12,0,0,65,0,232,160,56,24,0,
0,10,-33,-56,0,0,100,270,0,416,48,72,0,-22,-52,0,1,50,90,96,416,72,64,0,-33,-56,2,0,100,270,0,416,48,72,0,-36,-52,1,1,50,270,96,416,72,64,0,-28,-47,0,0,100,0,256,376,32,32,0,-47,-71,0,0,100,0,384,320,96,80,0,1,-46,0,0,100,0,200,416,24,24,0,1,-46,0,0,100,0,224,376,32,32,0,-27,-41,0,0,100,0,216,264,72,40,0,-27,-12,0,0,65,0,232,160,56,24,0,
0,7,-6,-49,0,0,100,0,224,408,32,32,0,-45,-71,0,0,100,0,288,400,96,80,0,-20,-84,0,0,100,0,0,352,56,64,0,0,-43,0,0,100,0,256,408,32,32,0,9,-65,1,0,100,0,112,352,48,64,0,-20,-44,0,0,100,0,0,264,72,40,0,-26,-12,0,0,65,0,232,160,56,24,0,
0,7,-5,-48,0,0,100,0,224,408,32,32,0,-45,-71,0,0,100,0,384,400,96,80,0,-19,-83,0,0,100,0,0,352,56,64,0,-2,-44,0,0,100,0,256,408,32,32,0,6,-67,1,0,100,0,112,352,48,64,0,-19,-41,0,0,100,0,72,264,72,40,0,-26,-12,0,0,65,0,232,160,56,24,0,
0,5,-48,-65,0,1,70,0,264,440,24,24,0,-61,-88,0,0,100,0,112,352,48,64,0,2,-43,0,0,100,0,80,304,80,48,0,-44,-71,0,0,100,0,384,160,96,80,0,-27,-12,0,0,65,0,232,160,56,24,0,
0,5,-61,-82,0,1,90,0,200,440,40,40,0,-61,-88,0,0,100,0,112,352,48,64,0,2,-43,0,0,100,0,80,304,80,48,0,-44,-71,0,0,100,0,288,240,96,80,0,-27,-12,0,0,65,0,232,160,56,24,0,
0,5,-62,-84,0,1,80,0,240,440,24,32,0,-61,-88,0,0,100,0,112,352,48,64,0,2,-43,0,0,100,0,80,304,80,48,0,-44,-71,0,0,100,0,384,240,96,80,0,-27,-12,0,0,65,0,232,160,56,24,0,
0,5,-119,-133,0,1,50,0,0,488,128,120,0,-61,-88,0,0,100,0,112,352,48,64,0,2,-43,0,0,100,0,80,304,80,48,0,-44,-71,0,0,100,0,288,320,96,80,0,-27,-12,0,0,65,0,232,160,56,24,0,
0,5,-119,-133,0,1,100,0,0,488,128,120,0,-61,-88,0,0,100,0,112,352,48,64,0,2,-43,0,0,100,0,80,304,80,48,0,-44,-71,0,0,100,0,384,160,96,80,0,-27,-12,0,0,65,0,232,160,56,24,0,
0,5,-119,-133,0,1,30,0,0,488,128,120,0,-61,-88,0,0,100,0,112,352,48,64,0,2,-43,0,0,100,0,80,304,80,48,0,-44,-71,0,0,100,0,288,240,96,80,0,-27,-12,0,0,65,0,232,160,56,24,0,
0,5,-119,-133,0,1,10,0,0,488,128,120,0,-61,-88,0,0,100,0,112,352,48,64,0,2,-43,0,0,100,0,80,304,80,48,0,-44,-71,0,0,100,0,384,240,96,80,0,-27,-12,0,0,65,0,232,160,56,24,0,
0,4,-61,-88,0,0,100,0,112,352,48,64,0,2,-43,0,0,100,0,80,304,80,48,0,-44,-71,0,0,100,0,288,320,96,80,0,-27,-12,0,0,65,0,232,160,56,24,0,
0,4,-61,-88,0,0,100,0,112,352,48,64,0,2,-43,0,0,100,0,80,304,80,48,0,-44,-71,0,0,100,0,384,160,96,80,0,-27,-12,0,0,65,0,232,160,56,24,0,
0,4,-61,-88,0,0,100,0,112,352,48,64,0,2,-43,0,0,100,0,80,304,80,48,0,-44,-71,0,0,100,0,288,240,96,80,0,-27,-12,0,0,65,0,232,160,56,24,0,
0,4,-61,-88,0,0,100,0,112,352,48,64,0,2,-43,0,0,100,0,80,304,80,48,0,-44,-71,0,0,100,0,384,240,96,80,0,-27,-12,0,0,65,0,232,160,56,24,0,
0,4,-61,-88,0,0,100,0,112,352,48,64,0,2,-43,0,0,100,0,80,304,80,48,0,-44,-71,0,0,100,0,288,320,96,80,0,-27,-12,0,0,65,0,232,160,56,24,0,
0,8,-40,-100,1,1,100,0,64,712,64,72,0,-6,-29,0,1,100,0,80,784,72,40,0,-86,-108,0,1,100,0,416,624,104,128,0,-86,-37,0,1,100,0,0,776,80,48,0,-64,-37,0,0,100,0,46,212,85,44,0,-40,-85,0,0,100,0,224,304,64,72,0,-55,-72,0,0,100,0,320,0,96,80,0,-31,-12,0,0,65,0,232,160,56,24,0,
0,8,-37,-101,1,1,100,0,184,816,64,72,0,-86,-107,0,1,100,0,416,752,104,128,0,-22,-35,0,1,100,0,200,888,80,40,0,-94,-51,0,1,100,0,128,872,72,56,0,-41,-82,0,0,100,0,224,304,64,72,0,-55,-72,0,0,100,0,416,0,96,80,0,-52,-29,0,0,100,0,256,184,32,16,0,-33,-12,0,0,65,0,232,160,56,24,0,
0,7,-37,-101,1,1,100,0,184,816,64,72,0,-22,-35,0,1,100,0,200,888,80,40,0,-94,-51,0,1,100,0,128,872,72,56,0,-41,-82,0,0,100,0,224,304,64,72,0,-55,-72,0,0,100,0,416,0,96,80,0,-52,-29,0,0,100,0,256,184,32,16,0,-33,-12,0,0,65,0,232,160,56,24,0,
0,5,-49,-91,1,1,100,0,64,832,64,64,0,-97,-55,0,1,100,0,0,872,72,64,0,-44,-82,0,0,100,0,160,304,64,72,0,-55,-72,0,0,100,0,0,80,96,80,0,-33,-12,0,0,65,0,232,160,56,24,0,
