0,4,-16,-61,0,0,100,0,608,768,32,32,1,-45,-47,0,0,100,0,0,0,96,64,0,-1,-36,0,0,100,0,608,808,32,16,1,-24,-16,0,0,65,0,200,0,48,32,0,
0,4,-17,-61,0,0,100,0,640,768,32,32,1,-46,-49,0,0,100,0,96,0,96,64,0,-3,-39,0,0,100,0,640,808,32,24,1,-24,-16,0,0,65,0,200,0,48,32,0,
0,4,-17,-60,0,0,100,0,672,768,32,32,1,-46,-40,0,0,100,0,0,72,96,56,0,-2,-39,0,0,100,0,672,808,32,24,1,-24,-16,0,0,65,0,200,0,48,32,0,
0,4,-18,-59,0,0,100,0,704,768,32,32,1,-45,-45,0,0,100,0,96,64,96,64,0,-1,-40,0,0,100,0,704,808,32,24,1,-24,-16,0,0,65,0,200,0,48,32,0,
0,4,-28,-55,0,0,100,0,704,768,32,40,1,-25,-51,0,0,100,0,192,32,96,72,0,-11,-36,0,0,100,0,704,808,32,24,1,-21,-16,0,0,65,0,200,0,48,32,0,
0,4,-28,-55,0,0,100,0,608,768,32,32,1,-30,-46,0,0,100,0,0,144,112,64,0,-13,-30,0,0,100,0,608,808,32,16,1,-22,-16,0,0,65,0,200,0,48,32,0,
0,5,-25,-52,0,0,100,0,640,768,32,32,1,-26,-42,0,0,100,0,112,144,96,56,0,-16,-29,0,0,100,0,640,808,32,24,1,-9,-27,0,0,100,0,288,8,96,56,0,-22,-16,0,0,65,0,200,0,48,32,0,
0,4,-25,-52,0,0,100,0,640,768,32,32,1,-26,-42,0,0,100,0,112,144,96,56,0,-16,-29,0,0,100,0,640,808,32,24,1,-22,-16,0,0,65,0,200,0,48,32,0,
0,4,-30,-50,0,0,100,0,672,768,32,32,1,-30,-37,0,0,100,0,0,216,104,40,0,-16,-31,0,0,100,0,672,808,32,24,1,-22,-16,0,0,65,0,200,0,48,32,0,
0,6,-22,-56,0,0,100,0,744,768,48,32,1,-38,-52,0,0,100,0,104,200,96,56,0,-213,-64,0,0,100,0,0,960,192,64,0,-221,-71,0,1,100,0,384,8,296,88,0,-29,-33,0,0,100,0,320,528,56,56,0,-24,-16,0,0,65,0,200,0,48,32,0,
0,5,-21,-55,0,0,100,0,744,800,48,32,1,-41,-45,0,0,100,0,0,264,104,56,0,-220,-70,0,0,100,0,184,960,200,64,0,-202,-60,0,1,100,0,384,96,280,64,0,-24,-16,0,0,65,0,200,0,48,32,0,
0,5,-30,-56,0,0,100,0,800,768,56,40,1,-45,-48,0,0,100,0,96,264,96,56,0,-224,-73,0,0,100,0,384,960,200,56,0,-157,-51,0,1,100,0,416,168,224,48,0,-24,-16,0,0,65,0,200,0,48,32,0,
0,3,-32,-58,0,0,100,0,808,808,56,48,1,-42,-48,0,0,100,0,0,328,104,56,0,-24,-16,0,0,65,0,200,0,48,32,0,
0,5,-27,-44,0,0,100,0,872,768,48,40,1,-32,-32,0,0,100,0,104,328,88,56,0,-133,-70,0,0,100,0,0,1032,200,120,0,-148,-81,0,1,100,0,416,256,240,128,0,-22,-16,0,0,65,0,200,0,48,32,0,
0,5,-31,-46,0,0,100,0,872,800,56,40,1,-37,-31,0,0,100,0,0,392,96,64,0,-135,-73,0,0,100,0,192,1024,200,128,0,-137,-58,0,1,100,0,384,384,240,112,0,-22,-16,0,0,65,0,200,0,48,32,0,
0,4,-31,-46,0,0,100,0,936,768,56,40,1,-35,-31,0,0,100,0,104,392,88,64,0,-129,-17,0,1,100,0,384,504,232,64,0,-22,-16,0,0,65,0,200,0,48,32,0,
0,4,-31,-47,0,0,100,0,672,768,32,32,1,-34,-30,0,0,100,0,8,456,88,56,0,-16,-26,0,0,100,0,672,808,32,24,1,-22,-16,0,0,65,0,200,0,48,32,0,
0,5,-12,-68,0,0,100,0,936,808,56,48,1,-141,-108,0,0,100,0,384,1024,192,128,0,-159,-137,0,1,100,0,344,776,280,184,0,-25,-94,0,0,100,0,104,448,88,96,0,-21,-16,0,0,65,0,200,0,48,32,0,
0,5,-14,-69,0,0,100,0,1000,760,56,40,1,-128,-141,0,0,100,0,576,952,192,112,0,-127,-125,0,1,100,0,384,576,240,96,0,-35,-94,0,0,100,0,0,512,104,104,0,-21,-16,0,0,65,0,200,0,48,32,0,
0,4,-112,-141,0,1,100,0,384,672,208,96,0,-17,-61,0,0,100,0,1000,800,56,48,1,-30,-86,0,0,100,0,104,552,88,88,0,-21,-16,0,0,65,0,200,0,48,32,0,
0,3,-17,-63,0,0,100,0,1064,776,64,56,1,-23,-76,0,0,100,0,0,632,96,88,0,-21,-16,0,0,65,0,200,0,48,32,0,
0,3,-19,-65,0,0,100,0,608,840,56,48,1,-22,-61,0,0,100,0,96,640,104,72,0,-21,-16,0,0,65,0,200,0,48,32,0,
0,3,-12,-66,0,0,100,0,680,840,48,56,1,-21,-69,0,0,100,0,224,664,104,80,0,-21,-16,0,0,65,0,200,0,48,32,0,
0,3,-20,-58,0,0,100,0,744,832,56,40,1,-23,-70,0,0,100,0,0,728,104,80,0,-21,-16,0,0,65,0,200,0,48,32,0,
0,5,-38,-42,0,0,100,0,872,768,48,40,1,-90,-28,0,0,100,0,96,712,128,48,0,-175,-152,0,0,100,0,768,976,152,184,0,-191,-187,0,1,100,0,680,16,272,208,0,-30,-16,0,0,65,0,200,0,48,32,0,
0,5,-218,-197,0,0,100,0,920,960,208,248,0,-206,-176,0,1,100,0,712,256,192,208,0,-38,-44,0,0,100,0,872,800,56,40,1,-87,-27,0,0,100,0,96,776,136,48,0,-30,-16,0,0,65,0,200,0,48,32,0,
0,5,-38,-44,0,0,100,0,936,768,56,40,1,-85,-36,0,0,100,0,0,840,128,56,0,-242,-221,0,0,100,0,856,520,168,248,0,-220,-131,0,1,100,0,664,472,192,160,0,-30,-16,0,0,65,0,200,0,48,32,0,
0,6,-38,-44,0,0,100,0,704,768,32,32,1,-87,-44,0,0,100,0,128,832,128,64,0,-23,-24,0,0,100,0,704,808,32,24,1,-234,-219,0,0,100,0,1120,944,128,248,0,-219,-89,0,1,100,0,696,640,160,128,0,-30,-16,0,0,65,0,200,0,48,32,0,
0,4,-36,-45,0,0,100,0,608,768,32,32,1,-90,-45,0,0,100,0,0,896,128,64,0,-23,-24,0,0,100,0,704,808,32,24,1,-30,-16,0,0,65,0,200,0,48,32,0,
0,4,-29,-54,0,0,100,0,640,768,32,32,1,-77,-44,0,0,100,0,136,896,120,56,0,-14,-34,0,0,100,0,704,808,32,24,1,-24,-16,0,0,65,0,200,0,48,32,0,
0,5,-9,-48,0,0,100,0,360,72,32,32,0,-15,-61,0,0,100,0,608,768,32,32,1,0,-36,0,0,100,0,608,808,32,16,1,-81,-48,0,0,100,0,288,72,96,56,0,-24,-16,0,0,65,0,200,0,48,32,0,
0,4,-16,-61,0,0,100,0,808,768,56,40,1,-25,-53,0,0,100,0,216,128,40,64,0,-37,-76,0,0,100,0,296,128,88,56,0,-24,-16,0,0,65,0,200,0,48,32,0,
0,4,-21,-62,0,0,100,0,808,808,56,48,1,-16,-60,0,0,100,0,256,120,40,72,0,-38,-73,0,0,100,0,296,128,88,56,0,-24,-16,0,0,65,0,200,0,48,32,0,
0,6,-14,-60,0,0,100,0,704,768,32,40,1,-60,-55,0,0,100,0,8,1152,176,64,0,-55,-59,0,1,100,0,952,16,168,72,0,-15,-51,0,0,100,0,200,200,112,56,0,-6,-62,0,0,100,0,824,864,40,40,1,-24,-16,0,0,65,0,200,0,48,32,0,
0,7,-13,-61,0,0,100,0,640,768,32,40,1,-59,-52,0,0,100,0,200,1152,168,64,0,-51,-56,0,1,100,0,960,88,152,72,0,-5,-50,0,0,100,0,288,448,96,32,0,-15,-48,0,0,100,0,312,200,32,56,0,5,-59,0,0,100,0,864,864,32,32,1,-24,-16,0,0,65,0,200,0,48,32,0,
0,6,-13,-61,0,0,100,0,672,768,32,32,1,-49,-50,0,1,100,0,960,160,152,56,0,-5,-50,0,0,100,0,288,448,96,32,0,-21,-49,0,0,100,0,344,200,40,56,0,5,-48,0,0,100,0,896,872,32,32,1,-24,-16,0,0,65,0,200,0,48,32,0,
0,5,-14,-53,0,0,100,0,704,776,40,24,1,-5,-50,0,0,100,0,288,448,96,32,0,-21,-51,0,0,100,0,216,584,40,56,0,3,-42,0,0,100,0,704,808,32,24,1,-24,-16,0,0,65,0,200,0,48,32,0,
0,4,-13,-62,0,0,100,0,608,768,32,32,1,-21,-51,0,0,100,0,192,256,96,64,0,2,-37,0,0,100,0,608,808,32,16,1,-24,-16,0,0,65,0,200,0,48,32,0,
0,4,-75,-51,0,0,100,0,288,256,96,64,0,-15,-61,0,0,100,0,640,768,32,32,1,-1,-39,0,0,100,0,640,808,32,24,1,-24,-16,0,0,65,0,200,0,48,32,0,
0,7,-4,-62,0,0,100,0,328,672,24,40,0,-14,-62,0,0,100,0,672,768,32,32,1,-28,-61,0,0,100,0,256,320,56,64,0,2,-40,0,0,100,0,672,808,32,24,1,-12,-128,0,0,100,0,192,568,32,104,0,-51,-91,0,0,100,0,200,320,56,64,0,-24,-16,0,0,65,0,200,0,48,32,0,
0,6,-4,-62,0,0,100,0,328,672,24,40,0,-15,-62,0,0,100,0,704,768,32,32,1,2,-43,0,0,100,0,704,808,32,24,1,-14,-60,0,0,100,0,256,576,40,64,0,-12,-128,0,0,100,0,192,568,32,104,0,-24,-16,0,0,65,0,200,0,48,32,0,
0,6,-4,-61,0,0,100,0,328,672,24,40,0,-13,-62,0,0,100,0,608,768,32,32,1,1,-44,0,0,100,0,896,872,40,24,1,-31,-61,0,0,100,0,320,320,64,64,0,-12,-127,0,0,100,0,192,568,32,104,0,-24,-16,0,0,65,0,200,0,48,32,0,
0,5,-42,-118,0,0,100,0,896,240,104,152,0,-33,-100,0,1,100,0,1000,256,136,128,0,-22,-60,0,0,100,0,864,768,56,40,1,-21,-42,0,0,100,0,192,392,96,56,0,-24,-16,0,0,65,0,200,0,48,32,0,
0,5,-38,-72,0,0,100,0,912,376,88,104,0,-31,-72,0,1,100,0,1000,376,128,104,0,-14,-63,0,0,100,0,872,800,48,32,1,-21,-45,0,0,100,0,288,392,96,56,0,-24,-16,0,0,65,0,200,0,48,32,0,
0,5,-13,-62,0,0,100,0,672,768,32,40,1,-15,-22,0,1,100,0,1024,504,96,56,0,-21,-47,0,0,100,0,192,448,96,64,0,5,-49,0,0,100,0,896,872,40,24,1,-24,-16,0,0,65,0,200,0,48,32,0,
0,4,-14,-62,0,0,100,0,704,768,32,32,1,-23,-46,0,0,100,0,200,512,112,64,0,3,-43,0,0,100,0,704,808,32,24,1,-24,-16,0,0,65,0,200,0,48,32,0,
0,4,-20,-63,0,0,100,0,600,768,40,32,1,-21,-50,0,0,100,0,1128,0,120,72,0,4,-43,0,0,100,0,736,872,32,24,1,-24,-16,0,0,65,0,200,0,48,32,0,
0,4,-13,-62,0,0,100,0,640,768,32,32,1,-21,-51,0,0,100,0,1128,64,120,72,0,3,-44,0,0,100,0,768,872,32,24,1,-24,-16,0,0,65,0,200,0,48,32,0,
0,4,-13,-62,0,0,100,0,672,768,32,32,1,-28,-50,0,0,100,0,1120,128,128,72,0,2,-48,0,0,100,0,736,896,32,32,1,-24,-16,0,0,65,0,200,0,48,32,0,
0,4,-14,-62,0,0,100,0,704,768,32,32,1,-21,-51,0,0,100,0,1128,192,120,72,0,3,-50,0,0,100,0,768,896,40,32,1,-24,-16,0,0,65,0,200,0,48,32,0,
