0,4,-28,-47,0,0,100,0,264,208,48,32,0,-49,-67,0,0,100,0,80,464,56,48,0,-35,-66,0,0,100,0,0,0,72,72,0,-28,-12,0,0,65,0,0,232,56,24,0,
0,5,-26,-45,1,0,100,0,184,16,24,24,0,-28,-46,0,0,100,0,264,208,48,32,0,-49,-66,0,0,100,0,80,464,56,48,0,-35,-66,0,0,100,0,72,0,72,72,0,-28,-12,0,0,65,0,0,232,56,24,0,
0,5,-32,-55,1,0,100,0,208,8,24,24,0,-28,-45,0,0,100,0,264,208,48,32,0,-49,-65,0,0,100,0,80,464,56,48,0,-35,-66,0,0,100,0,0,72,72,72,0,-28,-12,0,0,65,0,0,232,56,24,0,
0,5,-30,-65,1,0,100,0,232,0,24,24,0,-28,-46,0,0,100,0,264,208,48,32,0,-49,-66,0,0,100,0,80,464,56,48,0,-35,-66,0,0,100,0,72,72,72,72,0,-28,-12,0,0,65,0,0,232,56,24,0,
0,4,-26,-49,0,0,100,0,264,208,48,32,0,-47,-69,0,0,100,0,80,464,56,48,0,-34,-66,0,0,100,0,0,0,72,72,0,-27,-12,0,0,65,0,0,232,56,24,0,
0,2,-36,-83,0,0,100,0,264,0,112,104,0,-10,-12,0,0,65,0,0,232,56,24,0,
0,3,-37,-67,0,0,100,0,72,144,32,64,0,-35,-83,0,0,100,0,0,256,112,104,0,1,-12,0,0,65,0,0,232,56,24,0,
0,4,-17,-45,0,0,100,0,184,40,24,24,0,-34,-67,0,0,100,0,104,144,32,64,0,-35,-83,0,0,100,0,0,256,112,104,0,1,-12,0,0,65,0,0,232,56,24,0,
0,4,-2,-52,0,0,100,0,208,40,24,24,0,-39,-67,0,0,100,0,0,144,32,64,0,-35,-83,0,0,100,0,112,256,112,104,0,1,-12,0,0,65,0,0,232,56,24,0,
0,4,-5,-44,0,0,100,0,232,40,24,24,0,-44,-67,0,0,100,0,32,144,40,64,0,-35,-83,0,0,100,0,224,256,112,104,0,1,-12,0,0,65,0,0,232,56,24,0,
0,2,-35,-83,0,0,100,0,0,256,112,104,0,1,-12,0,0,65,0,0,232,56,24,0,
0,4,-26,-47,0,0,100,0,312,208,48,32,0,-36,-58,0,0,100,0,0,464,40,48,0,-59,-82,0,0,100,0,376,0,112,104,0,-27,-12,0,0,65,0,0,232,56,24,0,
0,4,-24,-46,0,0,100,0,360,208,48,32,0,-33,-54,0,0,100,0,40,464,40,48,0,-59,-82,0,0,100,0,264,104,112,104,0,-26,-12,0,0,65,0,0,232,56,24,0,
0,4,-24,-46,0,0,100,0,360,208,48,32,0,-33,-54,0,0,100,0,0,464,40,48,0,-59,-82,0,0,100,0,264,104,112,104,0,-26,-12,0,0,65,0,0,232,56,24,0,
0,4,-22,-42,0,0,100,0,408,208,48,32,0,-39,-44,0,0,100,0,136,464,56,48,0,-59,-82,0,0,100,0,376,104,112,104,0,-27,-12,0,0,65,0,0,232,56,24,0,
0,4,-24,-42,0,0,100,0,408,208,48,32,0,-41,-44,0,0,100,0,136,464,56,48,0,-59,-82,0,0,100,0,376,104,112,104,0,-27,-12,0,0,65,0,0,232,56,24,0,
0,2,-83,-83,0,0,100,0,336,256,112,104,0,-45,-12,0,0,65,0,0,232,56,24,0,
0,2,-83,-83,0,0,100,0,0,360,112,104,0,-45,-12,0,0,65,0,0,232,56,24,0,
0,2,-83,-83,0,0,100,0,112,360,112,104,0,-45,-12,0,0,65,0,0,232,56,24,0,
0,2,-83,-83,0,0,100,0,224,360,112,104,0,-45,-12,0,0,65,0,0,232,56,24,0,
0,2,-83,-83,0,0,100,0,336,360,112,104,0,-45,-12,0,0,65,0,0,232,56,24,0,
