0,3,-48,-80,0,0,70,0,384,0,96,96,0,-48,-80,0,0,100,0,0,0,96,96,0,-48,-16,0,0,65,0,768,32,96,32,0,
0,3,-48,-80,0,0,70,0,480,0,96,96,0,-48,-80,0,0,100,0,96,0,96,96,0,-48,-16,0,0,65,0,768,32,96,32,0,
0,3,-48,-80,0,0,70,0,576,0,96,96,0,-48,-80,0,0,100,0,192,0,96,96,0,-48,-16,0,0,65,0,768,32,96,32,0,
0,3,-48,-80,0,0,70,0,672,0,96,96,0,-48,-80,0,0,100,0,288,0,96,96,0,-48,-16,0,0,65,0,768,32,96,32,0,
0,4,-44,-80,0,0,70,0,384,96,96,96,0,-48,-80,0,0,100,0,0,96,94,96,0,-37,-42,0,0,100,0,776,88,88,40,0,-46,-16,0,0,65,0,768,32,96,32,0,
0,4,-5,-74,0,0,60,0,480,96,96,96,0,-9,-45,0,0,100,0,776,128,88,72,0,-16,-80,0,0,100,0,96,96,94,96,0,-43,-16,0,0,65,0,768,32,96,32,0,
0,5,-3,-74,0,0,60,0,576,96,96,96,0,-16,-80,0,0,20,0,480,96,96,96,0,-10,-44,0,0,100,0,776,128,88,72,0,-16,-80,0,0,100,0,192,96,96,96,0,-43,-16,0,0,65,0,768,32,96,32,0,
0,5,-14,-78,0,0,60,0,672,96,96,96,0,-16,-80,0,0,20,0,576,96,96,96,0,-10,-45,0,0,100,0,776,128,88,72,0,-16,-80,0,0,100,0,288,96,96,96,0,-43,-16,0,0,65,0,768,32,96,32,0,
0,4,-58,-78,0,0,60,0,384,192,128,96,0,-30,-52,0,0,100,0,776,128,88,72,0,-58,-80,0,0,100,0,0,192,128,96,0,-59,-16,0,0,65,0,768,32,96,32,0,
0,4,-57,-88,0,0,60,0,512,192,128,96,0,-58,-80,0,0,100,0,128,192,128,96,0,-29,-54,0,0,100,0,776,288,88,56,0,-63,-16,0,0,65,0,768,32,96,32,0,
0,4,-71,-92,0,0,60,0,640,192,128,96,0,-62,-80,0,0,100,0,256,192,128,96,0,-51,-58,0,0,100,0,776,88,88,40,0,-72,-16,0,0,65,0,768,32,96,32,0,
0,6,-167,-132,0,0,70,0,0,384,224,192,0,-125,-78,0,0,60,0,0,576,224,128,0,-99,-29,0,0,100,0,776,416,88,72,0,-99,-80,0,0,100,0,0,288,128,96,0,-151,-70,0,0,50,0,0,704,224,128,0,-71,-16,0,0,65,0,768,32,96,32,0,
0,7,-167,-132,0,0,70,0,224,384,224,192,0,-125,-78,0,0,50,0,224,576,224,128,0,-167,-132,0,0,20,0,0,384,224,192,0,-90,-28,0,0,100,0,776,344,88,72,0,-99,-80,0,0,100,0,128,288,128,96,0,-151,-70,0,0,40,0,224,704,224,128,0,-72,-16,0,0,65,0,768,32,96,32,0,
0,7,-167,-132,0,0,40,0,448,384,224,192,0,-125,-78,0,0,20,0,448,576,224,128,0,-167,-132,0,0,15,0,224,384,224,192,0,-90,-28,0,0,100,0,776,344,88,72,0,-99,-80,0,0,100,0,256,288,128,96,0,-151,-70,0,0,20,0,448,704,224,128,0,-72,-16,0,0,65,0,768,32,96,32,0,
0,4,-167,-132,0,0,20,0,448,384,224,192,0,-90,-29,0,0,100,0,776,344,88,72,0,-99,-80,0,0,100,0,384,288,128,96,0,-72,-16,0,0,65,0,768,32,96,32,0,
0,3,-90,-29,0,0,100,0,776,344,88,72,0,-99,-80,0,0,100,0,384,288,128,96,0,-72,-16,0,0,65,0,768,32,96,32,0,
0,3,-91,-31,0,0,100,0,776,344,88,72,0,-99,-80,0,0,100,0,512,288,128,96,0,-72,-16,0,0,65,0,768,32,96,32,0,
0,3,-96,-80,0,0,100,0,640,288,128,96,0,-90,-87,0,0,100,0,776,200,88,88,0,-71,-16,0,0,65,0,768,32,96,32,0,
0,6,-48,-80,0,0,70,0,384,0,96,96,0,-49,-89,0,0,100,0,864,0,104,104,0,-29,-55,0,0,100,0,968,248,32,32,0,-17,-65,0,0,100,0,968,208,64,40,0,-39,-65,0,0,100,0,776,88,88,40,0,-48,-16,0,0,65,0,768,32,96,32,0,
0,6,-48,-80,0,0,70,0,480,0,96,96,0,-49,-89,0,0,100,0,968,0,104,104,0,-27,-56,0,0,100,0,968,248,32,32,0,-16,-66,0,0,100,0,1032,208,64,40,0,-37,-66,0,0,100,0,776,88,88,40,0,-48,-16,0,0,65,0,768,32,96,32,0,
0,6,-48,-80,0,0,70,0,576,0,96,96,0,-49,-89,0,0,100,0,968,0,104,104,0,-25,-57,0,0,100,0,968,248,32,32,0,-16,-66,0,0,100,0,1096,208,64,40,0,-35,-67,0,0,100,0,776,288,88,56,0,-48,-16,0,0,65,0,768,32,96,32,0,
0,8,-48,-80,0,0,70,0,672,0,96,96,0,-48,-80,0,0,40,0,576,0,96,96,0,-49,-89,0,0,100,0,1072,0,104,104,0,-15,-64,0,0,100,0,1160,208,64,40,0,-31,-35,0,0,100,0,1040,248,24,24,0,-96,-62,0,0,100,0,864,312,104,88,0,-31,-43,0,0,100,0,1000,248,40,32,0,-48,-16,0,0,65,0,768,32,96,32,0,
0,8,-48,-80,0,0,70,0,384,0,96,96,0,-48,-80,0,0,40,0,672,0,96,96,0,-49,-89,0,0,100,0,1176,0,104,104,0,-15,-64,0,0,100,0,968,208,64,40,0,-32,-34,0,0,100,0,1040,248,24,24,0,-91,-41,0,0,100,0,864,400,104,64,0,-32,-42,0,0,100,0,1000,248,40,32,0,-48,-16,0,0,65,0,768,32,96,32,0,
0,8,-48,-80,0,0,70,0,480,0,96,96,0,-48,-80,0,0,40,0,384,0,96,96,0,-49,-89,0,0,100,0,1176,0,104,104,0,-15,-64,0,0,100,0,1032,208,64,40,0,-32,-35,0,0,100,0,1040,248,24,24,0,-91,-42,0,0,100,0,864,400,104,64,0,-32,-43,0,0,100,0,1000,248,40,32,0,-48,-16,0,0,65,0,768,32,96,32,0,
0,7,-48,-80,0,0,70,0,576,0,96,96,0,-49,-89,0,0,100,0,1176,0,104,104,0,-15,-64,0,0,100,0,1096,208,64,40,0,-32,-35,0,0,100,0,1040,248,24,24,0,-91,-42,0,0,100,0,864,400,104,64,0,-32,-43,0,0,100,0,1000,248,40,32,0,-48,-16,0,0,65,0,768,32,96,32,0,
0,4,-42,-80,0,0,70,0,672,0,96,96,0,-52,-89,0,0,100,0,864,104,104,104,0,-56,-43,0,0,100,0,776,488,88,56,0,-41,-16,0,0,65,0,768,32,96,32,0,
0,4,-32,-80,0,0,70,0,384,0,96,96,0,-31,-89,0,0,100,0,968,104,104,104,0,-31,-39,0,0,100,0,776,488,88,56,0,-27,-16,0,0,65,0,768,32,96,32,0,
0,5,-32,-80,0,0,70,0,480,0,96,96,0,-39,-78,0,0,10,0,1072,280,104,104,0,-31,-89,0,0,100,0,1072,104,104,104,0,-31,-39,0,0,100,0,776,488,88,56,0,-27,-16,0,0,65,0,768,32,96,32,0,
0,6,-32,-80,0,0,70,0,576,0,96,96,0,11,-49,0,1,50,0,1064,264,16,16,0,-39,-78,0,0,20,0,1176,280,104,104,0,-31,-89,0,0,100,0,1176,104,104,104,0,-31,-39,0,0,100,0,776,488,88,56,0,-27,-16,0,0,65,0,768,32,96,32,0,
0,6,-32,-80,0,0,70,0,672,0,96,96,0,11,-49,0,1,80,0,1064,264,16,16,0,-39,-78,0,0,40,0,968,384,104,104,0,-31,-89,0,0,100,0,864,208,104,104,0,-31,-39,0,0,100,0,776,488,88,56,0,-27,-16,0,0,65,0,768,32,96,32,0,
0,6,-32,-80,0,0,70,0,384,0,96,96,0,11,-49,0,1,100,0,1064,264,16,16,0,-39,-78,0,0,60,0,968,280,104,104,0,-31,-89,0,0,100,0,968,104,104,104,0,-31,-39,0,0,100,0,776,488,88,56,0,-27,-16,0,0,65,0,768,32,96,32,0,
0,6,-32,-80,0,0,70,0,480,0,96,96,0,11,-49,0,1,100,0,1064,264,16,16,0,-39,-78,0,0,60,0,1072,280,104,104,0,-31,-89,0,0,100,0,1072,104,104,104,0,-31,-39,0,0,100,0,776,488,88,56,0,-27,-16,0,0,65,0,768,32,96,32,0,
0,6,-32,-80,0,0,70,0,576,0,96,96,0,11,-49,0,1,100,0,1064,264,16,16,0,-39,-78,0,0,60,0,1176,280,104,104,0,-31,-89,0,0,100,0,1176,104,104,104,0,-31,-39,0,0,100,0,776,488,88,56,0,-27,-16,0,0,65,0,768,32,96,32,0,
0,6,-32,-80,0,0,70,0,672,0,96,96,0,11,-49,0,1,100,0,1064,264,16,16,0,-39,-78,0,0,60,0,968,384,104,104,0,-31,-89,0,0,100,0,864,208,104,104,0,-31,-39,0,0,100,0,776,488,88,56,0,-27,-16,0,0,65,0,768,32,96,32,0,
0,7,-32,-80,0,0,70,0,384,0,96,96,0,10,-48,0,1,100,0,1080,248,16,16,0,11,-49,0,1,100,0,1064,264,16,16,0,-39,-78,0,0,60,0,968,280,104,104,0,-31,-89,0,0,100,0,968,104,104,104,0,-31,-39,0,0,100,0,776,488,88,56,0,-27,-16,0,0,65,0,768,32,96,32,0,
0,7,-32,-80,0,0,70,0,480,0,96,96,0,10,-48,0,1,100,0,1096,248,16,16,0,11,-49,0,1,100,0,1064,264,16,16,0,-39,-78,0,0,60,0,1072,280,104,104,0,-31,-89,0,0,100,0,1072,104,104,104,0,-31,-39,0,0,100,0,776,488,88,56,0,-27,-16,0,0,65,0,768,32,96,32,0,
0,9,-32,-80,0,0,70,0,576,0,96,96,0,14,-48,0,1,100,0,1112,248,24,16,0,-2,-48,0,1,100,0,1112,248,24,16,0,10,-48,0,1,100,0,1080,248,16,16,0,11,-49,0,1,100,0,1064,264,16,16,0,-39,-78,0,0,60,0,1176,280,104,104,0,-31,-89,0,0,100,0,1176,104,104,104,0,-31,-39,0,0,100,0,776,488,88,56,0,-27,-16,0,0,65,0,768,32,96,32,0,
0,8,-32,-80,0,0,70,0,672,0,96,96,0,26,-48,0,1,100,0,1136,248,16,16,0,-6,-48,0,1,100,0,1136,248,16,16,0,11,-49,0,1,100,0,1064,264,16,16,0,-39,-78,0,0,60,0,968,384,104,104,0,-31,-89,0,0,100,0,864,208,104,104,0,-31,-39,0,0,100,0,776,488,88,56,0,-27,-16,0,0,65,0,768,32,96,32,0,
0,9,-32,-80,0,0,70,0,384,0,96,96,0,29,-48,0,1,100,0,1152,248,16,16,0,-9,-48,0,1,100,0,1152,248,16,16,0,11,-49,0,1,100,0,1064,264,16,16,0,-39,-78,0,0,80,0,1072,384,104,104,0,-39,-78,0,0,60,0,968,280,104,104,0,-31,-89,0,0,100,0,968,104,104,104,0,-31,-39,0,0,100,0,776,488,88,56,0,-27,-16,0,0,65,0,768,32,96,32,0,
0,4,-32,-80,0,0,70,0,480,0,96,96,0,11,-49,0,1,70,0,1064,264,16,16,0,-39,-78,0,0,70,0,1176,384,104,104,0,-27,-16,0,0,70,0,768,32,96,32,0,
0,4,-32,-80,0,0,70,0,576,0,96,96,0,11,-49,0,1,50,0,1064,264,16,16,0,-39,-78,0,0,50,0,968,488,104,104,0,-27,-16,0,0,50,0,768,32,96,32,0,
0,4,-32,-80,0,0,70,0,672,0,96,96,0,11,-49,0,1,30,0,1064,264,16,16,0,-39,-78,0,0,30,0,1072,488,104,104,0,-27,-16,0,0,30,0,768,32,96,32,0,
0,1,-32,-80,0,0,70,0,384,0,96,96,0,
0,1,-32,-80,0,0,70,0,480,0,96,96,0,
0,1,-32,-80,0,0,70,0,576,0,96,96,0,
0,1,-32,-80,0,0,70,0,672,0,96,96,0,
