0,7,-15,-65,0,0,100,0,480,0,40,40,0,-32,-64,0,0,100,0,0,0,72,80,0,-41,-41,0,1,100,0,528,40,48,48,0,-41,-41,0,0,100,0,480,40,48,48,0,-16,-39,0,0,100,0,928,0,24,24,0,-10,-59,0,0,100,0,720,40,64,64,0,-22,-8,0,0,65,0,976,0,48,16,0,
0,7,-15,-66,0,0,100,0,480,0,40,40,0,-32,-64,0,0,100,0,72,0,72,80,0,-41,-42,0,1,100,0,576,40,48,48,0,-41,-42,0,0,100,0,480,40,48,48,0,-16,-40,0,0,100,0,928,0,24,24,0,-11,-60,0,0,100,0,784,104,64,64,0,-22,-8,0,0,65,0,976,0,48,16,0,
0,7,-15,-65,0,0,100,0,480,0,40,40,0,-32,-64,0,0,100,0,144,0,72,80,0,-41,-41,0,1,100,0,624,40,48,48,0,-41,-41,0,0,100,0,480,40,48,48,0,-16,-40,0,0,100,0,928,0,24,24,0,-10,-59,0,0,100,0,720,40,64,64,0,-22,-8,0,0,65,0,976,0,48,16,0,
0,7,-15,-64,0,0,100,0,480,0,40,40,0,-32,-64,0,0,100,0,216,0,72,80,0,-41,-40,0,1,100,0,672,40,48,48,0,-41,-40,0,0,100,0,480,40,48,48,0,-16,-39,0,0,100,0,928,0,24,24,0,-9,-59,0,0,100,0,720,104,64,64,0,-22,-8,0,0,65,0,976,0,48,16,0,
0,7,-13,-65,0,0,100,0,480,0,40,40,0,-48,-56,0,1,100,0,528,88,48,48,0,-48,-56,0,0,100,0,480,88,48,48,0,-16,-45,0,0,100,0,904,0,24,24,0,-32,-64,0,0,100,0,0,80,72,80,0,-9,-60,0,0,100,0,720,40,64,64,0,-22,-8,0,0,65,0,976,0,48,16,0,
0,7,-13,-66,0,0,100,0,480,0,40,40,0,-49,-57,0,1,100,0,576,88,48,48,0,-49,-57,0,0,100,0,480,88,48,48,0,-16,-46,0,0,100,0,904,0,24,24,0,-32,-64,0,0,100,0,72,80,72,80,0,-8,-61,0,0,100,0,784,104,64,64,0,-22,-8,0,0,65,0,976,0,48,16,0,
0,7,-13,-65,0,0,100,0,480,0,40,40,0,-48,-57,0,1,100,0,624,88,48,48,0,-48,-57,0,0,100,0,480,88,48,48,0,-16,-46,0,0,100,0,904,0,24,24,0,-32,-64,0,0,100,0,144,80,72,80,0,-7,-60,0,0,100,0,720,40,64,64,0,-22,-8,0,0,65,0,976,0,48,16,0,
0,7,-13,-64,0,0,100,0,480,0,40,40,0,-47,-56,0,1,100,0,672,88,48,48,0,-47,-56,0,0,100,0,480,88,48,48,0,-15,-45,0,0,100,0,904,0,24,24,0,-32,-64,0,0,100,0,216,80,72,80,0,-8,-59,0,0,100,0,720,104,64,64,0,-22,-8,0,0,65,0,976,0,48,16,0,
0,8,-33,-54,0,0,100,0,480,0,40,40,0,-35,-52,0,0,100,0,0,160,56,64,0,-32,-53,0,0,100,0,288,48,48,48,0,-18,-57,0,0,100,0,784,40,64,64,0,-51,-29,0,1,100,0,528,40,48,48,0,-51,-29,0,0,100,0,480,40,48,48,0,-26,-29,0,0,100,0,952,0,24,24,0,-24,-8,0,0,65,0,976,0,48,16,0,
0,1,-22,-8,0,0,65,0,976,0,48,16,0,
0,1,-22,-8,0,0,65,0,976,0,48,16,0,
0,1,-22,-8,0,0,65,0,976,0,48,16,0,
0,1,-22,-8,0,0,65,0,976,0,48,16,0,
0,8,-49,-63,0,1,100,90,528,232,48,48,0,-49,-63,0,0,100,90,480,232,48,48,0,-15,-81,0,0,100,0,480,0,40,40,0,-14,-80,0,0,100,0,288,48,48,48,0,-34,-80,0,0,100,0,0,80,72,80,0,-17,-63,0,0,100,0,904,0,24,24,0,-12,-75,0,0,100,0,720,40,64,64,0,-23,-8,0,0,65,0,976,0,48,16,0,
0,8,-40,-97,2,1,100,0,576,40,48,48,0,-40,-97,2,0,100,0,480,40,48,48,0,-13,-90,0,0,100,0,480,0,40,40,0,-12,-88,0,0,100,0,336,48,48,48,0,-32,-88,0,0,100,0,72,80,72,80,0,-14,-73,0,0,100,0,880,0,24,24,0,-9,-86,0,0,100,0,912,40,64,64,0,-21,-8,0,0,65,0,976,0,48,16,0,
0,8,-35,-103,0,1,100,0,576,232,48,48,0,-35,-103,0,0,100,0,480,232,48,48,0,-8,-90,0,0,100,0,480,0,40,40,0,-7,-89,0,0,100,0,384,48,48,48,0,-27,-89,0,0,100,0,144,80,72,80,0,-9,-74,0,0,100,0,880,0,24,24,0,-4,-85,0,0,100,0,912,40,64,64,0,-18,-8,0,0,65,0,976,0,48,16,0,
0,7,1,-76,0,0,100,0,480,0,40,40,0,-35,-67,0,1,100,0,576,88,48,48,0,-35,-67,0,0,100,0,480,184,48,48,0,-2,-56,0,0,100,0,904,0,24,24,0,-18,-76,0,0,100,0,216,80,72,80,0,5,-69,0,0,100,0,912,40,64,64,0,-9,-8,0,0,65,0,976,0,48,16,0,
0,8,-30,-43,0,1,100,0,672,88,48,48,0,-30,-43,0,0,100,0,480,184,48,48,0,2,-51,0,0,100,0,480,0,40,40,0,3,-50,0,0,100,0,288,48,48,48,0,-3,-45,0,0,100,0,64,160,64,64,0,3,-33,0,0,100,0,904,0,24,24,0,10,-49,0,0,100,0,912,40,64,64,0,3,-6,0,0,65,0,976,0,48,16,0,
0,8,-31,-40,0,1,100,0,672,88,48,48,0,-31,-40,0,0,100,0,480,136,48,48,0,0,-49,0,0,100,0,480,0,40,40,0,1,-47,0,0,100,0,336,48,48,48,0,-3,-44,0,0,100,0,128,160,64,64,0,2,-30,0,0,100,0,904,0,24,24,0,10,-52,0,0,100,0,784,104,64,64,0,3,-5,0,0,65,0,976,0,48,16,0,
0,8,-30,-43,0,1,100,0,672,88,48,48,0,-30,-43,0,0,100,0,480,88,48,48,0,2,-51,0,0,100,0,480,0,40,40,0,3,-50,0,0,100,0,384,48,48,48,0,-3,-45,0,0,100,0,64,160,64,64,0,3,-33,0,0,100,0,904,0,24,24,0,10,-50,0,0,100,0,912,40,64,64,0,3,-6,0,0,65,0,976,0,48,16,0,
0,8,-26,-51,0,1,100,0,672,88,48,48,0,-26,-51,0,0,100,0,480,88,48,48,0,10,-58,0,0,100,0,480,0,40,40,0,8,-40,0,0,100,0,904,0,24,24,0,11,-58,0,0,100,0,432,48,48,48,0,-3,-47,0,0,100,0,192,160,64,64,0,14,-53,0,0,100,0,848,40,64,64,0,2,-8,0,0,65,0,976,0,48,16,0,
0,10,-76,-88,0,1,100,0,320,384,128,128,0,-160,-28,0,1,100,0,0,384,160,8,0,-27,-50,0,1,100,0,528,88,48,48,0,-27,-50,0,0,100,0,480,88,48,48,0,10,-58,0,0,100,0,480,0,40,40,0,7,-39,0,0,100,0,904,0,24,24,0,11,-57,0,0,100,0,288,48,48,48,0,-3,-47,0,0,100,0,192,160,64,64,0,14,-53,0,0,100,0,784,40,64,64,0,2,-8,0,0,65,0,976,0,48,16,0,
0,10,-76,-88,0,1,100,0,448,384,128,128,0,-160,-28,0,1,100,0,160,384,160,8,0,-27,-50,0,1,100,0,576,88,48,48,0,-27,-50,0,0,100,0,480,88,48,48,0,10,-58,0,0,100,0,480,0,40,40,0,7,-39,0,0,100,0,904,0,24,24,0,11,-56,0,0,100,0,336,48,48,48,0,-3,-47,0,0,100,0,192,160,64,64,0,14,-53,0,0,100,0,784,40,64,64,0,2,-8,0,0,65,0,976,0,48,16,0,
0,10,-76,-88,0,1,100,0,576,384,128,128,0,-160,-28,0,1,100,0,0,392,160,8,0,-27,-50,0,1,100,0,624,88,48,48,0,-27,-50,0,0,100,0,480,88,48,48,0,10,-58,0,0,100,0,480,0,40,40,0,7,-39,0,0,100,0,904,0,24,24,0,11,-57,0,0,100,0,384,48,48,48,0,-3,-47,0,0,100,0,192,160,64,64,0,14,-53,0,0,100,0,848,40,64,64,0,2,-8,0,0,65,0,976,0,48,16,0,
0,10,-76,-88,0,1,100,0,704,384,128,128,0,-160,-28,0,1,100,0,160,392,160,8,0,-27,-50,0,1,100,0,672,88,48,48,0,-27,-50,0,0,100,0,480,88,48,48,0,10,-58,0,0,100,0,480,0,40,40,0,7,-39,0,0,100,0,904,0,24,24,0,11,-58,0,0,100,0,432,48,48,48,0,-3,-47,0,0,100,0,192,160,64,64,0,14,-53,0,0,100,0,848,40,64,64,0,2,-8,0,0,65,0,976,0,48,16,0,
0,1,-22,-8,0,0,65,0,976,0,48,16,0,
0,1,-22,-8,0,0,65,0,976,0,48,16,0,
0,1,-22,-8,0,0,65,0,976,0,48,16,0,
0,1,-22,-8,0,0,65,0,976,0,48,16,0,
0,16,-76,-88,0,1,50,0,832,384,128,128,0,-76,-88,0,1,100,0,832,384,128,128,0,-48,-54,0,1,100,0,0,448,40,64,0,-44,-54,0,1,100,0,0,448,40,64,0,-40,-54,0,1,100,0,0,448,40,64,0,-36,-54,0,1,100,0,0,448,40,64,0,-80,-48,0,1,100,0,0,400,80,48,0,11,-58,0,0,100,0,480,0,40,40,0,-25,-50,0,1,100,0,528,88,48,48,0,-25,-50,0,1,75,0,480,88,48,48,0,-25,-50,0,0,100,0,480,88,48,48,0,8,-39,0,0,100,0,904,0,24,24,0,12,-57,0,0,100,0,288,48,48,48,0,-2,-47,0,0,100,0,192,160,64,64,0,15,-53,0,0,100,0,720,104,64,64,0,4,-8,0,0,65,0,976,0,48,16,0,
0,14,-76,-88,0,1,75,0,832,384,128,128,0,-54,-54,0,1,100,0,40,448,40,64,0,-48,-54,0,1,100,0,40,448,40,64,0,-42,-54,0,1,100,0,40,448,40,64,0,-36,-54,0,1,100,0,40,448,40,64,0,-80,-48,0,1,100,0,80,400,80,48,0,10,-58,0,0,100,0,480,0,40,40,0,-27,-50,0,1,100,0,576,88,48,48,0,-27,-50,0,0,100,0,480,88,48,48,0,7,-39,0,0,100,0,904,0,24,24,0,11,-56,0,0,100,0,336,48,48,48,0,-3,-47,0,0,100,0,192,160,64,64,0,14,-53,0,0,100,0,720,40,64,64,0,3,-8,0,0,65,0,976,0,48,16,0,
0,19,-92,-54,0,1,100,0,80,448,40,64,0,-80,-54,0,1,100,0,80,448,40,64,0,-68,-54,0,1,100,0,80,448,40,64,0,-56,-54,0,1,100,0,80,448,40,64,0,-48,-54,0,1,100,0,0,448,40,64,0,-44,-54,0,1,100,0,0,448,40,64,0,-40,-54,0,1,100,0,0,448,40,64,0,-36,-54,0,1,100,0,0,448,40,64,0,-80,-48,0,1,100,0,0,400,80,48,0,-80,-48,0,1,100,0,0,400,80,48,0,11,-58,0,0,100,0,480,0,40,40,0,-25,-50,0,1,100,0,624,88,48,48,0,-25,-50,0,1,50,0,480,88,48,48,0,-25,-50,0,0,100,0,480,88,48,48,0,8,-39,0,0,100,0,904,0,24,24,0,12,-57,0,0,100,0,384,48,48,48,0,-2,-47,0,0,100,0,192,160,64,64,0,15,-53,0,0,100,0,784,104,64,64,0,4,-8,0,0,65,0,976,0,48,16,0,
0,17,-119,-54,0,1,100,0,120,448,40,64,0,-105,-54,0,1,100,0,120,448,40,64,0,-91,-54,0,1,100,0,120,448,40,64,0,-77,-54,0,1,100,0,120,448,40,64,0,-73,-54,0,1,100,0,40,448,40,64,0,-62,-54,0,1,100,0,40,448,40,64,0,-51,-54,0,1,100,0,40,448,40,64,0,-40,-54,0,1,100,0,40,448,40,64,0,-80,-48,0,1,100,0,0,400,80,48,0,10,-58,0,0,100,0,480,0,40,40,0,-27,-50,0,1,100,0,672,88,48,48,0,-27,-50,0,0,100,0,480,88,48,48,0,7,-39,0,0,100,0,904,0,24,24,0,11,-58,0,0,100,0,432,48,48,48,0,-3,-47,0,0,100,0,192,160,64,64,0,14,-53,0,0,100,0,784,104,64,64,0,3,-8,0,0,65,0,976,0,48,16,0,
0,17,-136,-54,0,1,100,0,160,448,40,64,0,-124,-54,0,1,100,0,160,448,40,64,0,-112,-54,0,1,100,0,160,448,40,64,0,-100,-54,0,1,100,0,160,448,40,64,0,-92,-54,0,1,100,0,80,448,40,64,0,-80,-54,0,1,100,0,80,448,40,64,0,-68,-54,0,1,100,0,80,448,40,64,0,-56,-54,0,1,100,0,80,448,40,64,0,-80,-48,0,1,100,0,80,400,80,48,0,10,-58,0,0,100,0,480,0,40,40,0,-26,-50,0,1,100,0,528,88,48,48,0,-27,-50,0,0,100,0,480,88,48,48,0,7,-39,0,0,100,0,904,0,24,24,0,11,-57,0,0,100,0,288,48,48,48,0,-3,-47,0,0,100,0,192,160,64,64,0,14,-53,0,0,100,0,784,104,64,64,0,3,-8,0,0,65,0,976,0,48,16,0,
0,17,-164,-54,0,1,100,0,200,448,40,64,0,-152,-54,0,1,100,0,200,448,40,64,0,-140,-54,0,1,100,0,200,448,40,64,0,-128,-54,0,1,100,0,200,448,40,64,0,-119,-54,0,1,100,0,160,448,40,64,0,-107,-54,0,1,100,0,160,448,40,64,0,-95,-54,0,1,100,0,160,448,40,64,0,-83,-54,0,1,100,0,160,448,40,64,0,-80,-48,0,1,100,0,160,400,80,48,0,10,-58,0,0,100,0,480,0,40,40,0,-27,-50,0,1,100,0,576,88,48,48,0,-27,-50,0,0,100,0,480,88,48,48,0,7,-39,0,0,100,0,904,0,24,24,0,11,-56,0,0,100,0,336,48,48,48,0,-3,-47,0,0,100,0,192,160,64,64,0,14,-53,0,0,100,0,720,40,64,64,0,3,-8,0,0,65,0,976,0,48,16,0,
0,17,-183,-54,0,1,75,0,240,448,40,64,0,-171,-54,0,1,75,0,240,448,40,64,0,-159,-54,0,1,75,0,240,448,40,64,0,-147,-54,0,1,75,0,240,448,40,64,0,-136,-54,0,1,100,0,200,448,40,64,0,-124,-54,0,1,100,0,200,448,40,64,0,-112,-54,0,1,100,0,200,448,40,64,0,-100,-54,0,1,100,0,200,448,40,64,0,-80,-48,0,1,100,0,240,400,80,48,0,10,-58,0,0,100,0,480,0,40,40,0,-27,-50,0,1,100,0,624,88,48,48,0,-27,-50,0,0,100,0,480,88,48,48,0,7,-39,0,0,100,0,904,0,24,24,0,11,-57,0,0,100,0,384,48,48,48,0,-3,-47,0,0,100,0,192,160,64,64,0,14,-53,0,0,100,0,720,104,64,64,0,3,-8,0,0,65,0,976,0,48,16,0,
0,16,-196,-54,0,1,50,0,280,448,40,64,0,-184,-54,0,1,50,0,280,448,40,64,0,-172,-54,0,1,50,0,280,448,40,64,0,-160,-54,0,1,50,0,280,448,40,64,0,-168,-54,0,1,100,0,280,448,40,64,0,-156,-54,0,1,100,0,280,448,40,64,0,-144,-54,0,1,100,0,280,448,40,64,0,-132,-54,0,1,100,0,280,448,40,64,0,10,-58,0,0,100,0,480,0,40,40,0,-27,-50,0,1,100,0,672,88,48,48,0,-27,-50,0,0,100,0,480,88,48,48,0,7,-39,0,0,100,0,904,0,24,24,0,11,-58,0,0,100,0,432,48,48,48,0,-3,-47,0,0,100,0,192,160,64,64,0,14,-53,0,0,100,0,720,40,64,64,0,3,-8,0,0,65,0,976,0,48,16,0,
0,16,-224,-54,0,1,20,0,280,448,40,64,0,-212,-54,0,1,25,0,280,448,40,64,0,-200,-54,0,1,30,0,280,448,40,64,0,-188,-54,0,1,35,0,280,448,40,64,0,-200,-54,0,1,60,0,280,448,40,64,0,-188,-54,0,1,65,0,280,448,40,64,0,-176,-54,0,1,70,0,280,448,40,64,0,-164,-54,0,1,75,0,280,448,40,64,0,10,-58,0,0,100,0,480,0,40,40,0,-26,-50,0,1,100,0,528,88,48,48,0,-27,-50,0,0,100,0,480,88,48,48,0,7,-39,0,0,100,0,904,0,24,24,0,11,-57,0,0,100,0,288,48,48,48,0,-3,-47,0,0,100,0,192,160,64,64,0,14,-53,0,0,100,0,784,104,64,64,0,3,-8,0,0,65,0,976,0,48,16,0,
0,12,-227,-54,0,1,20,0,280,448,40,64,0,-215,-54,0,1,30,0,280,448,40,64,0,-203,-54,0,1,40,0,280,448,40,64,0,-191,-54,0,1,50,0,280,448,40,64,0,10,-58,0,0,100,0,480,0,40,40,0,-27,-50,0,1,100,0,576,88,48,48,0,-27,-50,0,0,100,0,480,88,48,48,0,7,-39,0,0,100,0,904,0,24,24,0,11,-56,0,0,100,0,336,48,48,48,0,-3,-47,0,0,100,0,192,160,64,64,0,14,-53,0,0,100,0,784,104,64,64,0,3,-8,0,0,65,0,976,0,48,16,0,
0,8,10,-58,0,0,100,0,480,0,40,40,0,-27,-50,0,1,100,0,624,88,48,48,0,-27,-50,0,0,100,0,480,88,48,48,0,7,-39,0,0,100,0,904,0,24,24,0,11,-57,0,0,100,0,384,48,48,48,0,-3,-47,0,0,100,0,192,160,64,64,0,14,-53,0,0,100,0,784,104,64,64,0,3,-8,0,0,65,0,976,0,48,16,0,
0,8,10,-58,0,0,100,0,480,0,40,40,0,-27,-50,0,1,100,0,672,88,48,48,0,-27,-50,0,0,100,0,480,88,48,48,0,7,-39,0,0,100,0,904,0,24,24,0,11,-58,0,0,100,0,432,48,48,48,0,-3,-47,0,0,100,0,192,160,64,64,0,14,-53,0,0,100,0,784,104,64,64,0,3,-8,0,0,65,0,976,0,48,16,0,
0,1,-22,-8,0,0,65,0,976,0,48,16,0,
0,1,-22,-8,0,0,65,0,976,0,48,16,0,
0,1,-22,-8,0,0,65,0,976,0,48,16,0,
0,7,-15,-64,0,0,100,0,480,0,40,40,0,-32,-64,0,0,100,0,216,0,72,80,0,-41,-40,0,1,100,0,672,40,48,48,0,-41,-40,0,0,100,0,480,40,48,48,0,-16,-39,0,0,100,0,928,0,24,24,0,-9,-59,0,0,100,0,720,104,64,64,0,-22,-8,0,0,65,0,976,0,48,16,0,
0,7,-19,-61,0,0,100,0,480,0,40,40,0,-24,-64,0,0,100,0,0,224,64,80,0,-43,-38,0,1,100,0,528,40,48,48,0,-43,-38,0,0,100,0,480,40,48,48,0,-18,-36,0,0,100,0,928,0,24,24,0,-10,-59,0,0,100,0,720,40,64,64,0,-22,-8,0,0,65,0,976,0,48,16,0,
0,7,-17,-64,0,0,100,0,480,0,40,40,0,-24,-64,0,0,100,0,64,224,64,80,0,-41,-36,2,1,100,0,576,232,48,48,0,-41,-36,2,0,100,0,480,232,48,48,0,-16,-39,0,0,100,0,928,0,24,24,0,-11,-60,0,0,100,0,784,104,64,64,0,-22,-8,0,0,65,0,976,0,48,16,0,
0,7,-16,-65,0,0,100,0,480,0,40,40,0,-24,-64,0,0,100,0,128,224,64,80,0,-50,-55,0,1,100,0,528,184,48,48,0,-50,-55,0,0,100,0,480,184,48,48,0,-18,-44,0,0,100,0,904,0,24,24,0,-10,-59,0,0,100,0,720,40,64,64,0,-22,-8,0,0,65,0,976,0,48,16,0,
0,9,-16,-63,0,0,100,0,480,0,40,40,0,-16,-55,0,0,100,0,432,96,48,32,0,-11,-50,0,0,100,0,288,128,24,24,0,-24,-64,0,0,100,0,192,224,64,80,0,-50,-54,0,1,100,0,528,136,48,48,0,-50,-54,0,0,100,0,480,136,48,48,0,-18,-42,0,0,100,0,904,0,24,24,0,-9,-59,0,0,100,0,720,104,64,64,0,-22,-8,0,0,65,0,976,0,48,16,0,
0,8,-16,-64,0,0,100,0,480,0,40,40,0,-16,-56,0,0,100,0,288,96,48,32,0,-11,-51,0,0,100,0,288,128,24,24,0,-24,-64,0,0,100,0,256,224,64,80,0,-50,-55,0,0,100,0,480,88,48,48,0,-34,-50,0,0,100,0,448,160,32,32,0,-9,-60,0,0,100,0,720,104,64,64,0,-22,-8,0,0,65,0,976,0,48,16,0,
0,10,-32,-32,3,1,100,0,480,280,24,24,0,-56,-40,0,1,100,0,480,280,24,24,0,-16,-64,0,0,100,0,480,0,40,40,0,-16,-56,0,0,100,0,336,96,48,32,0,-11,-51,0,0,100,0,288,128,24,24,0,-24,-64,0,0,100,0,256,224,64,80,0,-50,-55,0,0,100,0,480,88,48,48,0,-34,-50,0,0,100,0,448,160,32,32,0,-9,-60,0,0,100,0,720,104,64,64,0,-22,-8,0,0,65,0,976,0,48,16,0,
0,12,-40,-40,3,1,100,0,504,280,24,24,0,-56,-40,0,1,100,0,504,280,24,24,0,-74,-71,0,1,50,0,0,304,80,80,0,-74,-71,0,0,15,0,0,304,80,80,0,-16,-64,0,0,100,0,480,0,40,40,0,-16,-56,0,0,100,0,384,96,48,32,0,-11,-51,0,0,100,0,288,128,24,24,0,-24,-64,0,0,100,0,256,224,64,80,0,-50,-55,0,0,100,0,480,88,48,48,0,-34,-50,0,0,100,0,448,160,32,32,0,-9,-60,0,0,100,0,720,104,64,64,0,-22,-8,0,0,65,0,976,0,48,16,0,
0,14,-56,-32,1,1,50,-90,504,280,24,24,0,-32,-56,1,1,50,0,504,280,24,24,0,-32,-32,3,1,50,0,504,280,24,24,0,-56,-48,0,1,50,0,504,280,24,24,0,-73,-71,0,1,100,0,0,304,80,80,0,-73,-71,0,0,25,0,0,304,80,80,0,-16,-64,0,0,100,0,480,0,40,40,0,-16,-56,0,0,100,0,432,96,48,32,0,-11,-51,0,0,100,0,288,128,24,24,0,-24,-64,0,0,100,0,256,224,64,80,0,-49,-55,0,0,100,0,480,88,48,48,0,-34,-50,0,0,100,0,448,160,32,32,0,-9,-60,0,0,100,0,720,104,64,64,0,-22,-8,0,0,65,0,976,0,48,16,0,
0,14,-58,-28,1,1,50,-90,528,280,24,24,0,-30,-58,1,1,50,0,528,280,24,24,0,-30,-29,3,1,50,0,528,280,24,24,0,-58,-50,0,1,50,0,528,280,24,24,0,-72,-71,0,1,100,0,0,304,80,80,0,-73,-71,0,0,50,0,0,304,80,80,0,-16,-64,0,0,100,0,480,0,40,40,0,-16,-56,0,0,100,0,288,96,48,32,0,-11,-51,0,0,100,0,288,128,24,24,0,-24,-64,0,0,100,0,256,224,64,80,0,-49,-55,0,0,75,0,480,88,48,48,0,-34,-50,0,0,100,0,448,160,32,32,0,-9,-60,0,0,100,0,720,104,64,64,0,-22,-8,0,0,65,0,976,0,48,16,0,
0,18,-31,-48,1,1,100,-90,480,280,24,24,0,-39,-56,1,1,100,0,480,280,24,24,0,-31,-32,3,1,100,0,480,280,24,24,0,-39,-24,0,1,100,0,480,280,24,24,0,-70,-71,0,1,100,0,80,304,80,80,0,-70,-71,0,0,35,0,80,304,80,80,0,-16,-64,0,1,50,0,480,0,40,40,0,-16,-64,0,0,100,0,480,0,40,40,0,-16,-56,0,1,50,0,336,96,48,32,0,-16,-56,0,0,100,0,336,96,48,32,0,-11,-51,0,1,50,0,288,128,24,24,0,-11,-51,0,0,100,0,288,128,24,24,0,-24,-64,0,1,50,0,256,224,64,80,0,-24,-64,0,0,100,0,256,224,64,80,0,-34,-50,0,1,50,0,448,160,32,32,0,-34,-50,0,0,100,0,448,160,32,32,0,-9,-60,0,0,100,0,720,104,64,64,0,-22,-8,0,0,65,0,976,0,48,16,0,
0,13,-40,-24,1,1,100,-90,504,280,24,24,0,-48,-56,1,1,100,0,504,280,24,24,0,-40,-32,3,1,100,0,504,280,24,24,0,-40,-64,0,1,100,0,504,280,24,24,0,-69,-71,0,1,100,0,160,304,80,80,0,-69,-71,0,0,25,0,160,304,80,80,0,-16,-64,0,0,100,0,480,0,40,40,0,-16,-56,0,0,100,0,384,96,48,32,0,-11,-51,0,0,100,0,288,128,24,24,0,-24,-64,0,0,100,0,256,224,64,80,0,-34,-50,0,0,100,0,448,160,32,32,0,-9,-60,0,0,100,0,720,104,64,64,0,-22,-8,0,0,65,0,976,0,48,16,0,
0,13,-40,-16,1,1,100,-90,528,280,24,24,0,-40,-72,1,1,100,0,528,280,24,24,0,-40,-24,3,1,100,0,528,280,24,24,0,-32,-64,0,1,100,0,528,280,24,24,0,-67,-71,0,1,75,0,240,304,80,80,0,-64,-71,0,1,25,0,160,304,80,80,0,-16,-64,0,0,100,0,480,0,40,40,0,-16,-56,0,0,100,0,432,96,48,32,0,-11,-51,0,0,100,0,288,128,24,24,0,-24,-64,0,0,100,0,256,224,64,80,0,-34,-50,0,0,100,0,448,160,32,32,0,-9,-60,0,0,100,0,720,104,64,64,0,-22,-8,0,0,65,0,976,0,48,16,0,
0,13,-42,-16,1,1,50,-90,480,280,24,24,0,-26,-56,1,1,50,0,480,280,24,24,0,-26,-32,3,1,50,0,480,280,24,24,0,-42,-72,0,1,50,0,480,280,24,24,0,-67,-71,0,1,75,0,320,304,80,80,0,-65,-71,0,1,25,0,240,304,80,80,0,-16,-64,0,0,100,0,480,0,40,40,0,-16,-56,0,0,100,0,288,96,48,32,0,-11,-51,0,0,100,0,288,128,24,24,0,-24,-64,0,0,100,0,256,224,64,80,0,-34,-51,0,0,100,0,448,160,32,32,0,-9,-60,0,0,100,0,720,104,64,64,0,-22,-8,0,0,65,0,976,0,48,16,0,
0,13,-40,-14,1,1,50,-90,480,280,24,24,0,-24,-57,1,1,50,0,480,280,24,24,0,-24,-31,3,1,50,0,480,280,24,24,0,-40,-74,0,1,50,0,480,280,24,24,0,-70,-71,0,1,75,0,400,304,80,80,0,-67,-71,0,1,25,0,320,304,80,80,0,-16,-64,0,0,100,0,480,0,40,40,0,-16,-56,0,0,100,0,336,96,48,32,0,-11,-51,0,0,100,0,288,128,24,24,0,-24,-64,0,0,100,0,256,224,64,80,0,-34,-50,0,0,100,0,448,160,32,32,0,-9,-60,0,0,100,0,720,104,64,64,0,-22,-8,0,0,65,0,976,0,48,16,0,
0,12,-38,-13,1,1,25,-90,480,280,24,24,0,-22,-58,1,1,25,0,480,280,24,24,0,-22,-30,3,1,25,0,480,280,24,24,0,-38,-75,0,1,25,0,480,280,24,24,0,-70,-71,0,1,50,0,480,304,80,80,0,-16,-64,0,0,100,0,480,0,40,40,0,-16,-56,0,0,100,0,288,96,48,32,0,-11,-51,0,0,100,0,312,128,24,24,0,-24,-64,0,0,100,0,256,224,64,80,0,-28,-42,0,0,100,0,352,224,32,32,0,-9,-60,0,0,100,0,720,104,64,64,0,-22,-8,0,0,65,0,976,0,48,16,0,
0,8,-71,-71,0,1,25,0,480,304,80,80,0,-16,-64,0,0,100,0,480,0,40,40,0,-16,-56,0,0,100,0,336,96,48,32,0,-11,-51,0,0,100,0,336,128,24,24,0,-24,-64,0,0,100,0,256,224,64,80,0,-27,-41,0,0,100,0,384,224,32,32,0,-9,-60,0,0,100,0,720,104,64,64,0,-22,-8,0,0,65,0,976,0,48,16,0,
0,7,-16,-64,0,0,100,0,480,0,40,40,0,-16,-56,0,0,100,0,288,96,48,32,0,-11,-51,0,0,100,0,360,128,24,24,0,-24,-64,0,0,100,0,256,224,64,80,0,-28,-42,0,0,100,0,384,224,32,32,0,-9,-60,0,0,100,0,720,104,64,64,0,-22,-8,0,0,65,0,976,0,48,16,0,
0,7,-16,-64,0,0,100,0,480,0,40,40,0,-16,-56,0,0,100,0,336,96,48,32,0,-11,-51,0,0,100,0,360,128,24,24,0,-24,-64,0,0,100,0,256,224,64,80,0,-28,-42,0,0,100,0,384,224,32,32,0,-9,-60,0,0,100,0,720,104,64,64,0,-22,-8,0,0,65,0,976,0,48,16,0,
0,7,-16,-64,0,0,100,0,480,0,40,40,0,-16,-56,0,0,100,0,384,96,48,32,0,-11,-51,0,0,100,0,360,128,24,24,0,-24,-64,0,0,100,0,256,224,64,80,0,-28,-42,0,0,100,0,384,224,32,32,0,-9,-60,0,0,100,0,720,104,64,64,0,-22,-8,0,0,65,0,976,0,48,16,0,
0,7,-16,-64,0,0,100,0,480,0,40,40,0,-16,-56,0,0,100,0,432,96,48,32,0,-11,-51,0,0,100,0,360,128,24,24,0,-24,-64,0,0,100,0,256,224,64,80,0,-28,-42,0,0,100,0,384,224,32,32,0,-9,-60,0,0,100,0,720,104,64,64,0,-22,-8,0,0,65,0,976,0,48,16,0,
0,1,0,0,0,0,100,0,720,40,64,64,0,
0,1,0,0,0,0,100,0,720,104,64,64,0,
0,1,0,0,0,0,100,0,848,40,64,64,0,
0,1,0,0,0,0,100,0,784,40,64,64,0,
0,1,0,0,0,0,100,0,848,40,64,64,0,
0,1,0,0,0,0,100,0,720,104,64,64,0,
0,1,0,0,0,0,100,0,720,40,64,64,0,
0,1,0,0,0,0,100,0,784,104,64,64,0,
0,1,0,0,0,0,100,0,912,40,64,64,0,
0,1,0,0,0,0,100,0,784,104,64,64,0,
