0,3,-31,-65,0,0,100,0,64,8,64,72,0,-71,-73,0,0,100,0,320,0,96,96,0,-22,-8,0,0,65,0,8,8,48,16,0,
0,3,-31,-65,0,0,100,0,128,8,64,72,0,-71,-74,0,0,100,0,320,0,96,96,0,-22,-8,0,0,65,0,8,8,48,16,0,
0,3,-31,-65,0,0,100,0,192,8,64,72,0,-71,-75,0,0,100,0,320,0,96,96,0,-22,-8,0,0,65,0,8,8,48,16,0,
0,3,-31,-65,0,0,100,0,256,8,64,72,0,-71,-74,0,0,100,0,320,0,96,96,0,-22,-8,0,0,65,0,8,8,48,16,0,
0,3,-46,-51,0,0,100,0,8,96,80,64,0,-34,-66,0,0,100,0,416,0,96,64,0,-22,-8,0,0,65,0,8,8,48,16,0,
0,3,-39,-53,0,0,100,0,96,96,64,64,0,-41,-61,0,0,100,0,416,120,96,56,0,-22,-8,0,0,65,0,8,8,48,16,0,
0,3,-32,-54,0,0,100,0,168,96,56,64,0,-64,-71,0,0,100,0,392,184,120,72,0,-22,-8,0,0,65,0,8,8,48,16,0,
0,4,-39,-53,0,0,100,0,96,96,64,64,0,-62,-71,0,0,100,0,392,184,120,72,0,-75,-66,0,0,100,0,384,384,128,64,0,-22,-8,0,0,65,0,8,8,48,16,0,
0,4,-39,-53,0,0,100,0,96,96,64,64,0,-62,-71,0,0,100,0,392,184,120,72,0,-102,-66,0,0,100,0,352,448,160,64,0,-22,-8,0,0,65,0,8,8,48,16,0,
0,3,-39,-53,0,0,100,0,96,96,64,64,0,-62,-71,0,0,100,0,392,184,120,72,0,-22,-8,0,0,65,0,8,8,48,16,0,
0,3,-46,-51,0,0,100,0,8,96,80,64,0,-29,-65,0,0,100,0,416,64,96,64,0,-22,-8,0,0,65,0,8,8,48,16,0,
0,2,-64,-69,0,0,100,0,8,160,120,96,0,-23,-8,0,0,65,0,8,8,48,16,0,
0,2,-91,-103,0,0,100,0,128,160,136,136,0,-40,-8,0,0,65,0,8,8,48,16,0,
0,2,-91,-101,0,0,100,0,128,160,136,136,0,-40,-8,0,0,65,0,8,8,48,16,0,
0,2,-107,-132,0,0,100,0,256,96,128,160,0,-40,-8,0,0,65,0,8,8,48,16,0,
0,2,-107,-130,0,0,100,0,256,96,128,160,0,-40,-8,0,0,65,0,8,8,48,16,0,
0,2,-101,-134,0,0,100,0,0,288,128,128,0,-40,-8,0,0,65,0,8,8,48,16,0,
0,2,-101,-132,0,0,100,0,0,288,128,128,0,-40,-8,0,0,65,0,8,8,48,16,0,
0,2,-91,-158,0,0,100,0,128,288,160,128,0,-35,-8,0,0,65,0,8,8,48,16,0,
0,3,-30,-150,0,0,80,0,416,256,96,112,0,-56,-153,0,0,100,0,288,256,128,128,0,-29,-8,0,0,65,0,8,8,48,16,0,
0,3,-25,-142,0,0,40,0,416,256,96,112,0,-53,-143,0,0,100,0,288,256,128,128,0,-27,-8,0,0,65,0,8,8,48,16,0,
0,2,-48,-87,0,0,100,0,8,416,128,96,0,-24,-8,0,0,65,0,8,8,48,16,0,
0,3,-37,-78,0,0,100,0,160,416,64,88,0,-60,-73,0,0,100,0,392,184,120,72,0,-22,-8,0,0,65,0,8,8,48,16,0,
0,3,-40,-53,0,0,100,0,224,440,64,64,0,-64,-71,0,0,100,0,392,184,120,72,0,-22,-8,0,0,65,0,8,8,48,16,0,
0,3,-39,-53,0,0,100,0,96,96,64,64,0,-41,-61,0,0,100,0,416,120,96,56,0,-22,-8,0,0,65,0,8,8,48,16,0,
0,3,-38,-62,0,0,100,0,288,432,64,72,0,-41,-61,0,0,100,0,416,120,96,56,0,-22,-8,0,0,65,0,8,8,48,16,0,
0,2,-70,-62,0,0,100,0,520,0,112,96,0,-22,-8,0,0,65,0,8,8,48,16,0,
0,2,-62,-105,0,0,100,0,640,0,96,112,0,-22,-8,0,0,65,0,8,8,48,16,0,
0,2,-34,-97,0,0,100,0,736,8,65,104,0,-22,-8,0,0,65,0,8,8,48,16,0,
0,2,-28,-97,0,0,100,0,800,8,64,104,0,-22,-8,0,0,65,0,8,8,48,16,0,
0,2,-36,-89,0,0,100,0,872,16,80,96,0,-22,-8,0,0,65,0,8,8,48,16,0,
0,2,-30,-84,0,0,100,0,512,96,96,96,0,-22,-8,0,0,65,0,8,8,48,16,0,
0,2,-40,-85,0,0,100,0,608,104,88,88,0,-22,-8,0,0,65,0,8,8,48,16,0,
0,2,-35,-69,0,0,100,0,712,120,80,72,0,-22,-8,0,0,65,0,8,8,48,16,0,
0,4,21,-56,0,1,40,0,544,288,32,32,0,36,-39,0,1,40,0,552,328,16,16,0,-34,-78,0,0,100,0,520,192,88,88,0,-22,-8,0,0,65,0,8,8,48,16,0,
0,6,15,-53,0,1,80,0,576,288,32,32,0,29,-38,0,1,80,0,576,320,16,16,0,33,-45,0,1,80,0,576,320,16,16,0,36,-39,0,1,50,0,552,328,16,16,0,-34,-78,0,0,100,0,520,192,88,88,0,-22,-8,0,0,65,0,8,8,48,16,0,
0,8,12,-57,0,1,100,0,608,288,32,32,0,23,-39,0,1,100,0,576,320,16,16,0,29,-38,0,1,100,0,592,320,16,16,0,33,-45,0,1,100,0,592,320,16,16,0,28,-41,0,1,50,0,552,328,16,16,0,36,-39,0,1,20,0,552,328,16,16,0,-26,-70,0,0,100,0,624,200,72,80,0,-22,-8,0,0,65,0,8,8,48,16,0,
0,9,6,-61,0,1,100,0,640,288,32,32,0,20,-43,0,1,100,0,576,320,16,16,0,23,-39,0,1,100,0,592,320,16,16,0,29,-38,0,1,100,0,608,320,16,16,0,33,-45,0,1,100,0,608,320,16,16,0,20,-45,0,1,50,0,552,328,16,16,0,28,-41,0,1,20,0,552,328,16,16,0,-26,-70,0,0,100,0,624,200,72,80,0,-22,-8,0,0,65,0,8,8,48,16,0,
0,10,2,-69,0,1,100,0,544,288,32,32,0,17,-51,0,1,100,0,576,320,16,16,0,20,-52,0,1,100,0,576,320,16,16,0,20,-43,0,1,100,0,592,320,16,16,0,23,-39,0,1,100,0,608,320,16,16,0,15,-50,0,1,100,0,552,328,16,16,0,20,-45,0,1,50,0,552,328,16,16,0,28,-41,0,1,20,0,552,328,16,16,0,-34,-78,0,0,100,0,712,192,80,80,0,-22,-8,0,0,65,0,8,8,48,16,0,
0,10,-2,-68,0,1,100,0,576,288,32,32,0,16,-61,0,1,100,0,576,320,16,16,0,20,-52,0,1,100,0,592,320,16,16,0,17,-51,0,1,100,0,592,320,16,16,0,20,-43,0,1,100,0,608,320,16,16,0,11,-53,0,1,100,0,552,328,16,16,0,15,-50,0,1,50,0,552,328,16,16,0,20,-45,0,1,20,0,552,328,16,16,0,-34,-78,0,0,100,0,712,192,80,80,0,-22,-8,0,0,65,0,8,8,48,16,0,
0,11,-7,-73,0,1,100,0,608,288,32,32,0,10,-66,0,1,100,0,576,320,16,16,0,16,-61,0,1,100,0,592,320,16,16,0,17,-51,0,1,100,0,608,320,16,16,0,20,-52,0,1,100,0,608,320,16,16,0,6,-56,0,1,100,0,552,328,16,16,0,11,-53,0,1,100,0,552,328,16,16,0,15,-50,0,1,50,0,552,328,16,16,0,20,-45,0,1,20,0,552,328,16,16,0,-34,-78,0,0,100,0,808,192,80,80,0,-22,-8,0,0,65,0,8,8,48,16,0,
0,10,-17,-71,0,1,100,0,640,288,32,32,0,1,-63,0,1,100,0,576,320,16,16,0,10,-66,0,1,100,0,592,320,16,16,0,16,-61,0,1,100,0,608,320,16,16,0,0,-59,0,1,100,0,552,328,16,16,0,6,-56,0,1,100,0,552,328,16,16,0,11,-53,0,1,50,0,552,328,16,16,0,15,-50,0,1,20,0,552,328,16,16,0,-34,-78,0,0,100,0,808,192,80,80,0,-22,-8,0,0,65,0,8,8,48,16,0,
0,11,-24,-71,0,1,100,0,544,288,32,32,0,-7,-55,0,1,100,0,576,320,16,16,0,-10,-53,0,1,100,0,576,320,16,16,0,1,-63,0,1,100,0,592,320,16,16,0,10,-66,0,1,100,0,608,320,16,16,0,-7,-58,0,1,100,0,552,328,16,16,0,0,-59,0,1,100,0,552,328,16,16,0,6,-56,0,1,50,0,552,328,16,16,0,11,-53,0,1,20,0,552,328,16,16,0,-34,-78,0,0,100,0,520,192,88,88,0,-22,-8,0,0,65,0,8,8,48,16,0,
0,11,-27,-65,0,1,100,0,576,288,32,32,0,-15,-47,0,1,100,0,576,320,16,16,0,-7,-55,0,1,100,0,592,320,16,16,0,-10,-53,0,1,100,0,592,320,16,16,0,1,-63,0,1,100,0,608,320,16,16,0,-11,-56,0,1,100,0,552,328,16,16,0,-7,-58,0,1,100,0,552,328,16,16,0,0,-59,0,1,50,0,552,328,16,16,0,6,-56,0,1,20,0,552,328,16,16,0,-34,-78,0,0,100,0,520,192,88,88,0,-22,-8,0,0,65,0,8,8,48,16,0,
0,12,-30,-62,0,1,100,0,608,288,32,32,0,-19,-44,0,1,100,0,576,320,16,16,0,-16,-54,0,1,100,0,576,320,16,16,0,-15,-47,0,1,100,0,592,320,16,16,0,-10,-53,0,1,100,0,608,320,16,16,0,-7,-55,0,1,100,0,608,320,16,16,0,-16,-53,0,1,100,0,552,328,16,16,0,-11,-56,0,1,100,0,552,328,16,16,0,-7,-58,0,1,50,0,552,328,16,16,0,0,-59,0,1,20,0,552,328,16,16,0,-26,-70,0,0,100,0,624,200,72,80,0,-22,-8,0,0,65,0,8,8,48,16,0,
0,11,-36,-64,0,1,100,0,640,288,32,32,0,-25,-45,0,1,100,0,576,320,16,16,0,-19,-44,0,1,100,0,592,320,16,16,0,-16,-54,0,1,100,0,592,320,16,16,0,-15,-47,0,1,100,0,608,320,16,16,0,-22,-52,0,1,100,0,552,328,16,16,0,-16,-53,0,1,100,0,552,328,16,16,0,-11,-56,0,1,50,0,552,328,16,16,0,-7,-58,0,1,20,0,552,328,16,16,0,-26,-70,0,0,100,0,624,200,72,80,0,-22,-8,0,0,65,0,8,8,48,16,0,
0,11,-40,-68,0,1,100,0,544,288,32,32,0,-25,-52,0,1,100,0,576,320,16,16,0,-25,-45,0,1,100,0,592,320,16,16,0,-16,-54,0,1,100,0,608,320,16,16,0,-19,-44,0,1,100,0,608,320,16,16,0,-27,-53,0,1,100,0,552,328,16,16,0,-22,-52,0,1,100,0,552,328,16,16,0,-16,-53,0,1,50,0,552,328,16,16,0,-11,-56,0,1,20,0,552,328,16,16,0,-34,-78,0,0,100,0,712,192,80,80,0,-22,-8,0,0,65,0,8,8,48,16,0,
0,8,-42,-71,0,1,80,0,576,288,32,32,0,-25,-52,0,1,80,0,592,320,16,16,0,-25,-45,0,1,80,0,608,320,16,16,0,-27,-53,0,1,80,0,552,328,16,16,0,-22,-52,0,1,50,0,552,328,16,16,0,-16,-53,0,1,20,0,552,328,16,16,0,-34,-78,0,0,100,0,712,192,80,80,0,-22,-8,0,0,65,0,8,8,48,16,0,
0,7,-46,-76,0,1,40,0,608,288,32,32,0,-25,-52,0,1,40,0,608,320,16,16,0,-35,-59,0,1,40,0,552,328,16,16,0,-27,-53,0,1,40,0,552,328,16,16,0,-22,-52,0,1,20,0,552,328,16,16,0,-34,-78,0,0,100,0,808,192,80,80,0,-22,-8,0,0,65,0,8,8,48,16,0,
0,5,-53,-78,0,1,20,0,640,288,32,32,0,-25,-51,0,1,20,0,608,320,16,16,0,-35,-59,0,1,10,0,552,328,16,16,0,-34,-78,0,0,100,0,808,192,80,80,0,-22,-8,0,0,65,0,8,8,48,16,0,
0,2,-34,-78,0,0,100,0,520,192,88,88,0,-22,-8,0,0,65,0,8,8,48,16,0,
0,2,-26,-70,0,0,100,0,624,200,72,80,0,-22,-8,0,0,65,0,8,8,48,16,0,
0,2,-34,-78,0,0,100,0,712,192,80,80,0,-22,-8,0,0,65,0,8,8,48,16,0,
0,2,-34,-78,0,0,100,0,808,192,80,80,0,-22,-8,0,0,65,0,8,8,48,16,0,
