0,8,-28,-65,0,0,100,0,284,104,54,74,0,-28,-65,0,0,100,0,230,30,54,74,0,-18,-37,0,0,100,0,294,81,22,15,0,-28,-65,0,0,100,0,176,30,54,74,0,-28,-65,0,0,100,0,392,30,54,74,0,-28,-65,0,0,100,0,122,30,54,74,0,-28,-27,0,0,100,0,338,30,54,36,0,-19,-6,0,0,65,0,3,3,38,14,0,
0,8,-28,-64,0,0,100,0,284,104,54,74,0,-28,-64,0,0,100,0,230,30,54,74,0,-18,-36,0,0,100,0,294,81,22,15,0,-28,-64,0,0,100,0,176,30,54,74,0,-28,-64,0,0,100,0,392,30,54,74,0,-28,-64,0,0,100,0,122,30,54,74,0,-28,-30,0,0,100,0,338,65,54,39,0,-19,-6,0,0,65,0,3,3,38,14,0,
0,8,-28,-65,0,0,100,0,284,104,54,74,0,-28,-65,0,0,100,0,230,30,54,74,0,-18,-37,0,0,100,0,294,81,22,15,0,-28,-65,0,0,100,0,176,30,54,74,0,-28,-65,0,0,100,0,392,30,54,74,0,-28,-65,0,0,100,0,122,30,54,74,0,-28,-27,0,0,100,0,338,30,54,36,0,-19,-6,0,0,65,0,3,3,38,14,0,
0,8,-28,-66,0,0,100,0,284,104,54,74,0,-28,-66,0,0,100,0,230,30,54,74,0,-18,-38,0,0,100,0,294,81,22,15,0,-28,-66,0,0,100,0,176,30,54,74,0,-28,-66,0,0,100,0,392,30,54,74,0,-28,-66,0,0,100,0,122,30,54,74,0,-28,-30,0,0,100,0,338,103,54,36,0,-19,-6,0,0,65,0,3,3,38,14,0,
0,9,3,-36,0,0,100,0,371,180,12,9,0,-30,-39,0,0,100,0,284,177,54,30,0,-34,-33,0,0,100,0,242,159,41,17,0,-28,-65,0,0,100,0,176,30,54,74,0,-18,-38,0,0,100,0,294,81,22,15,0,-28,-65,0,0,100,0,392,30,54,74,0,-28,-65,0,0,100,0,122,30,54,74,0,-28,-27,0,0,100,0,338,30,54,36,0,-19,-6,0,0,65,0,3,3,38,14,0,
0,10,3,-36,0,0,100,0,371,180,12,9,0,-30,-39,0,0,100,0,284,177,54,30,0,-41,-38,0,1,100,0,230,104,54,27,0,-34,-33,0,0,100,0,242,159,41,17,0,-28,-65,0,0,100,0,176,30,54,74,0,-18,-38,0,0,100,0,294,81,22,15,0,-28,-65,0,0,100,0,392,30,54,74,0,-28,-65,0,0,100,0,122,30,54,74,0,-28,-27,0,0,100,0,338,30,54,36,0,-19,-6,0,0,65,0,3,3,38,14,0,
0,10,3,-36,0,0,100,0,371,180,12,9,0,-30,-39,0,0,100,0,284,177,54,30,0,-47,-39,0,1,100,0,230,183,54,27,0,-34,-33,0,0,100,0,242,159,41,17,0,-28,-65,0,0,100,0,176,30,54,74,0,-18,-38,0,0,100,0,294,81,22,15,0,-28,-65,0,0,100,0,392,30,54,74,0,-28,-65,0,0,100,0,122,30,54,74,0,-28,-27,0,0,100,0,338,30,54,36,0,-19,-6,0,0,65,0,3,3,38,14,0,
0,10,5,-36,0,0,100,0,371,180,12,9,0,-28,-39,0,0,100,0,284,177,54,30,0,-64,-38,0,1,100,0,211,130,53,27,0,-32,-33,0,0,100,0,242,159,41,17,0,-25,-65,0,0,100,0,176,30,54,74,0,-16,-38,0,0,100,0,294,81,22,15,0,-27,-65,0,0,100,0,392,30,54,74,0,-27,-65,0,0,100,0,122,30,54,74,0,-28,-27,0,0,100,0,338,30,54,36,0,-19,-6,0,0,65,0,3,3,38,14,0,
0,10,5,-36,0,0,100,0,371,180,12,9,0,-28,-39,0,0,100,0,284,177,54,30,0,-99,-38,0,1,100,0,176,156,53,27,0,-32,-33,0,0,100,0,242,159,41,17,0,-25,-65,0,0,100,0,176,30,54,74,0,-16,-38,0,0,100,0,294,81,22,15,0,-27,-65,0,0,100,0,392,30,54,74,0,-27,-65,0,0,100,0,122,30,54,74,0,-28,-27,0,0,100,0,338,30,54,36,0,-19,-6,0,0,65,0,3,3,38,14,0,
0,9,4,-36,0,0,100,0,371,180,12,9,0,-30,-39,0,0,100,0,283,205,54,31,0,-31,-43,0,0,100,0,177,104,40,25,0,-26,-66,0,0,100,0,176,30,54,74,0,-17,-39,0,0,100,0,294,81,22,15,0,-27,-66,0,0,100,0,122,30,54,74,0,-27,-66,0,0,100,0,392,30,54,74,0,-28,-30,0,0,100,0,338,103,54,36,0,-19,-6,0,0,65,0,3,3,38,14,0,
0,10,3,-37,0,0,100,0,371,180,12,9,0,-27,-39,0,0,100,0,285,246,53,38,0,-20,-32,0,0,100,0,243,213,34,33,0,-29,-66,0,0,100,0,122,104,54,74,0,-16,-42,0,0,100,0,81,165,31,33,0,-19,-37,0,0,100,0,294,81,22,15,0,-17,-33,0,0,100,0,77,250,17,27,0,-28,-65,0,0,100,0,392,30,54,74,0,-28,-30,0,0,100,0,338,103,54,36,0,-19,-6,0,0,65,0,3,3,38,14,0,
0,10,2,-40,0,0,100,0,371,192,12,9,0,-28,-42,0,0,100,0,285,292,53,38,0,-12,-27,0,0,100,0,243,253,34,33,0,-30,-69,0,0,100,0,176,30,54,74,0,-30,-69,0,0,100,0,445,30,54,74,0,-12,-41,0,0,100,0,86,213,21,25,0,-16,-39,0,0,100,0,297,60,14,11,0,-28,-30,0,0,100,0,392,103,54,39,0,-15,-34,0,0,100,0,80,281,11,26,0,-19,-6,0,0,65,0,3,3,38,14,0,
0,10,2,-39,0,0,100,0,371,192,12,9,0,-28,-41,0,0,100,0,285,292,53,38,0,-12,-26,0,0,100,0,243,253,34,33,0,-30,-68,0,0,100,0,176,30,54,74,0,-31,-69,0,0,100,0,445,30,54,74,0,-12,-40,0,0,100,0,86,213,21,25,0,-16,-38,0,0,100,0,297,60,14,11,0,-28,-30,0,0,100,0,446,103,54,39,0,-15,-33,0,0,100,0,80,281,11,26,0,-19,-6,0,0,65,0,3,3,38,14,0,
0,10,2,-41,0,0,100,0,371,192,12,9,0,-28,-43,0,0,100,0,285,292,53,38,0,-12,-28,0,0,100,0,243,253,34,33,0,-30,-70,0,0,100,0,176,30,54,74,0,-30,-70,0,0,100,0,445,30,54,74,0,-12,-42,0,0,100,0,86,213,21,25,0,-16,-40,0,0,100,0,297,60,14,11,0,-28,-30,0,0,100,0,446,142,54,39,0,-15,-35,0,0,100,0,80,281,11,26,0,-19,-6,0,0,65,0,3,3,38,14,0,
0,8,-36,-67,0,0,100,0,284,104,54,74,0,-36,-67,0,0,100,0,230,30,54,74,0,-37,-67,0,0,100,0,176,30,54,74,0,-27,-39,0,0,100,0,294,81,22,15,0,-37,-67,0,0,100,0,14,103,54,74,0,-34,-67,0,0,100,0,446,30,54,74,0,-34,-31,0,0,100,0,338,142,54,36,0,-19,-6,0,0,65,0,3,3,38,14,0,
