16,0,0,4,
17,0,0,2,
18,0,0,3,
19,0,0,3,
20,0,0,4,
21,0,0,2,
22,0,0,3,
23,0,0,3,
24,0,0,6,
25,0,0,3,
26,0,0,4,
27,0,0,4,
28,0,0,4,
29,0,0,2,
30,0,0,3,
31,0,0,6,
32,0,0,4,
33,0,0,4,
34,0,0,4,
35,0,0,4,
