8,0,0,10,
9,0,0,5,
5,0,0,4,
6,0,0,4,
7,0,0,4,
10,0,0,10,
11,0,0,2,
12,0,0,2,
13,0,0,2,
14,0,0,3,
15,0,0,2,
16,0,0,2,
17,0,0,3,
18,0,0,2,
26,0,0,2,
11,0,0,3,
12,0,0,3,
13,0,0,3,
14,0,0,4,
27,0,0,12,
28,0,0,8,
21,0,0,4,
22,0,0,4,
23,0,0,4,
24,0,0,7,
