0,16,11,-18,0,1,100,0,528,112,16,16,0,25,-50,0,1,100,0,528,112,16,16,0,12,-61,0,1,100,0,512,112,16,16,0,-24,-16,0,1,100,0,512,112,16,16,0,19,-38,0,0,100,0,544,48,32,32,0,-43,-43,0,0,100,0,512,48,32,32,0,-41,-76,0,0,100,0,24,16,88,80,0,-38,-25,0,1,60,0,512,80,32,32,0,10,-26,0,1,40,0,544,80,32,32,0,14,-69,0,1,100,0,544,80,32,32,0,9,-60,0,1,40,0,512,80,32,32,0,10,-76,0,1,100,0,512,80,32,32,0,10,-66,0,1,100,0,544,80,32,32,0,14,-72,0,1,100,0,512,80,32,32,0,-34,-32,0,1,100,0,512,0,72,48,0,-38,-16,0,0,65,0,512,128,80,32,0,
0,16,11,-19,0,1,100,0,528,112,16,16,0,25,-52,0,1,100,0,528,112,16,16,0,12,-60,0,1,100,0,512,112,16,16,0,-24,-18,0,1,100,0,512,112,16,16,0,19,-39,0,0,100,0,616,48,32,32,0,-43,-44,0,0,100,0,584,48,32,32,0,-41,-77,0,0,100,0,112,16,88,80,0,-38,-24,0,1,80,0,512,80,32,32,0,10,-28,0,1,60,0,544,80,32,32,0,14,-69,0,1,100,0,544,80,32,32,0,9,-62,0,1,20,0,512,80,32,32,0,10,-77,0,1,100,0,512,80,32,32,0,10,-65,0,1,100,0,544,80,32,32,0,14,-71,0,1,100,0,512,80,32,32,0,-34,-32,0,1,100,0,584,0,72,48,0,-38,-16,0,0,65,0,512,128,80,32,0,
0,16,11,-20,0,1,100,0,528,112,16,16,0,25,-51,0,1,100,0,528,112,16,16,0,12,-59,0,1,100,0,512,112,16,16,0,-24,-17,0,1,100,0,512,112,16,16,0,19,-40,0,0,100,0,616,80,32,32,0,-43,-45,0,0,100,0,584,80,32,32,0,-41,-76,0,0,100,0,200,16,88,80,0,-38,-23,0,1,100,0,512,80,32,32,0,10,-27,0,1,80,0,544,80,32,32,0,14,-69,0,1,100,0,544,80,32,32,0,9,-61,0,1,40,0,512,80,32,32,0,10,-76,0,1,100,0,512,80,32,32,0,10,-64,0,1,100,0,544,80,32,32,0,14,-70,0,1,100,0,512,80,32,32,0,-34,-32,0,1,100,0,656,0,72,48,0,-38,-16,0,0,65,0,512,128,80,32,0,
0,16,11,-19,0,1,100,0,528,112,16,16,0,25,-49,0,1,100,0,528,112,16,16,0,12,-60,0,1,100,0,512,112,16,16,0,-24,-15,0,1,100,0,512,112,16,16,0,19,-39,0,0,100,0,616,48,32,32,0,-43,-44,0,0,100,0,584,48,32,32,0,-41,-75,0,0,100,0,288,16,88,80,0,-38,-24,0,1,80,0,512,80,32,32,0,10,-25,0,1,60,0,544,80,32,32,0,14,-69,0,1,100,0,544,80,32,32,0,9,-59,0,1,60,0,512,80,32,32,0,10,-75,0,1,100,0,512,80,32,32,0,10,-65,0,1,100,0,544,80,32,32,0,14,-71,0,1,100,0,512,80,32,32,0,-34,-32,0,1,100,0,728,0,72,48,0,-38,-16,0,0,65,0,512,128,80,32,0,
0,5,-5,-75,1,0,100,0,24,96,64,64,0,0,-37,0,0,100,90,544,48,32,32,0,-45,-43,1,0,100,90,512,48,32,32,0,-48,-72,0,0,100,0,376,16,88,80,0,-36,-16,0,0,65,0,512,128,80,32,0,
0,5,-45,-72,0,0,100,90,544,48,32,32,0,-103,-83,1,0,100,90,512,48,32,32,0,3,-75,0,0,100,0,24,96,64,64,0,-39,-74,0,0,100,0,24,160,88,80,0,-36,-16,0,0,65,0,512,128,80,32,0,
0,5,-50,-86,0,0,100,90,544,48,32,32,0,-118,-99,1,0,100,90,512,48,32,32,0,9,-82,0,0,100,0,24,96,64,64,0,-38,-75,0,0,100,0,112,160,88,80,0,-35,-16,0,0,65,0,512,128,80,32,0,
0,5,-59,-105,0,0,100,0,544,192,32,32,0,-127,-112,0,0,100,0,512,192,32,32,0,-41,-60,1,0,100,0,24,96,64,64,0,-38,-74,0,0,100,0,200,160,88,80,0,-38,-16,0,0,65,0,512,128,80,32,0,
0,5,-62,-114,0,0,100,0,544,192,32,32,0,-130,-121,0,0,100,0,512,192,32,32,0,-65,-72,1,0,100,0,24,96,64,64,0,-40,-74,0,0,100,0,288,160,88,80,0,-40,-16,0,0,65,0,512,128,80,32,0,
0,7,-59,-113,0,0,100,0,544,192,32,32,0,-133,-120,0,0,100,0,512,192,32,32,0,-127,-150,0,1,100,0,512,288,80,64,0,-111,-147,0,1,100,0,512,224,80,64,0,-41,-75,0,0,100,0,288,160,88,80,0,-63,-88,1,0,100,0,24,96,64,64,0,-41,-16,0,0,65,0,512,128,80,32,0,
0,8,-58,-112,0,0,100,0,544,192,32,32,0,-134,-119,0,0,100,0,512,192,32,32,0,-124,-152,0,1,100,0,512,288,80,64,0,-114,-150,0,1,100,0,512,224,80,64,0,-112,-169,0,1,50,0,456,320,56,96,0,-41,-75,0,0,100,0,24,240,88,80,0,-55,-94,1,0,100,0,24,96,64,64,0,-41,-16,0,0,65,0,512,128,80,32,0,
0,8,-56,-110,0,0,100,0,544,192,32,32,0,-136,-118,0,0,100,0,512,192,32,32,0,-122,-155,0,1,50,0,512,288,80,64,0,-116,-152,0,1,50,0,512,224,80,64,0,-112,-167,0,1,50,0,456,320,56,96,0,-39,-74,0,0,100,0,112,240,88,80,0,-26,-97,0,0,100,0,24,96,64,64,0,-38,-16,0,0,65,0,512,128,80,32,0,
0,9,-54,-110,0,0,100,0,544,192,32,32,0,-137,-117,0,0,100,0,512,192,32,32,0,-121,-156,0,1,20,0,512,288,80,64,0,-117,-153,0,1,20,0,512,224,80,64,0,-112,-171,0,1,100,0,456,416,56,96,0,-112,-171,0,0,20,0,456,416,56,96,0,-39,-75,0,0,100,0,200,240,88,80,0,-12,-103,0,0,100,0,24,96,64,64,0,-38,-16,0,0,65,0,512,128,80,32,0,
0,6,-52,-113,0,0,100,0,608,160,32,32,0,-141,-119,1,0,100,0,576,160,32,32,0,-112,-192,0,1,100,0,512,352,56,96,0,-38,-76,0,0,100,0,288,240,88,80,0,-8,-105,0,0,100,0,24,96,64,64,0,-37,-16,0,0,65,0,512,128,80,32,0,
0,7,-52,-114,0,0,100,0,608,160,32,32,0,-141,-120,1,0,100,0,576,160,32,32,0,-38,-77,0,0,100,0,288,240,88,80,0,-7,-106,0,0,100,0,24,96,64,64,0,-112,-196,0,1,100,0,512,352,56,96,0,-112,-196,0,0,10,0,512,352,56,96,0,-36,-16,0,0,65,0,512,128,80,32,0,
0,7,-38,-78,0,0,100,0,24,320,88,80,0,-7,-106,0,0,100,0,24,96,64,64,0,-112,-198,0,1,100,0,512,352,56,96,0,-112,-198,0,0,20,0,512,352,56,96,0,-52,-115,0,0,100,0,608,160,32,32,0,-141,-121,1,0,100,0,576,160,32,32,0,-35,-16,0,0,65,0,512,128,80,32,0,
0,7,-38,-78,0,0,100,0,24,320,88,80,0,-7,-106,0,0,100,0,24,96,64,64,0,-112,-198,0,1,100,0,512,352,56,96,0,-112,-198,0,0,20,0,512,352,56,96,0,-52,-114,0,0,100,0,608,160,32,32,0,-141,-120,1,0,100,0,576,160,32,32,0,-34,-16,0,0,65,0,512,128,80,32,0,
0,7,-35,-75,0,0,100,0,200,320,88,80,0,-75,-36,1,0,100,90,24,96,64,64,0,-52,-112,0,0,100,0,608,160,32,32,0,-141,-118,1,0,100,0,576,160,32,32,0,-112,-166,0,1,100,0,512,352,56,96,0,-112,-166,0,0,10,0,512,352,56,96,0,-32,-16,0,0,65,0,512,128,80,32,0,
0,8,-35,-74,0,0,100,0,288,320,88,80,0,-75,-36,1,0,100,90,24,96,64,64,0,-52,-113,0,0,100,0,608,160,32,32,0,-141,-119,1,0,100,0,576,160,32,32,0,-152,-72,0,1,100,0,568,352,136,96,0,-136,-68,0,1,100,0,592,256,104,96,0,-136,-68,0,1,100,0,592,256,104,96,0,-32,-16,0,0,65,0,512,128,80,32,0,
0,9,-35,-75,0,0,100,0,112,400,88,80,0,-75,-36,1,0,100,90,24,96,64,64,0,-48,-118,0,0,100,0,608,160,32,32,0,-134,-126,1,0,100,0,512,160,32,32,0,-145,-72,1,1,100,0,568,352,136,96,0,-158,-72,0,1,100,0,568,352,136,96,0,-138,-86,0,1,100,0,696,256,104,96,0,-136,-71,0,1,40,0,592,256,104,96,0,-32,-16,0,0,65,0,512,128,80,32,0,
0,8,-35,-76,0,0,100,0,200,400,88,80,0,-75,-40,1,0,100,90,24,96,64,64,0,-23,-118,0,0,100,0,608,160,32,32,0,-123,-130,1,0,100,0,512,160,32,32,0,-152,-66,0,1,100,0,568,448,136,96,0,-154,-110,0,1,100,0,704,448,136,96,0,-138,-86,0,1,40,0,696,256,104,96,0,-32,-16,0,0,65,0,512,128,80,32,0,
0,7,-35,-77,0,0,100,0,200,400,88,80,0,-75,-57,0,0,100,90,88,96,64,64,0,24,-95,0,0,100,0,608,160,32,32,0,-38,-112,1,0,100,0,512,160,32,32,0,-168,-72,0,1,100,0,704,352,168,96,0,-154,-110,0,1,20,0,704,448,136,96,0,-32,-16,0,0,65,0,512,128,80,32,0,
0,7,-35,-78,0,0,100,0,24,400,88,80,0,-58,-94,1,0,100,0,152,96,64,64,0,33,-64,0,0,100,0,544,160,32,32,0,-23,-104,1,0,100,0,512,160,32,32,0,-83,-73,0,1,60,0,784,352,80,96,0,-172,-73,0,1,60,0,704,352,80,96,0,-33,-16,0,0,65,0,512,128,80,32,0,
0,7,-35,-78,0,0,100,0,24,400,88,80,0,-58,-94,1,0,100,0,152,96,64,64,0,33,-64,0,0,100,0,544,160,32,32,0,-23,-104,1,0,100,0,512,160,32,32,0,-81,-74,0,1,30,0,784,352,80,96,0,-174,-74,0,1,30,0,704,352,80,96,0,-33,-16,0,0,65,0,512,128,80,32,0,
0,17,0,-80,0,0,100,0,24,96,64,64,0,19,-38,0,0,100,0,544,48,32,32,0,-43,-43,0,0,100,0,512,48,32,32,0,-40,-75,0,0,100,0,24,480,88,80,0,11,-18,0,1,80,0,528,112,16,16,0,25,-50,0,1,80,0,528,112,16,16,0,12,-61,0,1,80,0,512,112,16,16,0,-24,-16,0,1,80,0,512,112,16,16,0,-38,-25,0,1,60,0,512,80,32,32,0,10,-26,0,1,40,0,544,80,32,32,0,14,-69,0,1,80,0,544,80,32,32,0,9,-60,0,1,80,0,512,80,32,32,0,10,-76,0,1,80,0,512,80,32,32,0,10,-66,0,1,80,0,544,80,32,32,0,14,-72,0,1,80,0,512,80,32,32,0,-34,-32,0,1,80,0,512,0,72,48,0,-38,-16,0,0,65,0,512,128,80,32,0,
0,17,0,-79,0,0,100,0,24,96,64,64,0,19,-36,0,0,100,0,544,48,32,32,0,-43,-41,0,0,100,0,512,48,32,32,0,-40,-73,0,0,100,0,24,480,88,80,0,11,-19,0,1,40,0,528,112,16,16,0,25,-52,0,1,40,0,528,112,16,16,0,12,-60,0,1,40,0,512,112,16,16,0,-24,-18,0,1,40,0,512,112,16,16,0,-38,-24,0,1,40,0,512,80,32,32,0,10,-28,0,1,40,0,544,80,32,32,0,14,-69,0,1,40,0,544,80,32,32,0,9,-62,0,1,40,0,512,80,32,32,0,10,-77,0,1,40,0,512,80,32,32,0,10,-65,0,1,40,0,544,80,32,32,0,14,-71,0,1,40,0,512,80,32,32,0,-34,-32,0,1,40,0,584,0,72,48,0,-38,-16,0,0,65,0,512,128,80,32,0,
0,17,0,-78,0,0,100,0,24,96,64,64,0,-40,-72,0,0,100,0,24,480,88,80,0,19,-34,0,0,100,0,544,48,32,32,0,-43,-39,0,0,100,0,512,48,32,32,0,11,-20,0,1,20,0,528,112,16,16,0,25,-51,0,1,20,0,528,112,16,16,0,12,-59,0,1,20,0,512,112,16,16,0,-24,-17,0,1,20,0,512,112,16,16,0,-38,-23,0,1,20,0,512,80,32,32,0,10,-27,0,1,20,0,544,80,32,32,0,14,-69,0,1,20,0,544,80,32,32,0,9,-61,0,1,20,0,512,80,32,32,0,10,-76,0,1,20,0,512,80,32,32,0,10,-64,0,1,20,0,544,80,32,32,0,14,-70,0,1,20,0,512,80,32,32,0,-34,-32,0,1,20,0,656,0,72,48,0,-38,-16,0,0,65,0,512,128,80,32,0,
0,5,0,-77,0,0,100,0,24,96,64,64,0,19,-32,0,0,100,0,544,48,32,32,0,-43,-37,0,0,100,0,512,48,32,32,0,-40,-72,0,0,100,0,112,480,88,80,0,-38,-16,0,0,65,0,512,128,80,32,0,
0,5,0,-76,0,0,100,0,24,96,64,64,0,19,-35,0,0,100,0,544,48,32,32,0,-43,-40,0,0,100,0,512,48,32,32,0,-40,-72,0,0,100,0,200,480,88,80,0,-38,-16,0,0,65,0,512,128,80,32,0,
0,5,0,-74,0,0,100,0,24,96,64,64,0,23,-38,0,0,100,0,544,48,32,32,0,-48,-46,0,0,100,0,512,48,32,32,0,-40,-72,0,0,100,0,288,480,88,80,0,-37,-16,0,0,65,0,512,128,80,32,0,
0,5,0,-75,0,0,100,0,24,96,64,64,0,25,-39,0,0,100,0,544,48,32,32,0,-50,-47,0,0,100,0,512,48,32,32,0,-40,-72,0,0,100,0,288,480,88,80,0,-37,-16,0,0,65,0,512,128,80,32,0,
0,5,1,-77,0,0,100,0,24,96,64,64,0,6,-28,0,0,100,0,544,160,32,32,0,-31,-34,1,0,100,0,512,160,32,32,0,-42,-72,0,0,100,0,24,560,88,80,0,-38,-16,0,0,65,0,512,128,80,32,0,
0,5,-11,-24,0,0,100,0,544,160,32,32,0,-16,-31,1,0,100,0,512,160,32,32,0,16,-72,0,0,100,0,152,96,64,64,0,-42,-72,0,0,100,0,112,560,87,80,0,-38,-16,0,0,65,0,512,128,80,32,0,
0,5,-41,-32,0,0,100,0,544,160,32,32,0,5,-41,1,0,100,0,512,160,32,32,0,-42,-72,0,0,100,0,200,560,88,80,0,-16,-68,0,0,100,0,24,96,64,64,0,-43,-16,0,0,65,0,512,128,80,32,0,
0,5,-46,-55,0,0,100,0,544,160,32,32,0,12,-55,1,0,100,0,512,160,32,32,0,-41,-85,0,0,100,0,288,560,88,80,0,-61,-72,1,0,100,0,24,96,64,64,0,-42,-16,0,0,65,0,512,128,80,32,0,
0,5,-50,-64,1,0,100,0,608,160,32,32,0,15,-64,0,0,100,0,576,160,32,32,0,-41,-87,0,0,100,0,288,560,88,80,0,-67,-79,1,0,100,0,24,96,64,64,0,-42,-16,0,0,65,0,512,128,80,32,0,
0,5,-51,-58,1,0,100,0,608,160,32,32,0,16,-60,0,0,100,0,576,160,32,32,0,-41,-79,0,0,100,0,376,560,88,80,0,-68,-83,1,0,100,0,24,96,64,64,0,-42,-16,0,0,65,0,512,128,80,32,0,
0,5,-51,-53,1,0,100,0,608,160,32,32,0,16,-55,0,0,100,0,576,160,32,32,0,-45,-72,0,0,100,0,24,640,88,80,0,-67,-70,1,0,100,0,24,96,64,64,0,-42,-16,0,0,65,0,512,128,80,32,0,
0,5,-51,-60,1,0,100,0,608,160,32,32,0,16,-62,0,0,100,0,576,160,32,32,0,-45,-72,0,0,100,0,112,640,88,80,0,-74,-70,1,0,100,0,24,96,64,64,0,-43,-16,0,0,65,0,512,128,80,32,0,
0,5,-51,-58,1,0,100,0,608,160,32,32,0,16,-60,0,0,100,0,576,160,32,32,0,-45,-72,0,0,100,0,200,640,88,80,0,-80,-63,1,0,100,0,24,96,64,64,0,-43,-16,0,0,65,0,512,128,80,32,0,
0,5,-51,-57,1,0,100,0,608,160,32,32,0,16,-59,0,0,100,0,576,160,32,32,0,-45,-72,0,0,100,0,288,640,88,80,0,-80,-59,1,0,100,0,24,96,64,64,0,-43,-16,0,0,65,0,512,128,80,32,0,
0,5,-51,-58,1,0,100,0,608,160,32,32,0,16,-60,0,0,100,0,576,160,32,32,0,-45,-72,0,0,100,0,376,640,88,80,0,-80,-58,1,0,100,0,24,96,64,64,0,-43,-16,0,0,65,0,512,128,80,32,0,
0,5,-51,-59,1,0,100,0,608,160,32,32,0,16,-61,0,0,100,0,576,160,32,32,0,-45,-72,0,0,100,0,376,640,88,80,0,-80,-57,1,0,100,0,24,96,64,64,0,-43,-16,0,0,65,0,512,128,80,32,0,
0,5,-51,-58,1,0,100,0,608,160,32,32,0,16,-60,0,0,100,0,576,160,32,32,0,-45,-72,0,0,100,0,376,640,88,80,0,-80,-59,1,0,100,0,24,96,64,64,0,-43,-16,0,0,65,0,512,128,80,32,0,
0,5,-51,-57,1,0,100,0,608,160,32,32,0,16,-59,0,0,100,0,576,160,32,32,0,-45,-72,0,0,100,0,376,640,88,80,0,-80,-60,1,0,100,0,24,96,64,64,0,-43,-16,0,0,65,0,512,128,80,32,0,
0,10,-40,-93,1,1,100,0,640,928,80,80,0,-38,-83,0,1,100,0,480,928,80,80,0,-29,-102,0,1,100,0,640,848,80,80,0,-48,-73,0,1,100,0,480,848,80,80,0,-45,-68,0,0,100,0,0,768,80,80,0,-45,-83,0,1,10,0,640,768,32,80,0,-45,-83,0,0,100,0,640,768,32,80,0,-75,-104,0,1,100,0,320,752,80,96,0,-59,-133,0,1,100,0,0,848,120,164,0,-38,-16,0,0,65,0,512,128,80,32,0,
0,10,-40,-93,1,1,100,0,720,928,80,80,0,-38,-83,0,1,100,0,560,928,80,80,0,-29,-102,0,1,100,0,720,848,80,80,0,-48,-73,0,1,100,0,560,848,80,80,0,-45,-68,0,0,100,0,80,768,80,80,0,-45,-84,0,1,50,0,640,768,32,80,0,-45,-84,0,0,100,0,640,768,32,80,0,-75,-104,0,1,100,0,400,752,80,96,0,-59,-133,0,1,100,0,120,848,120,164,0,-38,-16,0,0,65,0,512,128,80,32,0,
0,10,-40,-93,1,1,100,0,480,928,80,80,0,-38,-83,0,1,100,0,640,928,80,80,0,-29,-102,0,1,100,0,480,848,80,80,0,-48,-73,0,1,100,0,640,848,80,80,0,-45,-68,0,0,100,0,160,768,80,80,0,-45,-83,0,1,90,0,640,768,32,80,0,-45,-83,0,0,100,0,640,768,32,80,0,-75,-104,0,1,100,0,480,752,80,96,0,-59,-133,0,1,100,0,240,848,120,164,0,-38,-16,0,0,65,0,512,128,80,32,0,
0,10,-40,-93,1,1,100,0,560,928,80,80,0,-38,-83,0,1,100,0,720,928,80,80,0,-29,-102,0,1,100,0,560,848,80,80,0,-48,-73,0,1,100,0,720,848,80,80,0,-45,-68,0,0,100,0,240,768,80,80,0,-45,-82,0,1,80,0,640,768,32,80,0,-45,-82,0,0,100,0,640,768,32,80,0,-75,-104,0,1,100,0,560,752,80,96,0,-59,-133,0,1,100,0,360,848,120,164,0,-38,-16,0,0,65,0,512,128,80,32,0,
