0,2,-48,-80,0,0,100,0,0,0,96,96,0,-48,-16,0,0,100,0,480,0,96,32,0,
0,2,-48,-80,0,0,100,0,96,0,96,96,0,-48,-16,0,0,100,0,480,0,96,32,0,
0,2,-48,-80,0,0,100,0,192,0,96,96,0,-48,-16,0,0,100,0,480,0,96,32,0,
0,2,-48,-80,0,0,100,0,288,0,96,96,0,-48,-16,0,0,100,0,480,0,96,32,0,
0,0,
0,2,-48,-80,0,0,100,0,384,0,96,96,0,-48,-16,0,0,100,0,480,0,96,32,0,
0,0,
0,2,-48,-80,0,0,100,0,0,96,96,96,0,-48,-16,0,0,100,0,480,0,96,32,0,
0,2,-48,-80,0,0,100,0,96,96,96,96,0,-48,-16,0,0,100,0,480,0,96,32,0,
0,2,-48,-80,0,0,100,0,192,96,96,96,0,-48,-16,0,0,100,0,480,0,96,32,0,
0,2,-48,-80,0,0,100,0,288,96,96,96,0,-48,-16,0,0,100,0,480,0,96,32,0,
0,2,-48,-80,0,0,100,0,384,96,96,96,0,-48,-16,0,0,100,0,480,0,96,32,0,
0,2,-48,-80,0,0,100,0,480,96,96,96,0,-48,-16,0,0,100,0,480,0,96,32,0,
0,2,-48,-80,0,0,100,0,0,192,96,96,0,-48,-16,0,0,100,0,480,0,96,32,0,
0,3,-96,-74,0,0,100,0,192,288,96,96,0,-48,-80,0,0,100,0,96,192,96,96,0,-50,-16,0,0,100,0,480,0,96,32,0,
0,4,-96,-74,0,0,100,0,288,288,96,96,0,-96,-74,0,0,30,0,192,288,96,96,0,-48,-80,0,0,100,0,192,192,96,96,0,-50,-16,0,0,100,0,480,0,96,32,0,
0,4,-96,-74,0,0,100,0,384,288,96,96,0,-96,-74,0,0,30,0,288,288,96,96,0,-48,-80,0,0,100,0,288,192,96,96,0,-50,-16,0,0,100,0,480,0,96,32,0,
0,4,-96,-74,0,0,100,0,480,288,96,96,0,-96,-74,0,0,30,0,384,288,96,96,0,-48,-80,0,0,100,0,384,192,96,96,0,-50,-16,0,0,100,0,480,0,96,32,0,
0,3,-96,-74,0,0,30,0,480,288,96,96,0,-48,-80,0,0,100,0,480,192,96,96,0,-50,-16,0,0,100,0,480,0,96,32,0,
0,2,-48,-80,0,0,100,0,480,192,96,96,0,-50,-16,0,0,100,0,480,0,96,32,0,
0,2,-48,-80,0,0,100,0,0,288,96,96,0,-50,-16,0,0,100,0,480,0,96,32,0,
0,2,-48,-80,0,0,100,0,96,288,96,96,0,-49,-16,0,0,100,0,480,0,96,32,0,
0,2,-48,-80,0,0,100,0,0,384,96,96,0,-48,-16,0,0,100,0,480,0,96,32,0,
0,0,
0,2,-48,-80,0,0,100,0,0,480,96,96,0,-48,-16,0,0,100,0,480,0,96,32,0,
0,2,-48,-80,0,0,100,0,96,480,96,96,0,-47,-16,0,0,100,0,480,0,96,32,0,
0,2,-48,-80,0,0,100,0,192,480,96,96,0,-45,-16,0,0,100,0,480,0,96,32,0,
0,2,-48,-80,0,0,100,0,288,480,96,96,0,-46,-16,0,0,100,0,480,0,96,32,0,
0,2,-48,-80,0,0,100,0,384,480,96,96,0,-47,-16,0,0,100,0,480,0,96,32,0,
0,2,-48,-80,0,0,100,0,480,480,96,96,0,-47,-16,0,0,100,0,480,0,96,32,0,
0,2,-48,-80,0,0,100,0,0,576,96,96,0,-47,-16,0,0,100,0,480,0,96,32,0,
0,0,
0,2,-48,-80,0,0,100,0,96,576,96,96,0,-47,-16,0,0,100,0,480,0,96,32,0,
0,2,-48,-80,0,0,100,0,192,576,96,96,0,-47,-16,0,0,100,0,480,0,96,32,0,
0,2,-48,-80,0,0,100,0,288,576,96,96,0,-47,-16,0,0,100,0,480,0,96,32,0,
0,2,-48,-80,0,0,100,0,384,576,96,96,0,-47,-16,0,0,100,0,480,0,96,32,0,
