0,4,-28,-47,0,0,100,0,264,208,48,32,0,-49,-67,0,0,100,0,80,464,56,48,0,-35,-66,0,0,100,0,0,0,72,72,0,-28,-12,0,0,65,0,0,232,56,24,0,
0,4,-28,-46,0,0,100,0,264,208,48,32,0,-49,-66,0,0,100,0,80,464,56,48,0,-35,-66,0,0,100,0,72,0,72,72,0,-28,-12,0,0,65,0,0,232,56,24,0,
0,4,-28,-45,0,0,100,0,264,208,48,32,0,-49,-65,0,0,100,0,80,464,56,48,0,-35,-66,0,0,100,0,0,72,72,72,0,-28,-12,0,0,65,0,0,232,56,24,0,
0,4,-28,-46,0,0,100,0,264,208,48,32,0,-49,-66,0,0,100,0,80,464,56,48,0,-35,-66,0,0,100,0,72,72,72,72,0,-28,-12,0,0,65,0,0,232,56,24,0,
0,4,-26,-49,0,0,100,0,264,208,48,32,0,-47,-69,0,0,100,0,80,464,56,48,0,-34,-66,0,0,100,0,0,0,72,72,0,-27,-12,0,0,65,0,0,232,56,24,0,
0,2,-36,-83,0,0,100,0,264,0,112,104,0,-10,-12,0,0,65,0,0,232,56,24,0,
0,2,-35,-83,0,0,100,0,0,256,112,104,0,1,-12,0,0,65,0,0,232,56,24,0,
0,2,-35,-83,0,0,100,0,0,256,112,104,0,1,-12,0,0,65,0,0,232,56,24,0,
0,3,-26,-46,0,0,100,0,0,152,24,48,0,-35,-83,0,0,100,0,112,256,112,104,0,1,-12,0,0,65,0,0,232,56,24,0,
0,3,-28,-46,0,0,100,0,24,152,24,48,0,-35,-83,0,0,100,0,224,256,112,104,0,1,-12,0,0,65,0,0,232,56,24,0,
0,2,-35,-83,0,0,100,0,0,256,112,104,0,1,-12,0,0,65,0,0,232,56,24,0,
0,4,-26,-47,0,0,100,0,312,208,48,32,0,-36,-58,0,0,100,0,0,464,40,48,0,-59,-82,0,0,100,0,376,0,112,104,0,-27,-12,0,0,65,0,0,232,56,24,0,
0,4,-24,-46,0,0,100,0,360,208,48,32,0,-33,-54,0,0,100,0,40,464,40,48,0,-59,-82,0,0,100,0,264,104,112,104,0,-26,-12,0,0,65,0,0,232,56,24,0,
0,4,-24,-46,0,0,100,0,360,208,48,32,0,-33,-54,0,0,100,0,0,464,40,48,0,-59,-82,0,0,100,0,264,104,112,104,0,-26,-12,0,0,65,0,0,232,56,24,0,
0,4,-22,-42,0,0,100,0,408,208,48,32,0,-39,-44,0,0,100,0,136,464,56,48,0,-59,-82,0,0,100,0,376,104,112,104,0,-27,-12,0,0,65,0,0,232,56,24,0,
0,4,-24,-42,0,0,100,0,408,208,48,32,0,-41,-44,0,0,100,0,136,464,56,48,0,-59,-82,0,0,100,0,376,104,112,104,0,-27,-12,0,0,65,0,0,232,56,24,0,
0,2,-83,-83,0,0,100,0,336,256,112,104,0,-45,-12,0,0,65,0,0,232,56,24,0,
0,2,-83,-83,0,0,100,0,0,360,112,104,0,-45,-12,0,0,65,0,0,232,56,24,0,
0,2,-83,-83,0,0,100,0,112,360,112,104,0,-45,-12,0,0,65,0,0,232,56,24,0,
0,2,-83,-83,0,0,100,0,224,360,112,104,0,-45,-12,0,0,65,0,0,232,56,24,0,
0,2,-83,-83,0,0,100,0,336,360,112,104,0,-45,-12,0,0,65,0,0,232,56,24,0,
