7,0,0,4,
8,0,0,4,
9,0,0,6,
10,0,0,6,
11,0,0,6,
12,0,0,6,
13,0,0,3,
14,0,0,6,
15,0,0,4,
16,0,0,4,
17,0,0,4,
18,0,0,4,
19,0,0,4,
20,0,0,4,
21,0,0,4,
22,0,0,4,
23,0,0,4,
24,0,0,4,
25,0,0,4,
26,0,0,4,
27,0,0,4,
28,0,0,4,
29,0,0,4,
30,0,0,4,
31,0,0,4,
5,0,0,6,
