0,8,7,-55,0,0,100,0,200,32,32,40,0,2,-68,0,0,100,0,200,72,32,24,0,0,-42,0,0,100,0,168,32,32,48,0,-14,-76,0,0,100,0,136,80,32,40,0,-14,-52,0,0,100,0,168,80,32,40,0,-29,-44,0,0,100,0,137,32,32,48,0,-38,-66,0,0,100,0,232,32,40,40,0,-35,-17,0,0,100,0,136,0,72,30,0,
0,8,7,-53,0,0,100,0,200,32,32,40,0,2,-66,0,0,100,0,200,72,32,24,0,0,-42,0,0,100,0,168,32,32,48,0,-14,-75,0,0,100,0,136,80,32,40,0,-14,-51,0,0,100,0,168,80,32,40,0,-29,-44,0,0,100,0,137,32,32,48,0,-38,-64,0,0,100,0,232,72,40,40,0,-35,-17,0,0,100,0,136,0,72,30,0,
0,8,7,-52,0,0,100,0,200,32,32,40,0,2,-65,0,0,100,0,200,72,32,24,0,0,-42,0,0,100,0,168,32,32,48,0,-14,-74,0,0,100,0,136,80,32,40,0,-14,-50,0,0,100,0,168,80,32,40,0,-29,-44,0,0,100,0,137,32,32,48,0,-38,-63,0,0,100,0,232,72,40,40,0,-35,-17,0,0,100,0,136,0,72,30,0,
0,8,7,-53,0,0,100,0,200,32,32,40,0,2,-66,0,0,100,0,200,72,32,24,0,0,-42,0,0,100,0,168,32,32,48,0,-14,-75,0,0,100,0,136,80,32,40,0,-14,-51,0,0,100,0,168,80,32,40,0,-29,-44,0,0,100,0,137,32,32,48,0,-38,-64,0,0,100,0,232,72,40,40,0,-35,-17,0,0,100,0,136,0,72,30,0,
0,9,-22,-30,0,0,100,0,0,0,8,8,0,8,-55,0,0,100,0,200,32,32,40,0,2,-67,0,0,100,0,200,72,32,24,0,-2,-45,0,0,100,0,168,32,32,48,0,-16,-76,0,0,100,0,136,120,32,40,0,-15,-52,0,0,100,0,168,80,32,40,0,-31,-44,0,0,100,0,137,32,32,48,0,-39,-67,0,0,100,0,232,72,40,40,0,-35,-17,0,0,100,0,136,0,72,30,0,
0,9,32,-33,0,0,100,0,0,16,8,8,0,9,-53,0,0,100,0,200,32,32,40,0,2,-64,0,0,100,0,200,72,32,24,0,-2,-42,0,0,100,0,168,32,32,48,0,-16,-74,0,0,100,0,136,120,32,40,0,-15,-50,0,0,100,0,168,80,32,40,0,-27,-44,0,0,100,0,137,32,32,48,0,-40,-64,0,0,100,0,232,72,40,40,0,-35,-17,0,0,100,0,136,0,72,30,0,
0,9,31,-24,0,0,100,0,0,8,8,8,0,8,-54,0,0,100,0,200,32,32,40,0,2,-66,0,0,100,0,200,72,32,24,0,-1,-42,0,0,100,0,168,32,32,48,0,-15,-75,0,0,100,0,136,120,32,40,0,-14,-51,0,0,100,0,168,80,32,40,0,-26,-44,0,0,100,0,137,32,32,48,0,-39,-66,0,0,100,0,232,72,40,40,0,-35,-17,0,0,100,0,136,0,72,30,0,
0,9,32,-18,0,0,100,0,0,0,8,8,0,8,-54,0,0,100,0,200,32,32,40,0,2,-66,0,0,100,0,200,72,32,24,0,-1,-42,0,0,100,0,168,32,32,48,0,-15,-75,0,0,100,0,136,120,32,40,0,-14,-51,0,0,100,0,168,80,32,40,0,-26,-44,0,0,100,0,137,32,32,48,0,-39,-66,0,0,100,0,232,72,40,40,0,-35,-17,0,0,100,0,136,0,72,30,0,
0,8,4,-52,0,0,100,0,200,32,32,40,0,0,-65,0,0,100,0,200,72,32,24,0,0,-42,0,0,100,0,168,32,32,48,0,-16,-76,0,0,100,0,136,120,32,40,0,-15,-52,0,0,100,0,168,80,32,40,0,-28,-46,0,0,100,0,137,32,32,48,0,-36,-67,0,0,100,0,232,72,40,40,0,-35,-17,0,0,100,0,136,0,72,30,0,
0,9,-31,-30,0,0,100,0,0,16,8,8,0,4,-49,0,0,100,0,200,32,32,40,0,-1,-62,0,0,100,0,200,72,32,24,0,2,-42,0,0,100,0,168,32,32,48,0,-16,-73,0,0,100,0,136,120,32,40,0,-15,-49,0,0,100,0,168,80,32,40,0,-31,-44,0,0,100,0,137,32,32,48,0,-36,-64,0,0,100,0,232,72,40,40,0,-35,-17,0,0,100,0,136,0,72,30,0,
0,10,-18,-39,0,0,100,0,0,8,8,8,0,-31,-23,0,0,100,0,0,8,8,8,0,6,-52,0,0,100,0,200,32,32,40,0,1,-65,0,0,100,0,200,72,32,24,0,3,-42,0,0,100,0,168,32,32,48,0,-15,-75,0,0,100,0,136,120,32,40,0,-14,-51,0,0,100,0,168,80,32,40,0,-30,-44,0,0,100,0,137,32,32,48,0,-36,-66,0,0,100,0,232,72,40,40,0,-35,-17,0,0,100,0,136,0,72,30,0,
0,10,-17,-34,0,0,100,0,0,0,8,8,0,-30,-16,0,0,100,0,0,0,8,8,0,6,-52,0,0,100,0,200,32,32,40,0,1,-65,0,0,100,0,200,72,32,24,0,3,-42,0,0,100,0,168,32,32,48,0,-15,-75,0,0,100,0,136,120,32,40,0,-14,-51,0,0,100,0,168,80,32,40,0,-30,-44,0,0,100,0,137,32,32,48,0,-36,-66,0,0,100,0,232,72,40,40,0,-35,-17,0,0,100,0,136,0,72,30,0,
0,8,7,-54,0,0,100,0,200,32,32,40,0,2,-67,0,0,100,0,200,72,32,24,0,0,-42,0,0,100,0,168,32,32,48,0,-14,-76,0,0,100,0,136,80,32,40,0,-14,-52,0,0,100,0,168,80,32,40,0,-29,-44,0,0,100,0,137,32,32,48,0,-38,-65,0,0,100,0,232,32,40,40,0,-35,-17,0,0,100,0,136,0,72,30,0,
0,8,9,-57,0,0,100,0,200,32,32,40,0,6,-70,0,0,100,0,200,72,32,24,0,0,-42,0,0,100,0,168,32,32,48,0,-12,-78,0,0,100,0,136,80,32,40,0,-13,-54,0,0,100,0,168,80,32,40,0,-28,-47,0,0,100,0,137,32,32,48,0,-36,-67,0,0,100,0,232,32,40,40,0,-35,-17,0,0,100,0,136,0,72,30,0,
0,8,11,-58,0,0,100,0,200,32,32,40,0,8,-70,0,0,100,0,200,72,32,24,0,0,-42,0,0,100,0,168,32,32,48,0,-11,-78,0,0,100,0,136,80,32,40,0,-13,-55,0,0,100,0,168,80,32,40,0,-28,-49,0,0,100,0,137,32,32,48,0,-34,-72,0,0,100,0,232,32,40,40,0,-35,-17,0,0,100,0,136,0,72,30,0,
0,8,11,-58,0,0,100,0,200,32,32,40,0,9,-70,0,0,100,0,200,72,32,24,0,0,-42,0,0,100,0,168,32,32,48,0,-10,-78,0,0,100,0,136,80,32,40,0,-13,-55,0,0,100,0,168,80,32,40,0,-28,-50,0,0,100,0,137,32,32,48,0,-33,-73,0,0,100,0,232,32,40,40,0,-35,-17,0,0,100,0,136,0,72,30,0,
0,8,-49,-58,0,0,100,0,200,128,40,48,0,-32,-66,1,0,100,0,200,72,32,24,0,0,-42,0,0,100,0,168,32,32,48,0,-16,-70,0,0,100,0,200,96,32,32,0,-14,-52,0,0,100,0,168,80,32,40,0,-30,-48,0,0,100,0,137,32,32,48,0,2,-66,1,0,100,0,232,32,40,40,0,-35,-17,0,0,100,0,136,0,72,30,0,
0,17,-37,-13,0,0,100,0,96,48,16,24,0,-56,-13,1,0,100,0,96,48,16,24,0,-63,-34,1,0,100,0,113,56,16,16,0,-65,-20,1,0,100,0,113,56,16,24,0,-30,-16,0,0,100,0,96,48,16,24,0,-84,-107,0,0,100,0,9,374,89,121,0,-55,-40,1,0,100,0,112,56,16,16,0,-80,-14,0,0,100,0,6,160,85,32,0,-56,-41,0,0,100,0,200,128,40,48,0,-41,-55,1,0,100,0,200,72,32,24,0,-1,-42,0,0,100,0,168,32,32,48,0,-23,-66,0,0,100,0,200,96,32,32,0,-17,-49,0,0,100,0,168,80,32,40,0,-34,-45,0,0,100,0,136,32,32,48,0,-6,-62,1,0,100,0,232,32,40,40,0,-155,-78,0,0,100,0,13,244,234,108,0,-35,-17,0,0,100,0,136,0,72,30,0,
0,16,-18,-30,0,0,100,0,113,56,16,16,0,-61,-14,1,0,100,0,113,56,16,16,0,-75,-48,1,0,100,0,113,56,16,16,0,-24,-23,0,0,100,0,96,48,16,24,0,-69,-26,1,0,100,0,96,48,16,24,0,-75,-114,0,0,100,0,115,368,71,128,0,-56,-40,0,0,100,0,200,128,40,48,0,-41,-54,1,0,100,0,200,72,32,24,0,-1,-42,0,0,100,0,168,32,32,48,0,-23,-65,0,0,100,0,200,96,32,32,0,-17,-49,0,0,100,0,168,80,32,40,0,-34,-44,0,0,100,0,136,32,32,48,0,-7,-61,1,0,100,0,232,32,40,40,0,-92,-16,0,0,100,0,6,192,108,40,0,-156,-78,1,0,80,0,13,244,234,108,0,-35,-17,0,0,100,0,136,0,72,30,0,
0,16,-76,-59,1,0,100,0,128,56,8,16,0,-25,-19,0,0,100,0,128,56,8,16,0,-58,-19,1,0,100,0,128,56,8,16,0,-7,-46,0,0,100,0,113,56,16,16,0,-81,-36,1,0,100,0,113,56,16,16,0,-68,-128,0,0,100,0,214,363,57,135,0,-56,-41,0,0,100,0,200,128,40,48,0,-41,-55,1,0,100,0,200,72,32,24,0,-1,-42,0,0,100,0,168,32,32,48,0,-23,-66,0,0,100,0,200,96,32,32,0,-17,-49,0,0,100,0,168,80,32,40,0,-34,-44,0,0,100,0,136,32,32,48,0,-6,-62,1,0,100,0,232,32,40,40,0,-98,-18,0,0,100,0,119,190,119,44,0,-155,-78,0,0,50,0,13,244,234,108,0,-35,-17,0,0,100,0,136,0,72,30,0,
0,11,6,-58,0,0,100,0,128,56,8,16,0,-80,-48,1,0,100,0,128,56,8,16,0,-56,-42,0,0,100,0,200,128,40,48,0,-41,-56,1,0,100,0,200,72,32,24,0,-1,-42,0,0,100,0,168,32,32,48,0,-23,-66,0,0,100,0,200,96,32,32,0,-17,-49,0,0,100,0,168,80,32,40,0,-34,-44,0,0,100,0,136,32,32,48,0,-6,-62,1,0,100,0,232,32,40,40,0,-156,-78,1,0,30,0,13,244,234,108,0,-35,-17,0,0,100,0,136,0,72,30,0,
0,8,-56,-42,0,0,100,0,200,128,40,48,0,-41,-56,1,0,100,0,200,72,32,24,0,-1,-42,0,0,100,0,168,32,32,48,0,-23,-66,0,0,100,0,200,96,32,32,0,-17,-49,0,0,100,0,168,80,32,40,0,-34,-44,0,0,100,0,136,32,32,48,0,-6,-62,1,0,100,0,232,32,40,40,0,-35,-17,0,0,100,0,136,0,72,30,0,
0,2,-61,-93,0,0,100,0,299,0,100,100,0,-35,-17,0,0,100,0,136,0,72,30,0,
0,2,-61,-93,0,0,100,0,399,0,100,100,0,-35,-17,0,0,100,0,136,0,72,30,0,
0,2,-61,-93,0,0,100,0,299,100,100,100,0,-35,-17,0,0,100,0,136,0,72,30,0,
0,2,-61,-93,0,0,100,0,399,100,100,100,0,-35,-17,0,0,100,0,136,0,72,30,0,
0,2,-61,-93,0,0,100,0,299,200,100,100,0,-35,-17,0,0,100,0,136,0,72,30,0,
0,2,-61,-93,0,0,100,0,399,200,100,100,0,-35,-17,0,0,100,0,136,0,72,30,0,
0,2,-61,-93,0,0,100,0,299,300,100,100,0,-35,-17,0,0,100,0,136,0,72,30,0,
0,2,-61,-93,0,0,100,0,399,300,100,100,0,-35,-17,0,0,100,0,136,0,72,30,0,
