0,2,-51,-80,0,0,100,0,0,0,104,96,0,-45,-16,0,0,65,0,208,224,88,32,0,
0,2,-51,-80,0,0,100,0,104,0,104,96,0,-45,-16,0,0,65,0,208,224,88,32,0,
0,2,-51,-80,0,0,100,0,208,0,104,96,0,-45,-16,0,0,65,0,208,224,88,32,0,
0,2,-51,-80,0,0,100,0,312,0,104,96,0,-45,-16,0,0,65,0,208,224,88,32,0,
0,4,-19,-68,0,1,100,0,664,528,80,80,0,-76,-69,0,1,100,0,256,528,80,80,0,-51,-80,0,0,100,0,0,96,104,96,0,-45,-16,0,0,65,0,208,256,88,32,0,
0,4,-19,-68,0,1,100,0,744,528,80,80,0,-76,-69,0,1,100,0,336,528,80,80,0,-51,-80,0,0,100,0,104,96,104,96,0,-45,-16,0,0,65,0,208,256,88,32,0,
0,4,-19,-68,0,1,100,0,824,528,80,80,0,-76,-69,0,1,100,0,416,528,80,80,0,-51,-80,0,0,100,0,208,96,104,96,0,-45,-16,0,0,65,0,208,256,88,32,0,
0,4,-19,-68,0,1,100,0,904,528,80,80,0,-76,-69,0,1,100,0,496,528,80,80,0,-51,-80,0,0,100,0,312,96,104,96,0,-45,-16,0,0,65,0,208,256,88,32,0,
0,2,-51,-80,0,0,100,0,0,192,104,96,0,-45,-16,0,0,65,0,208,224,88,32,0,
0,4,-19,-68,0,1,100,0,664,528,80,80,0,-76,-69,0,1,100,0,256,528,80,80,0,-51,-80,0,0,100,0,104,192,104,96,0,-45,-16,0,0,65,0,208,256,88,32,0,
0,23,-19,-71,0,1,100,0,664,528,80,80,0,-76,-72,0,1,100,0,256,528,80,80,0,-14,-85,0,0,100,0,352,480,24,24,0,-34,-78,0,0,100,0,304,480,24,24,0,7,-65,0,0,100,0,280,480,24,24,0,-17,-25,0,0,100,0,344,192,16,16,0,-51,-51,1,0,100,0,432,0,72,72,0,-78,-88,0,0,100,0,0,608,136,96,0,-16,-76,0,0,100,0,280,504,24,24,0,-28,-76,0,0,100,0,328,504,24,24,0,-50,-66,0,0,100,0,280,504,24,24,0,-66,-62,1,0,100,0,376,504,24,24,0,8,-78,0,0,100,0,352,504,24,24,0,-52,-76,0,0,100,0,304,504,24,24,0,21,-59,0,0,100,0,280,504,24,24,0,27,-58,0,0,100,0,584,480,40,24,0,21,-77,0,0,100,0,544,480,40,24,0,1,-91,0,0,100,0,504,480,40,24,0,-24,-85,0,0,100,0,472,480,32,24,0,-49,-90,0,0,100,0,432,480,40,24,0,-54,-76,0,0,100,0,400,480,32,24,0,-64,-90,0,0,100,0,0,704,136,96,0,-45,-16,0,0,65,0,208,192,88,32,0,
0,23,-19,-71,0,1,100,0,664,528,80,80,0,-76,-72,0,1,100,0,256,528,80,80,0,-14,-85,0,0,100,0,376,480,24,24,0,-34,-78,0,0,100,0,328,480,24,24,0,7,-65,0,0,100,0,256,480,24,24,0,-17,-25,0,0,100,0,344,192,16,16,0,-51,-51,1,0,100,0,432,0,72,72,0,-78,-88,0,0,100,0,0,608,136,96,0,-16,-76,0,0,100,0,256,504,24,24,0,-28,-76,0,0,100,0,304,504,24,24,0,-51,-65,1,0,100,0,304,504,24,24,0,-66,-62,1,0,100,0,352,504,24,24,0,8,-78,0,0,100,0,376,504,24,24,0,-52,-76,0,0,100,0,328,504,24,24,0,21,-59,0,0,100,0,256,504,24,24,0,27,-59,0,0,100,0,584,504,40,24,0,21,-76,0,0,100,0,544,504,40,24,0,1,-92,0,0,100,0,504,504,40,24,0,-24,-86,0,0,100,0,472,504,32,24,0,-49,-91,0,0,100,0,432,504,40,24,0,-54,-75,0,0,100,0,400,504,32,24,0,-64,-90,0,0,100,0,0,704,136,96,0,-45,-16,0,0,65,0,208,192,88,32,0,
0,23,-19,-71,0,1,100,0,744,528,80,80,0,-76,-72,0,1,100,0,336,528,80,80,0,-14,-84,0,0,100,0,352,480,24,24,0,-34,-77,0,0,100,0,304,480,24,24,0,7,-64,0,0,100,0,280,480,24,24,0,-17,-24,0,0,100,0,344,192,16,16,0,-51,-50,1,0,100,0,432,0,72,72,0,-78,-88,0,0,100,0,136,608,136,96,0,-16,-75,0,0,100,0,280,504,24,24,0,-28,-75,0,0,100,0,328,504,24,24,0,-50,-65,0,0,100,0,280,504,24,24,0,-66,-61,1,0,100,0,376,504,24,24,0,8,-77,0,0,100,0,352,504,24,24,0,-52,-75,0,0,100,0,304,504,24,24,0,21,-58,0,0,100,0,280,504,24,24,0,27,-57,0,0,100,0,584,480,40,24,0,21,-76,0,0,100,0,544,480,40,24,0,1,-90,0,0,100,0,504,480,40,24,0,-24,-84,0,0,100,0,472,480,32,24,0,-49,-89,0,0,100,0,432,480,40,24,0,-54,-75,0,0,100,0,400,480,32,24,0,-64,-90,0,0,100,0,136,704,136,96,0,-45,-16,0,0,65,0,208,192,88,32,0,
0,23,-19,-71,0,1,100,0,744,528,80,80,0,-76,-72,0,1,100,0,336,528,80,80,0,-14,-84,0,0,100,0,376,480,24,24,0,-34,-77,0,0,100,0,328,480,24,24,0,7,-64,0,0,100,0,256,480,24,24,0,-17,-24,0,0,100,0,344,192,16,16,0,-51,-50,1,0,100,0,432,0,72,72,0,-78,-88,0,0,100,0,136,608,136,96,0,-16,-75,0,0,100,0,256,504,24,24,0,-28,-75,0,0,100,0,304,504,24,24,0,-51,-64,1,0,100,0,304,504,24,24,0,-66,-61,1,0,100,0,352,504,24,24,0,8,-77,0,0,100,0,376,504,24,24,0,-52,-75,0,0,100,0,328,504,24,24,0,21,-58,0,0,100,0,256,504,24,24,0,27,-58,0,0,100,0,584,504,40,24,0,21,-75,0,0,100,0,544,504,40,24,0,1,-91,0,0,100,0,504,504,40,24,0,-24,-85,0,0,100,0,472,504,32,24,0,-49,-90,0,0,100,0,432,504,40,24,0,-54,-74,0,0,100,0,400,504,32,24,0,-64,-90,0,0,100,0,136,704,136,96,0,-45,-16,0,0,65,0,208,192,88,32,0,
0,23,-19,-71,0,1,100,0,824,528,80,80,0,-76,-72,0,1,100,0,416,528,80,80,0,-14,-85,0,0,100,0,352,480,24,24,0,-34,-78,0,0,100,0,304,480,24,24,0,7,-65,0,0,100,0,280,480,24,24,0,-17,-25,0,0,100,0,344,192,16,16,0,-51,-51,1,0,100,0,432,0,72,72,0,-78,-88,0,0,100,0,0,608,136,96,0,-16,-76,0,0,100,0,280,504,24,24,0,-28,-76,0,0,100,0,328,504,24,24,0,-50,-66,0,0,100,0,280,504,24,24,0,-66,-62,1,0,100,0,376,504,24,24,0,8,-78,0,0,100,0,352,504,24,24,0,-52,-76,0,0,100,0,304,504,24,24,0,21,-59,0,0,100,0,280,504,24,24,0,27,-58,0,0,100,0,584,480,40,24,0,21,-77,0,0,100,0,544,480,40,24,0,1,-91,0,0,100,0,504,480,40,24,0,-24,-85,0,0,100,0,472,480,32,24,0,-49,-90,0,0,100,0,432,480,40,24,0,-54,-76,0,0,100,0,400,480,32,24,0,-64,-90,0,0,100,0,0,704,136,96,0,-45,-16,0,0,65,0,208,192,88,32,0,
0,23,-19,-72,0,1,100,0,824,528,80,80,0,-76,-73,0,1,100,0,416,528,80,80,0,-14,-85,0,0,100,0,376,480,24,24,0,-34,-78,0,0,100,0,328,480,24,24,0,7,-65,0,0,100,0,256,480,24,24,0,-17,-25,0,0,100,0,344,192,16,16,0,-51,-51,1,0,100,0,432,0,72,72,0,-78,-88,0,0,100,0,0,608,136,96,0,-16,-76,0,0,100,0,256,504,24,24,0,-28,-76,0,0,100,0,304,504,24,24,0,-51,-65,1,0,100,0,304,504,24,24,0,-66,-62,1,0,100,0,352,504,24,24,0,8,-78,0,0,100,0,376,504,24,24,0,-52,-76,0,0,100,0,328,504,24,24,0,21,-59,0,0,100,0,256,504,24,24,0,27,-59,0,0,100,0,584,504,40,24,0,21,-76,0,0,100,0,544,504,40,24,0,1,-92,0,0,100,0,504,504,40,24,0,-24,-86,0,0,100,0,472,504,32,24,0,-49,-91,0,0,100,0,432,504,40,24,0,-54,-75,0,0,100,0,400,504,32,24,0,-64,-90,0,0,100,0,0,704,136,96,0,-45,-16,0,0,65,0,208,192,88,32,0,
0,23,-19,-71,0,1,100,0,904,528,80,80,0,-76,-72,0,1,100,0,496,528,80,80,0,-14,-86,0,0,100,0,352,480,24,24,0,-34,-79,0,0,100,0,304,480,24,24,0,7,-66,0,0,100,0,280,480,24,24,0,-17,-26,0,0,100,0,344,192,16,16,0,-51,-52,1,0,100,0,432,0,72,72,0,-78,-88,0,0,100,0,272,608,136,96,0,-16,-77,0,0,100,0,280,504,24,24,0,-28,-77,0,0,100,0,328,504,24,24,0,-50,-67,0,0,100,0,280,504,24,24,0,-66,-63,1,0,100,0,376,504,24,24,0,8,-79,0,0,100,0,352,504,24,24,0,-52,-77,0,0,100,0,304,504,24,24,0,21,-60,0,0,100,0,280,504,24,24,0,27,-59,0,0,100,0,584,480,40,24,0,21,-78,0,0,100,0,544,480,40,24,0,1,-92,0,0,100,0,504,480,40,24,0,-24,-86,0,0,100,0,472,480,32,24,0,-49,-91,0,0,100,0,432,480,40,24,0,-54,-77,0,0,100,0,400,480,32,24,0,-64,-90,0,0,100,0,272,704,136,96,0,-45,-16,0,0,65,0,208,192,88,32,0,
0,23,-19,-71,0,1,100,0,904,528,80,80,0,-76,-72,0,1,100,0,496,528,80,80,0,-14,-86,0,0,100,0,376,480,24,24,0,-34,-79,0,0,100,0,328,480,24,24,0,7,-66,0,0,100,0,256,480,24,24,0,-17,-26,0,0,100,0,344,192,16,16,0,-51,-52,1,0,100,0,432,0,72,72,0,-78,-88,0,0,100,0,272,608,136,96,0,-16,-77,0,0,100,0,256,504,24,24,0,-28,-77,0,0,100,0,304,504,24,24,0,-51,-66,1,0,100,0,304,504,24,24,0,-66,-63,1,0,100,0,352,504,24,24,0,8,-79,0,0,100,0,376,504,24,24,0,-52,-77,0,0,100,0,328,504,24,24,0,21,-60,0,0,100,0,256,504,24,24,0,27,-60,0,0,100,0,584,504,40,24,0,21,-77,0,0,100,0,544,504,40,24,0,1,-93,0,0,100,0,504,504,40,24,0,-24,-87,0,0,100,0,472,504,32,24,0,-49,-92,0,0,100,0,432,504,40,24,0,-54,-76,0,0,100,0,400,504,32,24,0,-64,-90,0,0,100,0,272,704,136,96,0,-45,-16,0,0,65,0,208,192,88,32,0,
0,8,-19,-68,0,1,60,0,664,528,80,80,0,-76,-69,0,1,60,0,256,528,80,80,0,-48,-63,0,0,100,0,0,368,80,80,0,-44,-68,0,0,100,0,416,192,80,48,0,-29,-57,2,0,100,0,416,96,88,88,0,-26,-52,0,0,100,0,432,0,72,72,0,-43,-39,0,0,100,0,992,432,56,48,0,-45,-16,0,0,65,0,208,224,88,32,0,
0,10,-19,-68,0,1,40,0,744,528,80,80,0,-76,-69,0,1,40,0,336,528,80,80,0,-10,-26,0,0,100,0,312,208,16,16,0,-44,-60,0,0,100,0,416,192,80,48,0,-35,-61,0,0,100,0,80,368,80,80,0,-29,-44,2,0,100,0,416,96,88,88,0,-19,-39,0,0,100,0,432,0,72,72,0,-3,-24,0,0,100,0,800,368,40,40,0,-37,-30,0,0,100,0,936,432,56,48,0,-40,-16,0,0,65,0,208,192,88,32,0,
0,8,-10,-21,0,0,100,0,312,208,16,16,0,-44,-55,0,0,100,0,416,192,80,48,0,-35,-60,0,0,100,0,160,368,80,80,0,-29,-43,2,0,100,0,416,96,88,88,0,-19,-38,0,0,100,0,432,0,72,72,0,-3,-19,0,0,100,0,800,368,40,40,0,-37,-25,0,0,100,0,936,432,56,48,0,-40,-16,0,0,65,0,208,192,88,32,0,
0,10,-26,-44,0,0,100,0,416,96,88,88,0,-20,-37,0,0,100,0,504,0,72,72,0,-8,-12,1,0,100,0,312,208,16,16,0,-23,-32,0,0,100,0,320,224,32,32,0,-50,-45,0,0,100,0,416,192,80,48,0,2,-19,0,0,100,0,760,368,40,40,0,-32,-58,0,0,100,0,240,368,80,80,0,-36,-27,0,0,100,0,912,480,48,48,0,-31,-22,0,0,100,0,0,448,64,40,0,-40,-16,0,0,65,0,208,192,88,32,0,
0,10,-26,-44,0,0,100,0,416,96,88,88,0,-20,-37,0,0,100,0,504,0,72,72,0,-9,-10,1,0,100,0,312,208,16,16,0,-24,-30,0,0,100,0,320,224,32,32,0,-51,-43,0,0,100,0,416,192,80,48,0,1,-17,0,0,100,0,760,368,40,40,0,-32,-58,0,0,100,0,320,368,80,80,0,-37,-26,0,0,100,0,912,480,48,48,0,-31,-22,0,0,100,0,0,448,64,40,0,-40,-16,0,0,65,0,208,192,88,32,0,
0,15,-105,-47,0,0,40,0,1016,192,48,48,0,-90,-59,0,0,60,0,1016,192,48,48,0,19,-65,0,0,60,0,1016,240,48,48,0,41,-55,0,0,40,0,1016,240,48,48,0,19,-37,0,0,60,0,1016,144,48,48,0,-26,-44,0,0,100,0,416,96,88,88,0,-20,-37,0,0,100,0,504,0,72,72,0,-9,-10,1,0,100,0,312,208,16,16,0,-24,-30,0,0,100,0,320,224,32,32,0,-51,-43,0,0,100,0,416,192,80,48,0,1,-17,0,0,100,0,760,368,40,40,0,-32,-58,0,0,100,0,320,368,80,80,0,-37,-26,0,0,100,0,912,480,48,48,0,-31,-22,0,0,100,0,0,448,64,40,0,-40,-16,0,0,65,0,208,192,88,32,0,
0,15,-86,-41,0,0,60,0,1016,192,48,48,0,-58,-50,0,0,100,0,1016,192,48,48,0,-8,-54,0,0,100,0,1016,240,48,48,0,26,-48,0,0,60,0,1016,240,48,48,0,-9,-32,0,0,100,0,1016,144,48,48,0,-26,-44,0,0,100,0,416,96,88,88,0,-20,-37,0,0,100,0,504,0,72,72,0,-9,-10,1,0,100,0,312,208,16,16,0,-24,-30,0,0,100,0,320,224,32,32,0,-51,-43,0,0,100,0,416,192,80,48,0,1,-17,0,0,100,0,760,368,40,40,0,-32,-58,0,0,100,0,320,368,80,80,0,-37,-26,0,0,100,0,912,480,48,48,0,-31,-22,0,0,100,0,0,448,64,40,0,-40,-16,0,0,65,0,208,192,88,32,0,
0,19,-57,-23,0,0,100,0,1016,192,48,48,0,-55,-55,0,0,100,0,1016,240,48,48,0,-46,-25,0,0,100,0,1016,192,48,48,0,-69,-35,0,0,100,0,1016,192,48,48,0,-34,-24,0,0,100,0,1016,240,48,48,0,-26,-66,0,0,100,0,1016,144,48,48,0,-17,-45,0,0,100,0,1016,192,48,48,0,-7,-55,0,0,100,0,1016,240,48,48,0,0,-27,0,0,100,0,1016,144,48,48,0,-26,-44,0,0,100,0,416,96,88,88,0,-20,-37,0,0,100,0,504,0,72,72,0,-9,-10,1,0,100,0,312,208,16,16,0,-24,-30,0,0,100,0,320,224,32,32,0,-51,-43,0,0,100,0,416,192,80,48,0,1,-17,0,0,100,0,760,368,40,40,0,-32,-58,0,0,100,0,320,368,80,80,0,-37,-26,0,0,100,0,912,480,48,48,0,-31,-22,0,0,100,0,0,448,64,40,0,-40,-16,0,0,65,0,208,192,88,32,0,
0,28,-65,-27,0,0,100,0,1016,192,48,48,0,-57,-58,0,0,100,0,1016,192,48,48,0,-48,-48,0,0,100,0,1016,144,48,48,0,-47,-14,0,0,100,0,1016,192,48,48,0,-41,-24,0,0,100,0,1016,192,48,48,0,-46,-33,0,0,100,0,1016,144,48,48,0,-32,-34,0,0,100,0,1016,240,48,48,0,-33,-57,0,0,100,0,1016,144,48,48,0,-33,-17,0,0,100,0,1016,144,48,48,0,-29,-43,0,0,100,0,1016,144,48,48,0,-23,-49,0,0,100,0,1016,192,48,48,0,-28,-29,0,0,100,0,1016,192,48,48,0,-7,-30,0,0,100,0,1016,240,48,48,0,-15,-20,0,0,100,0,1016,144,48,48,0,1,-46,0,0,100,0,1016,240,48,48,0,1,-14,0,0,100,0,1016,240,48,48,0,4,-32,0,0,100,0,1016,192,48,48,0,16,-25,0,0,100,0,1016,240,48,48,0,-26,-44,0,0,100,0,416,96,88,88,0,-20,-37,0,0,100,0,504,0,72,72,0,-9,-10,1,0,100,0,312,208,16,16,0,-24,-30,0,0,100,0,320,224,32,32,0,-51,-43,0,0,100,0,416,192,80,48,0,1,-17,0,0,100,0,760,368,40,40,0,-32,-58,0,0,100,0,320,368,80,80,0,-37,-26,0,0,100,0,912,480,48,48,0,-31,-22,0,0,100,0,0,448,64,40,0,-40,-16,0,0,65,0,208,192,88,32,0,
0,33,-24,-45,0,0,100,0,1016,144,48,48,0,-18,-31,0,0,100,0,1016,192,48,48,0,-24,-31,0,0,100,0,1016,240,48,48,0,-38,-38,0,0,100,0,1016,144,48,48,0,-39,-27,0,0,100,0,1016,192,48,48,0,-35,-43,0,0,100,0,1016,240,48,48,0,-43,-52,0,0,100,0,1016,144,48,48,0,-58,-40,0,0,100,0,1016,192,48,48,0,-4,-37,0,0,100,0,1016,240,48,48,0,-32,-64,0,0,100,0,1016,144,48,48,0,-23,-53,0,0,100,0,1016,192,48,48,0,15,-31,0,0,100,0,1016,240,48,48,0,-32,-20,0,0,100,0,1016,144,48,48,0,-65,-31,0,0,100,0,1016,192,48,48,0,-25,-48,0,0,100,0,1016,240,48,48,0,-15,-24,0,0,100,0,1016,144,48,48,0,4,-36,0,0,100,0,1016,192,48,48,0,-1,-59,0,0,100,0,1016,144,48,48,0,-57,-62,0,0,100,0,1016,192,48,48,0,1,-50,0,0,100,0,1016,240,48,48,0,-18,-20,0,0,100,0,1016,144,48,48,0,-42,-15,0,0,100,0,1016,192,48,48,0,8,-23,0,0,100,0,1016,240,48,48,0,-26,-44,0,0,100,0,416,96,88,88,0,-20,-37,0,0,100,0,504,0,72,72,0,-9,-10,1,0,100,0,312,208,16,16,0,-24,-30,0,0,100,0,320,224,32,32,0,-51,-43,0,0,100,0,416,192,80,48,0,1,-17,0,0,100,0,760,368,40,40,0,-32,-58,0,0,100,0,320,368,80,80,0,-37,-26,0,0,100,0,912,480,48,48,0,-31,-22,0,0,100,0,0,448,64,40,0,-40,-16,0,0,65,0,208,192,88,32,0,
0,28,-22,-21,0,0,100,0,1016,192,48,48,0,-14,-52,0,0,100,0,1016,192,48,48,0,1,-58,0,0,100,0,1016,144,48,48,0,2,-24,0,0,100,0,1016,192,48,48,0,8,-34,0,0,100,0,1016,192,48,48,0,3,-43,0,0,100,0,1016,144,48,48,0,12,-46,0,0,100,0,1016,240,48,48,0,-6,-62,0,0,100,0,1016,144,48,48,0,11,-29,0,0,100,0,1016,144,48,48,0,-47,-53,0,0,100,0,1016,144,48,48,0,-47,-57,0,0,100,0,1016,192,48,48,0,-52,-37,0,0,100,0,1016,192,48,48,0,-31,-38,0,0,100,0,1016,240,48,48,0,-44,-28,0,0,100,0,1016,144,48,48,0,-28,-54,0,0,100,0,1016,240,48,48,0,-28,-22,0,0,100,0,1016,240,48,48,0,-25,-40,0,0,100,0,1016,192,48,48,0,-13,-33,0,0,100,0,1016,240,48,48,0,-26,-44,0,0,100,0,416,96,88,88,0,-20,-37,0,0,100,0,504,0,72,72,0,-9,-10,1,0,100,0,312,208,16,16,0,-24,-30,0,0,100,0,320,224,32,32,0,-51,-43,0,0,100,0,416,192,80,48,0,1,-17,0,0,100,0,760,368,40,40,0,-32,-58,0,0,100,0,320,368,80,80,0,-37,-26,0,0,100,0,912,480,48,48,0,-31,-22,0,0,100,0,0,448,64,40,0,-40,-16,0,0,65,0,208,192,88,32,0,
0,28,-34,-31,0,0,100,0,1016,192,48,48,0,-26,-62,0,0,100,0,1016,192,48,48,0,-17,-52,0,0,100,0,1016,144,48,48,0,-16,-18,0,0,100,0,1016,192,48,48,0,-10,-28,0,0,100,0,1016,192,48,48,0,-15,-37,0,0,100,0,1016,144,48,48,0,-6,-40,0,0,100,0,1016,240,48,48,0,-6,-67,0,0,100,0,1016,144,48,48,0,-6,-27,0,0,100,0,1016,144,48,48,0,-2,-53,0,0,100,0,1016,144,48,48,0,-51,-58,0,0,100,0,1016,192,48,48,0,-56,-38,0,0,100,0,1016,192,48,48,0,-35,-39,0,0,100,0,1016,240,48,48,0,-45,-28,0,0,100,0,1016,144,48,48,0,-29,-54,0,0,100,0,1016,240,48,48,0,-29,-22,0,0,100,0,1016,240,48,48,0,-26,-40,0,0,100,0,1016,192,48,48,0,11,-36,0,0,100,0,1016,240,48,48,0,-26,-44,0,0,100,0,416,96,88,88,0,-20,-37,0,0,100,0,504,0,72,72,0,-9,-10,1,0,100,0,312,208,16,16,0,-24,-30,0,0,100,0,320,224,32,32,0,-51,-43,0,0,100,0,416,192,80,48,0,1,-17,0,0,100,0,760,368,40,40,0,-32,-58,0,0,100,0,320,368,80,80,0,-37,-26,0,0,100,0,912,480,48,48,0,-31,-22,0,0,100,0,0,448,64,40,0,-40,-16,0,0,65,0,208,192,88,32,0,
0,42,-50,-83,0,0,100,0,1016,144,48,48,0,-44,-47,0,0,100,0,1016,144,48,48,0,-42,-67,0,0,100,0,1016,240,48,48,0,-36,-102,0,0,100,0,1016,144,48,48,0,-31,-73,0,0,100,0,1016,240,48,48,0,-29,-59,0,0,100,0,1016,144,48,48,0,-26,-63,0,0,100,0,1016,144,48,48,0,-25,-37,0,0,100,0,1016,240,48,48,0,-18,-77,0,0,100,0,1016,192,48,48,0,-17,-92,0,0,100,0,1016,240,48,48,0,-12,-41,0,0,100,0,1016,192,48,48,0,-11,-75,0,0,100,0,1016,144,48,48,0,-10,-49,0,0,100,0,1016,240,48,48,0,-7,-53,0,0,100,0,1016,240,48,48,0,6,-57,0,0,100,0,1016,192,48,48,0,21,-69,0,0,100,0,1016,192,48,48,0,-3,-72,0,0,100,0,1016,192,48,48,0,-4,-96,0,0,100,0,1016,192,48,48,0,12,-33,0,0,60,0,968,240,48,48,0,-7,-24,0,0,60,0,920,240,48,48,0,-52,-30,0,0,60,0,920,240,48,48,0,-14,-85,0,0,100,0,352,480,24,24,0,-34,-78,0,0,100,0,304,480,24,24,0,7,-65,0,0,100,0,280,480,24,24,0,-17,-25,0,0,100,0,344,192,16,16,0,-51,-51,1,0,100,0,432,0,72,72,0,-78,-88,0,0,100,0,0,608,136,96,0,-16,-76,0,0,100,0,280,504,24,24,0,-28,-76,0,0,100,0,328,504,24,24,0,-50,-66,0,0,100,0,280,504,24,24,0,-66,-62,1,0,100,0,376,504,24,24,0,8,-78,0,0,100,0,352,504,24,24,0,-52,-76,0,0,100,0,304,504,24,24,0,21,-59,0,0,100,0,280,504,24,24,0,27,-52,0,0,100,0,584,480,40,24,0,21,-71,0,0,100,0,544,480,40,24,0,1,-85,0,0,100,0,504,480,40,24,0,-24,-79,0,0,100,0,472,480,32,24,0,-49,-84,0,0,100,0,432,480,40,24,0,-54,-70,0,0,100,0,400,480,32,24,0,-64,-84,0,0,100,0,0,704,136,96,0,-45,-16,0,0,65,0,208,192,88,32,0,
0,42,-70,-127,0,0,70,0,1016,144,48,48,0,-64,-91,0,0,100,0,1016,144,48,48,0,-62,-111,0,0,100,0,1016,240,48,48,0,-48,-141,0,0,70,0,1016,144,48,48,0,-35,-112,0,0,100,0,1016,240,48,48,0,-33,-98,0,0,100,0,1016,144,48,48,0,-30,-102,0,0,70,0,1016,144,48,48,0,-29,-76,0,0,100,0,1016,240,48,48,0,-18,-124,0,0,100,0,1016,192,48,48,0,-17,-139,0,0,70,0,1016,240,48,48,0,-12,-88,0,0,100,0,1016,192,48,48,0,-3,-130,0,0,100,0,1016,192,48,48,0,-2,-92,0,0,70,0,1016,240,48,48,0,1,-96,0,0,100,0,1016,240,48,48,0,5,-115,0,0,100,0,1016,192,48,48,0,11,-96,0,0,70,0,1016,192,48,48,0,16,-108,0,0,100,0,1016,240,48,48,0,29,-112,0,0,100,0,1016,192,48,48,0,19,-33,0,0,50,0,968,240,48,48,0,-2,-27,0,0,50,0,920,240,48,48,0,-55,-31,0,0,50,0,920,240,48,48,0,-14,-85,0,0,100,0,376,480,24,24,0,-34,-78,0,0,100,0,328,480,24,24,0,7,-65,0,0,100,0,256,480,24,24,0,-17,-25,0,0,100,0,344,192,16,16,0,-51,-51,1,0,100,0,432,0,72,72,0,-78,-88,0,0,100,0,0,608,136,96,0,-16,-76,0,0,100,0,256,504,24,24,0,-28,-76,0,0,100,0,304,504,24,24,0,-51,-65,1,0,100,0,304,504,24,24,0,-66,-62,1,0,100,0,352,504,24,24,0,8,-78,0,0,100,0,376,504,24,24,0,-52,-76,0,0,100,0,328,504,24,24,0,21,-59,0,0,100,0,256,504,24,24,0,27,-56,0,0,100,0,584,504,40,24,0,21,-73,0,0,100,0,544,504,40,24,0,1,-89,0,0,100,0,504,504,40,24,0,-24,-83,0,0,100,0,472,504,32,24,0,-49,-88,0,0,100,0,432,504,40,24,0,-54,-72,0,0,100,0,400,504,32,24,0,-64,-87,0,0,100,0,0,704,136,96,0,-45,-16,0,0,65,0,208,192,88,32,0,
0,44,-90,-172,0,0,30,0,1016,144,48,48,0,-84,-136,0,0,70,0,1016,144,48,48,0,-82,-156,0,0,70,0,1016,240,48,48,0,-66,-186,0,0,30,0,1016,144,48,48,0,-53,-157,0,0,70,0,1016,240,48,48,0,-51,-143,0,0,70,0,1016,144,48,48,0,-27,-155,0,0,30,0,1016,144,48,48,0,-26,-129,0,0,70,0,1016,240,48,48,0,-15,-177,0,0,70,0,1016,192,48,48,0,-14,-192,0,0,30,0,1016,240,48,48,0,-9,-141,0,0,70,0,1016,192,48,48,0,14,-174,0,0,70,0,1016,192,48,48,0,15,-136,0,0,30,0,1016,240,48,48,0,18,-140,0,0,70,0,1016,240,48,48,0,22,-159,0,0,70,0,1016,192,48,48,0,28,-140,0,0,30,0,1016,192,48,48,0,33,-152,0,0,70,0,1016,240,48,48,0,46,-156,0,0,70,0,1016,192,48,48,0,-19,-71,0,1,60,0,904,528,80,80,0,-76,-72,0,1,60,0,496,528,80,80,0,21,-33,0,0,30,0,968,240,48,48,0,0,-27,0,0,30,0,920,240,48,48,0,-58,-32,0,0,30,0,920,240,48,48,0,-14,-86,0,0,100,0,352,480,24,24,0,-34,-79,0,0,100,0,304,480,24,24,0,7,-66,0,0,100,0,280,480,24,24,0,-17,-26,0,0,100,0,344,192,16,16,0,-51,-52,1,0,100,0,432,0,72,72,0,-78,-88,0,0,100,0,272,608,136,96,0,-16,-77,0,0,100,0,280,504,24,24,0,-28,-77,0,0,100,0,328,504,24,24,0,-50,-67,0,0,100,0,280,504,24,24,0,-66,-63,1,0,100,0,376,504,24,24,0,8,-79,0,0,100,0,352,504,24,24,0,-52,-77,0,0,100,0,304,504,24,24,0,21,-60,0,0,100,0,280,504,24,24,0,27,-58,0,0,100,0,584,480,40,24,0,21,-77,0,0,100,0,544,480,40,24,0,1,-91,0,0,100,0,504,480,40,24,0,-24,-85,0,0,100,0,472,480,32,24,0,-49,-90,0,0,100,0,432,480,40,24,0,-54,-76,0,0,100,0,400,480,32,24,0,-64,-90,0,0,100,0,272,704,136,96,0,-45,-16,0,0,65,0,208,192,88,32,0,
0,41,-103,-191,0,0,0,0,1016,144,48,48,0,-97,-155,0,0,20,0,1016,144,48,48,0,-95,-175,0,0,20,0,1016,240,48,48,0,-79,-205,0,0,0,0,1016,144,48,48,0,-66,-176,0,0,20,0,1016,240,48,48,0,-53,-164,0,0,20,0,1016,144,48,48,0,-29,-176,0,0,0,0,1016,144,48,48,0,-28,-150,0,0,20,0,1016,240,48,48,0,-17,-198,0,0,20,0,1016,192,48,48,0,-16,-213,0,0,0,0,1016,240,48,48,0,-11,-162,0,0,20,0,1016,192,48,48,0,12,-195,0,0,20,0,1016,192,48,48,0,19,-157,0,0,0,0,1016,240,48,48,0,22,-161,0,0,20,0,1016,240,48,48,0,26,-180,0,0,20,0,1016,192,48,48,0,32,-161,0,0,0,0,1016,192,48,48,0,44,-168,0,0,20,0,1016,240,48,48,0,57,-172,0,0,20,0,1016,192,48,48,0,-19,-71,0,1,100,0,904,528,80,80,0,-76,-72,0,1,100,0,496,528,80,80,0,-14,-86,0,0,100,0,376,480,24,24,0,-34,-79,0,0,100,0,328,480,24,24,0,7,-66,0,0,100,0,256,480,24,24,0,-17,-26,0,0,100,0,344,192,16,16,0,-51,-52,1,0,100,0,432,0,72,72,0,-78,-88,0,0,100,0,272,608,136,96,0,-16,-77,0,0,100,0,256,504,24,24,0,-28,-77,0,0,100,0,304,504,24,24,0,-51,-66,1,0,100,0,304,504,24,24,0,-66,-63,1,0,100,0,352,504,24,24,0,8,-79,0,0,100,0,376,504,24,24,0,-52,-77,0,0,100,0,328,504,24,24,0,21,-60,0,0,100,0,256,504,24,24,0,27,-59,0,0,100,0,584,504,40,24,0,21,-76,0,0,100,0,544,504,40,24,0,1,-92,0,0,100,0,504,504,40,24,0,-24,-86,0,0,100,0,472,504,32,24,0,-49,-91,0,0,100,0,432,504,40,24,0,-54,-75,0,0,100,0,400,504,32,24,0,-64,-90,0,0,100,0,272,704,136,96,0,-45,-16,0,0,65,0,208,192,88,32,0,
0,5,-19,-68,0,1,100,0,664,528,80,80,0,-76,-69,0,1,100,0,256,528,80,80,0,-51,-80,0,0,100,0,0,96,104,96,0,-43,-48,1,0,100,0,1016,96,48,48,0,-45,-16,0,0,65,0,208,256,88,32,0,
0,5,-19,-68,0,1,60,0,744,528,80,80,0,-76,-69,0,1,60,0,336,528,80,80,0,-51,-80,0,0,100,0,0,96,104,96,0,-62,-68,1,0,100,0,1016,96,48,48,0,-45,-16,0,0,65,0,208,256,88,32,0,
0,5,-19,-68,0,1,40,0,824,528,80,80,0,-76,-69,0,1,40,0,416,528,80,80,0,-51,-80,0,0,100,0,104,96,104,96,0,-68,-75,1,0,100,0,1064,96,48,48,0,-45,-16,0,0,65,0,208,256,88,32,0,
0,3,-58,-72,0,0,100,0,1016,96,48,48,0,-51,-80,0,0,100,0,104,96,104,96,0,-45,-16,0,0,65,0,208,256,88,32,0,
0,3,-56,-73,0,0,100,0,1064,96,48,48,0,-51,-80,0,0,100,0,104,96,104,96,0,-45,-16,0,0,65,0,208,256,88,32,0,
0,3,-57,-74,0,0,100,0,1016,96,48,48,0,-51,-80,0,0,100,0,104,96,104,96,0,-45,-16,0,0,65,0,208,256,88,32,0,
0,5,-48,-86,0,0,100,0,1016,56,40,40,0,-70,-80,0,0,100,0,1064,96,48,48,0,-34,-63,0,1,100,0,416,72,24,24,0,-51,-80,0,0,100,0,896,288,104,96,0,-45,-16,0,0,65,0,208,256,88,32,0,
0,5,-48,-86,0,0,100,0,1016,56,40,40,0,-70,-80,0,0,100,0,1016,96,48,48,0,-34,-63,0,1,100,0,416,72,24,24,0,-51,-80,0,0,100,0,896,288,104,96,0,-45,-16,0,0,65,0,208,256,88,32,0,
0,7,-33,-67,0,1,100,0,416,72,24,24,0,-46,-75,0,0,100,0,816,288,80,80,0,-38,-65,3,0,100,-180,416,96,88,88,0,-47,-77,0,0,100,0,416,192,80,48,0,-68,-68,0,0,100,0,1064,96,48,48,0,-47,-47,0,0,100,0,880,432,56,48,0,-45,-16,0,0,65,0,208,256,88,32,0,
0,7,-34,-59,0,1,100,0,416,72,24,24,0,-48,-68,0,0,100,0,416,192,80,48,0,-46,-64,0,0,100,0,656,288,80,80,0,-38,-65,3,0,100,-180,416,96,88,88,0,-63,-60,0,0,100,0,1016,96,48,48,0,-47,-38,0,0,100,0,936,432,56,48,0,-45,-16,0,0,65,0,208,256,88,32,0,
0,7,-34,-56,0,1,100,0,416,72,24,24,0,-48,-66,0,0,100,0,416,192,80,48,0,-46,-64,0,0,100,0,736,288,80,80,0,-38,-63,3,0,100,-180,416,96,88,88,0,-45,-47,0,0,100,0,1064,104,48,48,0,-48,-36,0,0,100,0,992,432,56,48,0,-45,-16,0,0,65,0,208,256,88,32,0,
0,19,0,-98,0,1,100,0,0,504,24,24,0,-14,-84,0,1,100,0,0,504,24,24,0,9,-59,0,1,100,0,0,504,24,24,0,24,-71,0,1,100,0,0,504,24,24,0,-19,-68,0,1,40,0,664,528,80,80,0,-76,-69,0,1,40,0,256,528,80,80,0,-17,-100,0,1,100,0,64,528,64,64,0,-21,-101,0,1,100,0,0,528,64,64,0,-2,-53,0,0,100,0,312,192,16,16,0,-28,-86,1,0,100,-90,504,0,72,72,0,-36,-94,1,0,100,-90,416,96,88,88,0,-4,-38,1,0,100,0,312,208,16,16,0,-4,-34,0,0,100,0,760,368,40,40,0,-47,-64,0,0,100,0,0,288,80,80,0,-37,-31,0,0,100,0,600,368,40,40,0,-33,-62,0,1,100,0,416,72,24,24,0,-47,-71,0,0,100,0,416,192,80,48,0,-44,-36,0,0,100,0,880,432,56,48,0,-44,-16,0,0,65,0,208,224,88,32,0,
0,20,-1,-103,0,1,100,0,24,504,24,24,0,-16,-86,0,1,100,0,24,504,24,24,0,10,-58,0,1,100,0,24,504,24,24,0,26,-70,0,1,100,0,24,504,24,24,0,-19,-68,0,1,60,0,744,528,80,80,0,-76,-69,0,1,60,0,336,528,80,80,0,-17,-102,0,1,40,0,64,528,64,64,0,-21,-103,0,1,40,0,0,528,64,64,0,-3,-55,0,0,100,0,312,192,16,16,0,-29,-88,1,0,100,-90,504,0,72,72,0,-29,-88,1,0,100,-90,504,0,72,72,0,-37,-96,1,0,100,-90,416,96,88,88,0,-4,-39,1,0,100,0,312,208,16,16,0,-5,-35,0,0,100,0,800,368,40,40,0,-48,-64,0,0,100,0,80,288,80,80,0,-38,-32,0,0,100,0,640,368,40,40,0,-33,-62,0,1,100,0,416,72,24,24,0,-47,-72,0,0,100,0,416,192,80,48,0,-45,-37,0,0,100,0,936,432,56,48,0,-45,-16,0,0,65,0,208,224,88,32,0,
0,21,-2,-104,0,1,100,0,48,504,24,24,0,-17,-88,0,1,100,0,48,504,24,24,0,9,-57,0,1,100,0,48,504,24,24,0,27,-70,0,1,100,0,48,504,24,24,0,-19,-68,0,1,100,0,824,528,80,80,0,-76,-69,0,1,100,0,416,528,80,80,0,-3,-55,0,0,100,0,312,192,16,16,0,-29,-88,1,0,100,-90,504,0,72,72,0,-37,-96,1,0,100,-90,416,96,88,88,0,-4,-39,1,0,100,0,312,208,16,16,0,-5,-35,0,0,100,0,760,368,40,40,0,-48,-64,0,0,100,0,80,288,80,80,0,-38,-32,0,0,100,0,600,368,40,40,0,-20,-59,0,0,100,0,320,256,32,32,0,-27,-74,0,1,100,0,416,72,24,24,0,3,-70,0,0,100,0,800,160,32,32,0,-17,-69,0,0,100,0,680,144,32,32,0,-35,-95,0,0,100,0,736,192,80,80,0,-37,-82,0,0,100,0,896,160,32,32,0,-45,-37,0,0,100,0,992,432,56,48,0,-45,-16,0,0,65,0,208,224,88,32,0,
0,17,-19,-68,0,1,100,0,904,528,80,80,0,-76,-69,0,1,100,0,496,528,80,80,0,-3,-55,0,0,100,0,312,192,16,16,0,-29,-88,1,0,100,-90,504,0,72,72,0,-37,-96,1,0,100,-90,416,96,88,88,0,-4,-39,1,0,100,0,312,208,16,16,0,-5,-35,0,0,100,0,840,368,40,40,0,-48,-64,0,0,100,0,80,288,80,80,0,-38,-32,0,0,100,0,680,368,40,40,0,-20,-59,0,0,100,0,320,256,32,32,0,-25,-83,0,1,100,0,416,72,24,24,0,2,-76,0,0,100,0,736,160,32,32,0,-18,-76,0,0,100,0,680,144,32,32,0,-35,-102,0,0,100,0,816,192,80,80,0,-34,-90,0,0,100,0,864,160,32,32,0,-45,-37,0,0,100,0,1048,432,56,48,0,-45,-16,0,0,65,0,208,224,88,32,0,
0,17,-19,-68,0,1,100,0,664,528,80,80,0,-76,-69,0,1,100,0,256,528,80,80,0,-3,-55,0,0,100,0,312,192,16,16,0,-29,-88,1,0,100,-90,504,0,72,72,0,-37,-96,1,0,100,-90,416,96,88,88,0,-4,-39,1,0,100,0,312,208,16,16,0,-5,-35,0,0,100,0,760,368,40,40,0,-48,-64,0,0,100,0,80,288,80,80,0,-38,-32,0,0,100,0,600,368,40,40,0,-20,-59,0,0,100,0,320,256,32,32,0,-25,-85,0,1,100,0,416,72,24,24,0,2,-80,0,0,100,0,768,160,32,32,0,-20,-78,0,0,100,0,680,144,32,32,0,-35,-104,0,0,100,0,816,192,80,80,0,-33,-93,0,0,100,0,864,160,32,32,0,-45,-37,0,0,100,0,880,432,56,48,0,-45,-16,0,0,65,0,208,224,88,32,0,
0,17,-19,-68,0,1,100,0,744,528,80,80,0,-76,-69,0,1,100,0,336,528,80,80,0,-3,-55,0,0,100,0,312,192,16,16,0,-29,-88,1,0,100,-90,504,0,72,72,0,-37,-96,1,0,100,-90,416,96,88,88,0,-4,-39,1,0,100,0,312,208,16,16,0,-5,-35,0,0,100,0,800,368,40,40,0,-48,-64,0,0,100,0,80,288,80,80,0,-38,-32,0,0,100,0,640,368,40,40,0,-20,-59,0,0,100,0,320,256,32,32,0,-25,-86,0,1,100,0,416,72,24,24,0,2,-80,0,0,100,0,768,160,32,32,0,-21,-79,0,0,100,0,680,144,32,32,0,-35,-105,0,0,100,0,816,192,80,80,0,-33,-93,0,0,100,0,864,160,32,32,0,-45,-37,0,0,100,0,936,432,56,48,0,-45,-16,0,0,65,0,208,224,88,32,0,
0,23,-19,-68,0,1,100,0,824,528,80,80,0,-76,-69,0,1,100,0,416,528,80,80,0,-38,-77,0,0,100,0,872,96,48,48,0,-68,-84,0,0,100,0,920,96,48,48,0,-28,-85,0,0,100,0,776,96,48,48,0,-45,-66,0,0,100,0,824,96,48,48,0,-42,-89,0,0,100,0,776,96,48,48,0,-56,-71,0,0,100,0,680,96,48,48,0,-46,-80,0,0,100,0,728,96,48,48,0,-56,-85,0,0,100,0,680,96,48,48,0,-39,-29,0,0,100,0,600,408,40,40,0,-5,-30,0,0,100,0,760,408,40,40,0,-50,-64,0,0,100,0,416,288,80,80,0,-18,-39,0,0,100,0,312,208,16,16,0,-22,-58,0,0,100,0,320,256,32,32,0,-26,-82,0,1,100,0,416,72,24,24,0,2,-75,0,0,100,0,800,160,32,32,0,-36,-101,0,0,100,0,816,192,80,80,0,-33,-90,0,0,100,0,864,160,32,32,0,-60,-66,1,0,100,0,504,0,72,72,0,-77,-75,1,0,100,0,416,96,88,88,0,-2,-52,0,0,100,0,912,384,48,48,0,-43,-16,0,0,65,0,208,224,88,32,0,
0,23,-19,-68,0,1,100,0,904,528,80,80,0,-76,-69,0,1,100,0,496,528,80,80,0,-80,-76,0,0,100,0,920,96,48,48,0,-106,-97,0,0,100,0,872,96,48,48,0,-103,-72,0,0,100,0,824,96,48,48,0,-81,-55,0,0,100,0,776,96,48,48,0,-73,-84,0,0,100,0,824,96,48,48,0,-84,-48,0,0,100,0,728,96,48,48,0,-93,-73,0,0,100,0,680,96,48,48,0,-87,-89,0,0,100,0,728,96,48,48,0,-38,-28,0,0,100,0,640,408,40,40,0,-3,-30,0,0,100,0,800,408,40,40,0,-49,-64,0,0,100,0,496,288,80,80,0,-18,-38,0,0,100,0,312,208,16,16,0,-22,-57,0,0,100,0,320,256,32,32,0,-26,-83,0,1,100,0,416,72,24,24,0,2,-78,0,0,100,0,768,160,32,32,0,-36,-103,0,0,100,0,816,192,80,80,0,-32,-94,0,0,100,0,864,160,32,32,0,-61,-68,1,0,100,0,504,0,72,72,0,-78,-77,1,0,100,0,416,96,88,88,0,-1,-52,0,0,100,0,960,384,48,48,0,-42,-16,0,0,65,0,208,224,88,32,0,
0,23,-19,-68,0,1,100,0,664,528,80,80,0,-76,-69,0,1,100,0,256,528,80,80,0,-134,-66,0,0,100,0,872,96,48,48,0,-140,-98,0,0,100,0,920,96,48,48,0,-161,-70,0,0,100,0,776,96,48,48,0,-118,-30,0,0,100,0,824,96,48,48,0,-123,-83,0,0,100,0,776,96,48,48,0,-102,-47,0,0,100,0,680,96,48,48,0,-119,-67,0,0,100,0,728,96,48,48,0,-110,-85,0,0,100,0,680,96,48,48,0,-38,-28,0,0,100,0,600,408,40,40,0,-3,-30,0,0,100,0,760,408,40,40,0,-49,-64,0,0,100,0,496,288,80,80,0,-18,-38,0,0,100,0,312,208,16,16,0,-22,-57,0,0,100,0,320,256,32,32,0,-26,-86,0,1,100,0,416,72,24,24,0,2,-79,0,0,100,0,800,160,32,32,0,-36,-105,0,0,100,0,816,192,80,80,0,-35,-93,0,0,100,0,896,160,32,32,0,-61,-68,1,0,100,0,504,0,72,72,0,-78,-77,1,0,100,0,416,96,88,88,0,-1,-52,0,0,100,0,1008,384,48,48,0,-42,-16,0,0,65,0,208,224,88,32,0,
0,23,-19,-68,0,1,100,0,744,528,80,80,0,-76,-69,0,1,100,0,336,528,80,80,0,-155,-64,0,0,100,0,920,96,48,48,0,-151,-102,0,0,100,0,872,96,48,48,0,-177,-73,0,0,100,0,824,96,48,48,0,-127,-28,0,0,100,0,776,96,48,48,0,-134,-87,0,0,100,0,824,96,48,48,0,-120,-46,0,0,100,0,728,96,48,48,0,-130,-68,0,0,100,0,680,96,48,48,0,-118,-95,0,0,100,0,728,96,48,48,0,-38,-28,0,0,100,0,680,408,40,40,0,-3,-30,0,0,100,0,840,408,40,40,0,-49,-64,0,0,100,0,496,288,80,80,0,-18,-38,0,0,100,0,312,208,16,16,0,-22,-57,0,0,100,0,320,256,32,32,0,-26,-87,0,1,100,0,416,72,24,24,0,2,-82,0,0,100,0,768,160,32,32,0,-36,-106,0,0,100,0,816,192,80,80,0,-33,-95,0,0,100,0,864,160,32,32,0,-61,-68,1,0,100,0,504,0,72,72,0,-78,-77,1,0,100,0,416,96,88,88,0,-1,-52,0,0,100,0,1056,384,48,48,0,-42,-16,0,0,65,0,208,224,88,32,0,
0,23,-19,-68,0,1,100,0,824,528,80,80,0,-76,-69,0,1,100,0,416,528,80,80,0,-166,-62,0,0,100,0,872,96,48,48,0,-156,-106,0,0,100,0,920,96,48,48,0,-193,-75,0,0,100,0,776,96,48,48,0,-136,-23,0,0,100,0,824,96,48,48,0,-139,-91,0,0,100,0,776,96,48,48,0,-130,-45,0,0,100,0,680,96,48,48,0,-138,-69,0,0,100,0,728,96,48,48,0,-127,-97,0,0,100,0,680,96,48,48,0,-38,-28,0,0,100,0,600,408,40,40,0,-3,-30,0,0,100,0,760,408,40,40,0,-49,-64,0,0,100,0,496,288,80,80,0,-18,-38,0,0,100,0,312,208,16,16,0,-22,-57,0,0,100,0,320,256,32,32,0,-26,-87,0,1,100,0,416,72,24,24,0,2,-78,0,0,100,0,800,160,32,32,0,-36,-106,0,0,100,0,816,192,80,80,0,-35,-93,0,0,100,0,896,160,32,32,0,-61,-68,1,0,100,0,504,0,72,72,0,-78,-77,1,0,100,0,416,96,88,88,0,-1,-52,0,0,100,0,912,384,48,48,0,-42,-16,0,0,65,0,208,224,88,32,0,
0,23,-19,-68,0,1,100,0,904,528,80,80,0,-76,-69,0,1,100,0,496,528,80,80,0,-175,-62,0,0,60,0,920,96,48,48,0,-161,-109,0,0,60,0,872,96,48,48,0,-199,-78,0,0,60,0,824,96,48,48,0,-147,-20,0,0,60,0,776,96,48,48,0,-148,-91,0,0,60,0,824,96,48,48,0,-134,-42,0,0,60,0,728,96,48,48,0,-142,-69,0,0,60,0,680,96,48,48,0,-136,-100,0,0,60,0,728,96,48,48,0,-38,-28,0,0,100,0,640,408,40,40,0,-3,-30,0,0,100,0,800,408,40,40,0,-49,-64,0,0,100,0,496,288,80,80,0,-18,-38,0,0,100,0,312,208,16,16,0,-22,-57,0,0,100,0,320,256,32,32,0,-27,-85,0,1,100,0,416,72,24,24,0,1,-79,0,0,100,0,768,160,32,32,0,-37,-105,0,0,100,0,816,192,80,80,0,-36,-95,0,0,100,0,864,160,32,32,0,-61,-68,1,0,100,0,504,0,72,72,0,-78,-77,1,0,100,0,416,96,88,88,0,-1,-52,0,0,100,0,960,384,48,48,0,-42,-16,0,0,65,0,208,224,88,32,0,
0,23,-19,-68,0,1,60,0,664,528,80,80,0,-76,-69,0,1,60,0,256,528,80,80,0,-179,-63,0,0,40,0,872,96,48,48,0,-165,-111,0,0,40,0,920,96,48,48,0,-204,-82,0,0,40,0,776,96,48,48,0,-150,-19,0,0,40,0,824,96,48,48,0,-151,-93,0,0,40,0,776,96,48,48,0,-140,-42,0,0,40,0,680,96,48,48,0,-148,-69,0,0,40,0,728,96,48,48,0,-142,-100,0,0,40,0,680,96,48,48,0,-38,-28,0,0,100,0,600,408,40,40,0,-3,-30,0,0,100,0,760,408,40,40,0,-49,-64,0,0,100,0,496,288,80,80,0,-18,-38,0,0,100,0,312,208,16,16,0,-22,-57,0,0,100,0,320,256,32,32,0,-32,-77,0,1,100,0,416,72,24,24,0,-3,-75,0,0,100,0,768,160,32,32,0,-40,-98,0,0,100,0,736,192,80,80,0,-38,-85,0,0,100,0,864,160,32,32,0,-61,-68,1,0,100,0,504,0,72,72,0,-78,-77,1,0,100,0,416,96,88,88,0,-1,-52,0,0,100,0,1008,384,48,48,0,-42,-16,0,0,65,0,208,224,88,32,0,
0,12,-19,-68,0,1,40,0,744,528,80,80,0,-76,-69,0,1,40,0,336,528,80,80,0,-39,-29,0,0,100,0,680,408,40,40,0,-5,-30,0,0,100,0,840,408,40,40,0,-50,-64,0,0,100,0,416,288,80,80,0,-18,-39,0,0,100,0,312,208,16,16,0,-35,-61,0,1,100,0,416,72,24,24,0,-49,-71,0,0,100,0,416,192,80,48,0,-60,-66,1,0,100,0,504,0,72,72,0,-77,-75,1,0,100,0,416,96,88,88,0,-2,-52,0,0,100,0,1056,384,48,48,0,-43,-16,0,0,65,0,208,224,88,32,0,
0,6,-34,-58,0,1,70,0,416,72,24,24,0,-48,-68,0,0,100,0,416,192,80,48,0,-46,-64,0,0,100,0,656,288,80,80,0,-38,-65,3,0,100,-180,416,96,88,88,0,-2,-44,0,0,100,0,1056,384,48,48,0,-45,-16,0,0,65,0,208,256,88,32,0,
0,6,-34,-57,0,1,40,0,416,72,24,24,0,-48,-66,0,0,100,0,416,192,80,48,0,-46,-64,0,0,100,0,736,288,80,80,0,-38,-63,3,0,100,-180,416,96,88,88,0,-45,-36,0,0,100,0,992,432,56,48,0,-45,-16,0,0,65,0,208,256,88,32,0,
0,6,-35,-64,0,1,0,0,416,72,24,24,0,-48,-72,0,0,100,0,816,288,80,80,0,-38,-65,3,0,100,-180,416,96,88,88,0,-49,-74,0,0,100,0,416,192,80,48,0,-50,-44,0,0,100,0,1048,432,56,48,0,-45,-16,0,0,65,0,208,256,88,32,0,
