0,3,-48,-35,0,0,80,0,254,356,39,29,0,-47,-63,0,0,100,0,0,21,88,64,0,-31,-24,0,0,65,0,433,20,60,24,0,
0,3,-47,-45,0,0,80,0,302,346,45,48,0,-47,-64,0,0,100,0,95,20,88,64,0,-31,-24,0,0,65,0,433,20,60,24,0,
0,3,-45,-44,0,0,100,0,348,349,39,42,0,-47,-64,0,0,100,0,187,20,88,64,0,-31,-24,0,0,65,0,433,20,60,24,0,
0,3,-47,-38,0,0,100,0,389,352,39,39,0,-47,-64,0,0,100,0,273,20,88,64,0,-31,-24,0,0,65,0,433,20,60,24,0,
0,3,-17,-36,0,0,100,0,0,424,43,37,0,-36,-57,0,0,100,0,362,24,68,64,0,-29,-24,0,0,65,0,442,20,60,24,0,
0,3,-15,-47,0,0,100,0,47,408,43,50,0,-37,-66,0,0,100,0,2,112,67,72,0,-30,-24,0,0,65,0,442,20,60,24,0,
0,4,-98,-61,0,0,100,0,94,418,105,73,0,-98,-61,0,0,100,0,94,418,105,73,0,-96,-65,0,0,100,0,76,114,138,72,0,-32,-24,0,0,65,0,442,20,60,24,0,
0,4,-100,-83,0,0,100,0,200,404,121,81,0,-100,-83,0,0,50,0,224,98,90,81,0,-47,-82,0,0,100,0,314,100,76,81,0,-33,-24,0,0,65,0,442,20,60,24,0,
0,3,-67,-93,0,0,80,0,320,416,84,57,0,-63,-90,0,0,100,0,407,102,94,89,0,-33,-24,0,0,65,0,442,20,60,24,0,
0,3,-11,-73,0,0,100,0,412,457,28,24,0,-54,-89,0,0,100,0,1,207,87,89,0,-33,-24,0,0,65,0,442,20,60,24,0,
0,2,-33,-56,0,0,100,0,88,240,68,64,0,-22,-24,0,0,65,0,442,20,60,24,0,
0,2,-39,-63,0,0,100,0,166,233,71,64,0,-22,-24,0,0,65,0,442,20,60,24,0,
0,2,-56,-63,0,0,100,0,237,234,93,64,0,-22,-24,0,0,65,0,442,20,60,24,0,
0,2,-51,-63,0,0,100,0,328,234,85,64,0,-22,-24,0,0,65,0,442,20,60,24,0,
0,3,3,-34,0,1,100,0,468,366,13,24,0,-15,-63,0,0,100,0,0,342,56,64,0,-22,-24,0,0,65,0,442,20,60,24,0,
0,2,-11,-63,0,0,100,0,109,342,54,64,0,-22,-24,0,0,65,0,442,20,60,24,0,
0,2,-58,-63,0,0,100,0,164,339,89,64,0,-22,-24,0,0,65,0,442,20,60,24,0,
0,4,-105,-81,0,0,70,0,199,409,122,70,0,-100,-83,0,0,20,0,224,98,90,81,0,-47,-82,0,0,100,0,314,100,76,81,0,-33,-24,0,0,65,0,442,20,60,24,0,
0,3,-40,-93,0,0,80,0,347,416,59,57,0,-63,-90,0,0,100,0,407,102,94,89,0,-33,-24,0,0,65,0,442,20,60,24,0,
0,3,-98,-61,0,0,100,0,94,418,105,73,0,-96,-65,0,0,100,0,76,114,138,72,0,-32,-24,0,0,65,0,442,20,60,24,0,
0,3,-7,-77,0,0,100,0,408,422,28,28,0,-54,-89,0,0,100,0,1,207,87,89,0,-33,-24,0,0,65,0,442,20,60,24,0,
0,4,0,-41,0,1,100,0,485,308,25,39,0,-1,-56,0,1,100,0,485,371,24,28,0,-15,-63,0,0,100,0,0,342,56,64,0,-22,-24,0,0,65,0,442,20,60,24,0,
0,3,-3,-51,0,1,50,0,485,360,25,53,0,-15,-63,0,0,100,0,0,342,56,64,0,-22,-24,0,0,65,0,442,20,60,24,0,
0,3,-28,-45,0,0,100,0,464,417,44,42,0,-15,-62,0,0,100,0,429,235,56,64,0,-22,-24,0,0,65,0,442,20,60,24,0,
0,2,-12,-63,0,0,100,0,56,343,53,64,0,-22,-24,0,0,65,0,442,20,60,24,0,
0,2,-12,-56,0,0,100,0,251,180,53,54,0,-22,-24,0,0,65,0,442,20,60,24,0,
0,2,-11,-55,0,0,100,0,310,181,53,54,0,-22,-24,0,0,65,0,442,20,60,24,0,
0,2,-10,-55,0,0,100,0,369,181,53,54,0,-22,-24,0,0,65,0,442,20,60,24,0,
0,1,-48,-80,0,0,100,0,617,23,61,102,0,
0,1,-48,-80,0,0,100,0,721,23,61,102,0,
0,1,-48,-80,0,0,100,0,825,23,61,102,0,
0,1,-48,-80,0,0,100,0,929,23,62,102,0,
0,1,-48,-80,0,0,100,0,1033,23,62,102,0,
0,1,-48,-80,0,0,100,0,1137,23,62,102,0,
0,3,-48,-80,0,0,80,0,0,288,96,96,0,-48,-80,0,0,100,0,288,96,96,96,0,-48,-16,0,0,100,0,480,0,96,32,0,
0,4,-48,-80,0,0,50,0,96,288,96,96,0,-48,-80,0,0,10,0,0,288,96,96,0,-48,-80,0,0,100,0,384,96,96,96,0,-48,-16,0,0,100,0,480,0,96,32,0,
0,2,-48,-80,0,0,100,0,480,96,96,96,0,-48,-16,0,0,100,0,480,0,96,32,0,
0,2,-48,-80,0,0,100,0,0,192,96,96,0,-48,-16,0,0,100,0,480,0,96,32,0,
0,3,-48,-80,0,0,80,0,192,288,96,96,0,-48,-80,0,0,100,0,96,192,96,96,0,-53,-16,0,0,100,0,480,0,96,32,0,
0,4,-48,-80,0,0,50,0,288,288,96,96,0,-48,-80,0,0,10,0,192,288,96,96,0,-48,-80,0,0,100,0,192,192,96,96,0,-53,-16,0,0,100,0,480,0,96,32,0,
0,2,-48,-80,0,0,100,0,288,192,96,96,0,-53,-16,0,0,100,0,480,0,96,32,0,
0,2,-48,-80,0,0,100,0,384,192,96,96,0,-49,-16,0,0,100,0,480,0,96,32,0,
0,0,
0,2,-48,-80,0,0,100,0,0,384,96,96,0,-48,-16,0,0,100,0,480,0,96,32,0,
0,2,-48,-80,0,0,100,0,96,384,96,96,0,-54,-16,0,0,100,0,480,0,96,32,0,
0,2,-48,-80,0,0,100,0,192,384,96,96,0,-57,-16,0,0,100,0,480,0,96,32,0,
0,2,-48,-80,0,0,100,0,288,384,96,96,0,-54,-16,0,0,100,0,480,0,96,32,0,
0,2,-48,-80,0,0,100,0,384,384,96,96,0,-48,-16,0,0,100,0,480,0,96,32,0,
0,2,-48,-80,0,0,100,0,480,384,96,96,0,-48,-16,0,0,100,0,480,0,96,32,0,
0,2,-48,-80,0,0,100,0,0,480,96,96,0,-48,-16,0,0,100,0,480,0,96,32,0,
0,2,-48,-80,0,0,100,0,96,480,96,96,0,-48,-16,0,0,100,0,480,0,96,32,0,
0,0,
0,2,-48,-80,0,0,100,0,192,480,96,96,0,-48,-16,0,0,100,0,480,0,96,32,0,
0,2,-48,-80,0,0,100,0,288,480,96,96,0,-48,-16,0,0,100,0,480,0,96,32,0,
0,2,-48,-80,0,0,100,0,384,480,96,96,0,-48,-16,0,0,100,0,480,0,96,32,0,
0,2,-48,-80,0,0,100,0,480,480,96,96,0,-48,-16,0,0,100,0,480,0,96,32,0,
0,0,
0,2,-48,-80,0,0,100,0,192,576,96,96,0,-48,-16,0,0,100,0,480,0,96,32,0,
0,2,-48,-80,0,0,100,0,288,576,96,96,0,-48,-16,0,0,100,0,480,0,96,32,0,
0,2,-48,-80,0,0,100,0,384,576,96,96,0,-48,-16,0,0,100,0,480,0,96,32,0,
0,2,-48,-80,0,0,100,0,480,576,96,96,0,-48,-16,0,0,100,0,480,0,96,32,0,
0,0,
0,0,
0,0,
0,0,
0,0,
0,0,
0,0,
0,0,
0,0,
