5,0,0,3,
6,0,0,1,
7,0,0,3,
8,0,0,3,
9,0,0,6,
10,0,0,6,
11,0,0,1,
12,0,0,3,
13,0,0,4,
14,0,0,4,
15,0,0,4,
16,0,0,5,
17,0,0,6,
18,0,0,7,
19,0,0,6,
20,0,0,9,
21,0,0,1,
22,0,0,3,
23,0,0,4,
24,0,0,4,
25,0,0,4,
26,0,0,4,
27,0,0,4,
28,0,0,4,
29,0,0,4,
30,0,0,14,
