0,2,-61,-88,0,0,100,0,0,0,96,96,0,-48,-16,0,0,65,0,480,64,96,32,0,
0,2,-61,-88,0,0,100,0,96,0,96,96,0,-48,-16,0,0,65,0,480,64,96,32,0,
0,2,-61,-88,0,0,100,0,192,0,96,96,0,-48,-16,0,0,65,0,480,64,96,32,0,
0,2,-61,-88,0,0,100,0,288,0,96,96,0,-48,-16,0,0,65,0,480,64,96,32,0,
0,2,-30,-88,0,0,100,0,384,0,96,96,0,-48,-16,0,0,65,0,480,64,96,32,0,
0,2,-29,-88,0,0,100,0,0,96,96,96,0,-48,-16,0,0,65,0,480,64,96,32,0,
0,2,-29,-88,0,0,100,0,96,96,96,96,0,-48,-16,0,0,65,0,480,64,96,32,0,
0,2,-29,-88,0,0,100,0,192,96,96,96,0,-48,-16,0,0,65,0,480,64,96,32,0,
0,2,-29,-88,0,0,100,0,288,96,96,96,0,-48,-16,0,0,65,0,480,64,96,32,0,
0,2,-29,-88,0,0,100,0,384,96,96,96,0,-48,-16,0,0,65,0,480,64,96,32,0,
0,2,-29,-88,0,0,100,0,480,96,96,96,0,-48,-16,0,0,65,0,480,64,96,32,0,
0,3,-61,-88,0,0,100,0,0,192,96,96,0,-61,-88,0,0,100,0,0,384,96,96,0,-47,-16,0,0,65,0,480,64,96,32,0,
0,3,-61,-88,0,0,90,0,96,384,96,96,0,-61,-88,0,0,100,0,96,192,96,96,0,-54,-16,0,0,65,0,480,64,96,32,0,
0,3,-93,-88,0,0,90,0,0,480,192,96,0,-93,-88,0,0,100,0,0,288,128,96,0,-62,-16,0,0,65,0,480,64,96,32,0,
0,4,-88,-88,0,0,70,0,192,480,192,96,0,-88,-88,0,0,20,0,192,384,192,96,0,-56,-88,0,0,100,0,128,288,128,96,0,-62,-16,0,0,65,0,480,64,96,32,0,
0,4,-56,-88,0,0,60,0,384,480,96,96,0,-88,-88,0,0,20,0,192,480,192,96,0,-56,-88,0,0,100,0,288,288,96,96,0,-62,-16,0,0,65,0,480,64,96,32,0,
0,3,-56,-88,0,0,20,0,384,480,96,96,0,-56,-88,0,0,100,0,384,288,96,96,0,-62,-16,0,0,65,0,480,64,96,32,0,
0,2,-56,-88,0,0,100,0,480,288,96,96,0,-62,-16,0,0,65,0,480,64,96,32,0,
0,2,-56,-88,0,0,100,0,384,192,96,96,0,-62,-16,0,0,65,0,480,64,96,32,0,
0,2,-60,-88,0,0,100,0,480,192,96,96,0,-54,-16,0,0,65,0,480,64,96,32,0,
0,3,-49,-34,0,0,100,0,576,288,96,48,0,-61,-88,0,0,100,0,480,480,96,96,0,-48,-16,0,0,65,0,480,64,96,32,0,
0,3,-52,-37,0,0,100,0,576,336,96,48,0,-61,-88,0,0,100,0,576,480,96,96,0,-48,-16,0,0,65,0,480,64,96,32,0,
0,3,-52,-45,0,0,80,0,672,288,96,48,0,-61,-88,0,0,100,0,672,480,96,96,0,-48,-16,0,0,65,0,480,64,96,32,0,
0,3,-54,-44,0,0,30,0,672,336,96,48,0,-61,-88,0,0,100,0,768,480,96,96,0,-48,-16,0,0,65,0,480,64,96,32,0,
0,2,-61,-88,0,0,100,0,864,480,96,96,0,-48,-16,0,0,65,0,480,64,96,32,0,
0,3,-45,-88,0,0,50,0,576,96,96,96,0,-61,-88,0,0,100,0,672,480,96,96,0,-48,-16,0,0,65,0,480,64,96,32,0,
0,4,-45,-88,0,0,100,0,672,96,96,96,0,-61,-88,0,1,30,0,480,384,96,96,0,-61,-88,0,0,100,0,0,576,96,96,0,-48,-16,0,0,65,0,480,64,96,32,0,
0,4,-45,-88,0,0,80,0,576,192,96,96,0,-61,-88,0,1,80,0,576,384,96,96,0,-61,-88,0,0,100,0,96,576,96,96,0,-48,-16,0,0,65,0,480,64,96,32,0,
0,4,-45,-88,0,0,40,0,672,192,96,96,0,-61,-88,0,1,50,0,672,384,96,96,0,-61,-88,0,0,100,0,288,576,96,96,0,-48,-16,0,0,65,0,480,64,96,32,0,
0,2,-61,-88,0,0,100,0,384,576,96,96,0,-48,-16,0,0,65,0,480,64,96,32,0,
0,2,-61,-88,0,0,100,0,480,576,96,96,0,-48,-16,0,0,65,0,480,64,96,32,0,
0,2,-61,-88,0,0,100,0,576,576,96,96,0,-48,-16,0,0,65,0,480,64,96,32,0,
0,2,-61,-88,0,0,100,0,672,576,96,96,0,-48,-16,0,0,65,0,480,64,96,32,0,
