0,8,-31,-59,0,0,100,0,16,160,64,80,0,-15,-61,0,0,100,0,16,96,32,32,0,-60,-62,0,0,100,0,312,144,72,64,0,-10,-55,0,0,100,0,383,144,73,64,0,-6,-40,0,0,100,0,48,128,32,32,0,-28,-40,0,0,100,0,16,128,32,32,0,-48,-48,0,0,100,0,320,32,80,64,0,-23,-8,0,0,65,0,113,32,47,17,0,
0,8,-31,-59,0,0,100,0,80,160,64,80,0,-15,-60,0,0,100,0,48,96,32,32,0,-60,-61,0,0,100,0,312,144,72,64,0,-10,-54,0,0,100,0,383,144,73,64,0,-6,-39,0,0,100,0,48,128,32,32,0,-28,-39,0,0,100,0,16,128,32,32,0,-48,-48,0,0,100,0,400,32,80,64,0,-23,-8,0,0,65,0,113,32,47,17,0,
0,8,-31,-59,0,0,100,0,144,160,64,80,0,-15,-60,0,0,100,0,16,96,32,32,0,-60,-60,0,0,100,0,312,144,72,64,0,-10,-53,0,0,100,0,383,144,73,64,0,-6,-38,0,0,100,0,48,128,32,32,0,-28,-38,0,0,100,0,16,128,32,32,0,-48,-48,0,0,100,0,480,32,80,64,0,-23,-8,0,0,65,0,113,32,47,17,0,
0,8,-31,-59,0,0,100,0,208,160,64,80,0,-15,-61,0,0,100,0,80,96,32,32,0,-60,-61,0,0,100,0,312,144,72,64,0,-10,-54,0,0,100,0,383,144,73,64,0,-6,-39,0,0,100,0,48,128,32,32,0,-28,-39,0,0,100,0,16,128,32,32,0,-48,-48,0,0,100,0,560,32,80,64,0,-23,-8,0,0,65,0,113,32,47,17,0,
0,6,-22,-56,0,0,100,0,16,96,32,32,0,-41,-86,1,0,100,0,312,144,72,64,0,-34,-78,0,0,100,0,312,144,72,64,0,-31,-66,0,0,100,0,16,241,64,79,0,-35,-47,1,0,100,0,320,32,80,64,0,-21,-8,0,0,65,0,113,32,47,17,0,
0,6,-22,-57,0,0,100,0,16,96,32,32,0,-40,-87,1,0,100,0,312,144,72,64,0,-37,-79,0,0,100,0,312,144,72,64,0,-34,-66,0,0,100,0,144,321,64,79,0,-38,-48,1,0,100,0,400,32,80,64,0,-22,-8,0,0,65,0,113,32,47,17,0,
0,8,-74,-64,0,1,100,0,320,208,112,96,0,-64,-30,2,0,50,0,312,144,72,64,0,-67,-17,0,0,50,-270,312,144,48,64,0,-30,-34,0,0,100,0,80,128,32,32,0,-33,-46,0,0,100,0,112,96,32,32,0,-37,-66,0,0,100,0,80,241,64,79,0,-37,-49,0,0,100,0,320,368,80,64,0,-27,-8,0,0,65,0,113,32,47,17,0,
0,7,-31,-20,0,1,100,0,432,208,48,32,0,-29,-34,0,0,100,0,80,128,32,32,0,-27,-18,0,0,100,180,360,184,8,8,0,-34,-45,0,0,100,0,112,96,32,32,0,-37,-69,0,0,100,0,144,241,64,79,0,-40,-52,0,0,100,0,400,368,80,64,0,-27,-8,0,0,65,0,113,32,47,17,0,
0,5,-30,-47,0,0,100,0,112,96,32,32,0,-39,-30,0,0,100,180,312,144,72,64,0,-35,-69,0,0,100,0,208,241,64,79,0,-35,-49,0,0,100,0,480,368,80,64,0,-28,-8,0,0,65,0,113,32,47,17,0,
0,6,-81,-34,0,1,100,0,432,240,80,48,0,-40,-48,0,0,100,0,80,96,32,32,0,-44,-69,0,0,100,0,208,321,64,79,0,-51,-52,0,0,100,0,320,432,80,64,0,-76,-41,0,1,100,0,480,208,72,32,0,-34,-8,0,0,65,0,113,32,47,17,0,
0,9,-40,-34,0,1,100,0,512,240,96,48,0,-18,-37,0,0,100,0,144,128,32,32,0,-35,-49,0,0,100,0,16,96,32,32,0,-39,-69,0,0,100,0,16,321,64,79,0,-11,-55,0,0,40,0,456,144,72,64,0,-59,-44,0,1,100,0,552,208,56,32,0,-53,-63,0,0,50,0,528,144,72,64,0,-56,-48,0,0,100,0,560,368,80,64,0,-32,-8,0,0,65,0,113,32,47,17,0,
0,8,-26,-35,0,1,100,0,320,304,64,48,0,-16,-38,0,0,100,0,176,128,32,32,0,-7,-56,0,0,100,0,456,144,72,64,0,-31,-48,0,0,100,0,16,96,32,32,0,-37,-69,0,0,100,0,80,321,64,79,0,-38,-44,0,1,100,0,384,336,32,32,0,-43,-47,0,0,100,0,640,368,80,64,0,-29,-8,0,0,65,0,113,32,47,17,0,
0,8,-7,-30,0,1,100,0,384,304,48,32,0,-16,-38,0,0,100,0,176,128,32,32,0,-7,-56,0,0,100,0,456,144,72,64,0,-31,-48,0,0,100,0,16,96,32,32,0,-37,-69,0,0,100,0,80,321,64,79,0,-45,-47,0,0,100,0,400,432,80,64,0,-40,-43,0,1,100,0,416,336,32,32,0,-29,-8,0,0,65,0,113,32,47,17,0,
0,7,9,-33,0,1,100,0,432,304,32,32,0,-16,-38,0,0,100,0,176,128,32,32,0,-7,-56,0,0,100,0,456,144,72,64,0,-31,-48,0,0,100,0,16,96,32,32,0,-37,-69,0,0,100,0,80,321,64,79,0,-44,-47,0,0,100,0,720,368,80,64,0,-29,-8,0,0,65,0,113,32,47,17,0,
0,7,7,-30,0,1,100,0,464,304,32,32,0,-16,-38,0,0,100,0,176,128,32,32,0,-7,-56,0,0,100,0,456,144,72,64,0,-31,-48,0,0,100,0,16,96,32,32,0,-37,-69,0,0,100,0,80,321,64,79,0,-44,-48,0,0,100,0,800,368,80,64,0,-29,-8,0,0,65,0,113,32,47,17,0,
0,6,-16,-38,0,0,100,0,176,128,32,32,0,-31,-48,0,0,100,0,16,96,32,32,0,-37,-69,0,0,100,0,80,321,64,79,0,-7,-56,0,0,100,0,456,144,72,64,0,-45,-48,0,0,100,0,800,368,80,64,0,-29,-8,0,0,65,0,113,32,47,17,0,
0,5,-30,-47,0,0,100,0,112,96,32,32,0,-39,-30,0,0,100,180,312,144,72,64,0,-35,-69,0,0,100,0,208,241,64,79,0,-44,-48,0,0,100,0,800,368,80,64,0,-28,-8,0,0,65,0,113,32,47,17,0,
0,12,-10,-25,0,0,100,0,192,96,16,16,0,-49,-38,2,0,100,0,312,144,72,64,0,-16,-61,0,0,100,0,16,96,32,32,0,-16,-32,0,0,100,0,176,80,32,16,0,-16,-36,0,0,100,0,176,64,32,16,0,-34,-70,0,0,100,0,144,400,64,80,0,-43,-60,0,0,100,0,720,496,80,64,0,-20,-30,0,0,100,0,176,96,16,16,0,-25,-32,0,0,100,0,144,80,32,16,0,-19,-37,0,0,100,0,144,64,32,16,0,-64,-49,3,0,100,0,384,144,72,64,0,-23,-8,0,0,65,0,113,32,47,17,0,
0,8,-60,-71,0,0,100,0,312,144,72,64,0,-23,-50,0,0,100,0,208,64,32,32,0,-35,-55,0,0,100,0,320,560,80,64,0,-11,-50,0,0,100,0,240,64,32,32,0,-17,-62,0,0,100,0,144,96,32,32,0,-34,-70,0,0,100,0,208,400,64,80,0,-18,-83,2,0,100,90,384,144,72,64,0,-23,-8,0,0,65,0,113,32,47,17,0,
0,5,-47,-73,2,0,100,-90,384,144,72,64,0,-53,-67,2,0,100,0,312,144,72,64,0,-38,-69,0,0,100,0,16,400,64,80,0,-23,-61,1,0,100,0,144,96,32,32,0,-26,-8,0,0,65,0,113,32,47,17,0,
0,12,-13,-49,0,0,100,0,288,32,16,16,0,-41,-96,0,0,100,-270,384,144,72,64,0,-29,-95,1,0,100,-90,384,144,72,64,0,-12,-50,0,0,100,0,272,32,16,16,0,-10,-48,0,0,100,0,272,48,16,16,0,-15,-45,1,0,100,0,288,48,16,16,0,-24,-51,1,0,100,0,240,32,32,32,0,-19,-50,0,0,100,0,208,32,32,32,0,-24,-61,1,0,100,0,144,96,32,32,0,-42,-53,1,0,100,0,720,432,80,64,0,-39,-69,1,0,100,0,208,400,64,80,0,-30,-8,0,0,65,0,113,32,47,17,0,
0,11,-58,-92,0,1,50,0,696,112,88,96,0,-54,-89,0,1,50,0,608,208,88,96,0,-29,-41,3,0,100,0,312,144,72,64,0,-68,-45,2,0,100,0,312,144,72,64,0,0,0,0,0,100,0,16,480,16,8,0,-20,-41,0,0,100,0,240,96,32,32,0,-27,-61,0,0,100,0,16,96,32,32,0,-46,-70,0,0,100,0,80,400,64,80,0,-36,-41,0,0,100,0,208,96,32,32,0,-56,-60,0,0,100,0,480,432,80,64,0,-36,-8,0,0,65,0,113,32,47,17,0,
0,10,-60,-92,0,1,30,0,784,112,88,96,0,-53,-76,0,1,30,0,696,208,88,96,0,-28,-40,3,0,100,0,312,144,72,64,0,-69,-44,2,0,100,0,312,144,72,64,0,-20,-41,0,0,100,0,240,128,32,32,0,-27,-61,0,0,100,0,16,96,32,32,0,-46,-70,0,0,100,0,80,400,64,80,0,-36,-41,0,0,100,0,208,128,32,32,0,-49,-59,0,0,100,0,560,432,80,64,0,-36,-8,0,0,65,0,113,32,47,17,0,
0,10,-61,-80,1,1,20,0,784,208,88,96,0,-53,-76,0,1,20,0,784,208,88,96,0,-28,-40,3,0,100,0,312,144,72,64,0,-69,-44,2,0,100,0,312,144,72,64,0,-20,-41,0,0,100,0,240,128,32,32,0,-27,-61,0,0,100,0,16,96,32,32,0,-46,-70,0,0,100,0,80,400,64,80,0,-36,-41,0,0,100,0,208,128,32,32,0,-49,-59,0,0,100,0,640,496,80,64,0,-36,-8,0,0,65,0,113,32,47,17,0,
0,8,-28,-40,3,0,100,0,312,144,72,64,0,-69,-44,2,0,100,0,312,144,72,64,0,-20,-41,0,0,100,0,240,128,32,32,0,-27,-61,0,0,100,0,16,96,32,32,0,-46,-70,0,0,100,0,80,400,64,80,0,-36,-41,0,0,100,0,208,128,32,32,0,-50,-60,0,0,100,0,320,496,80,64,0,-36,-8,0,0,65,0,113,32,47,17,0,
0,8,-28,-40,3,0,100,0,312,144,72,64,0,-69,-44,2,0,100,0,312,144,72,64,0,-20,-41,0,0,100,0,240,128,32,32,0,-27,-61,0,0,100,0,16,96,32,32,0,-46,-70,0,0,100,0,80,400,64,80,0,-36,-41,0,0,100,0,208,128,32,32,0,-50,-57,0,0,100,0,640,432,80,64,0,-36,-8,0,0,65,0,113,32,47,17,0,
0,8,-28,-40,3,0,100,0,312,144,72,64,0,-20,-41,0,0,100,0,240,128,32,32,0,-69,-44,2,0,100,0,312,144,72,64,0,-27,-61,0,0,100,0,16,96,32,32,0,-46,-70,0,0,100,0,80,400,64,80,0,-36,-41,0,0,100,0,208,128,32,32,0,-50,-57,0,0,100,0,400,496,80,64,0,-36,-8,0,0,65,0,113,32,47,17,0,
0,8,-28,-40,3,0,100,0,312,144,72,64,0,-69,-44,2,0,100,0,312,144,72,64,0,-20,-41,0,0,100,0,240,128,32,32,0,-27,-61,0,0,100,0,16,96,32,32,0,-46,-70,0,0,100,0,80,400,64,80,0,-36,-41,0,0,100,0,208,128,32,32,0,-50,-57,0,0,100,0,480,496,80,64,0,-36,-8,0,0,65,0,113,32,47,17,0,
0,8,-28,-40,3,0,100,0,312,144,72,64,0,-69,-44,2,0,100,0,312,144,72,64,0,-20,-41,0,0,100,0,240,128,32,32,0,-27,-61,0,0,100,0,16,96,32,32,0,-46,-70,0,0,100,0,80,400,64,80,0,-36,-41,0,0,100,0,208,128,32,32,0,-50,-57,0,0,100,0,560,496,80,64,0,-36,-8,0,0,65,0,113,32,47,17,0,
0,12,-11,-53,0,0,100,0,288,32,16,16,0,-40,-98,0,0,100,-270,384,144,72,64,0,-9,-53,0,0,100,0,272,32,16,16,0,-28,-97,1,0,100,-90,384,144,72,64,0,-9,-48,0,0,100,0,272,48,16,16,0,-15,-49,1,0,100,0,288,48,16,16,0,-23,-55,1,0,100,0,240,32,32,32,0,-24,-61,1,0,100,0,144,96,32,32,0,-43,-54,1,0,100,0,800,432,80,64,0,-39,-69,1,0,100,0,208,400,64,80,0,-20,-49,0,0,100,0,208,32,32,32,0,-30,-8,0,0,65,0,113,32,47,17,0,
0,12,-12,-27,0,0,100,0,192,96,16,16,0,-18,-32,0,0,100,0,176,80,32,16,0,-17,-37,0,0,100,0,176,64,32,16,0,-52,-41,2,0,100,0,312,144,72,64,0,-16,-61,0,0,100,0,16,96,32,32,0,-34,-70,0,0,100,0,144,400,64,80,0,-44,-62,0,0,100,0,800,496,80,64,0,-65,-50,3,0,100,0,384,144,72,64,0,-20,-33,0,0,100,0,176,96,16,16,0,-26,-34,0,0,100,0,144,80,32,16,0,-20,-37,0,0,100,0,144,64,32,16,0,-23,-8,0,0,65,0,113,32,47,17,0,
0,6,-16,-38,0,0,100,0,176,128,32,32,0,-31,-48,0,0,100,0,16,96,32,32,0,-37,-69,0,0,100,0,16,481,64,79,0,-7,-56,0,0,100,0,456,144,72,64,0,-17,-52,0,0,100,0,336,368,80,64,0,-29,-8,0,0,65,0,113,32,47,17,0,
