5,0,0,8,
6,0,0,5,
7,0,0,5,
8,0,0,3,
9,0,0,6,
10,0,0,4,
11,0,0,5,
12,0,0,5,
13,0,0,5,
14,0,0,4,
15,0,0,5,
16,0,0,8,
17,0,0,6,
18,0,0,4,
19,0,0,6,
20,0,0,5,
21,0,0,5,
22,0,0,5,
23,0,0,6,
24,0,0,6,
25,0,0,5,
26,0,0,3,
27,0,0,5,
28,0,0,10,
