0,3,-32,-74,0,0,100,0,0,0,64,78,0,-56,-53,0,0,100,0,334,20,65,58,0,-28,-9,0,0,65,0,454,2,54,18,0,
0,4,-32,-74,0,0,100,0,64,0,64,78,0,-45,-48,0,0,100,0,345,9,12,12,0,-56,-52,0,0,100,0,334,20,65,58,0,-28,-9,0,0,65,0,454,2,54,18,0,
0,3,-32,-74,0,0,100,0,128,0,64,78,0,-56,-53,0,0,100,0,334,20,65,58,0,-28,-9,0,0,65,0,454,2,54,18,0,
0,4,-32,-74,0,0,100,0,192,0,64,78,0,-44,-50,0,0,100,0,358,9,12,13,0,-56,-54,0,0,100,0,334,20,65,58,0,-28,-9,0,0,65,0,454,2,54,18,0,
0,3,-33,-75,0,0,100,0,0,76,64,78,0,-58,-38,0,0,100,0,378,156,87,32,0,-28,-9,0,0,65,0,454,2,54,18,0,
0,3,-33,-75,0,0,100,0,64,76,64,78,0,-60,-37,0,0,100,0,378,156,87,32,0,-28,-9,0,0,65,0,454,2,54,18,0,
0,3,-33,-75,0,0,100,0,128,76,64,78,0,-59,-36,0,0,100,0,378,156,87,32,0,-28,-9,0,0,65,0,454,2,54,18,0,
0,3,-35,-74,0,0,100,0,192,76,64,78,0,-76,-53,0,0,100,0,384,189,128,40,0,-28,-9,0,0,65,0,454,2,54,18,0,
0,3,-69,-52,0,0,100,0,384,228,128,57,0,-35,-75,0,0,100,0,256,76,64,78,0,-28,-9,0,0,65,0,454,2,54,18,0,
0,4,-82,-28,0,0,100,0,384,294,128,39,0,-36,-75,0,0,100,0,320,76,64,78,0,-38,-21,0,0,100,0,468,177,39,5,0,-28,-9,0,0,65,0,454,2,54,18,0,
0,4,-36,-75,0,0,100,0,384,76,64,78,0,-70,-30,0,0,100,0,467,157,43,21,0,-47,-22,0,0,100,0,468,177,39,5,0,-28,-9,0,0,65,0,454,2,54,18,0,
0,3,-33,-75,0,0,100,0,448,76,64,77,0,-60,-37,0,0,100,0,378,156,87,32,0,-28,-9,0,0,65,0,454,2,54,18,0,
0,2,-44,-64,0,0,100,0,251,11,74,68,0,-28,-9,0,0,65,0,454,2,54,18,0,
0,4,-35,-16,0,0,100,0,257,265,20,18,0,-32,-74,0,0,100,0,0,0,64,76,0,-56,-53,0,0,100,0,334,20,65,58,0,-28,-9,0,0,65,0,454,2,54,18,0,
0,5,-30,-15,0,0,100,0,256,285,19,18,0,-32,-74,0,0,100,0,192,0,64,78,0,-45,-50,0,0,100,0,345,9,12,12,0,-56,-54,0,0,100,0,334,20,65,58,0,-28,-9,0,0,65,0,454,2,54,18,0,
0,4,-28,-16,0,0,100,0,299,284,19,19,0,-32,-74,0,0,100,0,0,152,64,76,0,-56,-53,0,0,100,0,334,20,65,58,0,-28,-9,0,0,65,0,454,2,54,18,0,
0,5,-30,-15,0,0,100,0,256,285,19,18,0,-32,-74,0,0,100,0,64,152,64,76,0,-45,-49,0,0,100,0,345,9,12,12,0,-56,-53,0,0,100,0,334,20,65,58,0,-28,-9,0,0,65,0,454,2,54,18,0,
0,4,-28,-16,0,0,100,0,278,284,18,19,0,-32,-74,0,0,100,0,128,152,64,76,0,-55,-53,0,0,100,0,334,20,65,58,0,-28,-9,0,0,65,0,454,2,54,18,0,
0,5,-30,-15,0,0,100,0,256,285,19,18,0,-32,-74,0,0,100,0,192,152,64,76,0,-45,-48,0,0,100,0,345,9,12,12,0,-56,-52,0,0,100,0,334,20,65,58,0,-28,-9,0,0,65,0,454,2,54,18,0,
0,3,-30,-15,0,0,100,0,256,285,19,18,0,-32,-74,0,0,100,0,320,228,64,76,0,-28,-9,0,0,65,0,454,2,54,18,0,
0,3,-30,-15,0,0,100,0,256,285,19,18,0,-32,-74,0,0,100,0,256,152,64,76,0,-28,-9,0,0,65,0,454,2,54,18,0,
0,3,-30,-15,0,0,100,0,256,285,19,18,0,-32,-74,0,0,100,0,320,152,64,76,0,-28,-9,0,0,65,0,454,2,54,18,0,
0,2,-74,-79,0,0,100,0,13,306,124,94,0,-28,-9,0,0,65,0,454,2,54,18,0,
0,2,-71,-78,0,0,100,0,138,307,124,94,0,-28,-9,0,0,65,0,454,2,54,18,0,
0,2,-71,-76,0,0,100,0,260,309,124,94,0,-28,-9,0,0,65,0,454,2,54,18,0,
0,2,-85,-78,0,0,100,0,2,408,124,94,0,-28,-9,0,0,65,0,454,2,54,18,0,
0,2,-83,-81,0,0,100,0,126,405,124,94,0,-28,-9,0,0,65,0,454,2,54,18,0,
0,2,-85,-82,0,0,100,0,246,404,124,94,0,-28,-9,0,0,65,0,454,2,54,18,0,
0,2,-84,-84,0,0,100,0,369,402,124,94,0,-28,-9,0,0,65,0,454,2,54,18,0,
0,3,-30,-15,0,0,100,0,256,285,19,18,0,-32,-74,0,0,100,0,0,228,64,76,0,-28,-9,0,0,65,0,454,2,54,18,0,
0,3,-30,-15,0,0,100,0,256,285,19,18,0,-32,-74,0,0,100,0,64,228,64,76,0,-28,-9,0,0,65,0,454,2,54,18,0,
0,3,-30,-15,0,0,100,0,256,285,19,18,0,-32,-74,0,0,100,0,128,228,64,76,0,-28,-9,0,0,65,0,454,2,54,18,0,
0,3,-30,-15,0,0,100,0,256,285,19,18,0,-32,-74,0,0,100,0,192,228,64,76,0,-28,-9,0,0,65,0,454,2,54,18,0,
