0,2,-57,-63,0,0,100,0,0,0,112,80,0,-57,-16,0,0,65,0,448,0,112,32,0,
0,2,-57,-63,0,0,100,0,112,0,112,80,0,-57,-16,0,0,65,0,448,0,112,32,0,
0,2,-57,-63,0,0,100,0,224,0,112,80,0,-57,-16,0,0,65,0,448,0,112,32,0,
0,2,-57,-63,0,0,100,0,336,0,112,80,0,-57,-16,0,0,65,0,448,0,112,32,0,
0,2,-57,-62,0,0,100,0,0,80,112,80,0,-57,-16,0,0,65,0,448,0,112,32,0,
0,2,-57,-63,0,0,100,0,112,80,112,80,0,-57,-16,0,0,65,0,448,0,112,32,0,
0,2,-56,-62,0,0,100,0,112,80,112,80,0,-56,-16,0,0,65,0,448,0,112,32,0,
0,4,-55,-65,0,1,100,0,448,96,48,48,0,-55,-65,0,0,100,0,448,96,48,48,0,-67,-63,0,0,100,0,224,80,112,80,0,-67,-16,0,0,65,0,448,0,112,32,0,
0,6,-64,-52,0,1,100,0,448,96,48,48,0,-64,-52,0,0,100,0,448,96,48,48,0,-56,-64,0,1,100,0,496,96,48,48,0,-56,-64,0,0,100,0,496,96,48,48,0,-67,-63,0,0,100,0,336,80,112,80,0,-67,-16,0,0,65,0,448,0,112,32,0,
0,6,-64,-51,0,1,100,0,496,96,48,48,0,-64,-51,0,0,100,0,496,96,48,48,0,-57,-63,0,1,100,0,544,96,48,48,0,-57,-63,0,0,100,0,544,96,48,48,0,-67,-62,0,0,100,0,0,160,112,80,0,-67,-16,0,0,65,0,448,0,112,32,0,
0,6,-64,-50,0,1,100,0,544,96,48,48,0,-64,-50,0,0,100,0,544,96,48,48,0,-58,-62,0,1,100,0,592,96,48,48,0,-58,-62,0,0,100,0,592,96,48,48,0,-67,-63,0,0,100,0,0,160,112,80,0,-67,-16,0,0,65,0,448,0,112,32,0,
0,4,-64,-49,0,1,100,0,592,96,48,48,0,-64,-49,0,0,100,0,592,96,48,48,0,-67,-63,0,0,100,0,0,160,112,80,0,-67,-16,0,0,65,0,448,0,112,32,0,
0,2,-67,-63,0,0,100,0,0,160,112,80,0,-67,-16,0,0,65,0,448,0,112,32,0,
0,2,-67,-63,0,0,100,0,112,160,112,80,0,-67,-16,0,0,65,0,448,0,112,32,0,
0,3,-65,-44,0,0,100,0,448,32,64,64,0,-67,-62,0,0,100,0,224,160,112,80,0,-67,-16,0,0,65,0,448,0,112,32,0,
0,4,-52,-17,0,1,100,0,448,96,48,48,0,-52,-17,0,0,100,0,448,96,48,48,0,-67,-62,0,0,100,0,224,160,112,80,0,-67,-16,0,0,65,0,448,0,112,32,0,
0,5,-66,-24,0,1,50,0,448,96,48,48,0,-53,-18,0,1,100,0,496,96,48,48,0,-53,-18,0,0,100,0,496,96,48,48,0,-67,-60,0,0,100,0,336,160,112,80,0,-67,-16,0,0,65,0,448,0,112,32,0,
0,5,-67,-25,0,1,50,0,496,96,48,48,0,-54,-19,0,1,100,0,544,96,48,48,0,-54,-19,0,0,100,0,544,96,48,48,0,-67,-62,0,0,100,0,336,160,112,80,0,-67,-16,0,0,65,0,448,0,112,32,0,
0,4,-68,-26,0,1,50,0,544,96,48,48,0,-55,-20,0,0,100,0,592,96,48,48,0,-67,-62,0,0,100,0,336,160,112,80,0,-67,-16,0,0,65,0,448,0,112,32,0,
0,3,-68,-26,0,1,50,0,592,96,48,48,0,-67,-62,0,0,100,0,336,160,112,80,0,-67,-16,0,0,65,0,448,0,112,32,0,
0,2,-67,-62,0,0,100,0,336,160,112,80,0,-67,-16,0,0,65,0,448,0,112,32,0,
0,2,-65,-59,0,0,100,0,0,240,112,80,0,-65,-16,0,0,65,0,448,0,112,32,0,
0,2,-58,-61,0,0,100,0,336,0,112,80,0,-58,-16,0,0,65,0,448,0,112,32,0,
0,2,-57,-62,0,0,100,0,112,240,112,80,0,-57,-16,0,0,65,0,448,0,112,32,0,
0,2,-57,-63,0,0,100,0,224,240,112,80,0,-57,-16,0,0,65,0,448,0,112,32,0,
0,2,-57,-63,0,0,100,0,336,240,112,80,0,-57,-16,0,0,65,0,448,0,112,32,0,
0,13,-43,-39,0,0,100,0,512,32,32,32,0,37,-27,0,0,100,0,512,32,32,32,0,13,-22,0,0,100,0,512,32,32,32,0,-35,-20,0,0,100,0,544,64,32,32,0,-20,-15,0,0,100,0,512,64,32,32,0,-57,-62,0,0,100,0,560,240,112,80,0,-53,-27,0,0,100,0,512,64,32,32,0,-20,-32,0,0,100,0,512,64,32,32,0,4,-17,0,0,100,0,544,64,32,32,0,22,-25,0,0,100,0,576,64,32,32,0,15,-34,0,0,100,0,512,64,32,32,0,-9,-19,0,0,100,0,512,64,32,32,0,-57,-16,0,0,65,0,448,0,112,32,0,
0,12,-45,-41,0,0,100,0,544,32,32,32,0,39,-28,0,0,100,0,544,32,32,32,0,14,-22,0,0,100,0,544,32,32,32,0,-31,-19,0,0,100,0,512,64,32,32,0,-38,-20,0,0,100,0,576,64,32,32,0,-57,-61,0,0,100,0,448,240,112,80,0,-54,-28,0,0,100,0,544,64,32,32,0,9,-21,0,0,100,0,512,64,32,32,0,-22,-26,0,0,100,0,512,64,32,32,0,16,-34,0,0,100,0,544,64,32,32,0,-8,-18,0,0,100,0,544,64,32,32,0,-57,-16,0,0,65,0,448,0,112,32,0,
0,16,5,-11,0,0,100,0,512,32,32,32,0,-46,-42,0,0,100,0,576,32,32,32,0,40,-29,0,0,100,0,576,32,32,32,0,42,-34,0,0,100,0,512,32,32,32,0,15,-22,0,0,100,0,576,32,32,32,0,-12,-16,0,0,100,0,512,64,32,32,0,-32,-18,0,0,100,0,544,64,32,32,0,-43,-25,0,0,100,0,608,64,32,32,0,-57,-60,0,0,100,0,448,240,112,80,0,-55,-29,0,0,100,0,576,64,32,32,0,10,-22,0,0,100,0,544,64,32,32,0,16,-35,0,0,100,0,512,64,32,32,0,-23,-32,0,0,100,0,544,64,32,32,0,20,-35,0,0,100,0,576,64,32,32,0,-4,-17,0,0,100,0,576,64,32,32,0,-57,-16,0,0,65,0,448,0,112,32,0,
0,21,6,-10,0,0,100,0,544,32,32,32,0,-47,-43,0,0,100,0,608,32,32,32,0,41,-30,0,0,100,0,608,32,32,32,0,44,-34,0,0,100,0,544,32,32,32,0,16,-22,0,0,100,0,608,32,32,32,0,-15,-13,0,0,100,0,512,32,32,32,0,-46,-13,0,0,100,0,512,32,32,32,0,-11,-15,0,0,100,0,544,64,32,32,0,-34,-17,0,0,100,0,576,64,32,32,0,-57,-61,0,0,100,0,448,240,112,80,0,-48,-22,0,0,100,0,512,64,32,32,0,-56,-30,0,0,100,0,608,64,32,32,0,-28,-16,0,0,100,0,512,64,32,32,0,3,-16,0,0,100,0,512,64,32,32,0,12,-24,0,0,100,0,576,64,32,32,0,17,-36,0,0,100,0,544,64,32,32,0,-26,-35,0,0,100,0,576,64,32,32,0,22,-36,0,0,100,0,608,64,32,32,0,-2,-14,0,0,100,0,608,64,32,32,0,-42,-62,0,0,100,0,512,32,32,32,0,-57,-16,0,0,65,0,448,0,112,32,0,
0,28,7,-9,0,0,100,0,576,32,32,32,0,-54,-14,0,0,100,0,512,32,32,32,0,-48,-44,0,0,100,0,640,32,32,32,0,42,-31,0,0,100,0,640,32,32,32,0,46,-34,0,0,100,0,576,32,32,32,0,17,-22,0,0,100,0,640,32,32,32,0,-16,-18,0,0,100,0,512,64,32,32,0,-15,-12,0,0,100,0,544,32,32,32,0,-47,-12,0,0,100,0,544,32,32,32,0,19,-20,0,0,100,0,512,32,32,32,0,-9,-14,0,0,100,0,576,64,32,32,0,15,-25,0,0,100,0,608,64,32,32,0,-37,-16,0,0,100,0,608,64,32,32,0,-58,-63,0,0,100,0,112,240,112,80,0,-49,-22,0,0,100,0,544,64,32,32,0,-57,-31,0,0,100,0,640,64,32,32,0,-64,-37,0,0,100,0,512,32,32,32,0,-29,-16,0,0,100,0,544,64,32,32,0,4,-16,0,0,100,0,544,64,32,32,0,29,-30,0,0,100,0,512,64,32,32,0,-20,-41,0,0,100,0,512,64,32,32,0,19,-38,0,0,100,0,576,64,32,32,0,-29,-38,0,0,100,0,608,64,32,32,0,23,-37,0,0,100,0,640,64,32,32,0,-1,-13,0,0,100,0,640,64,32,32,0,-43,-43,0,0,100,0,512,64,32,32,0,-43,-63,0,0,100,0,544,32,32,32,0,-57,-16,0,0,65,0,448,0,112,32,0,
0,22,8,-8,0,0,100,0,608,32,32,32,0,-55,-13,0,0,100,0,544,32,32,32,0,48,-34,0,0,100,0,608,32,32,32,0,-16,-15,0,0,100,0,544,64,32,32,0,-15,-11,0,0,100,0,576,32,32,32,0,-48,-11,0,0,100,0,576,32,32,32,0,20,-19,0,0,100,0,544,32,32,32,0,-6,-13,0,0,100,0,608,64,32,32,0,16,-26,0,0,100,0,640,64,32,32,0,-38,-15,0,0,100,0,640,64,32,32,0,-57,-63,0,0,100,0,224,240,112,80,0,-51,-22,0,0,100,0,576,64,32,32,0,-65,-38,0,0,100,0,544,32,32,32,0,-30,-16,0,0,100,0,576,64,32,32,0,5,-17,0,0,100,0,576,64,32,32,0,31,-30,0,0,100,0,544,64,32,32,0,-21,-42,0,0,100,0,544,64,32,32,0,22,-40,0,0,100,0,608,64,32,32,0,-30,-39,0,0,100,0,640,64,32,32,0,-44,-44,0,0,100,0,544,64,32,32,0,-44,-64,0,0,100,0,576,32,32,32,0,-57,-16,0,0,65,0,448,0,112,32,0,
0,19,9,-7,0,0,100,0,640,32,32,32,0,-56,-12,0,0,100,0,576,32,32,32,0,49,-34,0,0,100,0,640,32,32,32,0,6,-18,0,0,100,0,608,64,32,32,0,-16,-14,0,0,100,0,576,64,32,32,0,-15,-10,0,0,100,0,608,32,32,32,0,-49,-10,0,0,100,0,608,32,32,32,0,21,-18,0,0,100,0,576,32,32,32,0,-5,-12,0,0,100,0,640,64,32,32,0,-57,-63,0,0,100,0,336,240,112,80,0,-53,-22,0,0,100,0,608,64,32,32,0,-66,-39,0,0,100,0,576,32,32,32,0,-31,-15,0,0,100,0,608,64,32,32,0,33,-30,0,0,100,0,576,64,32,32,0,-22,-43,0,0,100,0,576,64,32,32,0,23,-41,0,0,100,0,640,64,32,32,0,-45,-45,0,0,100,0,576,64,32,32,0,-45,-65,0,0,100,0,608,32,32,32,0,-57,-16,0,0,65,0,448,0,112,32,0,
0,15,-57,-11,0,0,100,0,608,32,32,32,0,7,-19,0,0,100,0,640,64,32,32,0,-16,-13,0,0,100,0,608,64,32,32,0,-15,-9,0,0,100,0,640,32,32,32,0,-50,-9,0,0,100,0,640,32,32,32,0,22,-17,0,0,100,0,608,32,32,32,0,-57,-63,0,0,100,0,336,240,112,80,0,-54,-22,0,0,100,0,640,64,32,32,0,-67,-40,0,0,100,0,608,32,32,32,0,-32,-14,0,0,100,0,640,64,32,32,0,37,-30,0,0,100,0,608,64,32,32,0,-23,-44,0,0,100,0,608,64,32,32,0,-46,-46,0,0,100,0,608,64,32,32,0,-46,-66,0,0,100,0,640,32,32,32,0,-57,-16,0,0,65,0,448,0,112,32,0,
0,9,-58,-10,0,0,100,0,640,32,32,32,0,-16,-12,0,0,100,0,640,64,32,32,0,23,-16,0,0,100,0,640,32,32,32,0,-57,-63,0,0,100,0,336,240,112,80,0,-68,-41,0,0,100,0,640,32,32,32,0,38,-30,0,0,100,0,640,64,32,32,0,-24,-45,0,0,100,0,640,64,32,32,0,-47,-47,0,0,100,0,640,64,32,32,0,-57,-16,0,0,65,0,448,0,112,32,0,
