0,2,-24,-70,0,0,100,0,0,0,64,72,0,-18,-9,0,0,65,0,0,240,40,16,0,
0,2,-24,-70,0,0,100,0,64,0,64,72,0,-18,-9,0,0,65,0,0,240,40,16,0,
0,2,-24,-70,0,0,100,0,128,0,64,72,0,-18,-9,0,0,65,0,0,240,40,16,0,
0,2,-24,-70,0,0,100,0,192,0,64,72,0,-18,-9,0,0,65,0,0,240,40,16,0,
0,4,-15,-38,0,0,100,0,64,128,16,16,0,-24,-70,0,0,100,0,0,72,64,72,0,-2,-82,0,0,100,0,64,72,32,56,0,-17,-9,0,0,65,0,0,240,40,16,0,
0,4,-12,-38,0,0,100,0,64,128,16,16,0,-24,-70,0,0,100,0,0,72,64,72,0,-6,-82,0,0,100,0,64,72,32,56,0,-17,-9,0,0,65,0,0,240,40,16,0,
0,5,-20,-97,0,0,90,0,96,144,48,48,0,-12,-38,0,0,100,0,64,128,16,16,0,-24,-70,0,0,100,0,0,72,64,72,0,-6,-82,0,0,100,0,64,72,32,56,0,-17,-9,0,0,65,0,0,240,40,16,0,
0,5,-20,-97,0,0,90,0,48,144,48,48,0,-12,-38,0,0,100,0,64,128,16,16,0,-24,-70,0,0,100,0,0,72,64,72,0,-6,-82,0,0,100,0,64,72,32,56,0,-17,-9,0,0,65,0,0,240,40,16,0,
0,5,-20,-97,0,0,90,0,0,144,48,48,0,-12,-38,0,0,100,0,64,128,16,16,0,-24,-70,0,0,100,0,0,72,64,72,0,-6,-82,0,0,100,0,64,72,32,56,0,-17,-9,0,0,65,0,0,240,40,16,0,
0,5,-21,-98,0,0,90,0,0,144,48,48,0,-11,-38,0,0,100,0,64,128,16,16,0,-24,-70,0,0,100,0,0,72,64,72,0,-7,-83,0,0,100,0,64,72,32,56,0,-17,-9,0,0,65,0,0,240,40,16,0,
0,7,-71,-23,0,0,90,0,0,144,48,48,0,-46,-35,0,0,80,0,48,144,48,48,0,-23,-55,0,0,70,0,48,144,48,48,0,-12,-77,0,0,60,0,96,144,48,48,0,-21,-97,0,0,50,0,96,144,48,48,0,-59,-45,0,0,100,0,96,72,80,56,0,-17,-9,0,0,65,0,0,240,40,16,0,
0,7,-72,-22,0,0,90,0,0,144,48,48,0,-49,-32,0,0,80,0,48,144,48,48,0,-30,-45,0,0,70,0,48,144,48,48,0,-16,-64,0,0,60,0,96,144,48,48,0,-15,-83,0,0,50,0,96,144,48,48,0,-59,-45,0,0,100,0,176,72,80,56,0,-17,-9,0,0,65,0,0,240,40,16,0,
0,7,-72,-22,0,0,80,0,0,144,48,48,0,-52,-30,0,0,70,0,48,144,48,48,0,-34,-40,0,0,60,0,48,144,48,48,0,-21,-55,0,0,50,0,96,144,48,48,0,-15,-71,0,0,40,0,96,144,48,48,0,-59,-45,0,0,100,0,176,72,80,56,0,-17,-9,0,0,65,0,0,240,40,16,0,
0,7,-72,-22,0,0,70,0,0,144,48,48,0,-55,-28,0,0,60,0,48,144,48,48,0,-39,-37,0,0,50,0,48,144,48,48,0,-27,-47,0,0,40,0,96,144,48,48,0,-19,-56,0,0,30,0,96,144,48,48,0,-59,-45,0,0,100,0,176,72,80,56,0,-17,-9,0,0,65,0,0,240,40,16,0,
0,7,-72,-22,0,0,70,0,0,144,48,48,0,-57,-27,0,0,50,0,48,144,48,48,0,-44,-33,0,0,40,0,48,144,48,48,0,-33,-41,0,0,30,0,96,144,48,48,0,-26,-48,0,0,20,0,96,144,48,48,0,-59,-45,0,0,100,0,176,72,80,56,0,-17,-9,0,0,65,0,0,240,40,16,0,
0,7,-72,-22,0,0,70,0,0,144,48,48,0,-60,-26,0,0,50,0,48,144,48,48,0,-49,-30,0,0,40,0,48,144,48,48,0,-39,-34,0,0,30,0,96,144,48,48,0,-32,-39,0,0,20,0,96,144,48,48,0,-59,-45,0,0,100,0,176,72,80,56,0,-17,-9,0,0,65,0,0,240,40,16,0,
0,7,-72,-22,0,0,60,0,48,144,48,48,0,-63,-25,0,0,50,0,96,144,48,48,0,-57,-27,0,0,40,0,96,144,48,48,0,-51,-30,0,0,30,0,96,144,48,48,0,-47,-31,0,0,20,0,96,144,48,48,0,-59,-45,0,0,100,0,176,72,80,56,0,-17,-9,0,0,65,0,0,240,40,16,0,
0,5,-72,-22,0,0,60,0,48,144,48,48,0,-63,-25,0,0,30,0,96,144,48,48,0,-57,-27,0,0,20,0,96,144,48,48,0,-59,-45,0,0,100,0,176,72,80,56,0,-17,-9,0,0,65,0,0,240,40,16,0,
0,3,-72,-22,0,0,50,0,48,144,48,48,0,-59,-45,0,0,100,0,176,72,80,56,0,-17,-9,0,0,65,0,0,240,40,16,0,
0,2,-59,-45,0,0,100,0,176,72,80,56,0,-17,-9,0,0,65,0,0,240,40,16,0,
0,2,-59,-45,0,0,100,0,96,72,80,56,0,-17,-9,0,0,65,0,0,240,40,16,0,
0,3,-26,-69,0,0,100,0,320,0,64,72,0,-26,-80,0,0,80,0,80,288,80,96,0,-18,-9,0,0,65,0,0,240,40,16,0,
0,3,-26,-69,0,0,100,0,384,0,64,72,0,-26,-80,0,0,100,0,160,288,80,96,0,-18,-9,0,0,65,0,0,240,40,16,0,
0,3,-26,-69,0,0,100,0,448,0,64,72,0,-26,-80,0,0,100,0,240,288,80,96,0,-18,-9,0,0,65,0,0,240,40,16,0,
0,2,-26,-69,0,0,100,0,320,72,64,72,0,-18,-9,0,0,65,0,0,240,40,16,0,
0,2,-26,-69,0,0,100,0,384,72,64,72,0,-18,-9,0,0,65,0,0,240,40,16,0,
0,2,-26,-69,0,0,100,0,448,72,64,72,0,-18,-9,0,0,65,0,0,240,40,16,0,
0,2,-26,-69,0,0,100,0,320,144,64,72,0,-18,-9,0,0,65,0,0,240,40,16,0,
0,2,-26,-69,0,0,100,0,384,144,64,72,0,-18,-9,0,0,65,0,0,240,40,16,0,
0,2,-26,-69,0,0,100,0,448,144,64,72,0,-18,-9,0,0,65,0,0,240,40,16,0,
0,2,-26,-69,0,0,100,0,320,216,64,72,0,-18,-9,0,0,65,0,0,240,40,16,0,
0,2,-26,-69,0,0,100,0,384,216,64,72,0,-18,-9,0,0,65,0,0,240,40,16,0,
0,2,-26,-69,0,0,100,0,448,216,64,72,0,-18,-9,0,0,65,0,0,240,40,16,0,
0,2,-26,-69,0,0,100,0,320,288,64,72,0,-18,-9,0,0,65,0,0,240,40,16,0,
0,2,-26,-69,0,0,100,0,384,288,64,72,0,-18,-9,0,0,65,0,0,240,40,16,0,
0,2,-26,-69,0,0,100,0,448,288,64,72,0,-18,-9,0,0,65,0,0,240,40,16,0,
0,2,-26,-69,0,0,100,0,320,360,64,72,0,-18,-9,0,0,65,0,0,240,40,16,0,
0,2,-26,-69,0,0,100,0,384,360,64,72,0,-18,-9,0,0,65,0,0,240,40,16,0,
0,2,-26,-69,0,0,100,0,448,360,64,72,0,-18,-9,0,0,65,0,0,240,40,16,0,
