0,3,-42,-55,0,0,100,0,8,8,72,56,0,-51,-76,0,0,100,0,808,288,80,56,0,-20,-8,0,0,65,0,440,8,40,16,0,
0,3,-42,-55,0,0,100,0,80,8,72,56,0,-50,-76,0,0,100,0,808,288,80,56,0,-20,-8,0,0,65,0,440,8,40,16,0,
0,3,-42,-55,0,0,100,0,152,8,72,56,0,-50,-75,0,0,100,0,808,288,80,56,0,-20,-8,0,0,65,0,440,8,40,16,0,
0,3,-42,-55,0,0,100,0,224,8,72,56,0,-51,-74,0,0,100,0,808,288,80,56,0,-20,-8,0,0,65,0,440,8,40,16,0,
0,2,-38,-53,0,0,100,0,0,152,80,56,0,-20,-8,0,0,65,0,440,8,40,16,0,
0,2,-22,-55,0,0,100,0,96,160,80,56,0,-20,-8,0,0,65,0,440,8,40,16,0,
0,3,16,-71,0,0,100,0,216,144,32,24,0,-24,-55,0,0,100,0,176,160,80,56,0,-19,-8,0,0,65,0,440,8,40,16,0,
0,2,-49,-47,0,0,100,0,248,168,96,48,0,-22,-8,0,0,65,0,440,8,40,16,0,
0,6,-3,-44,0,0,100,0,440,104,40,16,0,-75,-28,0,0,100,0,368,120,96,16,0,-32,-71,0,0,100,0,352,144,64,72,0,-75,-44,0,0,100,0,368,104,56,16,0,-67,-76,0,0,100,0,376,72,96,32,0,-22,-8,0,0,65,0,440,8,40,16,0,
0,3,-32,-71,0,0,100,0,352,144,64,72,0,-50,-77,0,0,50,0,256,128,80,32,0,-22,-8,0,0,65,0,440,8,40,16,0,
0,2,-32,-63,0,0,100,0,416,152,88,64,0,-22,-8,0,0,65,0,440,8,40,16,0,
0,2,-29,-55,0,0,100,0,8,216,80,56,0,-24,-8,0,0,65,0,440,8,40,16,0,
0,2,-36,-55,0,0,100,0,88,216,88,56,0,-24,-8,0,0,65,0,440,8,40,16,0,
0,3,-51,-71,0,0,100,0,176,216,88,72,0,-59,-34,0,0,60,0,264,72,104,56,0,-24,-8,0,0,65,0,440,8,40,16,0,
0,6,-22,-126,0,0,100,0,264,224,16,16,0,-68,-159,0,0,100,0,888,288,80,56,0,-94,-155,0,0,40,0,368,216,80,160,0,-24,-128,0,0,100,0,280,224,48,72,0,-38,-105,0,0,100,0,368,8,32,40,0,-24,-8,0,0,65,0,440,8,40,16,0,
0,7,-2,-123,0,0,100,0,760,432,40,32,0,-38,-146,0,0,100,0,760,344,72,88,0,-6,-183,0,0,100,0,328,224,48,64,0,-5,-141,0,0,100,0,264,240,16,16,0,-14,-134,0,0,100,0,800,432,32,32,0,-72,-178,0,0,10,0,456,216,112,160,0,-24,-8,0,0,65,0,440,8,40,16,0,
0,5,-40,-135,0,0,100,0,304,8,64,48,0,-36,-120,0,0,100,0,8,280,56,64,0,-37,-135,0,0,100,0,72,320,32,40,0,-49,-141,0,0,100,0,888,288,80,56,0,-22,-8,0,0,65,0,440,8,40,16,0,
0,5,-38,-111,0,0,100,0,304,8,64,48,0,-34,-96,0,0,100,0,8,280,56,64,0,-9,-131,0,0,100,0,72,272,16,48,0,-47,-118,0,0,100,0,888,288,80,56,0,-20,-8,0,0,65,0,440,8,40,16,0,
0,3,-39,-46,0,0,100,0,104,296,104,48,0,-5,-78,0,0,100,0,72,272,16,48,0,-20,-8,0,0,65,0,440,8,40,16,0,
0,2,-36,-48,0,0,100,0,208,296,104,48,0,-20,-8,0,0,65,0,440,8,40,16,0,
0,4,-39,-46,0,0,100,0,104,296,104,48,0,-29,-52,2,0,100,0,368,0,40,32,0,-48,-47,1,0,100,0,120,64,56,32,0,-20,-8,0,0,65,0,440,8,40,16,0,
0,2,-48,-56,0,0,100,0,8,360,96,56,0,-20,-8,0,0,65,0,440,8,40,16,0,
0,8,-29,-54,0,0,100,0,856,96,48,40,0,-19,-65,0,0,100,0,760,56,40,40,0,-27,-41,0,0,100,0,952,56,24,24,0,-36,-44,0,0,100,0,760,96,40,64,0,-29,-49,0,0,100,0,760,0,64,56,0,-6,-50,0,0,100,0,760,160,48,64,0,-36,-52,0,0,100,0,808,96,48,40,0,-20,-8,0,0,65,0,440,8,40,16,0,
0,8,-29,-53,0,0,100,0,856,96,48,40,0,-19,-64,0,0,100,0,760,56,40,40,0,-27,-40,0,0,100,0,952,56,24,24,0,-36,-44,0,0,100,0,760,96,40,64,0,-29,-49,0,0,100,0,760,0,64,56,0,-7,-49,0,0,100,0,760,160,48,64,0,-36,-51,0,0,100,0,808,96,48,40,0,-20,-8,0,0,65,0,440,8,40,16,0,
0,9,-81,-115,0,0,30,0,760,304,48,40,0,-29,-53,0,0,100,0,856,96,48,40,0,-20,-66,0,0,100,0,800,56,40,40,0,-27,-40,0,0,100,0,952,56,24,24,0,-36,-44,0,0,100,0,760,96,40,64,0,-29,-49,0,0,100,0,760,0,64,56,0,-7,-49,0,0,100,0,760,160,48,64,0,-36,-51,0,0,100,0,808,96,48,40,0,-20,-8,0,0,65,0,440,8,40,16,0,
0,9,-64,-100,0,0,70,0,760,304,48,40,0,-29,-53,0,0,100,0,856,96,48,40,0,-20,-66,0,0,100,0,800,56,40,40,0,-27,-40,0,0,100,0,952,56,24,24,0,-36,-44,0,0,100,0,760,96,40,64,0,-29,-49,0,0,100,0,760,0,64,56,0,-7,-49,0,0,100,0,760,160,48,64,0,-36,-51,0,0,100,0,808,96,48,40,0,-20,-8,0,0,65,0,440,8,40,16,0,
0,9,-47,-88,0,0,100,0,760,304,48,40,0,-29,-53,0,0,100,0,856,96,48,40,0,-20,-66,0,0,100,0,800,56,40,40,0,-27,-40,0,0,100,0,952,56,24,24,0,-36,-44,0,0,100,0,760,96,40,64,0,-29,-49,0,0,100,0,760,0,64,56,0,-7,-49,0,0,100,0,760,160,48,64,0,-36,-51,0,0,100,0,808,96,48,40,0,-20,-8,0,0,65,0,440,8,40,16,0,
0,9,-31,-82,0,0,100,0,760,264,48,40,0,-29,-53,0,0,100,0,856,96,48,40,0,-20,-66,0,0,100,0,800,56,40,40,0,-27,-40,0,0,100,0,952,56,24,24,0,-36,-44,0,0,100,0,760,96,40,64,0,-29,-49,0,0,100,0,760,0,64,56,0,-7,-49,0,0,100,0,760,160,48,64,0,-36,-51,0,0,100,0,808,96,48,40,0,-20,-8,0,0,65,0,440,8,40,16,0,
0,9,-16,-82,0,0,100,0,760,224,48,40,0,-29,-53,0,0,100,0,856,96,48,40,0,-20,-66,0,0,100,0,800,56,40,40,0,-27,-40,0,0,100,0,952,56,24,24,0,-36,-44,0,0,100,0,760,96,40,64,0,-29,-49,0,0,100,0,760,0,64,56,0,-7,-49,0,0,100,0,760,160,48,64,0,-36,-51,0,0,100,0,808,96,48,40,0,-20,-8,0,0,65,0,440,8,40,16,0,
0,9,4,-92,0,0,100,0,760,304,48,40,0,-29,-53,0,0,100,0,856,96,48,40,0,-22,-65,0,0,100,0,840,56,40,40,0,-27,-40,0,0,100,0,952,56,24,24,0,-36,-44,0,0,100,0,760,96,40,64,0,-29,-49,0,0,100,0,760,0,64,56,0,-7,-49,0,0,100,0,760,160,48,64,0,-36,-51,0,0,100,0,808,96,48,40,0,-20,-8,0,0,65,0,440,8,40,16,0,
0,9,22,-101,0,0,70,0,760,224,48,40,0,-11,-63,0,0,100,0,904,96,48,40,0,-22,-65,0,0,100,0,840,56,40,40,0,-27,-40,0,0,100,0,952,56,24,24,0,-36,-44,0,0,100,0,760,96,40,64,0,-29,-49,0,0,100,0,760,0,64,56,0,-7,-49,0,0,100,0,760,160,48,64,0,-36,-51,0,0,100,0,808,96,48,40,0,-20,-8,0,0,65,0,440,8,40,16,0,
0,9,40,-116,0,0,30,0,760,304,48,40,0,-11,-64,0,0,100,0,952,96,48,40,0,-22,-65,0,0,100,0,840,56,40,40,0,-27,-40,0,0,100,0,952,56,24,24,0,-36,-44,0,0,100,0,760,96,40,64,0,-29,-49,0,0,100,0,760,0,64,56,0,-7,-49,0,0,100,0,760,160,48,64,0,-36,-51,0,0,100,0,808,96,48,40,0,-20,-8,0,0,65,0,440,8,40,16,0,
0,9,4,-64,0,0,100,0,920,56,32,32,0,-9,-60,0,0,100,0,856,136,48,40,0,-22,-65,0,0,100,0,840,56,40,40,0,-27,-40,0,0,100,0,952,56,24,24,0,-36,-44,0,0,100,0,760,96,40,64,0,-29,-49,0,0,100,0,760,0,64,56,0,-7,-49,0,0,100,0,760,160,48,64,0,-36,-51,0,0,100,0,808,96,48,40,0,-20,-8,0,0,65,0,440,8,40,16,0,
0,8,-9,-60,0,0,100,0,808,136,48,40,0,-22,-65,0,0,100,0,840,56,40,40,0,-27,-40,0,0,100,0,952,56,24,24,0,-36,-44,0,0,100,0,760,96,40,64,0,-29,-49,0,0,100,0,760,0,64,56,0,-7,-49,0,0,100,0,760,160,48,64,0,-36,-51,0,0,100,0,808,96,48,40,0,-20,-8,0,0,65,0,440,8,40,16,0,
0,8,-9,-54,0,0,100,0,904,136,48,40,0,-22,-65,0,0,100,0,840,56,40,40,0,-27,-40,0,0,100,0,952,56,24,24,0,-36,-44,0,0,100,0,760,96,40,64,0,-29,-49,0,0,100,0,760,0,64,56,0,-28,-71,0,0,100,0,888,232,80,56,0,-36,-51,0,0,100,0,808,96,48,40,0,-20,-8,0,0,65,0,440,8,40,16,0,
0,8,-14,-50,0,0,100,0,952,136,48,40,0,-22,-65,0,0,100,0,880,56,40,40,0,-27,-40,0,0,100,0,952,56,24,24,0,-36,-44,0,0,100,0,760,96,40,64,0,-29,-49,0,0,100,0,760,0,64,56,0,-28,-71,0,0,100,0,808,176,80,56,0,-36,-51,0,0,100,0,808,96,48,40,0,-20,-8,0,0,65,0,440,8,40,16,0,
0,8,-14,-50,0,0,100,0,952,136,48,40,0,-22,-65,0,0,100,0,880,56,40,40,0,-27,-40,0,0,100,0,952,56,24,24,0,-36,-44,0,0,100,0,760,96,40,64,0,-29,-49,0,0,100,0,824,0,64,56,0,-28,-71,0,0,100,0,888,176,80,56,0,-36,-51,0,0,100,0,808,96,48,40,0,-20,-8,0,0,65,0,440,8,40,16,0,
0,8,-14,-50,0,0,100,0,952,136,48,40,0,-22,-65,0,0,100,0,880,56,40,40,0,-27,-40,0,0,100,0,952,56,24,24,0,-36,-44,0,0,100,0,760,96,40,64,0,-29,-49,0,0,100,0,888,0,64,56,0,-28,-71,0,0,100,0,808,232,80,56,0,-36,-51,0,0,100,0,808,96,48,40,0,-20,-8,0,0,65,0,440,8,40,16,0,
0,8,-14,-50,0,0,100,0,952,136,48,40,0,-22,-65,0,0,100,0,880,56,40,40,0,-27,-40,0,0,100,0,952,56,24,24,0,-36,-44,0,0,100,0,760,96,40,64,0,-29,-49,0,0,100,0,952,0,64,56,0,-28,-71,0,0,100,0,888,232,80,56,0,-36,-51,0,0,100,0,808,96,48,40,0,-20,-8,0,0,65,0,440,8,40,16,0,
0,6,0,-122,0,0,100,0,760,432,40,32,0,-37,-146,0,0,100,0,760,344,72,88,0,-10,-179,0,0,100,0,832,344,72,72,0,-5,-146,0,0,100,0,760,464,32,32,0,-12,-134,0,0,100,0,800,432,32,32,0,-23,-8,0,0,65,0,440,8,40,16,0,
0,8,40,-116,0,0,100,0,760,304,48,40,0,22,-101,0,0,100,0,760,224,48,40,0,4,-92,0,0,100,0,760,304,48,40,0,-16,-82,0,0,100,0,760,224,48,40,0,-31,-82,0,0,100,0,760,264,48,40,0,-47,-88,0,0,100,0,760,304,48,40,0,-64,-100,0,0,100,0,760,304,48,40,0,-81,-115,0,0,100,0,760,304,48,40,0,
