0,17,-35,-57,0,0,100,0,1,57,25,20,0,-5,-59,0,0,100,0,1,34,32,21,0,-18,-59,0,0,100,0,1,79,29,26,0,-22,-46,0,0,100,0,110,56,32,19,0,-22,-47,0,0,100,0,125,79,13,10,0,-23,-34,0,0,100,0,161,31,35,28,0,-15,-23,0,0,100,0,138,33,14,17,0,-21,-20,0,0,100,0,161,61,33,14,0,-4,-36,0,0,100,0,289,1,16,21,0,-40,-43,0,0,100,0,161,1,30,28,0,-41,-34,0,0,100,0,45,1,27,31,0,-49,-72,0,0,50,0,1,374,87,67,0,-10,-45,0,1,50,0,362,1,27,24,0,-10,-45,0,0,100,0,362,1,27,24,0,-23,-55,0,0,100,0,310,26,54,48,0,-19,-35,0,0,100,0,1,329,66,43,0,-21,-9,0,0,65,0,0,0,43,19,0,
0,19,-12,-45,0,0,50,0,127,401,50,40,0,-35,-57,0,0,100,0,1,57,25,20,0,-5,-59,0,0,100,0,1,34,32,21,0,-18,-59,0,0,100,0,1,79,29,26,0,-22,-46,0,0,100,0,110,56,32,19,0,-22,-47,0,0,100,0,125,79,13,10,0,-23,-34,0,0,100,0,161,31,35,28,0,-15,-23,0,0,100,0,138,33,14,17,0,-21,-20,0,0,100,0,161,61,33,14,0,-4,-36,0,0,100,0,289,1,16,21,0,-40,-43,0,0,100,0,161,1,30,28,0,-41,-34,0,0,100,0,45,1,27,31,0,-45,-47,0,0,50,0,90,401,32,11,0,-49,-72,0,0,50,0,90,374,87,27,0,-10,-45,0,1,75,0,362,1,27,24,0,-10,-45,0,0,100,0,362,1,27,24,0,-23,-55,0,0,100,0,310,26,54,48,0,-19,-35,0,0,100,0,1,329,66,43,0,-21,-9,0,0,65,0,0,0,43,19,0,
0,18,-49,-47,0,0,50,0,179,398,87,43,0,-35,-56,0,0,100,0,28,57,25,20,0,-5,-58,0,0,100,0,35,34,32,21,0,-18,-58,0,0,100,0,32,79,29,26,0,-22,-45,0,0,100,0,110,56,32,19,0,-22,-46,0,0,100,0,140,79,13,10,0,-23,-33,0,0,100,0,198,31,35,28,0,-15,-22,0,0,100,0,138,33,14,17,0,-21,-19,0,0,100,0,196,61,33,14,0,-4,-35,0,0,100,0,307,1,16,21,0,-40,-42,0,0,100,0,193,1,30,28,0,-49,-71,0,0,50,0,179,374,87,24,0,-41,-33,0,0,100,0,74,1,27,31,0,-10,-44,0,1,80,0,362,1,27,24,0,-10,-44,0,0,100,0,362,1,27,24,0,-23,-54,0,0,100,0,310,26,54,48,0,-19,-34,0,0,100,0,69,329,66,43,0,-21,-9,0,0,65,0,0,0,43,19,0,
0,17,-49,-71,0,0,50,0,268,374,87,67,0,-35,-56,0,0,100,0,28,57,25,20,0,-5,-58,0,0,100,0,35,34,32,21,0,-18,-58,0,0,100,0,32,79,29,26,0,-22,-45,0,0,100,0,110,56,32,19,0,-22,-46,0,0,100,0,140,79,13,10,0,-23,-33,0,0,100,0,198,31,35,28,0,-15,-22,0,0,100,0,138,33,14,17,0,-21,-19,0,0,100,0,196,61,33,14,0,-4,-35,0,0,100,0,307,1,16,21,0,-40,-42,0,0,100,0,193,1,30,28,0,-41,-33,0,0,100,0,74,1,27,31,0,-10,-44,0,1,80,0,362,1,27,24,0,-10,-44,0,0,100,0,362,1,27,24,0,-23,-54,0,0,100,0,310,26,54,48,0,-19,-34,0,0,100,0,69,329,66,43,0,-21,-9,0,0,65,0,0,0,43,19,0,
0,18,-20,-72,0,0,50,0,30,443,58,67,0,-35,-57,0,0,100,0,55,57,25,20,0,-5,-59,0,0,100,0,69,34,32,21,0,-18,-59,0,0,100,0,63,79,29,26,0,-22,-46,0,0,100,0,110,56,32,19,0,-22,-47,0,0,100,0,125,79,13,10,0,-23,-34,0,0,100,0,235,31,35,28,0,-15,-23,0,0,100,0,138,33,14,17,0,-21,-20,0,0,100,0,231,61,33,14,0,-4,-36,0,0,100,0,325,1,16,21,0,-40,-43,0,0,100,0,225,1,30,28,0,-49,-72,0,0,50,0,1,443,29,67,0,-41,-34,0,0,100,0,103,1,27,31,0,-10,-45,0,1,70,0,362,1,27,24,0,-10,-45,0,0,100,0,362,1,27,24,0,-23,-55,0,0,100,0,310,26,54,48,0,-19,-35,0,0,100,0,137,329,66,43,0,-21,-9,0,0,65,0,0,0,43,19,0,
0,19,-21,-43,0,0,50,0,118,472,59,38,0,-35,-57,0,0,100,0,55,57,25,20,0,-5,-59,0,0,100,0,69,34,32,21,0,-18,-59,0,0,100,0,63,79,29,26,0,-22,-46,0,0,100,0,110,56,32,19,0,-22,-47,0,0,100,0,125,79,13,10,0,-23,-34,0,0,100,0,235,31,35,28,0,-15,-23,0,0,100,0,138,33,14,17,0,-21,-20,0,0,100,0,231,61,33,14,0,-4,-36,0,0,100,0,325,1,16,21,0,-40,-43,0,0,100,0,225,1,30,28,0,-21,-72,0,0,50,0,118,443,23,35,0,-49,-72,0,0,50,0,90,443,28,67,0,-41,-34,0,0,100,0,103,1,27,31,0,-10,-45,0,1,50,0,362,1,27,24,0,-10,-45,0,0,100,0,362,1,27,24,0,-23,-55,0,0,100,0,310,26,54,48,0,-19,-35,0,0,100,0,137,329,66,43,0,-21,-9,0,0,65,0,0,0,43,19,0,
0,17,-49,-30,0,0,50,0,179,486,87,24,0,-35,-58,0,0,100,0,82,57,25,20,0,-5,-60,0,0,100,0,103,34,32,21,0,-18,-60,0,0,100,0,94,79,29,26,0,-22,-47,0,0,100,0,110,56,32,19,0,-22,-48,0,0,100,0,125,79,13,10,0,-23,-35,0,0,100,0,272,31,35,28,0,-15,-24,0,0,100,0,138,33,14,17,0,-21,-21,0,0,100,0,266,61,33,14,0,-4,-37,0,0,100,0,343,1,16,21,0,-40,-44,0,0,100,0,257,1,30,28,0,-41,-35,0,0,100,0,132,1,27,31,0,-49,-73,0,0,50,0,179,443,87,43,0,-10,-46,0,0,100,0,362,1,27,24,0,-23,-56,0,0,100,0,310,26,54,48,0,-19,-36,0,0,100,0,205,329,66,43,0,-21,-9,0,0,65,0,0,0,43,19,0,
0,17,-35,-58,0,0,100,0,82,57,25,20,0,-5,-60,0,0,100,0,103,34,32,21,0,-18,-60,0,0,100,0,94,79,29,26,0,-22,-47,0,0,100,0,110,56,32,19,0,-22,-48,0,0,100,0,125,79,13,10,0,-23,-35,0,0,100,0,272,31,35,28,0,-15,-24,0,0,100,0,138,33,14,17,0,-21,-21,0,0,100,0,266,61,33,14,0,-4,-37,0,0,100,0,343,1,16,21,0,-40,-44,0,0,100,0,257,1,30,28,0,-49,-73,0,0,50,0,268,443,87,67,0,-41,-35,0,0,100,0,132,1,27,31,0,-10,-46,0,1,30,0,362,1,27,24,0,-10,-46,0,0,100,0,362,1,27,24,0,-23,-56,0,0,100,0,310,26,54,48,0,-19,-36,0,0,100,0,205,329,66,43,0,-21,-9,0,0,65,0,0,0,43,19,0,
0,16,-37,-60,0,0,100,0,451,71,47,40,0,-38,-56,0,0,100,0,1,57,25,20,0,-8,-58,0,0,100,0,1,34,32,21,0,-21,-58,0,0,100,0,94,79,29,26,0,-19,-43,0,0,100,0,69,107,32,36,0,-16,-45,0,0,100,0,142,57,18,18,0,-23,-34,0,0,100,0,161,31,35,28,0,-15,-23,0,0,100,0,138,33,14,17,0,-21,-20,0,0,100,0,161,61,33,14,0,-40,-33,0,0,100,0,132,1,27,31,0,-28,-43,0,0,100,0,103,107,31,35,0,-25,-46,0,0,100,0,125,79,13,11,0,-10,-45,0,0,100,0,362,1,27,24,0,-23,-55,0,0,100,0,310,26,54,48,0,-19,-35,0,0,100,0,1,329,66,43,0,-21,-9,0,0,65,0,0,0,43,19,0,
0,19,-39,-63,0,0,100,0,423,100,25,21,0,-37,-60,0,0,30,0,451,71,47,40,0,-38,-57,0,0,100,0,82,57,25,20,0,-8,-59,0,0,100,0,103,34,32,21,0,-19,-50,0,0,100,0,124,95,21,9,0,-21,-59,0,0,100,0,1,79,29,26,0,-20,-43,0,0,100,0,35,107,32,36,0,-16,-45,0,0,100,0,142,57,18,18,0,-23,-34,0,0,100,0,161,31,35,28,0,-15,-23,0,0,100,0,138,33,14,17,0,-21,-20,0,0,100,0,161,61,33,14,0,-41,-34,0,0,100,0,132,1,27,31,0,-29,-43,0,0,100,0,103,107,31,35,0,-25,-47,0,0,100,0,125,79,13,11,0,-10,-45,0,1,30,0,362,1,27,24,0,-10,-45,0,0,100,0,362,1,27,24,0,-23,-55,0,0,100,0,310,26,54,48,0,-19,-35,0,0,100,0,1,329,66,43,0,-21,-9,0,0,65,0,0,0,43,19,0,
0,18,-42,-68,0,0,100,0,420,72,30,28,0,-37,-57,0,0,100,0,82,57,25,20,0,-7,-59,0,0,100,0,103,34,32,21,0,-18,-50,0,0,100,0,124,95,21,9,0,-20,-59,0,0,100,0,1,79,29,26,0,-20,-44,0,0,100,0,1,107,32,36,0,-16,-45,0,0,100,0,142,57,18,18,0,-23,-34,0,0,100,0,161,31,35,28,0,-15,-23,0,0,100,0,138,33,14,17,0,-21,-20,0,0,100,0,231,61,33,14,0,-41,-34,0,0,100,0,132,1,27,31,0,-29,-44,0,0,100,0,103,107,31,35,0,-24,-47,0,0,100,0,125,79,13,11,0,-10,-45,0,1,50,0,362,1,27,24,0,-10,-45,0,0,100,0,362,1,27,24,0,-23,-55,0,0,100,0,310,26,54,48,0,-19,-35,0,0,100,0,1,329,66,43,0,-21,-9,0,0,65,0,0,0,43,19,0,
0,21,-35,-70,0,0,50,0,289,208,24,23,0,-54,-68,0,0,50,0,278,147,34,35,0,-46,-84,0,0,100,0,2,199,36,47,0,-39,-64,0,0,100,0,423,100,25,21,0,-37,-57,0,0,100,0,28,57,25,20,0,-7,-59,0,0,100,0,35,34,32,21,0,-18,-50,0,0,100,0,124,95,21,9,0,-20,-59,0,0,100,0,32,79,29,26,0,-20,-44,0,0,100,0,69,107,32,36,0,-16,-45,0,0,100,0,142,57,18,18,0,-23,-34,0,0,100,0,198,31,35,28,0,-15,-23,0,0,100,0,138,33,14,17,0,-21,-20,0,0,100,0,196,61,33,14,0,-41,-34,0,0,100,0,45,1,27,31,0,-29,-44,0,0,100,0,169,107,31,35,0,-24,-47,0,0,100,0,140,79,13,10,0,-10,-45,0,1,80,0,362,1,27,24,0,-10,-45,0,0,100,0,362,1,27,24,0,-23,-55,0,0,100,0,310,26,54,48,0,-19,-35,0,0,100,0,1,329,66,43,0,-21,-9,0,0,65,0,0,0,43,19,0,
0,25,-40,-68,0,0,100,0,306,127,10,10,0,-46,-74,0,0,100,0,295,124,12,14,0,-34,-75,0,0,50,0,297,251,13,14,0,-47,-69,0,0,50,0,289,208,24,23,0,-31,-73,0,0,100,0,289,208,24,23,0,-60,-65,0,0,100,0,278,147,34,35,0,-46,-84,0,0,100,0,40,199,36,47,0,-42,-68,0,0,100,0,420,72,30,28,0,-37,-57,0,0,100,0,55,57,25,20,0,-7,-59,0,0,100,0,69,34,32,21,0,-18,-50,0,0,100,0,124,95,21,9,0,-20,-59,0,0,100,0,63,79,29,26,0,-20,-44,0,0,100,0,35,107,32,36,0,-16,-45,0,0,100,0,142,57,18,18,0,-23,-34,0,0,100,0,235,31,35,28,0,-15,-23,0,0,100,0,138,33,14,17,0,-21,-20,0,0,100,0,231,61,33,14,0,-41,-34,0,0,100,0,132,1,27,31,0,-29,-44,0,0,100,0,136,107,31,35,0,-24,-47,0,0,100,0,125,79,13,10,0,-10,-45,0,1,80,0,362,1,27,24,0,-10,-45,0,0,100,0,362,1,27,24,0,-23,-55,0,0,100,0,310,26,54,48,0,-19,-35,0,0,100,0,1,329,66,43,0,-21,-9,0,0,65,0,0,0,43,19,0,
0,28,-47,-71,2,0,100,-270,427,0,17,23,0,-45,-57,0,0,100,0,295,124,12,14,0,-32,-50,0,0,100,0,295,124,12,14,0,-44,-75,0,0,100,0,306,127,10,10,0,-52,-80,0,0,100,0,295,124,12,14,0,-33,-80,0,0,100,0,297,251,13,14,0,-52,-72,0,0,100,0,289,208,24,23,0,-30,-81,0,0,100,0,319,203,33,33,0,-69,-68,0,0,100,0,318,142,47,45,0,-46,-84,0,0,100,0,78,199,36,47,0,-39,-64,0,0,100,0,423,100,25,21,0,-37,-57,0,0,100,0,28,57,25,20,0,-7,-59,0,0,100,0,35,34,32,21,0,-18,-50,0,0,100,0,124,95,21,9,0,-20,-59,0,0,100,0,32,79,29,26,0,-20,-44,0,0,100,0,69,107,32,36,0,-16,-45,0,0,100,0,142,57,18,18,0,-23,-34,0,0,100,0,198,31,35,28,0,-15,-23,0,0,100,0,138,33,14,17,0,-21,-20,0,0,100,0,196,61,33,14,0,-41,-34,0,0,100,0,45,1,27,31,0,-29,-44,0,0,100,0,169,107,31,35,0,-24,-47,0,0,100,0,140,79,13,10,0,-10,-45,0,1,80,0,362,1,27,24,0,-10,-45,0,0,100,0,362,1,27,24,0,-23,-55,0,0,100,0,310,26,54,48,0,-19,-35,0,0,100,0,1,329,66,43,0,-21,-9,0,0,65,0,0,0,43,19,0,
0,35,-46,-68,0,0,100,0,295,124,12,14,0,-16,-70,0,0,100,0,308,128,7,8,0,-26,-73,0,0,100,0,295,124,12,14,0,-52,-52,0,0,100,0,295,124,12,14,0,-41,-54,0,0,100,0,295,124,12,14,0,-28,-44,0,0,100,0,295,124,12,14,0,-46,-79,0,0,100,0,306,127,10,10,0,-54,-82,0,0,100,0,295,124,12,14,0,-44,-51,1,0,100,0,432,36,13,17,0,-53,-77,2,0,100,-270,444,0,20,26,0,-33,-60,0,0,100,0,427,0,17,23,0,-37,-60,0,0,100,0,289,208,24,23,0,-33,-89,0,0,80,0,310,250,17,17,0,-67,-82,0,0,100,0,319,203,33,33,0,-32,-86,0,0,60,0,355,199,41,40,0,-75,-69,0,0,60,0,364,138,53,53,0,-46,-84,0,0,100,0,116,199,36,47,0,-42,-68,0,0,100,0,420,72,30,28,0,-37,-57,0,0,100,0,55,57,25,20,0,-7,-59,0,0,100,0,69,34,32,21,0,-18,-50,0,0,100,0,124,95,21,9,0,-20,-59,0,0,100,0,63,79,29,26,0,-20,-44,0,0,100,0,35,107,32,36,0,-16,-45,0,0,100,0,142,57,18,18,0,-23,-34,0,0,100,0,235,31,35,28,0,-15,-23,0,0,100,0,138,33,14,17,0,-21,-20,0,0,100,0,231,61,33,14,0,-41,-34,0,0,100,0,132,1,27,31,0,-29,-44,0,0,100,0,136,107,31,35,0,-24,-47,0,0,100,0,125,79,13,11,0,-10,-45,0,1,80,0,362,1,27,24,0,-10,-45,0,0,100,0,362,1,27,24,0,-23,-55,0,0,100,0,310,26,54,48,0,-19,-35,0,0,100,0,1,329,66,43,0,-21,-9,0,0,65,0,0,0,43,19,0,
0,39,-55,-70,0,0,100,0,295,124,12,14,0,-12,-74,0,0,100,0,308,128,7,8,0,-23,-78,0,0,100,0,295,124,12,14,0,-57,-48,0,0,100,0,295,124,12,14,0,-41,-46,0,0,100,0,308,128,7,8,0,-26,-41,0,0,100,0,295,124,12,14,0,-47,-81,0,0,50,0,306,127,10,10,0,-55,-83,0,0,50,0,295,124,12,14,0,-47,-46,1,0,100,0,446,37,17,20,0,-65,-88,2,0,100,-270,463,0,28,33,0,-29,-56,0,0,100,0,444,0,20,26,0,-25,-84,0,0,100,-270,427,0,17,23,0,-56,-53,1,0,100,0,427,0,17,23,0,-37,-53,0,0,100,0,319,203,33,33,0,-48,-58,0,0,100,0,297,251,13,14,0,-21,-68,0,0,100,0,297,251,13,14,0,-34,-96,0,0,40,0,327,247,21,21,0,-77,-90,0,0,60,0,354,198,42,42,0,-33,-90,0,0,30,0,397,195,47,49,0,-79,-72,0,0,30,0,418,133,60,58,0,-46,-84,0,0,100,0,2,199,36,47,0,-39,-64,0,0,50,0,423,100,25,21,0,-37,-57,0,0,100,0,28,57,25,20,0,-7,-59,0,0,100,0,35,34,32,21,0,-18,-50,0,0,100,0,124,95,21,9,0,-20,-59,0,0,100,0,32,79,29,26,0,-20,-44,0,0,100,0,69,107,32,36,0,-16,-45,0,0,100,0,142,57,18,18,0,-23,-34,0,0,100,0,198,31,35,28,0,-15,-23,0,0,100,0,138,33,14,17,0,-21,-20,0,0,100,0,196,61,33,14,0,-41,-34,0,0,100,0,45,1,27,31,0,-29,-44,0,0,100,0,169,107,31,35,0,-24,-47,0,0,100,0,140,79,13,11,0,-10,-45,0,1,80,0,362,1,27,24,0,-10,-45,0,0,100,0,362,1,27,24,0,-23,-55,0,0,100,0,310,26,54,48,0,-19,-35,0,0,100,0,1,329,66,43,0,-21,-9,0,0,65,0,0,0,43,19,0,
0,41,-18,-65,0,0,100,0,295,124,12,14,0,-62,-59,0,0,100,0,295,124,12,14,0,-48,-90,0,0,100,0,295,124,12,14,0,-35,-84,0,0,100,0,295,124,22,15,0,-60,-71,0,0,100,0,295,124,12,14,0,-10,-75,0,0,100,0,308,128,7,8,0,-20,-80,0,0,100,0,295,124,12,14,0,-60,-45,0,0,50,0,295,124,12,14,0,-43,-44,0,0,100,0,308,128,7,8,0,-24,-39,0,0,50,0,295,124,12,14,0,-58,-71,1,0,100,270,431,37,14,16,0,-49,-44,1,0,100,0,468,37,19,28,0,-71,-92,2,0,100,-270,490,0,20,28,0,-27,-51,0,0,100,0,463,0,28,33,0,-21,-91,0,0,100,-270,444,0,20,26,0,-62,-49,1,0,100,0,445,0,19,30,0,-39,-52,0,0,60,0,354,198,42,42,0,-58,-55,1,0,80,90,310,250,17,17,0,-15,-72,0,0,80,0,310,250,17,17,0,-83,-96,0,0,30,0,396,194,45,49,0,-32,-66,0,0,100,0,289,208,24,23,0,-59,-85,0,0,100,0,278,147,34,35,0,-46,-84,0,0,100,0,40,199,36,47,0,-42,-68,0,0,30,0,420,72,30,28,0,-37,-57,0,0,100,0,55,57,25,20,0,-7,-59,0,0,100,0,69,34,32,21,0,-18,-50,0,0,100,0,124,95,21,9,0,-20,-59,0,0,100,0,63,79,29,26,0,-20,-44,0,0,100,0,35,107,32,36,0,-16,-45,0,0,100,0,142,57,18,18,0,-23,-34,0,0,100,0,235,31,35,28,0,-15,-23,0,0,100,0,138,33,14,17,0,-21,-20,0,0,100,0,231,61,33,14,0,-41,-34,0,0,100,0,132,1,27,31,0,-29,-44,0,0,100,0,136,107,31,35,0,-24,-47,0,0,100,0,125,79,13,10,0,-10,-45,0,1,80,0,362,1,27,24,0,-10,-45,0,0,100,0,362,1,27,24,0,-23,-55,0,0,100,0,310,26,54,48,0,-19,-35,0,0,100,0,1,329,66,43,0,-21,-9,0,0,65,0,0,0,43,19,0,
0,38,-7,-67,0,0,100,0,295,124,12,14,0,-72,-54,0,0,100,0,295,124,12,14,0,-38,-45,0,0,100,0,295,124,22,15,0,-52,-99,0,0,100,0,295,124,12,14,0,-34,-93,0,0,100,0,295,124,22,15,0,-63,-72,0,0,50,0,295,124,12,14,0,-8,-76,0,0,50,0,308,128,7,8,0,-18,-81,0,0,50,0,295,124,12,14,0,-44,-43,0,0,50,0,308,128,7,8,0,-69,-74,1,0,100,270,445,36,18,23,0,-47,-36,1,0,100,0,489,35,16,24,0,-15,-40,0,0,100,0,490,0,20,28,0,-15,-102,0,0,100,-270,463,0,28,33,0,-71,-45,1,0,100,0,463,0,28,33,0,-41,-53,0,0,30,0,396,194,45,49,0,-62,-54,0,0,40,180,327,247,21,21,0,-15,-76,0,0,40,0,327,247,21,21,0,-41,-55,0,0,100,0,297,251,13,14,0,-27,-70,0,0,100,0,319,203,33,33,0,-72,-97,0,0,100,0,318,142,47,45,0,-46,-84,0,0,100,0,78,199,36,47,0,-37,-57,0,0,100,0,28,57,25,20,0,-7,-59,0,0,100,0,35,34,32,21,0,-18,-50,0,0,100,0,124,95,21,9,0,-20,-59,0,0,100,0,32,79,29,26,0,-20,-44,0,0,100,0,69,107,32,36,0,-16,-45,0,0,100,0,142,57,18,18,0,-23,-34,0,0,100,0,198,31,35,28,0,-15,-23,0,0,100,0,138,33,14,17,0,-21,-20,0,0,100,0,196,61,33,14,0,-41,-34,0,0,100,0,45,1,27,31,0,-29,-44,0,0,100,0,169,107,31,35,0,-24,-47,0,0,100,0,140,79,13,10,0,-10,-45,0,1,80,0,362,1,27,24,0,-10,-45,0,0,100,0,362,1,27,24,0,-23,-55,0,0,100,0,310,26,54,48,0,-19,-35,0,0,100,0,1,329,66,43,0,-21,-9,0,0,65,0,0,0,43,19,0,
0,30,0,-68,0,0,100,0,295,124,12,14,0,-77,-51,0,0,100,0,295,124,12,14,0,-36,-36,0,0,100,0,295,124,22,15,0,-55,-103,0,0,100,0,295,124,12,14,0,-31,-99,0,0,100,0,295,124,22,15,0,-75,-77,1,0,100,270,466,36,21,28,0,-4,-105,0,0,100,-270,490,0,20,28,0,-76,-33,1,0,100,0,491,0,21,30,0,-48,-50,1,0,80,90,310,250,17,17,0,-27,-74,0,0,60,0,355,199,41,40,0,-78,-103,0,0,60,0,364,138,53,53,0,-46,-84,0,0,100,0,116,199,36,47,0,-40,-67,0,0,0,0,169,197,26,24,0,-37,-57,0,0,100,0,55,57,25,20,0,-7,-59,0,0,100,0,69,34,32,21,0,-18,-50,0,0,100,0,124,95,21,9,0,-20,-59,0,0,100,0,63,79,29,26,0,-20,-44,0,0,100,0,35,107,32,36,0,-16,-45,0,0,100,0,142,57,18,18,0,-23,-34,0,0,100,0,235,31,35,28,0,-15,-23,0,0,100,0,138,33,14,17,0,-21,-20,0,0,100,0,231,61,33,14,0,-41,-34,0,0,100,0,132,1,27,31,0,-29,-44,0,0,100,0,136,107,31,35,0,-24,-47,0,0,100,0,125,79,13,10,0,-10,-45,0,1,80,0,362,1,27,24,0,-10,-45,0,0,100,0,362,1,27,24,0,-23,-55,0,0,100,0,310,26,54,48,0,-19,-35,0,0,100,0,1,329,66,43,0,-21,-9,0,0,65,0,0,0,43,19,0,
0,28,4,-69,0,0,50,0,295,124,12,14,0,-80,-49,0,0,50,0,295,124,12,14,0,-34,-32,0,0,50,0,295,124,22,15,0,-56,-106,0,0,50,0,295,124,12,14,0,-29,-101,0,0,50,0,295,124,22,15,0,-78,-77,1,0,100,270,490,35,18,22,0,-53,-48,0,0,40,180,327,247,21,21,0,-26,-77,0,0,30,0,397,195,47,49,0,-83,-109,0,0,30,0,418,133,60,58,0,-46,-85,0,0,50,0,116,199,36,47,0,-40,-67,0,0,0,0,169,197,26,24,0,-37,-57,0,0,100,0,28,57,25,20,0,-7,-59,0,0,100,0,35,34,32,21,0,-18,-50,0,0,100,0,124,95,21,9,0,-20,-59,0,0,100,0,32,79,29,26,0,-20,-44,0,0,100,0,69,107,32,36,0,-16,-45,0,0,100,0,142,57,18,18,0,-23,-34,0,0,100,0,198,31,35,28,0,-15,-23,0,0,100,0,138,33,14,17,0,-21,-20,0,0,100,0,196,61,33,14,0,-41,-34,0,0,100,0,45,1,27,31,0,-29,-44,0,0,100,0,169,107,31,35,0,-24,-47,0,0,100,0,140,79,13,10,0,-10,-45,0,1,80,0,362,1,27,24,0,-10,-45,0,0,100,0,362,1,27,24,0,-23,-55,0,0,100,0,310,26,54,48,0,-19,-35,0,0,100,0,1,329,66,43,0,-21,-9,0,0,65,0,0,0,43,19,0,
0,19,8,-53,0,0,50,0,58,393,30,48,0,-6,-56,0,0,100,0,35,34,32,21,0,-38,-59,0,0,100,0,28,57,25,20,0,-24,-57,0,0,100,0,155,79,34,25,0,-13,-44,0,0,100,0,20,144,21,38,0,-16,-45,0,0,100,0,142,57,18,18,0,-23,-34,0,0,100,0,198,31,35,28,0,-15,-23,0,0,100,0,138,33,14,17,0,-21,-20,0,0,100,0,196,61,33,14,0,-40,-33,0,0,100,0,132,1,27,31,0,-26,-44,0,0,100,0,2,144,19,37,0,-10,-45,0,1,30,0,362,1,27,24,0,-10,-45,0,0,100,0,362,1,27,24,0,-23,-55,0,0,100,0,310,26,54,48,0,-19,-35,0,0,100,0,1,329,66,43,0,-42,-84,0,0,30,0,360,257,52,54,0,-49,-72,0,0,50,0,1,374,87,19,0,-49,-53,0,0,50,0,1,393,49,48,0,-21,-9,0,0,65,0,0,0,43,19,0,
0,19,8,-51,0,0,50,0,58,393,30,48,0,-5,-54,0,0,100,0,69,34,32,21,0,-37,-57,0,0,100,0,55,57,25,20,0,-23,-55,0,0,100,0,155,79,34,25,0,-14,-43,0,0,100,0,20,144,21,38,0,-16,-43,0,0,100,0,142,57,18,18,0,-23,-32,0,0,100,0,198,31,35,28,0,-15,-21,0,0,100,0,138,33,14,17,0,-21,-18,0,0,100,0,196,61,33,14,0,-40,-31,0,0,100,0,132,1,27,31,0,-26,-43,0,0,100,0,2,144,19,37,0,-10,-43,0,1,100,0,362,1,27,24,0,-10,-43,0,0,100,0,362,1,27,24,0,-23,-53,0,0,100,0,310,26,54,48,0,-19,-33,0,0,100,0,1,329,66,43,0,-42,-82,0,0,80,0,360,257,52,54,0,-49,-70,0,0,50,0,1,374,87,19,0,-49,-51,0,0,50,0,1,393,49,48,0,-21,-9,0,0,65,0,0,0,43,19,0,
0,28,-32,-21,0,0,100,0,398,60,11,8,0,10,-11,0,0,100,0,398,60,11,8,0,8,-50,0,0,50,0,58,393,30,48,0,-5,-53,0,0,100,0,69,34,32,21,0,-37,-56,0,0,100,0,55,57,25,20,0,-23,-54,0,0,100,0,155,79,34,25,0,-14,-42,0,0,100,0,20,144,21,38,0,-16,-42,0,0,100,0,142,57,18,18,0,-23,-31,0,0,100,0,235,31,35,28,0,-15,-20,0,0,100,0,138,33,14,17,0,-21,-17,0,0,100,0,231,61,33,14,0,-40,-30,0,0,100,0,132,1,27,31,0,-26,-42,0,0,100,0,2,144,19,37,0,-10,-42,0,1,100,0,362,1,27,24,0,-10,-42,0,0,100,0,362,1,27,24,0,-23,-52,0,0,100,0,310,26,54,48,0,-19,-32,0,0,100,0,1,329,66,43,0,-35,-63,0,0,100,0,487,268,7,7,0,-7,-58,0,0,100,0,487,268,7,7,0,-24,-64,0,0,100,0,493,279,7,7,0,-14,-76,0,0,100,0,499,267,11,10,0,-20,-59,0,0,80,0,487,288,7,7,0,-10,-67,0,0,80,0,487,288,7,7,0,-15,-82,0,0,80,0,487,288,7,7,0,-46,-96,0,0,80,0,426,242,57,68,0,-49,-69,0,0,50,0,1,374,87,19,0,-49,-50,0,0,50,0,1,393,49,48,0,-21,-9,0,0,65,0,0,0,43,19,0,
0,32,-32,-29,0,0,100,0,398,80,11,11,0,1,-21,0,0,100,0,378,69,11,10,0,-23,-16,0,0,100,0,398,69,11,10,0,10,-19,0,0,100,0,398,80,11,11,0,8,-50,0,0,50,0,58,393,30,48,0,-4,-53,0,0,100,0,1,34,32,21,0,-36,-56,0,0,100,0,1,57,25,20,0,-19,-40,0,0,100,0,172,144,12,11,0,-22,-54,0,0,100,0,191,79,34,25,0,-24,-39,0,0,100,0,45,145,28,34,0,-16,-42,0,0,100,0,142,57,18,18,0,-23,-31,0,0,100,0,161,31,35,28,0,-15,-20,0,0,100,0,138,33,14,17,0,-21,-17,0,0,100,0,161,61,33,14,0,-40,-30,0,0,100,0,45,1,27,31,0,-26,-39,0,0,100,0,165,145,18,34,0,-10,-42,0,1,100,0,362,1,27,24,0,-10,-42,0,0,100,0,362,1,27,24,0,-23,-52,0,0,100,0,310,26,54,48,0,-19,-32,0,0,100,0,1,329,66,43,0,-35,-63,0,0,20,0,487,268,7,7,0,-7,-58,0,0,100,0,487,268,7,7,0,-25,-65,0,0,30,0,500,278,9,9,0,-24,-64,0,0,100,0,493,279,7,7,0,-14,-76,0,0,100,0,499,267,11,10,0,-20,-59,0,0,80,0,487,288,7,7,0,-10,-67,0,0,80,0,487,288,7,7,0,-15,-82,0,0,80,0,487,288,7,7,0,-46,-96,0,0,80,0,426,242,57,68,0,-49,-69,0,0,50,0,1,374,87,19,0,-49,-50,0,0,50,0,1,393,49,48,0,-21,-9,0,0,65,0,0,0,43,19,0,
0,28,-32,-34,0,0,100,0,398,70,11,10,0,0,-28,0,0,100,0,377,79,13,13,0,-23,-25,0,0,100,0,398,80,11,11,0,10,-24,0,0,100,0,398,70,11,10,0,-12,-45,0,0,50,0,127,401,50,40,0,-4,-53,0,0,100,0,35,34,32,21,0,-36,-56,0,0,100,0,28,57,25,20,0,-19,-40,0,0,100,0,172,144,12,11,0,-22,-54,0,0,100,0,227,79,34,25,0,-24,-39,0,0,100,0,75,145,28,34,0,-16,-42,0,0,100,0,142,57,18,18,0,-23,-31,0,0,100,0,198,31,35,28,0,-15,-20,0,0,100,0,138,33,14,17,0,-21,-17,0,0,100,0,196,61,33,14,0,-40,-30,0,0,100,0,74,1,27,31,0,-26,-39,0,0,100,0,185,145,18,34,0,-10,-42,0,1,60,0,362,1,27,24,0,-10,-42,0,0,100,0,362,1,27,24,0,-23,-52,0,0,100,0,310,26,54,48,0,-19,-32,0,0,100,0,69,329,66,43,0,-35,-63,0,0,60,0,487,268,7,7,0,-25,-65,0,0,100,0,500,278,9,9,0,-13,-76,0,0,100,0,492,267,9,10,0,-10,-67,0,0,80,0,487,288,7,7,0,-15,-82,0,0,80,0,487,288,7,7,0,-46,-96,0,0,80,0,426,242,57,68,0,-49,-72,0,0,50,0,90,374,87,27,0,-21,-9,0,0,65,0,0,0,43,19,0,
0,29,-31,-36,0,0,100,0,399,60,10,9,0,6,-35,0,0,100,0,399,61,10,8,0,1,-31,0,0,100,0,378,69,11,11,0,-23,-32,0,0,100,0,398,69,11,10,0,11,-26,0,0,100,0,399,60,10,9,0,-49,-47,0,0,50,0,179,398,87,43,0,-4,-53,0,0,100,0,69,34,32,21,0,-36,-56,0,0,100,0,55,57,25,20,0,-19,-40,0,0,100,0,172,144,12,11,0,-22,-54,0,0,100,0,263,79,34,25,0,-24,-39,0,0,100,0,105,145,28,34,0,-16,-42,0,0,100,0,142,57,18,18,0,-23,-31,0,0,100,0,235,31,35,28,0,-15,-20,0,0,100,0,138,33,14,17,0,-21,-17,0,0,100,0,231,61,33,14,0,-40,-30,0,0,100,0,103,1,27,31,0,-26,-39,0,0,100,0,205,145,18,34,0,-10,-42,0,1,30,0,362,1,27,24,0,-10,-42,0,0,100,0,362,1,27,24,0,-23,-52,0,0,100,0,310,26,54,48,0,-19,-32,0,0,100,0,137,329,66,43,0,-35,-63,0,0,100,0,487,268,7,7,0,-12,-75,0,0,100,0,487,268,7,7,0,-7,-58,0,0,50,0,487,268,7,7,0,-24,-64,0,0,100,0,493,279,7,7,0,-20,-59,0,0,80,0,487,288,7,7,0,-46,-96,0,0,80,0,426,242,57,68,0,-49,-71,0,0,50,0,179,374,87,24,0,-21,-9,0,0,65,0,0,0,43,19,0,
0,31,-30,-38,0,0,100,0,400,53,8,8,0,5,-42,0,0,100,0,398,69,11,11,0,3,-32,0,0,100,0,380,61,7,8,0,-23,-35,0,0,100,0,398,60,11,9,0,12,-28,0,0,100,0,400,53,8,8,0,18,-28,0,0,100,0,378,70,11,10,0,-49,-71,0,0,50,0,268,374,87,67,0,-4,-53,0,0,100,0,103,34,32,21,0,-36,-56,0,0,100,0,82,57,25,20,0,-19,-40,0,0,100,0,172,144,12,11,0,-22,-54,0,0,100,0,299,79,34,25,0,-24,-39,0,0,100,0,135,145,28,34,0,-16,-42,0,0,100,0,142,57,18,18,0,-23,-31,0,0,100,0,272,31,35,28,0,-15,-20,0,0,100,0,138,33,14,17,0,-21,-17,0,0,100,0,266,61,33,14,0,-40,-30,0,0,100,0,132,1,27,31,0,-26,-39,0,0,100,0,225,145,18,34,0,-10,-42,0,1,60,0,362,1,27,24,0,-10,-42,0,0,100,0,362,1,27,24,0,-23,-52,0,0,100,0,310,26,54,48,0,-19,-32,0,0,100,0,205,329,66,43,0,-35,-63,0,0,100,0,487,268,7,7,0,-7,-58,0,0,100,0,487,268,7,7,0,-13,-76,0,0,100,0,492,267,9,10,0,-24,-64,0,0,30,0,493,279,7,7,0,-20,-59,0,0,80,0,487,288,7,7,0,-10,-67,0,0,80,0,487,288,7,7,0,-15,-82,0,0,80,0,487,288,7,7,0,-46,-96,0,0,80,0,426,242,57,68,0,-21,-9,0,0,65,0,0,0,43,19,0,
0,32,-20,-23,0,0,100,0,378,59,13,10,0,6,-44,0,0,100,0,399,61,10,8,0,2,-36,0,0,100,0,379,52,9,9,0,-20,-36,0,0,100,0,401,54,7,6,0,18,-36,0,0,100,0,378,79,12,13,0,-20,-72,0,0,50,0,30,443,58,67,0,-4,-53,0,0,100,0,1,34,32,21,0,-36,-56,0,0,100,0,1,57,25,20,0,-19,-40,0,0,100,0,172,144,12,11,0,-22,-54,0,0,100,0,191,79,34,25,0,-24,-39,0,0,100,0,45,145,28,34,0,-16,-42,0,0,100,0,142,57,18,18,0,-23,-31,0,0,100,0,161,31,35,28,0,-15,-20,0,0,100,0,138,33,14,17,0,-21,-17,0,0,100,0,161,61,33,14,0,-49,-72,0,0,50,0,1,443,29,67,0,-40,-30,0,0,100,0,45,1,27,31,0,-26,-39,0,0,100,0,165,145,18,34,0,-10,-42,0,1,100,0,362,1,27,24,0,-10,-42,0,0,100,0,362,1,27,24,0,-23,-52,0,0,100,0,310,26,54,48,0,-19,-32,0,0,100,0,1,329,66,43,0,-35,-63,0,0,20,0,487,268,7,7,0,-7,-58,0,0,100,0,487,268,7,7,0,-25,-65,0,0,30,0,500,278,9,9,0,-24,-64,0,0,100,0,493,279,7,7,0,-14,-76,0,0,100,0,499,267,11,10,0,-20,-59,0,0,80,0,487,288,7,7,0,-10,-67,0,0,80,0,487,288,7,7,0,-15,-82,0,0,80,0,487,288,7,7,0,-46,-96,0,0,80,0,426,242,57,68,0,-21,-9,0,0,65,0,0,0,43,19,0,
0,28,-22,-28,0,0,100,0,376,69,15,12,0,6,-47,0,0,100,0,399,53,10,9,0,18,-39,0,0,100,0,378,69,11,10,0,-21,-43,0,0,50,0,118,472,59,38,0,-4,-53,0,0,100,0,35,34,32,21,0,-36,-56,0,0,100,0,28,57,25,20,0,-19,-40,0,0,100,0,172,144,12,11,0,-22,-54,0,0,100,0,227,79,34,25,0,-24,-39,0,0,100,0,75,145,28,34,0,-16,-42,0,0,100,0,142,57,18,18,0,-23,-31,0,0,100,0,198,31,35,28,0,-15,-20,0,0,100,0,138,33,14,17,0,-21,-17,0,0,100,0,196,61,33,14,0,-48,-33,0,0,50,0,90,483,28,27,0,-40,-30,0,0,100,0,74,1,27,31,0,-26,-39,0,0,100,0,185,145,18,34,0,-10,-42,0,1,60,0,362,1,27,24,0,-10,-42,0,0,100,0,362,1,27,24,0,-23,-52,0,0,100,0,310,26,54,48,0,-19,-32,0,0,100,0,69,329,66,43,0,-35,-63,0,0,60,0,487,268,7,7,0,-25,-65,0,0,100,0,500,278,9,9,0,-13,-76,0,0,100,0,492,267,9,10,0,-10,-67,0,0,80,0,487,288,7,7,0,-15,-82,0,0,80,0,487,288,7,7,0,-46,-96,0,0,80,0,426,242,57,68,0,-49,-72,0,0,50,0,90,443,53,39,0,-21,-9,0,0,65,0,0,0,43,19,0,
0,26,-20,-32,0,0,100,0,378,59,13,10,0,19,-40,0,0,100,0,379,60,9,9,0,-49,-30,0,0,50,0,179,486,87,24,0,-4,-53,0,0,100,0,69,34,32,21,0,-36,-56,0,0,100,0,55,57,25,20,0,-19,-40,0,0,100,0,172,144,12,11,0,-22,-54,0,0,100,0,263,79,34,25,0,-24,-39,0,0,100,0,105,145,28,34,0,-16,-42,0,0,100,0,142,57,18,18,0,-23,-31,0,0,100,0,235,31,35,28,0,-15,-20,0,0,100,0,138,33,14,17,0,-21,-17,0,0,100,0,231,61,33,14,0,-40,-30,0,0,100,0,103,1,27,31,0,-26,-39,0,0,100,0,205,145,18,34,0,-10,-42,0,1,30,0,362,1,27,24,0,-10,-42,0,0,100,0,362,1,27,24,0,-23,-52,0,0,100,0,310,26,54,48,0,-19,-32,0,0,100,0,137,329,66,43,0,-35,-63,0,0,100,0,487,268,7,7,0,-12,-75,0,0,100,0,487,268,7,7,0,-7,-58,0,0,50,0,487,268,7,7,0,-24,-64,0,0,100,0,493,279,7,7,0,-20,-59,0,0,80,0,487,288,7,7,0,-46,-96,0,0,80,0,426,242,57,68,0,-49,-73,0,0,50,0,179,443,87,43,0,-21,-9,0,0,65,0,0,0,43,19,0,
0,28,-32,-21,0,0,100,0,398,60,11,8,0,-18,-34,0,0,100,0,380,53,8,8,0,10,-11,0,0,100,0,398,60,11,8,0,-4,-53,0,0,100,0,103,34,32,21,0,-36,-56,0,0,100,0,82,57,25,20,0,-19,-40,0,0,100,0,172,144,12,11,0,-22,-54,0,0,100,0,299,79,34,25,0,-24,-39,0,0,100,0,135,145,28,34,0,-16,-42,0,0,100,0,142,57,18,18,0,-23,-31,0,0,100,0,272,31,35,28,0,-15,-20,0,0,100,0,138,33,14,17,0,-21,-17,0,0,100,0,266,61,33,14,0,-40,-30,0,0,100,0,132,1,27,31,0,-26,-39,0,0,100,0,225,145,18,34,0,-7,-58,0,0,100,0,487,268,7,7,0,-10,-42,0,1,60,0,362,1,27,24,0,-10,-42,0,0,100,0,362,1,27,24,0,-23,-52,0,0,100,0,310,26,54,48,0,-19,-32,0,0,100,0,205,329,66,43,0,-35,-63,0,0,100,0,487,268,7,7,0,-13,-76,0,0,100,0,492,267,9,10,0,-24,-64,0,0,30,0,493,279,7,7,0,-20,-59,0,0,80,0,487,288,7,7,0,-10,-67,0,0,80,0,487,288,7,7,0,-15,-82,0,0,80,0,487,288,7,7,0,-46,-96,0,0,80,0,426,242,57,68,0,-49,-73,0,0,50,0,268,443,87,67,0,-21,-9,0,0,65,0,0,0,43,19,0,
0,17,-38,-57,0,0,100,0,82,57,25,20,0,-8,-59,0,0,100,0,103,34,32,21,0,-19,-50,0,0,100,0,124,95,21,9,0,-21,-59,0,0,100,0,1,79,29,26,0,-20,-43,0,0,100,0,1,107,32,36,0,-16,-45,0,0,100,0,142,57,18,18,0,-23,-34,0,0,100,0,161,31,35,28,0,-15,-23,0,0,100,0,138,33,14,17,0,-21,-20,0,0,100,0,161,61,33,14,0,-41,-34,0,0,100,0,132,1,27,31,0,-29,-43,0,0,100,0,103,107,31,35,0,-25,-47,0,0,100,0,125,79,13,10,0,-10,-45,0,1,30,0,362,1,27,24,0,-10,-45,0,0,100,0,362,1,27,24,0,-23,-55,0,0,100,0,310,26,54,48,0,-19,-35,0,0,100,0,1,329,66,43,0,-21,-9,0,0,65,0,0,0,43,19,0,
0,17,-37,-57,0,0,100,0,82,57,25,20,0,-7,-59,0,0,100,0,103,34,32,21,0,-18,-50,0,0,100,0,124,95,21,9,0,-20,-59,0,0,100,0,1,79,29,26,0,-20,-44,0,0,100,0,1,107,32,36,0,-16,-45,0,0,100,0,142,57,18,18,0,-23,-34,0,0,100,0,161,31,35,28,0,-15,-23,0,0,100,0,138,33,14,17,0,-21,-20,0,0,100,0,231,61,33,14,0,-41,-34,0,0,100,0,132,1,27,31,0,-29,-44,0,0,100,0,103,107,31,35,0,-24,-47,0,0,100,0,125,79,13,10,0,-10,-45,0,1,50,0,362,1,27,24,0,-10,-45,0,0,100,0,362,1,27,24,0,-23,-55,0,0,100,0,310,26,54,48,0,-19,-35,0,0,100,0,1,329,66,43,0,-21,-9,0,0,65,0,0,0,43,19,0,
0,16,-36,-57,0,0,100,0,1,57,25,20,0,-6,-59,0,0,100,0,1,34,32,21,0,-19,-59,0,0,100,0,1,79,29,26,0,-10,-47,0,0,100,0,202,106,31,37,0,-15,-45,0,0,100,0,142,57,18,18,0,-22,-47,0,0,100,0,125,79,13,10,0,-23,-34,0,0,100,0,161,31,35,28,0,-15,-23,0,0,100,0,138,33,14,17,0,-21,-20,0,0,100,0,161,61,33,14,0,-39,-31,0,0,100,0,132,1,27,31,0,-25,-45,0,0,100,0,2,144,19,37,0,-49,-72,0,0,50,0,1,374,87,67,0,-10,-45,0,0,100,0,362,1,27,24,0,-23,-55,0,0,100,0,310,26,54,48,0,-19,-35,0,0,100,0,1,329,66,43,0,-21,-9,0,0,65,0,0,0,43,19,0,
