6,0,0,5,
7,0,0,3,
8,0,0,2,
9,0,0,7,
10,0,0,5,
11,0,0,3,
12,0,0,2,
13,0,0,7,
14,0,0,5,
15,0,0,3,
16,0,0,2,
17,0,0,7,
18,0,0,5,
19,0,0,3,
20,0,0,2,
21,0,0,7,
22,0,0,5,
23,0,0,3,
24,0,0,2,
25,0,0,7,
26,0,0,3,
27,0,0,3,
28,0,0,3,
29,0,0,6,
30,0,0,4,
31,0,0,3,
32,0,0,7,
