0,3,-33,-17,0,0,100,0,512,0,96,32,0,-65,-81,0,0,100,0,0,0,128,96,0,-33,-17,0,0,65,0,800,672,64,32,0,
0,3,-33,-17,0,0,100,0,512,32,96,32,0,-65,-81,0,0,100,0,128,0,128,96,0,-33,-17,0,0,65,0,800,672,64,32,0,
0,3,-33,-17,0,0,100,0,608,0,96,32,0,-65,-81,0,0,100,0,256,0,128,96,0,-33,-17,0,0,65,0,800,672,64,32,0,
0,3,-33,-17,0,0,100,0,608,32,96,32,0,-65,-81,0,0,100,0,384,0,128,96,0,-33,-17,0,0,65,0,800,672,64,32,0,
0,3,-41,-49,0,0,100,0,704,0,96,64,0,-41,-81,0,0,100,0,0,96,96,96,0,-33,-17,0,0,65,0,800,672,64,32,0,
0,2,-40,-81,0,0,100,0,96,96,96,96,0,-33,-17,0,0,65,0,800,672,64,32,0,
0,2,-40,-81,0,0,100,0,192,96,96,96,0,-33,-17,0,0,65,0,800,672,64,32,0,
0,2,-40,-81,0,0,100,0,288,96,96,96,0,-39,-17,0,0,65,0,800,672,64,32,0,
0,4,-138,-81,0,1,100,0,512,64,192,96,0,-138,-81,0,1,100,0,704,64,192,96,0,-74,-81,0,0,100,0,384,96,128,96,0,-60,-17,0,0,65,0,800,672,64,32,0,
0,4,-138,-81,0,1,100,0,512,160,192,96,0,-106,-81,0,1,100,0,704,160,192,64,0,-74,-49,0,0,100,0,0,192,128,64,0,-60,-17,0,0,65,0,800,672,64,32,0,
0,4,-138,-81,0,1,100,0,512,256,192,96,0,-106,-81,0,1,100,0,704,224,192,64,0,-74,-49,0,0,100,0,128,192,128,64,0,-60,-17,0,0,65,0,800,672,64,32,0,
0,2,-74,-49,0,0,100,0,256,192,128,64,0,-60,-17,0,0,65,0,800,672,64,32,0,
0,2,-74,-49,0,0,100,0,384,192,96,64,0,-60,-17,0,0,65,0,800,672,64,32,0,
0,4,-170,-81,0,1,100,0,512,352,192,96,0,-170,-81,0,1,100,0,640,480,128,96,0,-170,-49,0,0,100,0,0,256,160,64,0,-85,-17,0,0,65,0,800,672,64,32,0,
0,4,-138,-81,0,1,100,0,704,288,192,96,0,-138,-81,0,1,100,0,768,480,128,96,0,-170,-49,0,0,100,0,160,256,160,64,0,-85,-17,0,0,65,0,800,672,64,32,0,
0,3,-138,-81,0,1,100,0,704,384,192,96,0,-170,-49,0,0,100,0,320,256,160,64,0,-85,-17,0,0,65,0,800,672,64,32,0,
0,2,-170,-49,0,0,100,0,320,256,160,64,0,-85,-17,0,0,65,0,800,672,64,32,0,
0,3,-106,-81,0,1,100,0,800,0,64,64,0,-74,-49,0,0,100,0,0,320,96,64,0,-53,-17,0,0,65,0,800,672,64,32,0,
0,2,-40,-49,0,0,100,0,96,320,96,64,0,-33,-17,0,0,65,0,800,672,64,32,0,
0,2,-40,-49,0,0,100,0,192,320,96,64,0,-33,-17,0,0,65,0,800,672,64,32,0,
0,2,-40,-49,0,0,100,0,288,320,96,64,0,-33,-17,0,0,65,0,800,672,64,32,0,
0,2,-40,-49,0,0,100,0,384,320,96,64,0,-33,-17,0,0,65,0,800,672,64,32,0,
0,3,-65,-49,0,0,100,0,0,384,128,64,0,-33,-17,0,0,100,0,544,480,96,32,0,-31,-17,0,0,65,0,800,672,64,32,0,
0,4,-65,-49,0,0,100,0,672,576,96,64,0,-33,-49,0,0,100,0,128,384,96,64,0,-33,-17,0,0,100,0,544,512,96,32,0,-31,-17,0,0,65,0,800,672,64,32,0,
0,3,-65,-17,0,0,100,0,672,672,128,32,0,-33,-49,0,0,100,0,224,384,96,64,0,-31,-17,0,0,65,0,800,672,64,32,0,
0,3,-65,-17,0,0,100,0,768,576,128,32,0,-33,-49,0,0,100,0,320,384,96,64,0,-31,-17,0,0,65,0,800,672,64,32,0,
0,3,-65,-17,0,0,100,0,768,608,128,32,0,-33,-49,0,0,100,0,416,384,96,64,0,-31,-17,0,0,65,0,800,672,64,32,0,
0,3,-65,-17,0,0,100,0,768,608,128,32,0,-33,-49,0,0,100,0,0,448,96,64,0,-31,-17,0,0,65,0,800,672,64,32,0,
0,3,-65,-17,0,0,100,0,768,608,128,32,0,-33,-49,0,0,100,0,96,448,96,64,0,-31,-17,0,0,65,0,800,672,64,32,0,
0,3,-65,-17,0,0,100,0,768,608,128,32,0,-33,-49,0,0,100,0,192,448,96,64,0,-31,-17,0,0,65,0,800,672,64,32,0,
0,3,-65,-17,0,0,100,0,768,608,128,32,0,-33,-49,0,0,100,0,288,448,96,64,0,-31,-17,0,0,65,0,800,672,64,32,0,
0,3,-65,-17,0,0,100,0,768,608,128,32,0,-33,-49,0,0,100,0,384,448,96,64,0,-31,-17,0,0,65,0,800,672,64,32,0,
0,5,-65,-49,0,0,100,0,0,576,128,64,0,-65,-17,0,0,100,0,768,608,128,32,0,-33,-49,0,0,100,0,32,512,96,64,0,-65,-49,0,0,100,0,0,672,128,64,0,-31,-17,0,0,65,0,800,672,64,32,0,
0,5,-65,-49,0,0,100,0,128,576,128,64,0,-65,-17,0,0,100,0,768,608,128,32,0,-33,-49,0,0,100,0,160,512,96,64,0,-65,-49,0,0,100,0,128,672,128,64,0,-31,-17,0,0,65,0,800,672,64,32,0,
0,5,-65,-49,0,0,100,0,256,576,128,64,0,-65,-17,0,0,100,0,768,608,128,32,0,-33,-49,0,0,100,0,288,512,96,64,0,-65,-49,0,0,100,0,256,672,128,64,0,-31,-17,0,0,65,0,800,672,64,32,0,
0,5,-65,-49,0,0,100,0,384,576,128,64,0,-65,-17,0,0,100,0,768,608,128,32,0,-33,-49,0,0,100,0,416,512,96,64,0,-65,-81,0,0,100,0,384,640,128,96,0,-31,-17,0,0,65,0,800,672,64,32,0,
0,5,-65,-49,0,0,100,0,512,576,128,64,0,-65,-17,0,0,100,0,768,608,128,32,0,-33,-49,0,0,100,0,32,512,96,64,0,-65,-81,0,0,100,0,512,640,128,96,0,-31,-17,0,0,65,0,800,672,64,32,0,
0,4,290,-73,0,0,30,0,80,872,80,80,0,299,-17,0,0,65,0,800,672,64,32,0,-55,-163,0,0,100,0,0,792,80,80,0,-54,-107,0,0,65,0,800,672,64,32,0,
0,4,230,-73,0,0,60,0,80,872,80,80,0,239,-17,0,0,65,0,800,672,64,32,0,-55,-163,0,0,100,0,0,792,80,80,0,-54,-107,0,0,65,0,800,672,64,32,0,
0,4,170,-73,0,0,100,0,80,872,80,80,0,179,-17,0,0,65,0,800,672,64,32,0,-55,-163,0,0,100,0,0,792,80,80,0,-54,-107,0,0,65,0,800,672,64,32,0,
0,4,140,-73,0,0,100,0,80,872,80,80,0,149,-17,0,0,65,0,800,672,64,32,0,-55,-163,0,0,100,0,0,792,80,80,0,-54,-107,0,0,65,0,800,672,64,32,0,
0,4,100,-73,0,0,100,0,80,872,80,80,0,109,-17,0,0,65,0,800,672,64,32,0,-55,-163,0,0,100,0,0,792,80,80,0,-54,-107,0,0,65,0,800,672,64,32,0,
0,4,45,-73,0,0,100,0,80,872,80,80,0,-55,-163,0,0,100,0,0,792,80,80,0,54,-17,0,0,65,0,800,672,64,32,0,-54,-107,0,0,65,0,800,672,64,32,0,
0,4,-25,-73,0,0,100,0,80,872,80,80,0,-55,-163,0,0,100,0,0,792,80,80,0,-16,-17,0,0,65,0,800,672,64,32,0,-54,-107,0,0,65,0,800,672,64,32,0,
0,4,-55,-73,0,0,100,0,80,872,80,80,0,-55,-163,0,0,100,0,0,792,80,80,0,-46,-17,0,0,65,0,800,672,64,32,0,-54,-107,0,0,65,0,800,672,64,32,0,
0,4,-115,-73,0,0,100,0,0,872,80,80,0,-55,-163,0,0,100,0,0,792,80,80,0,-111,-17,0,0,65,0,800,672,64,32,0,-54,-107,0,0,65,0,800,672,64,32,0,
0,4,-115,-73,0,0,100,0,0,872,80,80,0,-75,-123,0,0,100,0,80,792,80,80,0,-111,-17,0,0,65,0,800,672,64,32,0,-73,-65,0,0,65,0,800,672,64,32,0,
0,4,-115,-73,0,0,100,0,0,872,80,80,0,-85,-83,0,0,100,0,160,792,80,80,0,-111,-17,0,0,65,0,800,672,64,32,0,-79,-25,0,0,65,0,800,672,64,32,0,
0,5,-124,-71,0,0,100,0,160,872,80,80,0,-85,-81,0,0,100,0,240,792,80,80,0,-85,-81,0,1,100,0,720,792,40,80,0,-115,-17,0,0,65,0,800,672,64,32,0,-83,-24,0,0,65,0,800,672,64,32,0,
0,4,-120,-71,0,0,100,0,160,872,80,80,0,-85,-81,0,0,100,0,320,792,80,80,0,-111,-17,0,0,65,0,800,672,64,32,0,-84,-24,0,0,65,0,800,672,64,32,0,
0,2,-85,-73,0,0,100,0,480,792,80,80,0,-84,-17,0,0,65,0,800,672,64,32,0,
0,2,-85,-73,0,0,100,0,400,792,80,80,0,-83,-17,0,0,65,0,800,672,64,32,0,
0,2,-43,-73,1,0,100,0,640,792,80,80,0,-33,-17,0,0,65,0,800,672,64,32,0,
0,2,-5,-73,1,0,100,0,640,792,80,80,0,5,-17,0,0,65,0,800,672,64,32,0,
0,2,40,-73,1,0,100,0,640,792,80,80,0,50,-17,0,0,65,0,800,672,64,32,0,
0,2,110,-73,1,0,100,0,640,792,80,80,0,120,-17,0,0,65,0,800,672,64,32,0,
0,2,200,-73,1,0,50,0,640,792,80,80,0,210,-17,0,0,65,0,800,672,64,32,0,
0,2,300,-73,1,0,20,0,640,792,80,80,0,310,-17,0,0,65,0,800,672,64,32,0,
0,5,-65,-49,0,0,100,0,128,576,128,64,0,-65,-17,0,0,100,0,768,608,128,32,0,-35,-69,0,0,100,0,240,872,80,80,0,-65,-49,0,0,100,0,128,672,128,64,0,-31,-17,0,0,65,0,800,672,64,32,0,
0,5,-65,-49,0,0,100,0,256,576,128,64,0,-65,-17,0,0,100,0,768,608,128,32,0,-33,-69,0,0,100,0,320,872,80,80,0,-65,-49,0,0,100,0,256,672,128,64,0,-31,-17,0,0,65,0,800,672,64,32,0,
0,5,-65,-49,0,0,100,0,384,576,128,64,0,-65,-17,0,0,100,0,768,608,128,32,0,-31,-69,0,0,100,0,400,872,80,80,0,-65,-81,0,0,100,0,384,640,128,96,0,-31,-17,0,0,65,0,800,672,64,32,0,
0,5,-65,-49,0,0,100,0,512,576,128,64,0,-65,-17,0,0,100,0,768,608,128,32,0,-29,-69,0,0,100,0,480,872,80,80,0,-65,-81,0,0,100,0,512,640,128,96,0,-31,-17,0,0,65,0,800,672,64,32,0,
