26,0,0,1,
27,0,0,12,
28,0,0,7,
29,0,0,6,
30,0,0,5,
31,0,0,5,
32,0,0,5,
33,0,0,1,
34,0,0,6,
35,0,0,5,
36,0,0,1,
37,0,0,1,
38,0,0,6,
39,0,0,5,
40,0,0,6,
41,0,0,5,
42,0,0,6,
43,0,0,5,
44,0,0,1,
45,0,0,5,
46,0,0,1,
47,0,0,6,
48,0,0,5,
49,0,0,6,
50,0,0,5,
51,0,0,5,
52,0,0,12,
53,0,0,7,
54,0,0,6,
55,0,0,6,
56,0,0,5,
57,0,0,15,
