9,0,0,6,
10,0,0,6,
11,0,0,6,
12,0,0,2,
13,0,0,5,
14,0,0,4,
15,0,0,2,
16,0,0,2,
17,0,0,2,
18,0,0,4,
19,0,0,6,
20,0,0,4,
21,0,0,6,
22,0,0,4,
23,0,0,4,
24,0,0,4,
25,0,0,4,
26,0,0,4,
27,0,0,4,
28,0,0,12,
