0,6,-8,-52,0,0,100,0,464,32,48,56,0,-52,-49,0,0,100,0,464,88,48,56,0,-27,-57,0,0,100,0,0,0,48,64,0,-67,-72,0,0,100,0,400,32,64,64,0,-10,-56,0,0,100,0,400,96,64,48,0,-40,-16,0,0,65,0,432,0,80,32,0,
0,6,-8,-51,0,0,100,0,464,32,48,56,0,-52,-48,0,0,100,0,464,88,48,56,0,-27,-57,0,0,100,0,48,0,48,64,0,-68,-71,0,0,100,0,400,32,64,64,0,-10,-55,0,0,100,0,400,96,64,48,0,-40,-16,0,0,65,0,432,0,80,32,0,
0,6,-8,-50,0,0,100,0,464,32,48,56,0,-52,-48,0,0,100,0,464,88,48,56,0,-27,-57,0,0,100,0,96,0,48,64,0,-68,-70,0,0,100,0,400,32,64,64,0,-10,-54,0,0,100,0,400,96,64,48,0,-40,-16,0,0,65,0,432,0,80,32,0,
0,6,-8,-51,0,0,100,0,464,32,48,56,0,-52,-49,0,0,100,0,464,88,48,56,0,-27,-57,0,0,100,0,144,0,48,64,0,-68,-71,0,0,100,0,400,32,64,64,0,-10,-55,0,0,100,0,400,96,64,48,0,-40,-16,0,0,65,0,432,0,80,32,0,
0,5,-21,-51,0,0,100,0,464,144,48,56,0,-20,-52,0,0,100,0,464,32,48,56,0,-35,-58,0,0,100,0,0,64,48,64,0,-81,-56,0,0,100,0,400,144,64,64,0,-40,-16,0,0,65,0,432,0,80,32,0,
0,9,-5,-49,0,0,100,0,464,144,48,56,0,-4,-47,0,0,100,0,464,32,48,56,0,-27,-27,0,0,100,0,336,48,16,16,0,-70,-71,0,0,100,0,512,184,64,64,0,-67,-70,0,0,100,0,400,32,64,64,0,-18,-50,0,0,100,0,192,0,32,32,0,-27,-52,0,0,100,0,0,128,56,64,0,2,-35,0,0,100,0,320,0,16,16,0,-40,-16,0,0,65,0,432,0,80,32,0,
0,9,-5,-48,0,0,100,0,464,144,48,56,0,-4,-46,0,0,100,0,464,32,48,56,0,-27,-26,0,0,100,0,336,48,16,16,0,-70,-70,0,0,100,0,512,184,64,64,0,-67,-69,0,0,100,0,400,32,64,64,0,-18,-49,0,0,100,0,224,0,32,32,0,-27,-52,0,0,100,0,56,128,56,64,0,2,-34,0,0,100,0,336,0,16,16,0,-40,-16,0,0,65,0,432,0,80,32,0,
0,9,-5,-47,0,0,100,0,464,144,48,56,0,-4,-45,0,0,100,0,464,32,48,56,0,-24,-23,0,0,100,0,336,48,16,16,0,-67,-67,0,0,100,0,512,184,64,64,0,-64,-67,0,0,100,0,400,32,64,64,0,-20,-49,0,0,100,0,256,0,32,32,0,-27,-52,0,0,100,0,112,128,56,64,0,0,-34,0,0,100,0,352,0,16,16,0,-40,-16,0,0,65,0,432,0,80,32,0,
0,7,-17,-49,1,0,100,0,464,144,48,56,0,-17,-47,1,0,100,0,464,32,48,56,0,-30,-50,0,0,100,0,288,0,32,32,0,-34,-53,0,0,100,0,168,128,56,64,0,-59,-68,0,0,100,0,512,184,64,64,0,-10,-35,0,0,100,0,368,0,16,16,0,-45,-16,0,0,65,0,432,0,80,32,0,
0,7,-31,-48,1,0,100,0,464,144,48,56,0,-33,-51,1,0,100,0,464,32,48,56,0,-40,-48,0,0,100,0,192,0,32,32,0,-44,-54,0,0,100,0,224,128,56,64,0,-63,-56,0,0,100,0,400,144,64,64,0,-19,-35,0,0,100,0,320,0,16,16,0,-52,-16,0,0,65,0,432,0,80,32,0,
0,8,-78,-55,0,1,100,0,0,448,96,64,0,-74,-52,1,0,100,0,464,144,48,56,0,-72,-53,1,0,100,0,464,32,48,56,0,-54,-50,0,0,100,0,224,0,32,32,0,-56,-54,0,0,100,0,280,128,56,64,0,-37,-40,0,0,100,0,320,16,24,16,0,-67,-65,0,0,100,0,464,200,48,56,0,-65,-16,0,0,65,0,432,0,80,32,0,
0,9,-78,-55,0,1,100,0,96,448,96,64,0,-81,-54,1,0,100,0,464,144,48,56,0,-78,-54,1,0,100,0,464,32,48,56,0,-58,-50,0,0,100,0,256,0,32,32,0,-60,-54,0,0,100,0,280,128,56,64,0,-38,-35,0,0,100,0,352,0,16,16,0,-47,-42,0,0,100,0,400,0,32,32,0,-61,-68,0,0,100,0,464,200,48,56,0,-68,-16,0,0,65,0,432,0,80,32,0,
0,9,-201,-124,0,1,100,0,0,512,320,192,0,-68,-50,1,0,100,0,464,144,48,56,0,-69,-52,1,0,100,0,464,32,48,56,0,-58,-50,0,0,100,0,288,0,32,32,0,-60,-54,0,0,100,0,280,128,56,64,0,-38,-35,0,0,100,0,368,0,16,16,0,-46,-42,0,0,100,0,400,0,32,32,0,-58,-69,0,0,100,0,464,200,48,56,0,-68,-16,0,0,65,0,432,0,80,32,0,
0,9,-201,-124,0,1,100,0,320,512,320,192,0,-72,-50,1,0,100,0,464,144,48,56,0,-69,-52,1,0,100,0,464,32,48,56,0,-58,-50,0,0,100,0,192,0,32,32,0,-60,-54,0,0,100,0,280,128,56,64,0,-38,-35,0,0,100,0,320,0,16,16,0,-42,-43,0,0,100,0,400,0,32,32,0,-54,-70,0,0,100,0,464,200,48,56,0,-68,-16,0,0,65,0,432,0,80,32,0,
0,9,-201,-124,0,1,50,0,0,704,320,192,0,-72,-50,1,0,100,0,464,144,48,56,0,-69,-52,1,0,100,0,464,32,48,56,0,-58,-50,0,0,100,0,224,0,32,32,0,-60,-54,0,0,100,0,280,128,56,64,0,-38,-35,0,0,100,0,336,0,16,16,0,-42,-43,0,0,100,0,400,0,32,32,0,-54,-70,0,0,100,0,464,200,48,56,0,-68,-16,0,0,65,0,432,0,80,32,0,
0,7,-73,-51,1,0,100,0,464,144,48,56,0,-72,-52,1,0,100,0,464,32,48,56,0,-49,-52,0,0,100,0,256,0,32,32,0,-57,-54,0,0,100,0,336,128,56,64,0,-29,-37,0,0,100,0,352,0,16,16,0,-43,-70,1,0,100,0,464,200,48,56,0,-68,-16,0,0,65,0,432,0,80,32,0,
0,7,-72,-50,1,0,100,0,464,144,48,56,0,-70,-50,1,0,100,0,464,32,48,56,0,-48,-51,0,0,100,0,288,0,32,32,0,-57,-54,0,0,100,0,0,192,56,64,0,-28,-36,0,0,100,0,368,0,16,16,0,-41,-68,1,0,100,0,464,200,48,56,0,-68,-16,0,0,65,0,432,0,80,32,0,
0,7,-68,-48,1,0,100,0,464,144,48,56,0,-67,-47,1,0,100,0,464,32,48,56,0,-55,-52,0,0,100,0,192,0,32,32,0,-35,-37,0,0,100,0,320,0,16,16,0,-59,-56,0,0,100,0,56,192,56,64,0,-37,-57,0,0,100,0,464,256,48,40,0,-68,-16,0,0,65,0,432,0,80,32,0,
0,8,-32,-51,0,0,100,0,464,144,48,56,0,-32,-50,0,0,100,0,464,32,48,56,0,-40,-50,0,0,100,0,224,0,32,32,0,-51,-55,0,0,100,0,112,192,56,64,0,-219,-78,0,1,100,0,0,896,256,128,0,-50,-56,0,0,100,0,464,256,48,40,0,-20,-35,0,0,100,0,336,0,16,16,0,-65,-16,0,0,65,0,432,0,80,32,0,
0,8,-219,-78,0,1,100,0,256,896,256,128,0,-20,-18,0,0,100,0,368,48,16,16,0,-23,-19,0,0,100,0,464,296,48,32,0,-28,-45,1,0,100,0,256,0,32,32,0,-52,-53,0,0,100,0,168,192,56,64,0,-29,-62,0,0,100,0,464,328,48,72,0,-32,-30,1,0,100,0,352,0,16,16,0,-63,-16,0,0,65,0,432,0,80,32,0,
0,8,-219,-78,0,1,100,0,512,896,256,128,0,-20,-18,0,0,100,0,368,48,16,16,0,-21,-19,0,0,100,0,464,296,48,32,0,-28,-45,1,0,100,0,288,0,32,32,0,-52,-53,0,0,100,0,168,192,56,64,0,-29,-62,0,0,100,0,464,328,48,72,0,-38,-35,1,0,100,0,320,16,24,16,0,-63,-16,0,0,65,0,432,0,80,32,0,
0,8,-219,-78,0,1,100,0,768,896,256,128,0,-20,-18,0,0,100,0,368,48,16,16,0,-20,-19,0,0,100,0,464,296,48,32,0,-28,-45,1,0,100,0,192,0,32,32,0,-52,-53,0,0,100,0,168,192,56,64,0,-29,-62,0,0,100,0,464,328,48,72,0,-37,-35,1,0,100,0,320,16,24,16,0,-63,-16,0,0,65,0,432,0,80,32,0,
0,8,-37,-37,0,0,100,0,144,64,32,32,0,-32,-30,0,0,100,0,112,96,32,32,0,-21,-19,0,0,100,0,464,296,48,32,0,-32,-46,0,0,100,0,224,0,32,32,0,-52,-53,0,0,100,0,224,192,56,64,0,-29,-62,0,0,100,0,464,328,48,72,0,-39,-31,1,0,100,0,368,16,24,16,0,-63,-16,0,0,65,0,432,0,80,32,0,
0,8,-20,-19,0,0,100,0,352,48,16,16,0,-25,-25,0,0,100,0,512,152,80,32,0,-21,-25,0,0,100,0,400,208,64,32,0,-34,-47,0,0,100,0,256,0,32,32,0,-52,-53,0,0,100,0,280,192,56,64,0,-27,-61,0,0,100,0,464,328,48,72,0,-34,-30,1,0,100,0,352,0,16,16,0,-63,-16,0,0,65,0,432,0,80,32,0,
0,8,-23,-19,0,0,100,0,352,48,16,16,0,-28,-25,0,0,100,0,512,152,80,32,0,-24,-25,0,0,100,0,400,208,64,32,0,-36,-47,0,0,100,0,288,0,32,32,0,-52,-53,0,0,100,0,336,192,56,64,0,-27,-61,0,0,100,0,464,328,48,72,0,-33,-33,1,0,100,0,368,0,16,16,0,-63,-16,0,0,65,0,432,0,80,32,0,
0,8,-58,-47,0,0,100,0,192,0,32,32,0,-45,-23,0,0,100,0,352,48,16,16,0,-50,-29,0,0,100,0,512,152,80,32,0,-46,-29,0,0,100,0,400,208,64,32,0,-60,-51,0,0,100,0,0,256,56,64,0,-37,-33,0,0,100,0,320,0,16,16,0,-44,-56,0,0,100,0,464,400,48,72,0,-68,-16,0,0,65,0,432,0,80,32,0,
0,8,-60,-47,0,0,100,0,224,0,32,32,0,-50,-23,0,0,100,0,352,48,16,16,0,-55,-29,0,0,100,0,512,152,80,32,0,-51,-29,0,0,100,0,400,208,64,32,0,-60,-51,0,0,100,0,56,256,56,64,0,-39,-33,0,0,100,0,336,0,16,16,0,-44,-56,0,0,100,0,464,400,48,72,0,-70,-16,0,0,65,0,432,0,80,32,0,
0,9,-228,-75,0,1,100,0,640,512,256,128,0,-84,-57,0,0,100,0,400,272,64,72,0,-57,-39,1,0,100,0,144,64,32,32,0,-56,-50,0,0,100,0,256,0,32,32,0,-39,-40,0,0,100,0,320,16,24,16,0,-63,-52,0,0,100,0,112,256,56,64,0,-46,-41,0,0,100,0,512,120,80,32,0,-45,-41,0,0,100,0,400,240,64,32,0,-70,-16,0,0,65,0,432,0,80,32,0,
0,9,-228,-75,0,1,100,0,640,640,256,128,0,-85,-57,0,0,100,0,400,272,64,72,0,-57,-39,1,0,100,0,144,64,32,32,0,-55,-50,0,0,100,0,288,0,32,32,0,-38,-38,0,0,100,0,344,16,24,16,0,-63,-52,0,0,100,0,168,256,56,64,0,-42,-42,0,0,100,0,512,120,80,32,0,-42,-41,0,0,100,0,400,240,64,32,0,-70,-16,0,0,65,0,432,0,80,32,0,
0,9,-228,-75,0,1,100,0,640,768,256,128,0,-86,-57,0,0,100,0,400,272,64,72,0,-58,-39,1,0,100,0,144,64,32,32,0,-54,-50,0,0,100,0,192,0,32,32,0,-37,-37,0,0,100,0,368,16,24,16,0,-63,-52,0,0,100,0,224,256,56,64,0,-39,-41,0,0,100,0,512,120,80,32,0,-39,-40,0,0,100,0,400,240,64,32,0,-70,-16,0,0,65,0,432,0,80,32,0,
0,8,-87,-56,0,0,100,0,400,272,64,72,0,-58,-39,1,0,100,0,144,64,32,32,0,-54,-50,0,0,100,0,224,0,32,32,0,-34,-35,0,0,100,0,336,0,16,16,0,-63,-52,0,0,100,0,280,256,56,64,0,-38,-39,0,0,100,0,512,120,80,32,0,-38,-39,0,0,100,0,400,240,64,32,0,-70,-16,0,0,65,0,432,0,80,32,0,
0,7,8,-20,0,0,100,0,368,48,16,16,0,2,-54,1,0,100,0,464,200,48,56,0,-8,-46,0,0,100,0,192,0,32,32,0,-28,-53,0,0,100,0,224,192,56,64,0,-4,-59,0,0,100,0,464,328,48,72,0,-7,-30,1,0,100,0,320,0,16,16,0,-40,-16,0,0,65,0,432,0,80,32,0,
0,7,2,-19,0,0,100,0,352,48,16,16,0,4,-52,1,0,100,0,400,144,64,64,0,-10,-47,0,0,100,0,224,0,32,32,0,-28,-53,0,0,100,0,280,192,56,64,0,-3,-59,0,0,100,0,464,328,48,72,0,-10,-30,1,0,100,0,336,0,16,16,0,-40,-16,0,0,65,0,432,0,80,32,0,
0,7,-1,-18,0,0,100,0,352,48,16,16,0,1,-51,1,0,100,0,400,144,64,64,0,-12,-47,0,0,100,0,256,0,32,32,0,-28,-53,0,0,100,0,336,192,56,64,0,-2,-58,0,0,100,0,464,328,48,72,0,-11,-31,1,0,100,0,352,0,16,16,0,-40,-16,0,0,65,0,432,0,80,32,0,
0,8,-37,-34,0,0,100,0,80,64,32,32,0,-30,-25,0,0,100,0,464,296,48,32,0,-21,-50,0,0,100,0,464,144,48,56,0,-20,-54,0,0,100,0,464,32,48,56,0,-30,-48,0,0,100,0,288,0,32,32,0,-34,-54,0,0,100,0,224,128,56,64,0,-9,-33,0,0,100,0,368,0,16,16,0,-40,-16,0,0,65,0,432,0,80,32,0,
0,8,-23,-52,0,0,100,0,464,144,48,56,0,-21,-53,0,0,100,0,464,32,48,56,0,-28,-50,0,0,100,0,192,0,32,32,0,-32,-53,0,0,100,0,168,128,56,64,0,-75,-29,1,0,100,0,512,152,80,32,0,-63,-30,1,0,100,0,400,208,64,32,0,-8,-35,0,0,100,0,320,0,16,16,0,-40,-16,0,0,65,0,432,0,80,32,0,
0,7,-35,-53,0,0,100,0,464,88,48,56,0,-34,-54,1,0,100,0,464,32,48,56,0,-70,-64,0,0,100,0,400,144,64,64,0,-21,-51,0,0,100,0,224,0,32,32,0,-30,-54,0,0,100,0,336,320,56,64,0,-1,-36,0,0,100,0,336,0,16,16,0,-40,-16,0,0,65,0,432,0,80,32,0,
0,7,-35,-55,0,0,100,0,464,88,48,56,0,-33,-56,1,0,100,0,464,32,48,56,0,-21,-51,0,0,100,0,256,0,32,32,0,-30,-54,0,0,100,0,336,320,56,64,0,-49,-80,0,0,100,0,464,200,48,56,0,-1,-36,0,0,100,0,352,0,16,16,0,-40,-16,0,0,65,0,432,0,80,32,0,
0,7,-32,-58,0,0,100,0,464,88,48,56,0,-31,-57,1,0,100,0,464,32,48,56,0,-21,-51,0,0,100,0,288,0,32,32,0,-30,-54,0,0,100,0,336,320,56,64,0,-49,-80,0,0,100,0,464,200,48,56,0,-1,-36,0,0,100,0,368,0,16,16,0,-40,-16,0,0,65,0,432,0,80,32,0,
0,7,-28,-60,0,0,100,0,464,88,48,56,0,-29,-60,1,0,100,0,464,32,48,56,0,-22,-52,0,0,100,0,192,0,32,32,0,-30,-54,0,0,100,0,280,320,56,64,0,-44,-82,0,0,100,0,464,200,48,56,0,-2,-37,0,0,100,0,320,0,16,16,0,-40,-16,0,0,65,0,432,0,80,32,0,
0,7,-22,-63,0,0,100,0,464,144,48,56,0,-20,-64,0,0,100,0,464,32,48,56,0,-22,-52,0,0,100,0,224,0,32,32,0,-30,-54,0,0,100,0,56,320,56,64,0,-42,-83,0,0,100,0,464,200,48,56,0,-2,-37,0,0,100,0,336,0,16,16,0,-40,-16,0,0,65,0,432,0,80,32,0,
0,7,-20,-64,0,0,100,0,464,144,48,56,0,-17,-66,0,0,100,0,464,32,48,56,0,-22,-53,0,0,100,0,256,0,32,32,0,-30,-54,0,0,100,0,56,384,56,64,0,-41,-85,0,0,100,0,464,200,48,56,0,-2,-38,0,0,100,0,352,0,16,16,0,-40,-16,0,0,65,0,432,0,80,32,0,
0,14,-40,-42,0,0,100,0,336,48,16,16,0,-52,-48,0,0,100,0,512,0,40,72,0,-36,-44,1,0,100,0,144,96,32,32,0,-27,-33,0,0,100,0,320,48,16,16,0,-44,-44,0,0,100,0,80,96,32,32,0,-19,-64,0,0,100,0,464,144,48,56,0,-15,-66,0,0,100,0,464,32,48,56,0,-28,-50,0,0,100,0,288,0,32,32,0,-23,-24,0,0,100,0,176,64,32,32,0,-32,-53,0,0,100,0,168,320,56,64,0,-8,-35,0,0,100,0,368,0,16,16,0,-74,-35,0,1,100,0,592,80,80,80,0,-74,-42,0,1,100,0,592,0,80,80,0,-40,-16,0,0,65,0,432,0,80,32,0,
0,14,-40,-41,0,0,100,0,336,48,16,16,0,-52,-47,0,0,100,0,552,0,40,72,0,-19,-65,0,0,100,0,464,144,48,56,0,-15,-67,0,0,100,0,464,32,48,56,0,-36,-43,1,0,100,0,144,96,32,32,0,-27,-33,0,0,100,0,320,48,16,16,0,-44,-43,0,0,100,0,80,96,32,32,0,-28,-50,0,0,100,0,192,0,32,32,0,-22,-23,0,0,100,0,208,64,32,32,0,-32,-53,0,0,100,0,168,320,56,64,0,-8,-35,0,0,100,0,320,0,16,16,0,-74,-35,0,1,100,0,672,80,80,80,0,-74,-42,0,1,100,0,672,0,80,80,0,-40,-16,0,0,65,0,432,0,80,32,0,
0,14,-19,-66,0,0,100,0,464,144,48,56,0,-15,-68,0,0,100,0,464,32,48,56,0,-40,-42,0,0,100,0,336,48,16,16,0,-52,-47,0,0,100,0,552,0,40,72,0,-36,-44,1,0,100,0,144,96,32,32,0,-27,-33,0,0,100,0,320,48,16,16,0,-44,-44,0,0,100,0,80,96,32,32,0,-28,-49,0,0,100,0,192,0,32,32,0,-23,-23,0,0,100,0,176,64,32,32,0,-32,-53,0,0,100,0,224,320,56,64,0,-8,-34,0,0,100,0,336,0,16,16,0,-74,-35,0,1,100,0,752,80,80,80,0,-74,-42,0,1,100,0,752,0,80,80,0,-40,-16,0,0,65,0,432,0,80,32,0,
0,12,-19,-67,0,0,100,0,464,144,48,56,0,-40,-42,0,0,100,0,336,48,16,16,0,-52,-47,0,0,100,0,552,0,40,72,0,-36,-44,1,0,100,0,144,96,32,32,0,-27,-34,0,0,100,0,320,48,16,16,0,-44,-44,0,0,100,0,80,96,32,32,0,-15,-70,0,0,100,0,464,32,48,56,0,-28,-50,0,0,100,0,192,0,32,32,0,-24,-24,0,0,100,0,176,64,32,32,0,-32,-53,0,0,100,0,168,320,56,64,0,-8,-35,0,0,100,0,352,0,16,16,0,-40,-16,0,0,65,0,432,0,80,32,0,
0,15,-30,-64,0,0,100,0,392,344,72,88,0,-15,-44,0,0,100,0,144,64,32,32,0,-40,-42,0,0,100,0,336,48,16,16,0,-52,-47,0,0,100,0,552,0,40,72,0,-13,-37,0,0,100,0,112,64,32,32,0,-36,-44,1,0,100,0,144,96,32,32,0,-27,-34,0,0,100,0,320,48,16,16,0,-44,-44,0,0,100,0,80,96,32,32,0,-28,-50,0,0,100,0,224,0,32,32,0,-24,-24,0,0,100,0,176,96,32,32,0,-32,-53,0,0,100,0,168,320,56,64,0,-11,-38,0,0,100,0,344,16,24,16,0,-30,-34,0,1,100,0,592,80,80,80,0,-32,-40,0,1,100,0,592,0,80,80,0,-40,-16,0,0,65,0,432,0,80,32,0,
0,15,-30,-63,0,0,100,0,392,344,72,88,0,-15,-45,0,0,100,0,144,64,32,32,0,-40,-42,0,0,100,0,336,48,16,16,0,-52,-47,0,0,100,0,552,0,40,72,0,-36,-44,1,0,100,0,144,96,32,32,0,-27,-34,0,0,100,0,320,48,16,16,0,-13,-37,0,0,100,0,112,64,32,32,0,-44,-44,0,0,100,0,80,96,32,32,0,-28,-50,0,0,100,0,224,0,32,32,0,-24,-24,0,0,100,0,176,96,32,32,0,-32,-53,0,0,100,0,168,320,56,64,0,-11,-37,0,0,100,0,368,16,24,16,0,-30,-34,0,1,100,0,672,80,80,80,0,-32,-40,0,1,100,0,672,0,80,80,0,-40,-16,0,0,65,0,432,0,80,32,0,
0,15,-30,-63,0,0,100,0,392,344,72,88,0,-15,-44,0,0,100,0,144,64,32,32,0,-40,-42,0,0,100,0,336,48,16,16,0,-52,-47,0,0,100,0,552,0,40,72,0,-13,-38,0,0,100,0,112,64,32,32,0,-36,-44,1,0,100,0,144,96,32,32,0,-27,-34,0,0,100,0,320,48,16,16,0,-44,-44,0,0,100,0,80,96,32,32,0,-28,-50,0,0,100,0,224,0,32,32,0,-24,-24,0,0,100,0,176,96,32,32,0,-32,-53,0,0,100,0,168,320,56,64,0,-8,-35,0,0,100,0,336,0,16,16,0,-30,-34,0,1,100,0,752,80,80,80,0,-32,-40,0,1,100,0,752,0,80,80,0,-40,-16,0,0,65,0,432,0,80,32,0,
0,13,-30,-63,0,0,100,0,392,344,72,88,0,-15,-44,0,0,100,0,144,64,32,32,0,-40,-42,0,0,100,0,336,48,16,16,0,-52,-47,0,0,100,0,552,0,40,72,0,-13,-38,0,0,100,0,112,64,32,32,0,-36,-44,1,0,100,0,144,96,32,32,0,-27,-34,0,0,100,0,320,48,16,16,0,-44,-44,0,0,100,0,80,96,32,32,0,-28,-50,0,0,100,0,256,0,32,32,0,-24,-24,0,0,100,0,176,96,32,32,0,-32,-53,0,0,100,0,168,320,56,64,0,-8,-35,0,0,100,0,352,0,16,16,0,-40,-16,0,0,65,0,432,0,80,32,0,
0,13,-30,-63,0,0,100,0,392,344,72,88,0,-15,-44,0,0,100,0,144,64,32,32,0,-40,-42,0,0,100,0,336,48,16,16,0,-52,-47,0,0,100,0,552,0,40,72,0,-13,-38,0,0,100,0,112,64,32,32,0,-36,-44,1,0,100,0,144,96,32,32,0,-27,-34,0,0,100,0,320,48,16,16,0,-44,-44,0,0,100,0,80,96,32,32,0,-28,-50,0,0,100,0,256,0,32,32,0,-24,-24,0,0,100,0,176,96,32,32,0,-32,-53,0,0,100,0,168,320,56,64,0,-8,-35,0,0,100,0,352,0,16,16,0,-40,-16,0,0,65,0,432,0,80,32,0,
0,6,-30,-63,0,0,100,0,392,344,72,88,0,-52,-47,0,0,100,0,552,0,40,72,0,-24,-55,0,0,100,0,256,0,32,32,0,-34,-54,0,0,100,0,112,384,56,64,0,-4,-40,0,0,100,0,368,0,16,16,0,-40,-16,0,0,65,0,432,0,80,32,0,
0,6,-30,-63,0,0,100,0,392,344,72,88,0,-52,-47,0,0,100,0,552,0,40,72,0,-24,-55,0,0,100,0,288,0,32,32,0,-34,-54,0,0,100,0,112,384,56,64,0,-4,-40,0,0,100,0,368,0,16,16,0,-40,-16,0,0,65,0,432,0,80,32,0,
0,6,-30,-63,0,0,100,0,392,344,72,88,0,-52,-47,0,0,100,0,552,0,40,72,0,-22,-57,0,0,100,0,288,0,32,32,0,-34,-56,0,0,100,0,0,384,56,64,0,-2,-42,0,0,100,0,320,0,16,16,0,-40,-16,0,0,65,0,432,0,80,32,0,
0,6,-30,-63,0,0,100,0,392,344,72,88,0,-52,-47,0,0,100,0,552,0,40,72,0,-22,-57,0,0,100,0,192,0,32,32,0,-34,-56,0,0,100,0,168,384,56,64,0,-2,-42,0,0,100,0,336,0,16,16,0,-40,-16,0,0,65,0,432,0,80,32,0,
0,6,-30,-63,0,0,100,0,392,344,72,88,0,-52,-47,0,0,100,0,552,0,40,72,0,-22,-57,0,0,100,0,192,0,32,32,0,-34,-56,0,0,100,0,224,384,56,64,0,-2,-42,0,0,100,0,352,0,16,16,0,-40,-16,0,0,65,0,432,0,80,32,0,
0,6,-30,-63,0,0,100,0,392,344,72,88,0,-52,-47,0,0,100,0,552,0,40,72,0,-22,-57,0,0,100,0,192,0,32,32,0,-34,-56,0,0,100,0,224,384,56,64,0,-2,-42,0,0,100,0,368,0,16,16,0,-40,-16,0,0,65,0,432,0,80,32,0,
0,6,-30,-63,0,0,100,0,392,344,72,88,0,-52,-47,0,0,100,0,552,0,40,72,0,-22,-57,0,0,100,0,288,0,32,32,0,-34,-56,0,0,100,0,0,384,56,64,0,-2,-42,0,0,100,0,320,0,16,16,0,-40,-16,0,0,65,0,432,0,80,32,0,
0,7,0,-31,0,0,100,0,352,48,16,16,0,-30,-63,0,0,100,0,392,344,72,88,0,-52,-47,0,0,100,0,552,0,40,72,0,-22,-57,0,0,100,0,224,0,32,32,0,-34,-56,0,0,100,0,280,384,56,64,0,-2,-42,0,0,100,0,336,0,16,16,0,-40,-16,0,0,65,0,432,0,80,32,0,
0,7,0,-32,0,0,100,0,352,48,16,16,0,-30,-63,0,0,100,0,392,344,72,88,0,-52,-47,0,0,100,0,552,0,40,72,0,-22,-57,0,0,100,0,256,0,32,32,0,-34,-56,0,0,100,0,280,384,56,64,0,-2,-42,0,0,100,0,352,0,16,16,0,-40,-16,0,0,65,0,432,0,80,32,0,
0,7,0,-31,0,0,100,0,352,48,16,16,0,-30,-63,0,0,100,0,392,344,72,88,0,-52,-47,0,0,100,0,552,0,40,72,0,-22,-57,0,0,100,0,288,0,32,32,0,-34,-56,0,0,100,0,280,384,56,64,0,-2,-42,0,0,100,0,368,0,16,16,0,-40,-16,0,0,65,0,432,0,80,32,0,
0,7,0,-31,0,0,100,0,352,48,16,16,0,-30,-63,0,0,100,0,392,344,72,88,0,-52,-47,0,0,100,0,552,0,40,72,0,-22,-57,0,0,100,0,192,0,32,32,0,-34,-56,0,0,100,0,280,384,56,64,0,-2,-42,0,0,100,0,368,0,16,16,0,-40,-16,0,0,65,0,432,0,80,32,0,
0,7,0,-31,0,0,100,0,352,48,16,16,0,-30,-63,0,0,100,0,392,344,72,88,0,-52,-47,0,0,100,0,552,0,40,72,0,-22,-57,0,0,100,0,224,0,32,32,0,-34,-56,0,0,100,0,280,384,56,64,0,-2,-42,0,0,100,0,368,0,16,16,0,-40,-16,0,0,65,0,432,0,80,32,0,
0,7,0,-31,0,0,100,0,352,48,16,16,0,-30,-63,0,0,100,0,392,344,72,88,0,-52,-47,0,0,100,0,552,0,40,72,0,-22,-57,0,0,100,0,256,0,32,32,0,-34,-56,0,0,100,0,280,384,56,64,0,-2,-42,0,0,100,0,368,0,16,16,0,-40,-16,0,0,65,0,432,0,80,32,0,
