4,0,0,7,
5,0,0,7,
6,0,0,6,
7,0,0,5,
8,0,0,5,
9,0,0,5,
10,0,0,3,
11,0,0,3,
12,0,0,3,
13,0,0,3,
14,0,0,3,
15,0,0,3,
16,0,0,3,
17,0,0,3,
18,0,0,3,
19,0,0,3,
20,0,0,3,
21,0,0,5,
22,0,0,5,
23,0,0,5,
24,0,0,4,
25,0,0,4,
26,0,0,4,
7,0,0,5,
27,0,0,6,
0,0,0,9,
