0,2,-23,-58,0,0,100,0,0,0,48,64,0,-23,-9,0,0,65,0,352,0,48,16,0,
0,2,-23,-59,0,0,100,0,48,0,48,64,0,-23,-9,0,0,65,0,352,0,48,16,0,
0,3,-23,-57,0,1,30,0,96,0,48,64,0,-23,-57,0,0,100,0,96,0,48,64,0,-23,-9,0,0,65,0,352,0,48,16,0,
0,3,-23,-56,0,1,70,0,144,0,48,64,0,-23,-56,0,0,100,0,144,0,48,64,0,-23,-9,0,0,65,0,352,0,48,16,0,
0,3,-23,-57,0,1,30,0,192,0,48,64,0,-23,-57,0,0,100,0,192,0,48,64,0,-23,-9,0,0,65,0,352,0,48,16,0,
0,2,-23,-58,0,0,100,0,240,0,48,64,0,-23,-9,0,0,65,0,352,0,48,16,0,
0,2,-22,-58,0,0,100,0,0,64,48,64,0,-23,-9,0,0,65,0,352,0,48,16,0,
0,2,-22,-58,0,0,100,0,48,64,48,64,0,-24,-9,0,0,65,0,352,0,48,16,0,
0,2,-24,-58,0,0,100,0,96,64,48,64,0,-26,-9,0,0,65,0,352,0,48,16,0,
0,2,-25,-57,0,0,100,0,144,64,48,64,0,-29,-9,0,0,65,0,352,0,48,16,0,
0,2,-24,-57,0,0,100,0,192,64,48,64,0,-26,-9,0,0,65,0,352,0,48,16,0,
0,2,-23,-58,0,0,100,0,240,64,48,64,0,-24,-9,0,0,65,0,352,0,48,16,0,
0,2,-26,-57,0,0,100,0,0,128,48,64,0,-25,-9,0,0,65,0,352,0,48,16,0,
0,2,-26,-55,0,0,100,0,48,128,48,64,0,-25,-9,0,0,65,0,352,0,48,16,0,
0,2,-32,-65,0,0,100,0,96,128,48,64,0,-32,-9,0,0,65,0,352,0,48,16,0,
0,2,-44,-70,0,0,100,0,96,128,48,64,0,-44,-9,0,0,65,0,352,0,48,16,0,
0,2,-53,-73,0,0,100,0,144,128,48,64,0,-53,-9,0,0,65,0,352,0,48,16,0,
0,2,-57,-62,0,0,100,0,144,128,48,64,0,-57,-9,0,0,65,0,352,0,48,16,0,
0,2,-57,-55,0,0,100,0,240,128,48,64,0,-57,-9,0,0,65,0,352,0,48,16,0,
0,2,-56,-56,0,0,100,0,192,128,48,64,0,-56,-9,0,0,65,0,352,0,48,16,0,
0,2,-49,-57,0,0,100,0,144,0,48,64,0,-50,-9,0,0,65,0,352,0,48,16,0,
0,2,-34,-58,0,0,100,0,192,0,48,64,0,-36,-9,0,0,100,0,352,0,48,16,0,
0,2,-25,-55,0,0,100,0,240,0,48,64,0,-27,-9,0,0,65,0,352,0,48,16,0,
0,2,-23,-57,0,0,100,0,0,192,48,64,0,-25,-9,0,0,65,0,352,0,48,16,0,
0,2,-23,-65,0,0,100,0,0,192,48,64,0,-25,-9,0,0,65,0,352,0,48,16,0,
0,3,-24,-62,0,0,100,0,304,16,16,16,0,-25,-71,0,0,100,0,48,192,48,64,0,-25,-9,0,0,65,0,352,0,48,16,0,
0,3,-25,-63,0,0,100,0,288,32,16,16,0,-25,-71,0,0,100,0,48,192,48,64,0,-25,-9,0,0,65,0,352,0,48,16,0,
0,4,13,-54,0,0,100,0,304,32,16,16,0,-26,-64,0,0,100,0,288,16,16,16,0,-25,-72,0,0,100,0,96,192,48,64,0,-25,-9,0,0,65,0,352,0,48,16,0,
0,5,14,-55,0,0,100,0,288,16,16,16,0,-27,-65,0,0,100,0,304,32,16,16,0,-25,-72,0,1,80,0,96,192,48,64,0,-25,-72,0,0,100,0,96,192,48,64,0,-25,-9,0,0,65,0,352,0,48,16,0,
0,6,-32,-38,0,0,100,0,304,16,16,16,0,15,-56,0,0,100,0,288,32,16,16,0,-27,-65,0,0,30,0,304,16,16,16,0,-25,-74,0,1,80,0,144,192,48,64,0,-25,-74,0,0,100,0,144,192,48,64,0,-25,-9,0,0,65,0,352,0,48,16,0,
0,4,-33,-37,0,0,100,0,288,32,16,16,0,16,-57,0,0,100,0,304,16,16,16,0,-25,-74,0,0,100,0,144,192,48,64,0,-25,-9,0,0,65,0,352,0,48,16,0,
0,4,-34,-36,0,0,100,0,288,16,16,16,0,16,-57,0,0,30,0,304,32,16,16,0,-25,-72,0,0,100,0,192,192,48,64,0,-25,-9,0,0,65,0,352,0,48,16,0,
0,3,-35,-35,0,0,100,0,304,32,16,16,0,-25,-72,0,0,100,0,192,192,48,64,0,-25,-9,0,0,65,0,352,0,48,16,0,
0,3,-35,-35,0,0,30,0,304,16,16,16,0,-25,-72,0,0,100,0,240,192,48,64,0,-25,-9,0,0,65,0,352,0,48,16,0,
0,2,-25,-72,0,0,100,0,240,192,48,64,0,-25,-9,0,0,65,0,352,0,48,16,0,
0,2,-23,-58,0,0,100,0,0,256,48,64,0,-23,-9,0,0,65,0,352,0,48,16,0,
0,2,-23,-59,0,0,100,0,48,256,48,64,0,-23,-9,0,0,65,0,352,0,48,16,0,
0,2,-23,-57,0,0,100,0,96,256,48,64,0,-23,-9,0,0,65,0,352,0,48,16,0,
0,2,-23,-56,0,0,100,0,144,256,48,64,0,-23,-9,0,0,65,0,352,0,48,16,0,
0,2,-23,-57,0,0,100,0,192,256,48,64,0,-23,-9,0,0,65,0,352,0,48,16,0,
0,2,-23,-58,0,0,100,0,240,256,48,64,0,-23,-9,0,0,65,0,352,0,48,16,0,
