0,2,-51,-78,0,0,100,0,0,0,96,96,0,-51,-16,0,0,65,0,672,736,96,32,0,
0,2,-51,-78,0,0,100,0,96,0,96,96,0,-51,-16,0,0,65,0,672,736,96,32,0,
0,2,-51,-78,0,0,100,0,192,0,96,96,0,-51,-16,0,0,65,0,672,736,96,32,0,
0,2,-51,-78,0,0,100,0,288,0,96,96,0,-51,-16,0,0,65,0,672,736,96,32,0,
0,2,-51,-78,0,0,100,0,384,0,96,96,0,-51,-16,0,0,65,0,672,736,96,32,0,
0,2,-51,-78,0,0,100,0,480,0,96,96,0,-51,-16,0,0,65,0,672,736,96,32,0,
0,2,-51,-78,0,0,100,0,0,96,96,96,0,-51,-16,0,0,65,0,672,736,96,32,0,
0,2,-51,-78,0,0,100,0,96,96,96,96,0,-51,-16,0,0,65,0,672,736,96,32,0,
0,2,-51,-78,0,0,100,0,192,96,96,96,0,-51,-16,0,0,65,0,672,736,96,32,0,
0,2,-51,-78,0,0,100,0,288,96,96,96,0,-51,-16,0,0,65,0,672,736,96,32,0,
0,3,-5,-50,0,0,100,0,576,0,32,32,0,-51,-78,0,0,100,0,0,192,96,96,0,-51,-16,0,0,65,0,672,736,96,32,0,
0,4,3,-76,0,0,100,0,576,32,32,64,0,17,-83,0,0,100,-90,576,0,32,32,0,-51,-78,0,0,100,0,96,192,96,96,0,-51,-16,0,0,65,0,672,736,96,32,0,
0,3,30,-90,0,0,100,-90,576,0,32,32,0,-51,-78,0,0,100,0,192,192,96,96,0,-51,-16,0,0,65,0,672,736,96,32,0,
0,4,-36,-53,0,0,100,0,608,0,32,32,0,52,-64,0,0,100,-180,576,0,32,32,0,-51,-78,0,0,100,0,288,192,96,96,0,-51,-16,0,0,65,0,672,736,96,32,0,
0,5,-35,-76,1,0,100,0,576,32,32,64,0,-53,-81,0,0,100,90,608,0,32,32,0,55,-50,0,0,50,-180,576,0,32,32,0,-51,-78,0,0,100,0,384,192,96,96,0,-51,-16,0,0,65,0,672,736,96,32,0,
0,3,-69,-93,0,0,100,90,608,0,32,32,0,-51,-78,0,0,100,0,480,192,96,96,0,-51,-16,0,0,65,0,672,736,96,32,0,
0,3,-87,-70,0,0,100,180,608,0,32,32,0,-51,-78,0,0,100,0,96,96,96,96,0,-51,-16,0,0,65,0,672,736,96,32,0,
0,3,-93,-54,0,0,50,180,608,0,32,32,0,-51,-78,0,0,100,0,384,96,96,96,0,-51,-16,0,0,65,0,672,736,96,32,0,
0,2,-51,-78,0,0,100,0,480,96,96,96,0,-51,-16,0,0,65,0,672,736,96,32,0,
0,2,-51,-78,0,0,100,0,384,96,96,96,0,-51,-16,0,0,65,0,672,736,96,32,0,
0,3,-5,-50,0,0,100,0,640,0,32,32,0,-51,-78,0,0,100,0,0,192,96,96,0,-51,-16,0,0,65,0,672,736,96,32,0,
0,4,3,-76,0,0,100,0,576,32,32,64,0,17,-83,0,0,100,-90,640,0,32,32,0,-51,-78,0,0,100,0,96,192,96,96,0,-51,-16,0,0,65,0,672,736,96,32,0,
0,3,30,-90,0,0,100,-90,640,0,32,32,0,-51,-78,0,0,100,0,192,192,96,96,0,-51,-16,0,0,65,0,672,736,96,32,0,
0,4,-30,-51,0,0,100,0,640,32,32,32,0,52,-64,0,0,100,-180,640,0,32,32,0,-51,-78,0,0,100,0,288,192,96,96,0,-51,-16,0,0,65,0,672,736,96,32,0,
0,5,-61,-76,0,0,100,0,512,320,64,64,0,-63,-62,0,0,100,0,640,32,32,32,0,55,-50,0,0,50,-180,640,0,32,32,0,-51,-78,0,0,100,0,384,192,96,96,0,-51,-16,0,0,65,0,672,736,96,32,0,
0,3,-89,-57,0,0,100,0,640,32,32,32,0,-51,-78,0,0,100,0,480,192,96,96,0,-51,-16,0,0,65,0,672,736,96,32,0,
0,4,-141,-79,0,1,100,0,0,288,96,96,0,-104,-46,0,0,100,0,640,32,32,32,0,-51,-78,0,0,100,0,96,96,96,96,0,-51,-16,0,0,65,0,672,736,96,32,0,
0,3,-141,-79,0,1,100,0,96,288,96,96,0,-51,-78,0,0,100,0,192,96,96,96,0,-51,-16,0,0,65,0,672,736,96,32,0,
0,3,-141,-79,0,1,100,0,192,288,96,96,0,-51,-78,0,0,100,0,192,96,96,96,0,-51,-16,0,0,65,0,672,736,96,32,0,
0,3,-141,-79,0,1,100,0,288,288,96,96,0,-51,-78,0,0,100,0,288,96,96,96,0,-51,-16,0,0,65,0,672,736,96,32,0,
0,3,-141,-79,0,1,100,0,384,288,128,96,0,-51,-78,0,0,100,0,288,96,96,96,0,-51,-16,0,0,65,0,672,736,96,32,0,
0,2,-51,-78,0,0,100,0,0,384,96,96,0,-51,-16,0,0,65,0,672,736,96,32,0,
0,2,-51,-78,0,0,100,0,96,384,96,96,0,-51,-16,0,0,65,0,672,736,96,32,0,
0,2,-51,-78,0,0,100,0,192,384,96,96,0,-51,-16,0,0,65,0,672,736,96,32,0,
0,2,-51,-78,0,0,100,0,288,384,96,96,0,-51,-16,0,0,65,0,672,736,96,32,0,
0,3,12,-108,0,1,100,0,576,96,96,96,0,-51,-78,0,0,100,0,384,384,96,96,0,-51,-16,0,0,65,0,672,736,96,32,0,
0,3,12,-108,0,1,100,0,576,192,96,96,0,-51,-78,0,0,100,0,480,384,96,96,0,-51,-16,0,0,65,0,672,736,96,32,0,
0,3,12,-108,0,1,100,0,576,288,96,96,0,-51,-78,0,0,100,0,480,384,96,96,0,-51,-16,0,0,65,0,672,736,96,32,0,
0,3,12,-108,0,1,100,0,672,0,96,96,0,-51,-78,0,0,100,0,576,384,96,96,0,-51,-16,0,0,65,0,672,736,96,32,0,
0,3,12,-108,0,1,100,0,672,96,96,96,0,-51,-78,0,0,100,0,576,384,96,96,0,-51,-16,0,0,65,0,672,736,96,32,0,
0,3,12,-108,0,1,100,0,576,288,96,96,0,-51,-78,0,0,100,0,480,384,96,96,0,-51,-16,0,0,65,0,672,736,96,32,0,
0,3,12,-108,0,1,100,0,672,192,96,96,0,-51,-78,0,0,100,0,576,384,96,96,0,-51,-16,0,0,65,0,672,736,96,32,0,
0,3,12,-108,0,1,100,0,672,288,96,96,0,-51,-78,0,0,100,0,576,384,96,96,0,-51,-16,0,0,65,0,672,736,96,32,0,
0,2,-51,-78,0,0,100,0,672,384,96,96,0,-51,-16,0,0,65,0,672,736,96,32,0,
0,3,-51,-78,0,0,30,0,0,480,96,96,0,-51,-78,0,0,100,0,0,96,96,96,0,-51,-16,0,0,65,0,672,736,96,32,0,
0,3,-51,-76,0,0,70,0,0,480,96,96,0,-51,-78,0,0,100,0,0,96,96,96,0,-51,-16,0,0,65,0,672,736,96,32,0,
0,2,-51,-78,0,0,100,0,96,480,96,96,0,-51,-16,0,0,65,0,672,736,96,32,0,
0,2,-51,-78,0,0,100,0,192,480,96,96,0,-51,-16,0,0,65,0,672,736,96,32,0,
0,2,-51,-78,0,0,100,0,288,480,96,96,0,-51,-16,0,0,65,0,672,736,96,32,0,
0,2,-51,-78,0,0,100,0,384,480,96,96,0,-51,-16,0,0,65,0,672,736,96,32,0,
0,2,-51,-78,0,0,100,0,480,480,96,96,0,-51,-16,0,0,65,0,672,736,96,32,0,
0,3,-51,-78,0,0,100,0,0,576,96,96,0,-51,-14,0,0,100,0,480,544,96,32,0,-51,-16,0,0,65,0,672,736,96,32,0,
0,3,-51,-78,0,0,100,0,96,576,96,96,0,-51,-14,0,0,100,0,480,544,96,32,0,-51,-16,0,0,65,0,672,736,96,32,0,
0,3,-51,-78,0,0,100,0,192,576,96,96,0,-51,-14,0,0,100,0,480,544,96,32,0,-51,-16,0,0,65,0,672,736,96,32,0,
0,3,-51,-78,0,0,100,0,288,576,96,96,0,-51,-14,0,0,100,0,480,544,96,32,0,-51,-16,0,0,65,0,672,736,96,32,0,
0,3,-51,-78,0,0,100,0,384,576,96,96,0,-51,-14,0,0,100,0,480,544,96,32,0,-51,-16,0,0,65,0,672,736,96,32,0,
0,3,-51,-78,0,0,100,0,480,576,96,96,0,-51,-14,0,0,100,0,480,544,96,32,0,-51,-16,0,0,65,0,672,736,96,32,0,
0,3,-51,-78,0,0,100,0,576,576,96,96,0,-51,-14,0,0,100,0,480,544,96,32,0,-51,-16,0,0,65,0,672,736,96,32,0,
0,3,-51,-78,0,0,100,0,672,576,96,96,0,-51,-14,0,0,100,0,480,544,96,32,0,-51,-16,0,0,65,0,672,736,96,32,0,
0,3,-51,-78,0,0,100,0,0,672,96,96,0,-51,-14,0,0,100,0,480,544,96,32,0,-51,-16,0,0,65,0,672,736,96,32,0,
0,3,-51,-78,0,0,100,0,96,672,96,96,0,-51,-14,0,0,100,0,480,544,96,32,0,-51,-16,0,0,65,0,672,736,96,32,0,
0,3,-51,-78,0,0,100,0,192,672,96,96,0,-51,-14,0,0,100,0,480,544,96,32,0,-51,-16,0,0,65,0,672,736,96,32,0,
0,3,-51,-78,0,0,100,0,288,672,96,96,0,-51,-14,0,0,100,0,480,544,96,32,0,-51,-16,0,0,65,0,672,736,96,32,0,
0,3,-51,-78,0,0,100,0,384,672,96,96,0,-51,-14,0,0,100,0,480,544,96,32,0,-51,-16,0,0,65,0,672,736,96,32,0,
0,3,-51,-78,0,0,100,0,480,672,96,96,0,-51,-14,0,0,100,0,480,544,96,32,0,-51,-16,0,0,65,0,672,736,96,32,0,
0,3,-51,-78,0,0,100,0,576,672,96,96,0,-51,-14,0,0,100,0,480,544,96,32,0,-51,-16,0,0,65,0,672,736,96,32,0,
0,3,12,-107,0,1,100,0,672,0,96,96,0,-51,-78,0,0,100,0,480,384,96,96,0,-51,-16,0,0,65,0,672,736,96,32,0,
