0,2,-43,-77,0,0,100,0,0,0,88,88,0,-16,-8,0,0,65,0,352,384,32,16,0,
0,2,-43,-77,0,0,100,0,88,0,88,88,0,-16,-8,0,0,65,0,352,384,32,16,0,
0,2,-43,-77,0,0,100,0,176,0,88,88,0,-16,-8,0,0,65,0,352,384,32,16,0,
0,2,-49,-79,0,0,100,0,264,0,88,88,0,-16,-8,0,0,65,0,352,384,32,16,0,
0,2,-43,-75,0,0,100,0,0,88,88,88,0,-16,-8,0,0,65,0,352,384,32,16,0,
0,4,-44,-82,0,0,100,0,608,0,64,64,0,-43,-79,0,0,100,0,352,0,64,64,0,-43,-75,0,0,100,0,88,88,88,88,0,-16,-8,0,0,65,0,352,384,32,16,0,
0,4,-41,-87,0,0,100,0,672,0,64,64,0,-45,-88,0,0,100,0,416,0,64,64,0,-43,-75,0,0,100,0,176,88,88,88,0,-16,-8,0,0,65,0,352,384,32,16,0,
0,4,-50,-82,0,0,100,0,608,64,64,64,0,-47,-85,0,0,100,0,480,0,64,64,0,-43,-75,0,0,100,0,264,88,88,88,0,-16,-8,0,0,65,0,352,384,32,16,0,
0,4,-49,-76,0,0,100,0,672,64,64,64,0,-49,-83,0,0,100,0,544,0,64,64,0,-43,-75,0,0,100,0,264,88,88,88,0,-16,-8,0,0,65,0,352,384,32,16,0,
0,4,-40,-81,0,0,100,0,608,128,64,64,0,-38,-79,0,0,100,0,352,64,64,64,0,-43,-75,0,0,100,0,0,176,88,88,0,-16,-8,0,0,65,0,352,384,32,16,0,
0,4,-39,-81,0,0,100,0,672,128,64,64,0,-44,-83,0,0,100,0,416,64,64,64,0,-43,-75,0,0,100,0,0,176,88,88,0,-16,-8,0,0,65,0,352,384,32,16,0,
0,4,-38,-95,0,0,100,0,608,192,64,64,0,-39,-85,0,0,100,0,480,64,64,64,0,-43,-75,0,0,100,0,88,176,88,88,0,-16,-8,0,0,65,0,352,384,32,16,0,
0,4,-34,-96,0,0,100,0,672,192,64,64,0,-44,-89,0,0,100,0,544,64,64,64,0,-43,-75,0,0,100,0,88,176,88,88,0,-16,-8,0,0,65,0,352,384,32,16,0,
0,4,-44,-109,0,0,100,0,352,440,88,88,0,-44,-87,0,0,100,0,352,128,64,64,0,-43,-75,0,0,100,0,88,176,88,88,0,-16,-8,0,0,65,0,352,384,32,16,0,
0,4,-79,-96,0,0,100,0,440,440,88,88,0,-56,-79,0,0,100,0,416,128,64,64,0,-43,-75,0,0,100,0,176,176,88,88,0,-16,-8,0,0,65,0,352,384,32,16,0,
0,5,-84,-97,0,0,100,0,528,440,88,88,0,-54,-88,0,0,37,0,480,128,64,64,0,-55,-85,0,0,100,0,672,320,64,64,0,-43,-75,0,0,100,0,176,176,88,88,0,-16,-8,0,0,65,0,352,384,32,16,0,
0,6,-58,-87,0,0,100,0,352,256,64,64,0,-59,-64,0,0,100,0,416,256,64,64,0,-56,-77,0,0,100,0,544,128,64,64,0,-53,-86,0,0,40,0,544,128,64,64,0,-43,-75,0,0,100,0,264,176,88,88,0,-16,-8,0,0,65,0,352,384,32,16,0,
0,5,-62,-71,0,0,100,0,608,256,64,64,0,-55,-66,0,0,100,0,544,256,64,64,0,-56,-81,0,0,40,0,480,128,64,64,0,-43,-75,0,0,100,0,0,264,88,88,0,-16,-8,0,0,65,0,352,384,32,16,0,
0,6,-60,-71,0,0,100,0,544,128,64,64,0,-55,-75,0,0,100,0,544,256,64,64,0,-62,-72,0,0,100,0,672,320,64,64,0,-43,-75,0,0,100,0,88,264,88,88,0,-57,-70,0,0,100,0,672,256,64,64,0,-16,-8,0,0,65,0,352,384,32,16,0,
0,6,-60,-69,0,0,40,0,544,128,64,64,0,-56,-62,0,0,100,0,544,128,64,64,0,-59,-75,0,0,40,0,480,128,64,64,0,-59,-62,0,0,100,0,608,256,64,64,0,-43,-75,0,0,100,0,176,264,88,88,0,-16,-8,0,0,65,0,352,384,32,16,0,
0,5,-56,-61,0,0,60,0,480,128,64,64,0,-56,-64,0,0,30,0,544,128,64,64,0,-56,-61,0,0,50,0,672,256,64,64,0,-43,-75,0,0,100,0,264,264,88,88,0,-16,-8,0,0,65,0,352,384,32,16,0,
0,6,-55,-61,0,0,30,0,672,256,64,64,0,-55,-56,0,0,60,0,544,256,64,64,0,-60,-55,0,0,60,0,672,320,64,64,0,-59,-63,0,0,20,0,480,128,64,64,0,-43,-75,0,0,100,0,264,264,88,88,0,-16,-8,0,0,65,0,352,384,32,16,0,
0,5,-60,-58,0,0,20,0,480,128,64,64,0,-60,-59,0,0,30,0,672,256,64,64,0,-57,-55,0,0,40,0,544,128,64,64,0,-43,-75,0,0,100,0,0,352,88,88,0,-16,-8,0,0,65,0,352,384,32,16,0,
0,4,-56,-61,0,0,20,0,672,256,64,64,0,-54,-49,0,0,20,0,544,128,64,64,0,-43,-75,0,0,100,0,0,352,88,88,0,-16,-8,0,0,65,0,352,384,32,16,0,
0,2,-46,-81,0,0,100,0,0,440,88,88,0,-16,-8,0,0,65,0,352,384,32,16,0,
0,3,-55,-37,0,0,100,0,416,192,64,64,0,-46,-81,0,0,100,0,88,440,88,88,0,-16,-8,0,0,65,0,352,384,32,16,0,
0,3,-77,-44,0,0,100,0,480,192,64,64,0,-46,-81,0,0,100,0,176,440,88,88,0,-16,-8,0,0,65,0,352,384,32,16,0,
0,4,-76,-52,0,0,100,0,352,320,64,64,0,-78,-51,0,0,100,0,544,192,64,64,0,-46,-81,0,0,100,0,264,440,88,88,0,-16,-8,0,0,65,0,352,384,32,16,0,
0,3,-84,-45,0,0,100,0,416,320,64,64,0,-46,-81,0,0,100,0,0,528,88,88,0,-16,-8,0,0,65,0,352,384,32,16,0,
0,3,-84,-41,0,0,100,0,480,320,64,64,0,-46,-81,0,0,100,0,88,528,88,88,0,-16,-8,0,0,65,0,352,384,32,16,0,
0,3,-84,-43,0,0,100,0,544,320,64,64,0,-46,-81,0,0,100,0,176,528,88,88,0,-16,-8,0,0,65,0,352,384,32,16,0,
0,3,-77,-41,0,0,100,0,608,320,64,64,0,-46,-81,0,0,100,0,264,528,88,88,0,-16,-8,0,0,65,0,352,384,32,16,0,
0,2,-46,-79,0,0,100,0,88,352,88,88,0,-16,-8,0,0,65,0,352,384,32,16,0,
