0,6,-19,-62,0,0,100,0,0,0,40,40,1,-50,-80,0,0,100,0,0,128,104,96,0,-18,-60,0,0,100,0,776,32,40,48,1,-26,-56,0,0,100,0,256,568,56,40,0,-50,-80,0,0,100,0,0,608,104,96,0,-40,-16,0,0,65,0,632,160,80,32,0,
0,6,-19,-62,0,0,100,0,40,0,40,40,1,-50,-80,0,0,100,0,104,128,104,96,0,-20,-60,0,0,100,0,816,32,48,48,1,-26,-56,0,0,100,0,256,568,56,40,0,-50,-80,0,0,100,0,104,608,104,96,0,-40,-16,0,0,65,0,632,160,80,32,0,
0,6,-19,-62,0,0,100,0,80,0,40,40,1,-50,-80,0,0,100,0,208,128,104,96,0,-18,-60,0,0,100,0,864,32,40,48,1,-26,-55,0,0,100,0,256,568,56,40,0,-50,-80,0,0,100,0,208,608,104,96,0,-40,-16,0,0,65,0,632,160,80,32,0,
0,6,-19,-62,0,0,100,0,120,0,40,40,1,-50,-80,0,0,100,0,312,128,104,96,0,-18,-60,0,0,100,0,904,32,40,48,1,-26,-55,0,0,100,0,256,568,56,40,0,-50,-80,0,0,100,0,312,608,104,96,0,-40,-16,0,0,65,0,632,160,80,32,0,
0,6,-19,-62,0,0,100,0,0,0,40,40,1,-50,-80,0,0,100,0,0,128,104,96,0,-18,-60,0,0,100,0,776,32,40,48,1,-26,-56,0,0,100,0,256,568,56,40,0,-50,-80,0,0,100,0,0,608,104,96,0,-40,-16,0,0,65,0,632,160,80,32,0,
0,5,-20,-62,0,0,100,0,0,40,40,40,1,-82,-80,0,0,100,0,0,320,128,96,0,-16,-60,0,0,100,0,0,80,40,48,1,-58,-64,0,0,100,0,416,624,104,80,0,-40,-16,0,0,65,0,632,160,80,32,0,
0,5,-22,-62,0,0,100,0,40,40,40,40,1,-82,-80,0,0,100,0,128,320,128,96,0,-19,-60,0,0,100,0,40,80,40,48,1,-58,-64,0,0,100,0,520,624,104,80,0,-41,-16,0,0,65,0,632,160,80,32,0,
0,4,-22,-62,0,0,100,0,80,40,40,40,1,-82,-80,0,0,100,0,256,320,128,96,0,-18,-60,0,0,100,0,80,80,40,48,1,-41,-16,0,0,65,0,632,160,80,32,0,
0,4,-22,-62,0,0,100,0,120,40,40,40,1,-82,-80,0,0,100,0,384,320,128,96,0,-18,-60,0,0,100,0,120,80,40,48,1,-41,-16,0,0,65,0,632,160,80,32,0,
0,5,-138,-56,0,0,100,0,256,512,88,56,0,-20,-61,0,0,100,0,160,40,40,40,1,-82,-80,0,0,100,0,512,320,128,96,0,-8,-59,0,0,100,0,160,80,40,48,1,-40,-16,0,0,65,0,632,160,80,32,0,
0,5,-138,-56,0,0,100,0,344,512,88,56,0,-21,-62,0,0,100,0,200,40,40,40,1,-82,-80,0,0,100,0,640,320,128,96,0,-9,-60,0,0,100,0,200,80,40,48,1,-41,-16,0,0,65,0,632,160,80,32,0,
0,4,-22,-62,0,0,100,0,240,40,40,40,1,-82,-80,0,0,100,0,768,320,128,96,0,-18,-60,0,0,100,0,240,80,40,48,1,-41,-16,0,0,65,0,632,160,80,32,0,
0,4,-20,-61,0,0,100,0,280,40,40,40,1,-82,-80,0,0,100,0,896,320,128,96,0,-16,-59,0,0,100,0,280,80,40,48,1,-38,-16,0,0,65,0,632,160,80,32,0,
0,4,-16,-59,0,0,100,0,320,40,40,40,1,-82,-80,0,0,100,0,0,416,128,96,0,-12,-57,0,0,100,0,320,80,40,48,1,-37,-16,0,0,65,0,632,160,80,32,0,
0,4,-15,-58,0,0,100,0,360,40,40,40,1,-82,-80,0,0,100,0,128,416,128,96,0,-11,-56,0,0,100,0,280,80,40,48,1,-37,-16,0,0,65,0,632,160,80,32,0,
0,4,-16,-59,0,0,100,0,400,40,40,40,1,-82,-80,0,0,100,0,256,416,128,96,0,-12,-57,0,0,100,0,360,80,40,48,1,-37,-16,0,0,65,0,632,160,80,32,0,
0,5,-178,-88,0,0,100,0,448,512,192,112,0,-11,-58,0,0,100,0,440,40,40,40,1,-82,-80,0,0,100,0,384,416,128,96,0,1,-56,0,0,100,0,400,80,40,48,1,-34,-16,0,0,65,0,632,160,80,32,0,
0,5,-178,-88,0,0,100,0,640,512,192,112,0,-13,-58,0,0,100,0,480,40,40,40,1,-82,-80,0,0,100,0,512,416,128,96,0,-1,-56,0,0,100,0,440,80,40,48,1,-36,-16,0,0,65,0,632,160,80,32,0,
0,5,-178,-88,0,0,100,0,832,512,192,112,0,-14,-58,0,0,100,0,520,40,40,40,1,-82,-80,0,0,100,0,640,416,128,96,0,-10,-56,0,0,100,0,240,80,40,48,1,-37,-16,0,0,65,0,632,160,80,32,0,
0,4,-14,-58,0,0,100,0,560,40,40,40,1,-82,-80,0,0,100,0,768,416,128,96,0,-10,-56,0,0,100,0,80,80,40,48,1,-37,-16,0,0,65,0,632,160,80,32,0,
0,4,-21,-61,0,0,100,0,600,40,40,40,1,-82,-80,0,0,100,0,896,416,128,96,0,-17,-59,0,0,100,0,240,80,40,48,1,-38,-16,0,0,65,0,632,160,80,32,0,
0,5,-20,-62,0,0,100,0,640,40,40,40,1,-82,-80,0,0,100,0,0,512,128,96,0,-16,-60,0,0,100,0,480,80,40,48,1,-58,-64,0,0,100,0,624,624,104,80,0,-39,-16,0,0,65,0,632,160,80,32,0,
0,6,-19,-62,0,0,100,0,680,40,40,40,1,-82,-80,0,0,100,0,128,512,128,96,0,-15,-60,0,0,100,0,0,80,40,48,1,-26,-56,0,0,100,0,312,568,56,40,0,-58,-64,0,0,100,0,728,624,104,80,0,-39,-16,0,0,65,0,632,160,80,32,0,
0,6,-19,-62,0,0,100,0,0,0,40,40,1,-50,-80,0,0,100,0,0,128,104,96,0,-18,-60,0,0,100,0,776,32,40,48,1,-26,-56,0,0,100,0,256,568,56,40,0,-50,-80,0,0,100,0,0,608,104,96,0,-40,-16,0,0,65,0,632,160,80,32,0,
0,5,-21,-62,0,0,100,0,200,0,40,40,1,-66,-80,0,0,100,0,0,224,112,96,0,-17,-60,0,0,100,0,0,80,40,48,1,-58,-64,0,0,100,0,416,624,104,80,0,-41,-16,0,0,65,0,632,160,80,32,0,
0,5,-23,-62,0,0,100,0,240,0,40,40,1,-66,-80,0,0,100,0,112,224,112,96,0,-19,-60,0,0,100,0,40,80,40,48,1,-58,-64,0,0,100,0,520,624,104,80,0,-42,-16,0,0,65,0,632,160,80,32,0,
0,4,-23,-62,0,0,100,0,280,0,40,40,1,-58,-80,0,0,100,0,224,224,88,96,0,-23,-60,0,0,100,0,520,80,40,48,1,-42,-16,0,0,65,0,632,160,80,32,0,
0,4,-23,-62,0,0,100,0,320,0,40,40,1,-58,-80,0,0,100,0,312,224,88,96,0,-23,-60,0,0,100,0,560,80,40,48,1,-42,-16,0,0,65,0,632,160,80,32,0,
0,4,-23,-62,0,0,100,0,360,0,40,40,1,-58,-80,0,0,100,0,400,224,88,96,0,-23,-60,0,0,100,0,600,80,40,48,1,-42,-16,0,0,65,0,632,160,80,32,0,
0,4,-23,-62,0,0,100,0,400,0,40,40,1,-58,-80,0,0,100,0,488,224,88,96,0,-23,-60,0,0,100,0,640,80,40,48,1,-42,-16,0,0,65,0,632,160,80,32,0,
0,4,-23,-62,0,0,100,0,440,0,40,40,1,-58,-80,0,0,100,0,576,224,88,96,0,-23,-60,0,0,100,0,680,80,40,48,1,-42,-16,0,0,65,0,632,160,80,32,0,
0,4,-24,-62,0,0,100,0,480,0,40,40,1,-58,-80,0,0,100,0,664,224,88,96,0,-24,-60,0,0,100,0,720,80,40,48,1,-42,-16,0,0,65,0,632,160,80,32,0,
0,4,-23,-62,0,0,100,0,520,0,40,40,1,-58,-80,0,0,100,0,752,224,88,96,0,-23,-60,0,0,100,0,760,80,40,48,1,-42,-16,0,0,65,0,632,160,80,32,0,
0,4,-23,-62,0,0,100,0,560,0,40,40,1,-58,-80,0,0,100,0,840,224,88,96,0,-23,-60,0,0,100,0,800,80,40,48,1,-42,-16,0,0,65,0,632,160,80,32,0,
0,4,-23,-62,0,0,100,0,600,0,40,40,1,-58,-80,0,0,100,0,928,224,88,96,0,-19,-60,0,0,100,0,840,80,40,48,1,-42,-16,0,0,65,0,632,160,80,32,0,
0,4,-23,-62,0,0,100,0,640,0,40,40,1,-58,-80,0,0,100,0,752,128,88,96,0,-19,-60,0,0,100,0,880,80,40,48,1,-42,-16,0,0,65,0,632,160,80,32,0,
0,4,-23,-62,0,0,100,0,680,0,40,40,1,-58,-80,0,0,100,0,840,128,88,96,0,-19,-60,0,0,100,0,920,80,40,48,1,-42,-16,0,0,65,0,632,160,80,32,0,
0,4,-23,-62,0,0,100,0,720,0,40,40,1,-58,-80,0,0,100,0,928,128,88,96,0,-19,-60,0,0,100,0,960,80,40,48,1,-42,-16,0,0,65,0,632,160,80,32,0,
0,4,-37,-58,0,0,100,0,160,0,40,40,1,-60,-80,0,0,100,0,416,128,104,96,0,-21,-52,0,0,100,0,720,40,40,40,1,-45,-16,0,0,65,0,632,160,80,32,0,
