0,2,-48,-88,0,0,100,0,0,0,96,96,0,-48,-16,0,0,65,0,480,0,96,32,0,
0,2,-48,-88,0,0,100,0,96,0,96,96,0,-48,-16,0,0,65,0,480,0,96,32,0,
0,2,-48,-88,0,0,100,0,192,0,96,96,0,-48,-16,0,0,65,0,480,0,96,32,0,
0,2,-48,-88,0,0,100,0,288,0,96,96,0,-48,-16,0,0,65,0,480,0,96,32,0,
0,2,-48,-88,0,0,100,0,0,96,96,96,0,-48,-16,0,0,65,0,480,0,96,32,0,
0,3,-48,-88,0,0,90,0,96,96,96,96,0,-48,-88,0,0,20,0,0,96,96,96,0,-48,-16,0,0,65,0,480,0,96,32,0,
0,3,-48,-88,0,0,70,0,192,96,96,96,0,-48,-88,0,0,20,0,96,96,96,96,0,-48,-16,0,0,65,0,480,0,96,32,0,
0,3,-48,-88,0,0,50,0,288,96,96,96,0,-48,-88,0,0,10,0,192,96,96,96,0,-48,-16,0,0,40,0,480,0,96,32,0,
0,3,-48,-88,0,0,30,0,384,96,96,96,0,-48,-88,0,0,10,0,288,96,96,96,0,-48,-16,0,0,10,0,480,0,96,32,0,
0,3,-48,-88,0,0,20,0,480,96,96,96,0,-48,-88,0,0,5,0,384,96,96,96,0,-48,-16,0,0,5,0,480,0,96,32,0,
0,2,-48,-96,0,0,100,0,576,96,96,96,0,-48,-88,0,0,5,0,480,96,96,96,0,
0,2,-64,-160,0,0,30,0,0,192,96,96,0,-56,-16,0,0,5,0,480,0,96,32,0,
0,2,-64,-160,0,0,50,0,96,192,96,96,0,-56,-16,0,0,10,0,480,0,96,32,0,
0,2,-64,-160,0,0,70,0,192,192,96,96,0,-56,-16,0,0,40,0,480,0,96,32,0,
0,2,-64,-160,0,0,80,0,288,192,96,96,0,-56,-16,0,0,65,0,480,0,96,32,0,
0,2,-64,-160,0,0,80,0,384,192,96,96,0,-56,-16,0,0,65,0,480,0,96,32,0,
0,2,-64,-160,0,0,100,0,480,192,96,96,0,-56,-16,0,0,65,0,480,0,96,32,0,
0,2,-72,-152,0,0,100,0,576,192,96,96,0,-64,-16,0,0,65,0,480,0,96,32,0,
0,3,-152,-88,0,0,100,0,576,384,192,96,0,-160,-88,0,0,100,0,0,288,96,96,0,-164,-16,0,0,65,0,480,0,96,32,0,
0,2,-160,-88,0,0,100,0,96,288,96,96,0,-164,-16,0,0,65,0,480,0,96,32,0,
0,2,-160,-88,0,0,100,0,192,288,96,96,0,-164,-16,0,0,65,0,480,0,96,32,0,
0,2,-160,-88,0,0,100,0,288,288,96,96,0,-164,-16,0,0,65,0,480,0,96,32,0,
0,2,-160,-88,0,0,100,0,384,288,96,96,0,-163,-16,0,0,65,0,480,0,96,32,0,
0,2,-128,-96,0,0,100,0,480,288,96,96,0,-132,-16,0,0,65,0,480,0,96,32,0,
0,2,-80,-88,0,0,100,0,480,288,96,96,0,-84,-16,0,0,65,0,480,0,96,32,0,
0,2,-48,-88,0,0,100,0,384,0,96,96,0,-48,-16,0,0,65,0,480,0,96,32,0,
0,2,-48,-88,0,0,100,0,0,0,96,96,0,-48,-16,0,0,65,0,480,0,96,32,0,
0,2,-48,-88,0,0,100,0,0,384,96,96,0,-48,-16,0,0,65,0,480,0,96,32,0,
0,2,-48,-88,0,0,100,0,96,384,96,96,0,-48,-16,0,0,65,0,480,0,96,32,0,
0,2,-48,-88,0,0,100,0,192,384,96,96,0,-50,-16,0,0,65,0,480,0,96,32,0,
0,2,-48,-88,0,0,100,0,288,384,96,96,0,-55,-16,0,0,65,0,480,0,96,32,0,
0,2,-48,-88,0,0,100,0,384,384,96,96,0,-55,-16,0,0,65,0,480,0,96,32,0,
0,2,-48,-88,0,0,100,0,480,384,96,96,0,-55,-16,0,0,65,0,480,0,96,32,0,
0,3,-48,-88,0,0,100,0,0,480,96,96,0,-48,-88,0,0,30,0,480,384,96,96,0,-55,-16,0,0,50,0,480,0,96,32,0,
0,3,-48,-88,0,0,100,0,96,480,96,96,0,-48,-88,0,0,30,0,0,480,96,96,0,-55,-16,0,0,40,0,480,0,96,32,0,
0,3,-48,-88,0,0,100,0,192,480,96,96,0,-48,-88,0,0,30,0,96,480,96,96,0,-55,-16,0,0,30,0,480,0,96,32,0,
0,3,-48,-88,0,0,100,0,288,480,96,96,0,-48,-88,0,0,30,0,192,480,96,96,0,-55,-16,0,0,20,0,480,0,96,32,0,
0,3,-48,-88,0,0,100,0,384,480,96,96,0,-48,-88,0,0,30,0,288,480,96,96,0,-55,-16,0,0,10,0,480,0,96,32,0,
0,3,-48,-88,0,0,70,0,480,480,96,96,0,-48,-88,0,0,20,0,384,480,96,96,0,-55,-16,0,0,5,0,480,0,96,32,0,
0,2,-48,-88,0,0,50,0,576,480,96,96,0,-48,-88,0,0,10,0,480,480,96,96,0,
0,1,-48,-88,0,0,20,0,576,480,96,96,0,
0,1,-48,-88,0,0,100,0,576,96,96,96,0,
