0,15,-20,-49,0,0,100,0,0,40,40,40,0,-20,-41,0,0,100,0,0,80,40,40,0,-28,-57,0,0,100,0,320,0,80,80,0,-20,-69,0,0,100,0,0,416,72,96,0,-12,-57,0,0,100,0,0,120,40,40,0,-20,-65,0,0,100,0,320,80,80,80,0,-20,-65,0,0,100,0,0,0,40,40,0,-48,-81,0,0,100,0,0,320,96,96,0,-20,-41,0,0,100,0,0,160,40,40,0,-20,-49,0,0,100,0,0,200,40,40,0,-20,-25,0,0,100,0,160,0,40,40,0,-12,-25,0,0,100,0,160,40,40,40,0,-12,-41,0,0,100,0,0,240,40,40,0,-8,-69,0,0,100,0,144,416,72,96,0,-28,-12,0,0,65,0,480,272,56,24,0,
0,15,-20,-49,0,0,100,0,0,40,40,40,0,-20,-41,0,0,100,0,40,80,40,40,0,-29,-57,0,0,100,0,320,0,80,80,0,-21,-69,0,0,100,0,288,416,72,96,0,-12,-57,0,0,100,0,40,120,40,40,0,-20,-65,0,0,100,0,400,80,80,80,0,-20,-65,0,0,100,0,40,0,40,40,0,-48,-81,0,0,100,0,96,320,96,96,0,-20,-41,0,0,100,0,0,160,40,40,0,-20,-49,0,0,100,0,0,200,40,40,0,-20,-25,0,0,100,0,160,0,40,40,0,-12,-25,0,0,100,0,160,40,40,40,0,-13,-41,0,0,100,0,80,240,40,40,0,-9,-69,0,0,100,0,144,416,72,96,0,-28,-12,0,0,65,0,480,272,56,24,0,
0,15,-20,-49,0,0,100,0,0,40,40,40,0,-20,-40,0,0,100,0,80,80,40,40,0,-29,-57,0,0,100,0,320,0,80,80,0,-20,-69,0,0,100,0,72,416,72,96,0,-12,-57,0,0,100,0,80,120,40,40,0,-20,-65,0,0,100,0,480,80,80,80,0,-20,-65,0,0,100,0,80,0,40,40,0,-48,-81,0,0,100,0,192,320,96,96,0,-20,-41,0,0,100,0,0,160,40,40,0,-20,-49,0,0,100,0,0,200,40,40,0,-20,-25,0,0,100,0,160,0,40,40,0,-12,-25,0,0,100,0,160,40,40,40,0,-13,-41,0,0,100,0,0,240,40,40,0,-9,-69,0,0,100,0,144,416,72,96,0,-28,-12,0,0,65,0,480,272,56,24,0,
0,15,-20,-49,0,0,100,0,0,40,40,40,0,-20,-41,0,0,100,0,0,80,40,40,0,-28,-57,0,0,100,0,320,0,80,80,0,-21,-69,0,0,100,0,288,416,72,96,0,-12,-57,0,0,100,0,120,120,40,40,0,-20,-65,0,0,100,0,560,80,80,80,0,-20,-65,0,0,100,0,120,0,40,40,0,-48,-81,0,0,100,0,288,320,96,96,0,-20,-41,0,0,100,0,0,160,40,40,0,-20,-49,0,0,100,0,0,200,40,40,0,-20,-25,0,0,100,0,160,0,40,40,0,-12,-25,0,0,100,0,160,40,40,40,0,-12,-41,0,0,100,0,40,240,40,40,0,-8,-69,0,0,100,0,144,416,72,96,0,-28,-12,0,0,65,0,480,272,56,24,0,
0,15,-29,-45,0,1,100,0,672,0,128,80,0,-24,-45,0,0,100,0,0,40,40,40,0,-23,-38,0,0,100,0,120,80,40,40,0,-32,-58,0,0,100,0,320,0,80,80,0,-23,-51,0,0,100,0,120,120,40,40,0,-17,-94,1,0,100,0,96,512,96,96,0,-18,-63,0,0,100,0,400,80,80,80,0,-30,-60,0,0,100,0,320,160,80,80,0,-32,-58,0,0,100,0,120,0,40,40,0,-24,-39,0,0,100,0,0,160,40,40,0,-25,-47,0,0,100,0,40,200,40,40,0,-20,-28,0,0,100,0,240,0,40,40,0,-10,-27,0,0,100,0,240,40,40,40,0,-17,-61,0,0,100,0,576,512,64,40,0,-28,-12,0,0,65,0,480,272,56,24,0,
0,19,-113,-24,0,1,100,0,800,72,224,56,0,-26,-43,0,0,100,0,0,40,40,40,0,-35,-46,0,0,100,0,80,40,40,40,0,-35,-46,0,0,100,0,120,40,40,40,0,-20,-49,0,0,100,0,120,120,40,40,0,-19,-94,0,0,100,0,384,512,96,96,0,-25,-65,0,0,100,0,320,80,80,80,0,-30,-60,0,0,100,0,240,160,80,80,0,-29,-56,0,0,100,0,120,0,40,40,0,-21,-37,0,0,100,0,0,160,40,40,0,-22,-45,0,0,100,0,40,200,40,40,0,-20,-28,0,0,100,0,280,0,40,40,0,-5,-26,0,0,100,0,280,40,40,40,0,-19,-41,0,0,100,0,40,160,40,40,0,-16,-50,0,0,100,0,120,240,40,40,0,-113,-96,0,1,100,0,800,0,224,72,0,-16,-90,0,0,100,0,400,0,64,80,0,-18,-93,0,0,100,0,480,512,40,96,0,-21,-12,0,0,65,0,480,272,56,24,0,
0,17,-28,-41,0,0,100,0,0,40,40,40,0,-38,-46,0,0,100,0,80,40,40,40,0,-37,-45,0,0,100,0,120,40,40,40,0,-20,-48,0,0,100,0,0,120,40,40,0,-21,-92,0,0,100,0,384,512,96,96,0,-27,-62,0,0,100,0,240,160,80,80,0,-30,-54,0,0,100,0,0,0,40,40,0,-21,-36,0,0,100,0,0,160,40,40,0,-22,-44,0,0,100,0,40,200,40,40,0,-20,-28,0,0,100,0,280,0,40,40,0,-4,-26,0,0,100,0,280,40,40,40,0,-18,-41,0,0,100,0,40,160,40,40,0,-13,-49,0,0,100,0,120,240,40,40,0,-20,-91,0,0,100,0,480,512,40,96,0,-126,-96,0,1,100,0,1024,0,224,128,0,-13,-89,0,0,100,0,400,0,64,80,0,-21,-12,0,0,65,0,480,272,56,24,0,
0,17,-29,-40,0,0,100,0,0,40,40,40,0,-39,-46,0,0,100,0,80,40,40,40,0,-37,-45,0,0,100,0,120,40,40,40,0,-20,-47,0,0,100,0,0,120,40,40,0,-27,-57,0,0,100,0,320,160,80,80,0,-30,-53,0,0,100,0,0,0,40,40,0,-14,-92,1,0,100,0,96,512,96,96,0,-21,-35,0,0,100,0,0,160,40,40,0,-22,-44,0,0,100,0,40,200,40,40,0,-20,-28,0,0,100,0,280,0,40,40,0,-4,-26,0,0,100,0,280,40,40,40,0,-19,-40,0,0,100,0,40,160,40,40,0,-12,-47,0,0,100,0,120,240,40,40,0,-34,-85,0,1,100,0,1248,0,96,64,0,-12,-87,0,0,100,0,400,0,64,80,0,-15,-60,0,0,100,0,576,512,64,40,0,-21,-12,0,0,65,0,480,272,56,24,0,
0,16,-28,-38,0,0,100,0,0,40,40,40,0,-35,-41,0,0,100,0,80,40,40,40,0,-35,-42,0,0,100,0,120,40,40,40,0,-20,-47,0,0,100,0,40,120,40,40,0,-17,-91,1,0,100,0,96,512,96,96,0,-20,-65,0,0,100,0,320,80,80,80,0,-31,-57,0,0,100,0,400,160,80,80,0,-31,-54,0,0,100,0,40,0,40,40,0,-21,-35,0,0,100,0,0,160,40,40,0,-22,-44,0,0,100,0,40,200,40,40,0,-17,-28,0,0,100,0,280,0,40,40,0,-5,-28,0,0,100,0,280,40,40,40,0,-15,-41,0,0,100,0,40,160,40,40,0,-24,-79,0,0,100,0,464,0,80,80,0,-21,-58,0,0,100,0,576,512,64,40,0,-21,-12,0,0,65,0,480,272,56,24,0,
0,21,-99,-47,0,0,100,0,0,40,40,40,0,-99,-41,0,0,100,0,200,200,40,40,0,-102,-41,0,0,100,0,200,160,40,40,0,-147,-50,1,0,100,0,320,0,80,80,0,-105,-59,0,0,100,0,160,240,40,40,0,-98,-45,0,0,100,0,160,160,40,40,0,-104,-41,0,0,100,0,160,200,40,40,0,-99,-47,0,0,100,0,120,160,40,40,0,-107,-44,0,0,100,0,120,200,40,40,0,-104,-47,0,0,100,0,160,280,40,40,0,-98,-42,0,0,100,0,80,160,40,40,0,-102,-50,0,0,100,0,80,200,40,40,0,-87,-95,1,0,100,0,96,512,96,96,0,-107,-44,0,0,100,0,40,40,40,40,0,-106,-32,0,0,100,0,160,80,40,40,0,-89,-32,0,0,100,0,160,120,40,40,0,-102,-68,0,0,100,0,400,80,80,80,0,-109,-88,0,0,100,0,640,80,80,80,0,-92,-95,0,0,100,0,520,512,56,96,0,-187,-97,0,1,100,0,800,128,296,128,0,-98,-12,0,0,65,0,480,272,56,24,0,
0,21,-110,-46,0,0,100,0,0,40,40,40,0,-106,-36,0,0,100,0,200,200,40,40,0,-109,-36,0,0,100,0,200,160,40,40,0,-154,-45,1,0,100,0,320,0,80,80,0,-119,-54,0,0,100,0,160,240,40,40,0,-106,-41,0,0,100,0,160,160,40,40,0,-115,-37,0,0,100,0,160,200,40,40,0,-108,-43,0,0,100,0,120,160,40,40,0,-119,-40,0,0,100,0,120,200,40,40,0,-117,-44,0,0,100,0,160,280,40,40,0,-111,-39,0,0,100,0,80,160,40,40,0,-115,-47,0,0,100,0,80,200,40,40,0,-107,-96,0,0,100,0,384,512,96,96,0,-120,-40,0,0,100,0,40,40,40,40,0,-121,-32,0,0,100,0,160,80,40,40,0,-102,-32,0,0,100,0,160,120,40,40,0,-112,-64,0,0,100,0,480,80,80,80,0,-122,-83,0,0,100,0,640,80,80,80,0,-112,-93,0,0,100,0,480,512,40,96,0,-174,-97,0,1,100,0,1096,128,144,128,0,-112,-12,0,0,65,0,480,272,56,24,0,
0,21,-115,-44,0,0,100,0,0,40,40,40,0,-110,-34,0,0,100,0,200,200,40,40,0,-113,-34,0,0,100,0,200,160,40,40,0,-158,-43,1,0,100,0,320,0,80,80,0,-125,-52,0,0,100,0,160,240,40,40,0,-110,-39,0,0,100,0,160,160,40,40,0,-118,-34,0,0,100,0,160,200,40,40,0,-111,-41,0,0,100,0,120,160,40,40,0,-122,-38,0,0,100,0,120,200,40,40,0,-123,-43,0,0,100,0,160,280,40,40,0,-117,-38,0,0,100,0,80,160,40,40,0,-121,-46,0,0,100,0,80,200,40,40,0,-111,-93,0,0,100,0,384,512,96,96,0,-124,-38,0,0,100,0,40,40,40,40,0,-127,-32,0,0,100,0,160,80,40,40,0,-107,-32,0,0,100,0,160,120,40,40,0,-117,-60,0,0,100,0,560,80,80,80,0,-129,-76,0,0,100,0,720,80,80,80,0,-184,-97,0,1,100,0,1240,128,104,128,0,-115,-88,0,0,100,0,480,512,40,96,0,-115,-12,0,0,65,0,480,272,56,24,0,
0,21,-115,-43,0,0,100,0,0,40,40,40,0,-109,-34,0,0,100,0,200,200,40,40,0,-112,-34,0,0,100,0,200,160,40,40,0,-157,-43,1,0,100,0,320,0,80,80,0,-126,-51,0,0,100,0,160,240,40,40,0,-109,-39,0,0,100,0,160,160,40,40,0,-117,-34,0,0,100,0,160,200,40,40,0,-111,-40,0,0,100,0,120,160,40,40,0,-122,-37,0,0,100,0,120,200,40,40,0,-124,-42,0,0,100,0,160,280,40,40,0,-118,-37,0,0,100,0,80,160,40,40,0,-122,-45,0,0,100,0,80,200,40,40,0,-112,-92,0,0,100,0,384,512,96,96,0,-125,-37,0,0,100,0,40,40,40,40,0,-128,-32,0,0,100,0,160,80,40,40,0,-108,-32,0,0,100,0,160,120,40,40,0,-118,-61,0,0,100,0,320,80,80,80,0,-128,-51,0,0,100,0,640,160,80,80,0,-191,-31,0,1,100,0,1248,64,96,64,0,-115,-87,0,0,100,0,480,512,40,96,0,-116,-12,0,0,65,0,480,272,56,24,0,
0,21,-125,-42,0,0,100,0,0,40,40,40,0,-118,-34,0,0,100,0,200,200,40,40,0,-121,-34,0,0,100,0,200,160,40,40,0,-166,-43,1,0,100,0,320,0,80,80,0,-136,-50,0,0,100,0,160,240,40,40,0,-118,-39,0,0,100,0,160,160,40,40,0,-126,-34,0,0,100,0,160,200,40,40,0,-120,-39,0,0,100,0,120,160,40,40,0,-132,-36,0,0,100,0,120,200,40,40,0,-134,-41,0,0,100,0,160,280,40,40,0,-128,-36,0,0,100,0,80,160,40,40,0,-132,-44,0,0,100,0,80,200,40,40,0,-122,-90,1,0,100,0,96,512,96,96,0,-135,-36,0,0,100,0,40,40,40,40,0,-138,-32,0,0,100,0,160,80,40,40,0,-118,-32,0,0,100,0,160,120,40,40,0,-135,-58,0,0,100,0,400,80,80,80,0,-141,-50,0,0,100,0,720,160,80,80,0,-191,-30,0,1,50,0,1248,64,96,64,0,-123,-57,0,0,100,0,576,512,64,40,0,-127,-12,0,0,65,0,480,272,56,24,0,
0,21,-130,-45,0,0,100,0,0,40,40,40,0,-125,-36,0,0,100,0,200,200,40,40,0,-128,-36,0,0,100,0,200,160,40,40,0,-173,-45,1,0,100,0,320,0,80,80,0,-140,-55,0,0,100,0,160,240,40,40,0,-125,-41,0,0,100,0,160,160,40,40,0,-133,-36,0,0,100,0,160,200,40,40,0,-127,-43,0,0,100,0,120,160,40,40,0,-139,-41,0,0,100,0,120,200,40,40,0,-139,-45,0,0,100,0,160,280,40,40,0,-133,-40,0,0,100,0,80,160,40,40,0,-127,-93,1,0,100,0,96,512,96,96,0,-137,-48,0,0,100,0,80,200,40,40,0,-140,-41,0,0,100,0,40,40,40,40,0,-143,-33,0,0,100,0,160,80,40,40,0,-124,-32,0,0,100,0,160,120,40,40,0,-154,-59,1,0,100,0,560,80,80,80,0,-161,-52,1,0,100,0,640,160,80,80,0,-191,-30,0,1,25,0,1248,64,96,64,0,-128,-60,0,0,100,0,576,512,64,40,0,-134,-12,0,0,65,0,480,272,56,24,0,
0,16,-267,-88,0,1,100,0,656,256,144,128,0,-148,-47,1,0,100,0,0,40,40,40,0,-159,-47,0,0,100,0,80,40,40,40,0,-159,-47,0,0,100,0,120,40,40,40,0,-153,-58,0,0,100,0,0,0,40,40,0,-151,-48,0,0,100,0,160,280,40,40,0,-147,-49,0,0,100,0,40,200,40,40,0,-139,-95,1,0,100,0,96,512,96,96,0,-155,-64,0,0,100,0,560,80,80,80,0,-145,-43,0,0,100,0,80,160,40,40,0,-152,-35,0,0,100,0,160,80,40,40,0,-136,-32,0,0,100,0,160,120,40,40,0,-162,-53,0,0,100,0,200,160,40,40,0,-209,-78,1,0,100,0,464,0,80,80,0,-138,-61,0,0,100,0,576,512,64,40,0,-145,-12,0,0,65,0,480,272,56,24,0,
0,18,-128,-60,0,0,100,0,240,80,80,80,0,-174,-91,1,0,100,0,384,512,96,96,0,-148,-59,1,0,100,0,400,80,80,80,0,-111,-44,1,0,100,0,200,200,40,40,0,-106,-54,0,0,100,0,320,0,80,80,0,-111,-43,1,0,100,0,160,200,40,40,0,-109,-43,1,0,100,0,0,40,40,40,0,-112,-47,1,0,100,0,80,120,40,40,0,-103,-54,1,0,100,0,80,0,40,40,0,-116,-50,1,0,100,0,200,80,40,40,0,-115,-35,1,0,100,0,0,160,40,40,0,-111,-43,1,0,100,0,40,200,40,40,0,-114,-25,1,0,100,0,280,0,40,40,0,-129,-25,1,0,100,0,280,40,40,40,0,-115,-38,0,0,100,0,40,160,40,40,0,-114,-95,1,0,100,0,480,512,40,96,0,-270,-89,0,1,100,0,800,256,296,128,0,-128,-12,0,0,65,0,480,272,56,24,0,
0,17,-111,-42,1,0,100,0,200,200,40,40,0,-107,-52,0,0,100,0,320,0,80,80,0,-111,-41,1,0,100,0,160,200,40,40,0,-106,-41,1,0,100,0,0,40,40,40,0,-108,-45,1,0,100,0,120,120,40,40,0,-170,-88,1,0,100,0,384,512,96,96,0,-149,-64,1,0,100,0,560,80,80,80,0,-144,-56,1,0,100,0,240,160,80,80,0,-98,-51,1,0,100,0,120,0,40,40,0,-111,-33,1,0,100,0,0,160,40,40,0,-107,-41,1,0,100,0,40,200,40,40,0,-111,-25,1,0,100,0,280,0,40,40,0,-110,-36,0,0,100,0,40,160,40,40,0,-127,-25,1,0,100,0,280,40,40,40,0,-110,-92,1,0,100,0,480,512,40,96,0,-137,-89,0,1,100,0,1096,256,144,128,0,-126,-12,0,0,65,0,480,272,56,24,0,
0,18,-114,-42,1,0,100,0,200,200,40,40,0,-110,-52,0,0,100,0,320,0,80,80,0,-107,-41,1,0,100,0,0,40,40,40,0,-111,-42,1,0,100,0,160,200,40,40,0,-115,-45,0,0,100,0,120,40,40,40,0,-107,-44,1,0,100,0,120,120,40,40,0,-169,-88,1,0,100,0,384,512,96,96,0,-145,-62,1,0,100,0,320,80,80,80,0,-143,-54,1,0,100,0,320,160,80,80,0,-97,-49,1,0,100,0,120,0,40,40,0,-110,-32,1,0,100,0,0,160,40,40,0,-106,-40,1,0,100,0,40,200,40,40,0,-109,-25,1,0,100,0,280,0,40,40,0,-110,-36,0,0,100,0,40,160,40,40,0,-127,-25,1,0,100,0,280,40,40,40,0,-103,-90,0,1,100,0,1240,256,104,128,0,-109,-92,1,0,100,0,480,512,40,96,0,-125,-12,0,0,65,0,480,272,56,24,0,
0,17,-115,-42,1,0,100,0,200,200,40,40,0,-111,-52,0,0,100,0,320,0,80,80,0,-108,-41,1,0,100,0,0,40,40,40,0,-112,-42,1,0,100,0,160,200,40,40,0,-115,-45,0,0,100,0,120,40,40,40,0,-107,-43,1,0,100,0,0,120,40,40,0,-169,-88,0,0,100,0,96,512,96,96,0,-143,-60,1,0,100,0,480,80,80,80,0,-97,-48,1,0,100,0,0,0,40,40,0,-110,-31,1,0,100,0,0,160,40,40,0,-106,-39,1,0,100,0,40,200,40,40,0,-109,-25,1,0,100,0,280,0,40,40,0,-110,-36,0,0,100,0,40,160,40,40,0,-127,-25,1,0,100,0,280,40,40,40,0,-101,-90,0,1,50,0,1240,256,104,128,0,-136,-59,1,0,100,0,576,512,64,40,0,-125,-12,0,0,65,0,480,272,56,24,0,
0,17,-115,-42,1,0,100,0,200,200,40,40,0,-111,-52,0,0,100,0,320,0,80,80,0,-107,-41,1,0,100,0,0,40,40,40,0,-112,-42,1,0,100,0,160,200,40,40,0,-115,-45,0,0,100,0,120,40,40,40,0,-107,-43,1,0,100,0,0,120,40,40,0,-169,-88,0,0,100,0,96,512,96,96,0,-143,-60,1,0,100,0,560,80,80,80,0,-97,-48,1,0,100,0,0,0,40,40,0,-110,-31,1,0,100,0,0,160,40,40,0,-106,-39,1,0,100,0,40,200,40,40,0,-109,-25,1,0,100,0,280,0,40,40,0,-110,-36,0,0,100,0,40,160,40,40,0,-127,-25,1,0,100,0,280,40,40,40,0,-101,-90,0,1,25,0,1240,256,104,128,0,-136,-59,1,0,100,0,576,512,64,40,0,-125,-12,0,0,65,0,480,272,56,24,0,
0,17,-116,-41,1,0,100,0,200,200,40,40,0,-112,-51,0,0,100,0,320,0,80,80,0,-106,-41,1,0,100,0,0,40,40,40,0,-114,-42,1,0,100,0,160,200,40,40,0,-116,-45,0,0,100,0,120,40,40,40,0,-106,-43,1,0,100,0,40,120,40,40,0,-169,-89,0,0,100,0,96,512,96,96,0,-144,-60,1,0,100,0,320,80,80,80,0,-96,-48,1,0,100,0,40,0,40,40,0,-109,-31,1,0,100,0,0,160,40,40,0,-105,-39,1,0,100,0,40,200,40,40,0,-109,-25,1,0,100,0,280,0,40,40,0,-109,-36,0,0,100,0,40,160,40,40,0,-126,-25,1,0,100,0,280,40,40,40,0,-96,-37,1,0,100,0,80,240,40,40,0,-135,-59,1,0,100,0,576,512,64,40,0,-124,-12,0,0,65,0,480,272,56,24,0,
0,17,-117,-40,1,0,100,0,200,200,40,40,0,-113,-50,0,0,100,0,320,0,80,80,0,-105,-41,1,0,100,0,0,40,40,40,0,-114,-41,1,0,100,0,160,200,40,40,0,-116,-44,0,0,100,0,120,40,40,40,0,-105,-43,1,0,100,0,40,120,40,40,0,-167,-89,0,0,100,0,96,512,96,96,0,-141,-60,1,0,100,0,400,80,80,80,0,-95,-48,1,0,100,0,40,0,40,40,0,-108,-31,1,0,100,0,0,160,40,40,0,-104,-39,1,0,100,0,40,200,40,40,0,-109,-25,1,0,100,0,280,0,40,40,0,-108,-36,0,0,100,0,40,160,40,40,0,-125,-25,1,0,100,0,280,40,40,40,0,-95,-37,1,0,100,0,80,240,40,40,0,-133,-59,1,0,100,0,576,512,64,40,0,-124,-12,0,0,65,0,480,272,56,24,0,
0,19,-92,-42,0,0,100,0,80,40,40,40,0,-112,-38,1,0,100,0,200,160,40,40,0,-158,-48,1,0,100,0,320,0,80,80,0,-102,-45,1,0,100,0,0,40,40,40,0,-109,-39,1,0,100,0,160,200,40,40,0,-105,-44,1,0,100,0,120,200,40,40,0,-102,-47,1,0,100,0,80,120,40,40,0,-163,-91,0,0,100,0,96,512,96,96,0,-137,-65,1,0,100,0,480,80,80,80,0,-139,-53,1,0,100,0,400,160,80,80,0,-92,-52,1,0,100,0,80,0,40,40,0,-105,-35,1,0,100,0,0,160,40,40,0,-101,-43,1,0,100,0,40,200,40,40,0,-87,-43,1,0,100,0,120,40,40,40,0,-108,-25,1,0,100,0,280,0,40,40,0,-110,-36,0,0,100,0,40,160,40,40,0,-119,-26,1,0,100,0,280,40,40,40,0,-131,-61,1,0,100,0,576,512,64,40,0,-120,-12,0,0,65,0,480,272,56,24,0,
0,19,-85,-42,0,0,100,0,80,40,40,40,0,-104,-38,1,0,100,0,200,160,40,40,0,-150,-48,1,0,100,0,320,0,80,80,0,-96,-45,1,0,100,0,0,40,40,40,0,-101,-39,1,0,100,0,160,200,40,40,0,-97,-44,1,0,100,0,120,200,40,40,0,-98,-47,1,0,100,0,80,120,40,40,0,-157,-91,0,0,100,0,96,512,96,96,0,-135,-65,1,0,100,0,560,80,80,80,0,-134,-56,1,0,100,0,400,160,80,80,0,-89,-54,1,0,100,0,80,0,40,40,0,-101,-35,1,0,100,0,0,160,40,40,0,-97,-43,1,0,100,0,40,200,40,40,0,-83,-43,1,0,100,0,120,40,40,40,0,-108,-25,1,0,100,0,280,0,40,40,0,-110,-36,0,0,100,0,40,160,40,40,0,-117,-26,1,0,100,0,280,40,40,40,0,-129,-62,1,0,100,0,576,512,64,40,0,-118,-12,0,0,65,0,480,272,56,24,0,
0,18,-201,-72,0,1,100,0,536,384,144,128,0,-88,-39,1,0,100,0,200,160,40,40,0,-131,-49,1,0,100,0,320,0,80,80,0,-93,-44,0,0,100,0,0,40,40,40,0,-88,-41,0,0,100,0,160,160,40,40,0,-90,-43,0,0,100,0,120,160,40,40,0,-98,-49,1,0,100,0,120,120,40,40,0,-156,-94,0,0,100,0,96,512,96,96,0,-133,-65,1,0,100,0,320,80,80,80,0,-131,-58,1,0,100,0,320,160,80,80,0,-89,-57,1,0,100,0,120,0,40,40,0,-99,-39,1,0,100,0,0,160,40,40,0,-95,-47,1,0,100,0,40,200,40,40,0,-101,-25,1,0,100,0,280,0,40,40,0,-103,-36,0,0,100,0,40,160,40,40,0,-131,-61,1,0,100,0,576,512,64,40,0,-112,-26,1,0,100,0,280,40,40,40,0,-112,-12,0,0,65,0,480,272,56,24,0,
0,18,-223,-37,0,1,100,0,680,440,296,72,0,-54,-49,0,0,100,0,0,40,40,40,0,-118,-96,0,0,100,0,96,512,96,96,0,-44,-52,1,0,100,0,120,40,40,40,0,-64,-56,1,0,100,0,0,120,40,40,0,-99,-63,1,0,100,0,560,80,80,80,0,-94,-65,1,0,100,0,240,160,80,80,0,-56,-64,1,0,100,0,0,0,40,40,0,-58,-40,1,0,100,0,0,160,40,40,0,-57,-48,1,0,100,0,0,200,40,40,0,-57,-25,1,0,100,0,160,0,40,40,0,-67,-25,1,0,100,0,160,40,40,40,0,-107,-63,1,0,100,0,576,512,64,40,0,-223,-93,0,1,100,0,680,384,296,56,0,-69,-90,1,0,100,0,400,0,64,80,0,-46,-51,2,0,100,0,120,240,40,40,0,-60,-43,0,0,100,0,40,160,40,40,0,-66,-12,0,0,65,0,480,272,56,24,0,
0,17,-13,-50,0,0,100,0,0,40,40,40,0,-6,-53,1,0,100,0,120,40,40,40,0,-70,-97,1,0,100,0,384,512,96,96,0,-23,-57,1,0,100,0,40,120,40,40,0,-64,-64,1,0,100,0,400,80,80,80,0,-53,-66,1,0,100,0,240,160,80,80,0,-15,-65,1,0,100,0,40,0,40,40,0,-17,-41,1,0,100,0,0,160,40,40,0,-16,-49,1,0,100,0,0,200,40,40,0,-17,-25,1,0,100,0,160,0,40,40,0,-26,-25,1,0,100,0,160,40,40,40,0,-51,-94,1,0,100,0,520,512,56,96,0,-44,-103,0,1,100,0,976,384,152,128,0,-34,-91,1,0,100,0,400,0,64,80,0,-10,-52,2,0,100,0,120,240,40,40,0,-20,-43,0,0,100,0,40,160,40,40,0,-26,-12,0,0,65,0,480,272,56,24,0,
0,17,-12,-51,0,0,100,0,0,40,40,40,0,-6,-54,1,0,100,0,120,40,40,40,0,-71,-99,1,0,100,0,384,512,96,96,0,-20,-58,1,0,100,0,80,120,40,40,0,-58,-65,1,0,100,0,560,80,80,80,0,-51,-65,1,0,100,0,320,160,80,80,0,-16,-66,1,0,100,0,80,0,40,40,0,-16,-42,1,0,100,0,0,160,40,40,0,-15,-50,1,0,100,0,0,200,40,40,0,-16,-25,1,0,100,0,160,0,40,40,0,-25,-25,1,0,100,0,160,40,40,40,0,-53,-97,1,0,100,0,520,512,56,96,0,-49,-113,0,1,100,0,1128,384,128,128,0,-36,-91,1,0,100,0,400,0,64,80,0,-11,-53,2,0,100,0,120,240,40,40,0,-19,-43,0,0,100,0,40,160,40,40,0,-25,-12,0,0,65,0,480,272,56,24,0,
0,16,-13,-51,0,0,100,0,0,40,40,40,0,-8,-54,1,0,100,0,120,40,40,40,0,-20,-58,1,0,100,0,120,120,40,40,0,-79,-99,0,0,100,0,96,512,96,96,0,-55,-66,1,0,100,0,320,80,80,80,0,-49,-64,1,0,100,0,400,160,80,80,0,-17,-66,1,0,100,0,120,0,40,40,0,-16,-42,1,0,100,0,0,160,40,40,0,-16,-50,1,0,100,0,0,200,40,40,0,-16,-26,1,0,100,0,160,0,40,40,0,-70,-61,1,0,100,0,576,512,64,40,0,-25,-24,1,0,100,0,160,40,40,40,0,-65,-113,0,1,100,0,1256,384,88,128,0,-39,-89,1,0,100,0,400,0,64,80,0,-19,-43,0,0,100,0,40,160,40,40,0,-25,-12,0,0,65,0,480,272,56,24,0,
0,16,-41,-67,1,0,100,0,240,80,80,80,0,-15,-71,0,0,100,0,72,416,72,96,0,-21,-49,0,0,100,0,0,40,40,40,0,-22,-41,0,0,100,0,40,80,40,40,0,-31,-57,0,0,100,0,320,0,80,80,0,-13,-57,0,0,100,0,120,120,40,40,0,-14,-58,0,0,100,0,200,80,40,40,0,-19,-65,0,0,100,0,120,0,40,40,0,-20,-40,0,0,100,0,0,160,40,40,0,-19,-48,0,0,100,0,0,200,40,40,0,-20,-25,0,0,100,0,200,0,40,40,0,-11,-25,0,0,100,0,200,40,40,40,0,-20,-43,0,0,100,0,40,160,40,40,0,-15,-41,0,0,100,0,40,240,40,40,0,-8,-73,0,0,100,0,144,416,72,96,0,-27,-12,0,0,65,0,480,272,56,24,0,
0,14,-20,-48,0,0,100,0,0,40,40,40,0,-20,-40,0,0,100,0,0,80,40,40,0,-28,-56,0,0,100,0,320,0,80,80,0,-20,-67,0,0,100,0,0,416,72,96,0,-12,-56,0,0,100,0,120,120,40,40,0,-25,-64,0,0,100,0,480,160,80,80,0,-20,-64,0,0,100,0,120,0,40,40,0,-20,-40,0,0,100,0,0,160,40,40,0,-20,-48,0,0,100,0,0,200,40,40,0,-20,-25,0,0,100,0,200,0,40,40,0,-12,-25,0,0,100,0,200,40,40,40,0,-12,-40,0,0,100,0,40,240,40,40,0,-8,-67,0,0,100,0,144,416,72,96,0,-28,-12,0,0,65,0,480,272,56,24,0,
0,15,-20,-49,0,0,100,0,0,40,40,40,0,-21,-40,0,0,100,0,0,80,40,40,0,-29,-56,0,0,100,0,320,0,80,80,0,-20,-69,0,0,100,0,0,416,72,96,0,-12,-57,0,0,100,0,0,120,40,40,0,-48,-81,0,0,30,0,0,320,96,96,0,-20,-65,0,0,100,0,320,80,80,80,0,-20,-65,0,0,100,0,0,0,40,40,0,-20,-41,0,0,100,0,0,160,40,40,0,-20,-49,0,0,100,0,0,200,40,40,0,-20,-25,0,0,100,0,160,0,40,40,0,-12,-25,0,0,100,0,160,40,40,40,0,-12,-41,0,0,100,0,0,240,40,40,0,-8,-69,0,0,100,0,144,416,72,96,0,-28,-12,0,0,65,0,480,272,56,24,0,
0,14,-20,-49,0,0,100,0,0,40,40,40,0,-22,-40,0,0,100,0,0,80,40,40,0,-30,-56,0,0,100,0,320,0,80,80,0,-20,-69,0,0,100,0,0,416,72,96,0,-12,-57,0,0,100,0,0,120,40,40,0,-19,-66,0,0,100,0,320,80,80,80,0,-20,-65,0,0,100,0,0,0,40,40,0,-20,-41,0,0,100,0,0,160,40,40,0,-20,-49,0,0,100,0,0,200,40,40,0,-20,-25,0,0,100,0,160,0,40,40,0,-12,-25,0,0,100,0,160,40,40,40,0,-12,-41,0,0,100,0,0,240,40,40,0,-8,-69,0,0,100,0,144,416,72,96,0,-28,-12,0,0,65,0,480,272,56,24,0,
0,16,-21,-49,0,0,100,0,0,40,40,40,0,-23,-40,0,0,100,0,40,80,40,40,0,-32,-56,0,1,100,0,320,0,80,80,0,-32,-56,0,0,100,0,320,0,80,80,0,-21,-69,0,0,100,0,0,416,72,96,0,-12,-57,0,0,100,0,40,120,40,40,0,-16,-68,0,0,100,0,240,160,80,80,0,-19,-65,0,0,100,0,40,0,40,40,0,-20,-41,0,0,100,0,0,160,40,40,0,-20,-49,0,0,100,0,0,200,40,40,0,-20,-25,0,0,100,0,160,0,40,40,0,-12,-25,0,0,100,0,160,40,40,40,0,-12,-41,0,0,100,0,80,240,40,40,0,-7,-69,0,0,100,0,144,416,72,96,0,-15,-56,0,0,100,0,40,160,40,40,0,-28,-12,0,0,65,0,480,272,56,24,0,
0,18,-14,-84,0,0,100,0,576,992,64,112,0,-22,-49,0,0,100,0,0,40,40,40,0,-27,-39,0,0,100,0,0,280,40,40,0,-21,-48,1,0,100,0,120,160,40,40,0,-36,-59,0,1,100,0,320,0,80,80,0,-36,-59,0,0,50,0,320,0,80,80,0,-22,-69,0,0,100,0,0,416,72,96,0,-12,-57,0,0,100,0,40,120,40,40,0,-15,-71,0,0,100,0,240,160,80,80,0,-19,-65,0,0,100,0,40,0,40,40,0,-20,-41,0,0,100,0,0,160,40,40,0,-20,-49,0,0,100,0,0,200,40,40,0,-20,-25,0,0,100,0,160,0,40,40,0,-12,-25,0,0,100,0,160,40,40,40,0,-11,-41,0,0,100,0,80,240,40,40,0,-7,-69,0,0,100,0,144,416,72,96,0,-15,-56,0,0,100,0,40,160,40,40,0,-28,-12,0,0,65,0,480,272,56,24,0,
0,18,-32,-84,0,0,100,0,640,992,104,112,0,-72,-83,0,1,100,0,768,512,144,128,0,-22,-49,0,0,100,0,0,40,40,40,0,-28,-40,0,0,100,0,0,280,40,40,0,-22,-48,1,0,100,0,120,160,40,40,0,-39,-61,0,1,50,0,320,0,80,80,0,-22,-69,0,0,100,0,0,416,72,96,0,-26,-113,0,0,100,0,0,768,80,112,0,-12,-57,0,0,100,0,80,120,40,40,0,-19,-65,0,0,100,0,80,0,40,40,0,-20,-41,0,0,100,0,0,160,40,40,0,-20,-49,0,0,100,0,0,200,40,40,0,-20,-25,0,0,100,0,160,0,40,40,0,-12,-25,0,0,100,0,160,40,40,40,0,-11,-40,0,0,100,0,80,240,40,40,0,-7,-69,0,0,100,0,144,416,72,96,0,-15,-56,0,0,100,0,40,160,40,40,0,-28,-12,0,0,65,0,480,272,56,24,0,
0,17,-64,-84,0,0,100,0,744,992,144,112,0,-88,-93,0,1,100,0,912,512,144,128,0,-23,-49,0,0,100,0,0,40,40,40,0,-31,-41,0,0,100,0,0,280,40,40,0,-22,-49,1,0,100,0,120,200,40,40,0,-22,-68,0,0,100,0,0,416,72,96,0,-52,-109,0,0,100,0,80,768,104,112,0,-12,-56,0,0,100,0,80,120,40,40,0,-19,-64,0,0,100,0,80,0,40,40,0,-20,-40,0,0,100,0,0,160,40,40,0,-20,-48,0,0,100,0,0,200,40,40,0,-20,-25,0,0,100,0,200,0,40,40,0,-12,-25,0,0,100,0,200,40,40,40,0,-10,-39,0,0,100,0,80,240,40,40,0,-8,-68,0,0,100,0,144,416,72,96,0,-15,-56,0,0,100,0,40,160,40,40,0,-28,-12,0,0,65,0,480,272,56,24,0,
0,18,-86,-84,0,0,100,0,888,992,144,112,0,-102,-103,0,1,100,0,1056,512,144,128,0,-23,-49,0,0,100,0,0,40,40,40,0,-34,-44,0,0,100,0,40,280,40,40,0,-20,-45,3,0,100,0,120,40,40,40,0,-22,-68,0,0,100,0,72,416,72,96,0,-82,-93,0,0,100,0,184,768,144,112,0,-12,-56,0,0,100,0,120,120,40,40,0,-19,-64,0,0,100,0,120,0,40,40,0,-20,-40,0,0,100,0,0,160,40,40,0,-20,-48,0,0,100,0,0,200,40,40,0,-20,-25,0,0,100,0,200,0,40,40,0,-12,-25,0,0,100,0,200,40,40,40,0,-10,-39,0,0,100,0,80,240,40,40,0,-5,-68,0,0,100,0,216,416,72,96,0,-15,-56,0,0,100,0,40,160,40,40,0,-90,-93,0,0,100,0,328,768,144,112,0,-28,-12,0,0,65,0,480,272,56,24,0,
0,18,-98,-84,0,0,100,0,1032,992,144,112,0,-107,-122,0,1,100,0,1200,512,144,128,0,-23,-49,0,0,100,0,0,40,40,40,0,-35,-44,0,0,100,0,40,280,40,40,0,-21,-45,3,0,100,0,120,40,40,40,0,-23,-68,0,0,100,0,72,416,72,96,0,-88,-93,0,0,100,0,472,768,144,112,0,-12,-56,0,0,100,0,120,120,40,40,0,-19,-64,0,0,100,0,120,0,40,40,0,-20,-40,0,0,100,0,0,160,40,40,0,-20,-48,0,0,100,0,0,200,40,40,0,-20,-25,0,0,100,0,200,0,40,40,0,-12,-25,0,0,100,0,200,40,40,40,0,-10,-39,0,0,100,0,80,240,40,40,0,-7,-68,0,0,100,0,216,416,72,96,0,-15,-56,0,0,100,0,40,160,40,40,0,-88,-93,0,0,100,0,616,768,144,112,0,-34,-12,0,0,65,0,480,248,56,24,0,
0,18,-88,-84,0,0,100,0,1176,992,144,112,0,-108,-115,0,1,100,0,768,640,144,128,0,-23,-49,0,0,100,0,0,40,40,40,0,-36,-45,0,0,100,0,40,280,40,40,0,-22,-45,3,0,100,0,120,40,40,40,0,-24,-68,0,0,100,0,72,416,72,96,0,-86,-93,0,0,100,0,760,768,144,112,0,-12,-56,0,0,100,0,0,120,40,40,0,-19,-64,0,0,100,0,0,0,40,40,0,-20,-40,0,0,100,0,0,160,40,40,0,-20,-48,0,0,100,0,0,200,40,40,0,-20,-25,0,0,100,0,200,0,40,40,0,-12,-25,0,0,100,0,200,40,40,40,0,-10,-39,0,0,100,0,80,240,40,40,0,-12,-68,0,0,100,0,216,416,72,96,0,-15,-56,0,0,100,0,40,160,40,40,0,-86,-93,0,0,100,0,904,768,144,112,0,-35,-12,0,0,65,0,480,248,56,24,0,
0,14,-60,-92,0,0,100,0,1240,880,96,112,0,-105,-115,0,1,100,0,912,640,144,128,0,-92,-93,0,0,100,0,1048,768,144,112,0,-23,-49,0,0,100,0,0,40,40,40,0,-36,-46,0,0,100,0,40,280,40,40,0,-22,-45,3,0,100,0,120,40,40,40,0,-12,-56,0,0,100,0,40,120,40,40,0,-19,-64,0,0,100,0,40,0,40,40,0,-20,-40,0,0,100,0,0,160,40,40,0,-20,-48,0,0,100,0,0,200,40,40,0,-10,-39,0,0,100,0,80,240,40,40,0,-15,-56,0,0,100,0,40,160,40,40,0,-92,-93,0,0,100,0,1192,768,144,112,0,-40,-12,0,0,65,0,480,248,56,24,0,
0,12,-103,-105,0,1,100,0,1056,640,144,128,0,-90,-79,0,0,100,0,0,880,144,112,0,-23,-49,0,0,100,0,0,40,40,40,0,-36,-46,0,0,100,0,40,280,40,40,0,-22,-45,3,0,100,0,120,40,40,40,0,-12,-56,0,0,100,0,80,120,40,40,0,-20,-40,0,0,100,0,0,160,40,40,0,-20,-48,0,0,100,0,0,200,40,40,0,-10,-39,0,0,100,0,80,240,40,40,0,-15,-56,0,0,100,0,40,160,40,40,0,-50,-79,0,0,100,0,144,880,80,112,0,-40,-12,0,0,65,0,480,248,56,24,0,
0,3,-100,-56,0,1,100,0,1200,640,144,64,0,-56,-79,0,0,100,0,224,880,88,112,0,-39,-12,0,0,65,0,480,272,56,24,0,
0,3,-92,-61,0,1,100,0,1200,704,144,64,0,-54,-79,0,0,100,0,312,880,80,112,0,-39,-12,0,0,65,0,480,296,56,24,0,
0,2,-52,-79,0,0,100,0,392,880,80,112,0,-39,-12,0,0,65,0,480,296,56,24,0,
0,2,-58,-79,0,0,100,0,472,880,80,112,0,-39,-12,0,0,65,0,480,296,56,24,0,
0,2,-52,-80,0,0,100,0,552,880,80,112,0,-39,-12,0,0,65,0,480,296,56,24,0,
0,2,-58,-82,0,0,100,0,632,880,80,112,0,-39,-12,0,0,65,0,480,296,56,24,0,
0,2,-56,-84,0,0,100,0,712,880,80,112,0,-39,-12,0,0,65,0,480,296,56,24,0,
0,15,-92,-140,0,1,100,0,440,1104,160,160,0,-52,-90,0,0,100,0,792,880,80,112,0,-63,-93,0,0,100,0,0,512,96,96,0,-18,-67,0,0,100,0,240,240,40,40,0,-19,-65,0,0,100,0,320,240,40,40,0,-27,-67,0,0,100,0,280,240,40,40,0,-29,-75,0,0,100,0,200,240,40,40,0,-28,-58,0,0,100,0,360,240,40,40,0,-20,-40,0,0,100,0,240,280,40,40,0,-38,-38,0,0,100,0,200,280,40,40,0,-27,-67,0,0,100,0,400,240,40,40,0,-37,-57,0,0,100,0,280,280,40,40,0,-80,-62,0,0,100,0,560,240,96,80,0,-52,-90,0,0,100,0,872,880,80,112,0,-39,-12,0,0,65,0,480,296,56,24,0,
0,19,-72,-108,1,1,100,0,320,1104,40,80,0,-23,-118,0,1,100,0,320,1104,40,80,0,7,-98,0,1,100,0,320,1104,40,80,0,-33,-108,0,1,100,0,0,1104,80,80,0,-92,-140,0,1,100,0,600,1104,160,160,0,-87,-98,0,0,100,0,952,880,144,112,0,-58,-93,0,0,100,0,192,512,96,96,0,-20,-72,0,0,100,0,240,240,40,40,0,-20,-71,0,0,100,0,320,240,40,40,0,-30,-72,0,0,100,0,280,240,40,40,0,-31,-81,0,0,100,0,200,240,40,40,0,-31,-63,0,0,100,0,360,240,40,40,0,-22,-44,0,0,100,0,240,280,40,40,0,-41,-42,0,0,100,0,200,280,40,40,0,-30,-72,0,0,100,0,400,240,40,40,0,-40,-62,0,0,100,0,280,280,40,40,0,-85,-66,0,0,100,0,560,240,96,80,0,-87,-98,0,0,100,0,1096,880,144,112,0,-37,-12,0,0,65,0,480,296,56,24,0,
0,22,-88,-116,1,1,100,0,320,1104,40,80,0,19,-130,0,1,100,0,320,1104,40,80,0,-72,-108,1,1,100,0,360,1104,40,80,0,-23,-118,0,1,100,0,360,1104,40,80,0,7,-98,0,1,100,0,360,1104,40,80,0,-31,-109,0,1,100,0,80,1104,80,80,0,-92,-140,0,1,100,0,760,1104,160,160,0,-77,-90,0,0,100,0,0,992,144,112,0,-20,-74,0,0,100,0,240,240,40,40,0,-20,-74,0,0,100,0,320,240,40,40,0,-30,-74,0,0,100,0,280,240,40,40,0,-30,-84,0,0,100,0,320,280,40,40,0,-31,-64,0,0,100,0,360,240,40,40,0,-21,-45,0,0,100,0,240,280,40,40,0,-40,-43,0,0,100,0,200,280,40,40,0,-30,-74,0,0,100,0,400,240,40,40,0,-40,-64,0,0,100,0,280,280,40,40,0,-87,-67,0,0,100,0,560,240,96,80,0,-34,-109,0,0,100,0,288,512,96,96,0,-92,-109,0,0,100,0,96,512,96,96,0,-85,-90,0,0,100,0,144,992,144,112,0,-36,-12,0,0,65,0,480,296,56,24,0,
0,22,-88,-116,1,1,100,0,360,1104,40,80,0,19,-130,0,1,100,0,360,1104,40,80,0,-72,-108,1,1,100,0,400,1104,40,80,0,-23,-118,0,1,100,0,400,1104,40,80,0,7,-98,0,1,100,0,400,1104,40,80,0,-31,-109,0,1,100,0,160,1104,80,80,0,-92,-140,0,1,100,0,920,1104,160,160,0,-64,-94,0,0,100,0,432,992,144,112,0,-20,-76,0,0,100,0,240,240,40,40,0,-20,-77,0,0,100,0,320,240,40,40,0,-30,-75,0,0,100,0,280,240,40,40,0,-30,-85,0,0,100,0,360,280,40,40,0,-31,-65,0,0,100,0,360,240,40,40,0,-20,-45,0,0,100,0,240,280,40,40,0,-40,-44,0,0,100,0,200,280,40,40,0,-30,-75,0,0,100,0,400,240,40,40,0,-40,-65,0,0,100,0,280,280,40,40,0,-88,-68,0,0,100,0,560,240,96,80,0,-32,-112,0,0,100,0,288,512,96,96,0,-93,-112,0,0,100,0,96,512,96,96,0,-88,-94,0,0,100,0,288,992,144,112,0,-35,-12,0,0,65,0,480,296,56,24,0,
0,19,-88,-116,1,1,100,0,400,1104,40,80,0,19,-130,0,1,100,0,400,1104,40,80,0,-31,-109,0,1,100,0,240,1104,80,80,0,-92,-140,0,1,100,0,1080,1104,160,160,0,-83,-94,0,0,100,0,0,688,152,80,0,-20,-77,0,0,100,0,240,240,40,40,0,-20,-78,0,0,100,0,320,240,40,40,0,-30,-76,0,0,100,0,280,240,40,40,0,-30,-86,0,0,100,0,400,280,40,40,0,-31,-66,0,0,100,0,360,240,40,40,0,-20,-46,0,0,100,0,240,280,40,40,0,-40,-45,0,0,100,0,200,280,40,40,0,-30,-76,0,0,100,0,400,240,40,40,0,-40,-66,0,0,100,0,280,280,40,40,0,-88,-69,0,0,100,0,560,240,96,80,0,-31,-114,0,0,100,0,288,512,96,96,0,-94,-114,0,0,100,0,96,512,96,96,0,-93,-74,0,0,100,0,0,608,152,80,0,-35,-12,0,0,65,0,480,296,56,24,0,
0,15,-82,-94,0,0,100,0,152,688,152,80,0,-20,-77,0,0,100,0,240,240,40,40,0,-20,-78,0,0,100,0,320,240,40,40,0,-30,-76,0,0,100,0,280,240,40,40,0,-30,-86,0,0,100,0,200,240,40,40,0,-31,-66,0,0,100,0,360,240,40,40,0,-20,-46,0,0,100,0,240,280,40,40,0,-40,-45,0,0,100,0,200,280,40,40,0,-30,-76,0,0,100,0,400,240,40,40,0,-40,-66,0,0,100,0,280,280,40,40,0,-88,-69,0,0,100,0,560,240,96,80,0,-31,-115,0,0,100,0,288,512,96,96,0,-94,-115,0,0,100,0,96,512,96,96,0,-92,-74,0,0,100,0,152,608,152,80,0,-35,-12,0,0,65,0,480,296,56,24,0,
0,15,-82,-94,0,0,100,0,304,688,152,80,0,-20,-77,0,0,100,0,240,240,40,40,0,-20,-77,0,0,100,0,320,240,40,40,0,-30,-76,0,0,100,0,280,240,40,40,0,-30,-86,0,0,100,0,320,280,40,40,0,-31,-66,0,0,100,0,360,240,40,40,0,-20,-45,0,0,100,0,240,280,40,40,0,-40,-44,0,0,100,0,200,280,40,40,0,-30,-76,0,0,100,0,400,240,40,40,0,-40,-66,0,0,100,0,280,280,40,40,0,-89,-69,0,0,100,0,560,240,96,80,0,-31,-116,0,0,100,0,288,512,96,96,0,-94,-116,0,0,100,0,96,512,96,96,0,-92,-74,0,0,100,0,304,608,152,80,0,-35,-12,0,0,65,0,480,296,56,24,0,
0,15,-82,-94,0,0,100,0,456,688,152,80,0,-20,-76,0,0,100,0,240,240,40,40,0,-19,-76,0,0,100,0,320,240,40,40,0,-30,-75,0,0,100,0,280,240,40,40,0,-30,-85,0,0,100,0,360,280,40,40,0,-31,-65,0,0,100,0,360,240,40,40,0,-20,-44,0,0,100,0,240,280,40,40,0,-39,-43,0,0,100,0,200,280,40,40,0,-30,-75,0,0,100,0,400,240,40,40,0,-40,-65,0,0,100,0,280,280,40,40,0,-89,-68,0,0,100,0,560,240,96,80,0,-31,-115,0,0,100,0,288,512,96,96,0,-94,-115,0,0,100,0,96,512,96,96,0,-92,-74,0,0,100,0,456,608,152,80,0,-35,-12,0,0,65,0,480,296,56,24,0,
0,15,-82,-93,0,0,100,0,0,688,152,80,0,-20,-76,0,0,100,0,240,240,40,40,0,-19,-77,0,0,100,0,320,240,40,40,0,-30,-75,0,0,100,0,280,240,40,40,0,-30,-85,0,0,100,0,400,280,40,40,0,-31,-65,0,0,100,0,360,240,40,40,0,-20,-45,0,0,100,0,240,280,40,40,0,-39,-44,0,0,100,0,200,280,40,40,0,-30,-75,0,0,100,0,400,240,40,40,0,-40,-65,0,0,100,0,280,280,40,40,0,-88,-68,0,0,100,0,560,240,96,80,0,-31,-114,0,0,100,0,288,512,96,96,0,-94,-114,0,0,100,0,96,512,96,96,0,-92,-73,0,0,100,0,0,608,152,80,0,-35,-12,0,0,65,0,480,296,56,24,0,
