5,0,0,5,
6,0,0,12,
7,0,0,3,
8,0,0,6,
9,0,0,5,
10,0,0,3,
11,0,0,1,
12,0,0,6,
13,0,0,4,
14,0,0,3,
15,0,0,1,
16,0,0,6,
17,0,0,4,
18,0,0,3,
19,0,0,6,
20,0,0,12,
21,0,0,1,
22,0,0,6,
23,0,0,5,
24,0,0,5,
25,0,0,5,
26,0,0,5,
27,0,0,5,
