0,11,-59,-49,0,0,50,0,173,89,58,55,0,-52,-41,0,0,100,0,0,21,48,36,0,-25,-36,0,0,100,0,52,26,22,27,0,-28,-45,0,0,100,0,1,463,78,48,0,-18,-53,0,0,100,0,52,1,28,23,0,-23,-52,0,0,100,0,321,466,41,45,0,-20,-22,0,0,100,0,0,63,23,28,0,-1,-21,0,0,100,0,24,63,16,25,0,4,-38,0,0,100,0,90,56,38,38,0,5,-48,0,0,50,0,173,146,58,52,0,-24,-8,0,0,65,0,0,0,48,16,0,
0,11,-59,-50,0,0,50,0,233,89,58,55,0,-52,-41,0,0,100,0,0,21,48,36,0,-25,-36,0,0,100,0,76,26,22,27,0,-18,-53,0,0,100,0,82,1,28,23,0,-28,-45,0,0,100,0,81,463,78,48,0,-23,-52,0,0,100,0,364,466,41,45,0,-20,-22,0,0,100,0,0,63,23,28,0,-1,-21,0,0,100,0,24,63,16,25,0,4,-38,0,0,100,0,90,56,38,38,0,5,-48,0,0,50,0,233,146,58,52,0,-24,-8,0,0,65,0,0,0,48,16,0,
0,11,-59,-49,0,0,50,0,293,89,58,55,0,-52,-41,0,0,100,0,0,21,48,36,0,-25,-36,0,0,100,0,52,26,22,27,0,-18,-53,0,0,100,0,112,1,28,23,0,-28,-45,0,0,100,0,161,463,78,48,0,-23,-52,0,0,100,0,407,466,41,45,0,-20,-22,0,0,100,0,0,63,23,28,0,-1,-21,0,0,100,0,24,63,16,25,0,4,-38,0,0,100,0,90,56,38,38,0,5,-48,0,0,50,0,293,146,58,52,0,-24,-8,0,0,65,0,0,0,48,16,0,
0,11,-59,-48,0,0,50,0,353,89,58,55,0,-52,-41,0,0,100,0,0,21,48,36,0,-25,-39,0,0,100,0,100,26,22,27,0,-18,-53,0,0,100,0,142,1,28,23,0,-28,-45,0,0,100,0,241,463,78,48,0,-23,-52,0,0,100,0,450,466,41,45,0,-20,-22,0,0,100,0,0,63,23,28,0,-1,-21,0,0,100,0,24,63,16,25,0,4,-38,0,0,100,0,90,56,38,38,0,5,-48,0,0,50,0,353,146,58,52,0,-24,-8,0,0,65,0,0,0,48,16,0,
0,7,-18,-53,0,0,100,0,52,1,28,23,0,-23,-52,0,0,100,0,321,466,41,45,0,-20,-22,0,0,100,0,0,63,23,28,0,-1,-21,0,0,100,0,24,63,16,25,0,4,-38,0,0,100,0,90,56,38,38,0,-49,-74,0,0,100,0,5,130,54,43,0,-24,-8,0,0,65,0,0,0,48,16,0,
0,4,-25,-55,0,0,100,0,293,0,59,49,0,-19,-17,0,0,100,0,299,57,38,23,0,-22,-84,0,0,100,0,5,130,54,43,0,-24,-8,0,0,65,0,0,0,48,16,0,
0,4,-24,-54,0,0,100,0,293,0,59,49,0,-19,-17,0,0,100,0,299,57,38,23,0,-22,-84,0,0,100,0,5,130,54,43,0,-24,-8,0,0,65,0,0,0,48,16,0,
0,4,-48,-47,0,0,100,0,183,343,121,80,0,-40,-53,0,0,100,0,354,0,53,62,0,-12,-81,0,0,100,0,5,130,54,43,0,-30,-8,0,0,65,0,0,0,48,16,0,
0,5,-83,-112,0,0,100,0,12,341,104,121,0,-58,-107,0,0,100,0,456,81,34,48,0,-46,-97,0,0,100,0,412,89,48,66,0,-12,-80,0,0,100,0,5,130,54,43,0,-43,-8,0,0,65,0,0,0,48,16,0,
0,5,-58,-119,0,0,100,0,117,343,55,119,0,-58,-114,0,0,100,0,456,81,34,48,0,-46,-104,0,0,100,0,412,89,48,66,0,-12,-79,0,0,100,0,5,130,54,43,0,-43,-8,0,0,65,0,0,0,48,16,0,
0,5,-57,-124,0,0,30,0,117,343,55,119,0,-58,-114,0,0,100,0,456,81,34,48,0,-53,-118,0,0,100,0,405,0,50,80,0,-11,-79,0,0,100,0,56,131,50,37,0,-43,-8,0,0,65,0,0,0,48,16,0,
0,4,-58,-115,0,0,100,0,456,81,34,48,0,-53,-118,0,0,100,0,405,0,50,80,0,-9,-79,0,0,100,0,56,131,50,37,0,-43,-8,0,0,65,0,0,0,48,16,0,
0,3,-34,-114,0,0,100,0,458,0,39,84,0,-12,-80,0,0,100,0,56,131,50,37,0,-42,-8,0,0,65,0,0,0,48,16,0,
0,3,-27,-106,0,0,100,0,458,0,39,84,0,-41,-74,0,0,100,0,56,131,50,37,0,-33,-8,0,0,65,0,0,0,48,16,0,
0,6,-9,-55,0,0,100,0,132,28,29,23,0,-23,-60,0,0,100,0,204,25,48,40,0,-10,-28,0,0,100,0,259,25,26,29,0,6,-42,0,0,100,0,90,56,38,38,0,-63,-60,0,0,100,0,56,131,50,37,0,-24,-8,0,0,65,0,0,0,48,16,0,
0,6,-7,-46,0,0,100,0,132,28,29,23,0,-22,-52,0,0,100,0,204,25,48,42,0,-14,-21,0,0,100,0,256,55,30,26,0,2,-34,0,0,100,0,90,56,38,38,0,-63,-60,0,0,100,0,56,131,50,37,0,-24,-8,0,0,65,0,0,0,48,16,0,
0,8,-76,-85,0,0,100,0,169,219,58,88,0,-12,-51,1,0,100,0,82,1,28,23,0,-21,-51,0,0,100,0,450,466,41,45,0,-19,-22,0,0,100,0,0,63,23,28,0,-1,-21,0,0,100,0,24,63,16,25,0,5,-37,0,0,100,0,90,56,38,38,0,-62,-79,0,0,100,0,105,120,50,51,0,-24,-8,0,0,65,0,0,0,48,16,0,
0,8,-83,-98,0,0,80,0,235,205,76,117,0,-18,-53,0,0,100,0,142,1,28,23,0,-23,-52,0,0,100,0,321,466,41,45,0,-20,-22,0,0,100,0,0,63,23,28,0,-1,-21,0,0,100,0,24,63,16,25,0,4,-38,0,0,100,0,90,56,38,38,0,-59,-74,0,0,100,0,105,120,50,51,0,-24,-8,0,0,65,0,0,0,48,16,0,
0,8,-84,-104,0,0,100,0,308,200,89,128,0,-18,-53,0,0,100,0,52,1,28,23,0,-23,-52,0,0,100,0,321,466,41,45,0,-20,-22,0,0,100,0,0,63,23,28,0,-1,-21,0,0,100,0,24,63,16,25,0,4,-38,0,0,100,0,90,56,38,38,0,-58,-75,0,0,100,0,105,120,50,51,0,-24,-8,0,0,65,0,0,0,48,16,0,
0,8,-88,-105,0,0,30,0,403,199,98,133,0,-18,-53,0,0,100,0,52,1,28,23,0,-23,-52,0,0,100,0,321,466,41,45,0,-20,-22,0,0,100,0,0,63,23,28,0,-1,-21,0,0,100,0,24,63,16,25,0,4,-38,0,0,100,0,90,56,38,38,0,-57,-65,0,0,100,0,4,129,53,44,0,-24,-8,0,0,65,0,0,0,48,16,0,
0,7,-50,-40,0,0,100,0,0,21,48,36,0,-18,-53,0,0,100,0,52,1,28,23,0,-23,-52,0,0,100,0,321,466,41,45,0,-1,-21,0,0,100,0,24,63,16,25,0,-20,-22,0,0,100,0,0,63,23,28,0,6,-39,0,0,100,0,90,56,38,38,0,-24,-8,0,0,65,0,0,0,48,16,0,
0,6,-50,-39,0,0,100,0,0,21,48,36,0,-18,-51,0,0,100,0,128,58,41,42,0,-19,-53,0,0,100,0,52,1,28,23,0,-24,-51,0,0,100,0,321,466,41,45,0,-20,-23,0,0,100,0,0,91,37,30,0,-24,-8,0,0,65,0,0,0,48,16,0,
0,7,-50,-40,0,0,100,0,0,21,48,36,0,-17,-53,0,0,100,0,128,58,41,42,0,-19,-52,0,0,100,0,52,1,28,23,0,-24,-52,0,0,100,0,364,466,41,45,0,-20,-22,0,0,100,0,0,63,23,28,0,-1,-21,0,0,100,0,24,63,16,25,0,-24,-8,0,0,65,0,0,0,48,16,0,
0,8,-50,-43,0,0,100,0,0,21,48,36,0,-18,-53,0,0,100,0,262,1,28,23,0,15,-10,0,0,100,0,164,26,17,14,0,-23,-52,0,0,100,0,321,466,41,45,0,-20,-22,0,0,100,0,0,63,23,28,0,-1,-21,0,0,100,0,24,63,16,25,0,4,-38,0,0,100,0,90,56,38,38,0,-24,-8,0,0,65,0,0,0,48,16,0,
0,8,-44,-57,0,0,100,-90,0,21,48,36,0,17,-11,0,0,100,0,164,26,17,14,0,-18,-53,0,0,100,0,202,1,28,23,0,-23,-52,0,0,100,0,450,466,41,45,0,-20,-22,0,0,100,0,0,63,23,28,0,-1,-21,0,0,100,0,24,63,16,25,0,6,-39,0,0,100,0,90,56,38,38,0,-24,-8,0,0,65,0,0,0,48,16,0,
0,9,-78,-58,0,0,100,0,9,227,16,19,0,-75,-51,0,0,100,0,15,179,57,47,0,17,-11,0,0,100,0,164,26,17,14,0,-18,-53,0,0,100,0,232,1,28,23,0,-23,-52,0,0,100,0,321,466,41,45,0,-20,-22,0,0,100,0,0,63,23,28,0,-1,-21,0,0,100,0,24,63,16,25,0,6,-39,0,0,100,0,90,56,38,38,0,-24,-8,0,0,65,0,0,0,48,16,0,
0,11,-77,-62,0,1,50,0,40,226,14,20,0,-77,-62,0,0,100,0,40,226,14,20,0,-84,-67,0,1,80,0,2,253,27,24,0,-72,-53,0,0,100,0,15,179,57,47,0,17,-11,0,0,100,0,164,26,17,14,0,-18,-53,0,0,100,0,262,1,28,23,0,-23,-52,0,0,100,0,321,466,41,45,0,-20,-22,0,0,100,0,0,63,23,28,0,-1,-21,0,0,100,0,24,63,16,25,0,6,-39,0,0,100,0,90,56,38,38,0,-24,-8,0,0,65,0,0,0,48,16,0,
0,12,-77,-52,0,0,100,0,188,436,31,25,0,-87,-68,0,1,50,0,35,251,29,25,0,-80,-63,0,1,20,0,59,225,19,26,0,-80,-63,0,0,100,0,59,225,19,26,0,-72,-53,0,0,100,0,15,179,57,47,0,17,-11,0,0,100,0,164,26,17,14,0,-18,-53,0,0,100,0,172,1,28,23,0,-23,-52,0,0,100,0,321,466,41,45,0,-20,-22,0,0,100,0,0,63,23,28,0,-1,-21,0,0,100,0,24,63,16,25,0,6,-39,0,0,100,0,90,56,38,38,0,-24,-8,0,0,65,0,0,0,48,16,0,
0,10,-77,-51,0,0,100,0,221,436,31,25,0,-80,-62,0,0,100,0,59,225,19,26,0,-72,-52,0,0,100,0,15,179,57,47,0,17,-11,0,0,100,0,164,26,17,14,0,-18,-53,0,0,100,0,202,1,28,23,0,-23,-52,0,0,100,0,364,466,41,45,0,-20,-22,0,0,100,0,0,63,23,28,0,-1,-21,0,0,100,0,24,63,16,25,0,6,-39,0,0,100,0,90,56,38,38,0,-24,-8,0,0,65,0,0,0,48,16,0,
0,10,-77,-52,0,0,100,0,254,436,31,25,0,-80,-63,0,0,100,0,59,225,19,26,0,-72,-53,0,0,100,0,15,179,57,47,0,17,-11,0,0,100,0,164,26,17,14,0,-18,-53,0,0,100,0,232,1,28,23,0,-23,-52,0,0,100,0,407,466,41,45,0,-20,-22,0,0,100,0,0,63,23,28,0,-1,-21,0,0,100,0,24,63,16,25,0,6,-39,0,0,100,0,90,56,38,38,0,-24,-8,0,0,65,0,0,0,48,16,0,
0,10,-77,-53,0,0,100,0,287,436,31,25,0,-80,-64,0,0,100,0,59,225,19,26,0,-72,-54,0,0,100,0,15,179,57,47,0,17,-11,0,0,100,0,164,26,17,14,0,-18,-53,0,0,100,0,262,1,28,23,0,-23,-52,0,0,100,0,450,466,41,45,0,-20,-22,0,0,100,0,0,63,23,28,0,-1,-21,0,0,100,0,24,63,16,25,0,6,-39,0,0,100,0,90,56,38,38,0,-24,-8,0,0,65,0,0,0,48,16,0,
0,10,-77,-52,0,0,100,0,188,436,31,25,0,-80,-63,0,0,100,0,59,225,19,26,0,-72,-53,0,0,100,0,15,179,57,47,0,17,-11,0,0,100,0,164,26,17,14,0,-18,-53,0,0,100,0,172,1,28,23,0,-23,-52,0,0,100,0,321,466,41,45,0,-20,-22,0,0,100,0,0,63,23,28,0,-1,-21,0,0,100,0,24,63,16,25,0,6,-39,0,0,100,0,90,56,38,38,0,-24,-8,0,0,65,0,0,0,48,16,0,
0,3,-27,-60,0,0,100,0,87,176,71,66,0,-52,-45,0,0,100,0,0,21,48,36,0,-24,-8,0,0,65,0,0,0,48,16,0,
