8,0,0,2,
9,0,0,2,
8,0,0,2,
9,0,0,2,
10,0,0,2,
11,0,0,2,
10,0,0,2,
11,0,0,2,
10,0,0,2,
11,0,0,2,
12,0,0,3,
13,0,0,3,
14,0,0,5,
15,0,0,5,
16,0,0,5,
17,0,0,5,
18,0,0,5,
19,0,0,5,
20,0,0,5,
21,0,0,5,
22,0,0,6,
23,0,0,5,
24,0,0,5,
25,0,0,5,
26,0,0,5,
27,0,0,5,
28,0,0,5,
29,0,0,5,
30,0,0,5,
31,0,0,5,
32,0,0,6,
