8,0,0,6,
9,0,0,5,
10,0,0,4,
11,0,0,4,
12,0,0,6,
13,0,0,4,
14,0,0,6,
15,0,0,4,
16,0,0,6,
17,0,0,5,
18,0,0,8,
19,0,0,5,
20,0,0,8,
21,0,0,5,
22,0,0,5,
23,0,0,8,
24,0,0,5,
25,0,0,4,
26,0,0,4,
27,0,0,10,
28,0,0,6,
29,0,0,4,
30,0,0,8,
31,0,0,9,
32,0,0,10,
33,0,0,10,
34,0,0,9,
35,0,0,8,
36,0,0,8,
37,0,0,8,
