0,3,-35,-55,0,0,100,0,0,64,80,64,0,-35,-55,0,0,100,0,0,0,80,64,0,-20,-8,0,0,65,0,504,184,40,16,0,
0,3,-35,-55,0,0,100,0,80,64,80,64,0,-35,-55,0,0,100,0,80,0,80,64,0,-20,-8,0,0,65,0,504,184,40,16,0,
0,4,-35,-55,0,0,80,0,160,64,80,64,0,-35,-55,0,0,50,0,320,64,80,64,0,-35,-55,0,0,100,0,160,0,80,64,0,-20,-8,0,0,65,0,504,184,40,16,0,
0,4,-35,-55,0,0,60,0,240,64,80,64,0,-35,-55,0,0,70,0,400,64,80,64,0,-35,-55,0,0,100,0,240,0,80,64,0,-20,-8,0,0,65,0,504,184,40,16,0,
0,2,-30,-52,0,0,100,0,0,128,80,56,0,-20,-8,0,0,65,0,504,184,40,16,0,
0,2,-24,-52,0,0,100,0,80,128,80,56,0,-20,-8,0,0,65,0,504,184,40,16,0,
0,3,-10,-53,0,0,100,0,40,184,32,32,0,-37,-53,0,0,100,0,160,128,80,56,0,-23,-8,0,0,65,0,504,184,40,16,0,
0,3,-11,-75,0,0,100,0,72,184,32,32,0,-37,-53,0,0,100,0,160,128,80,56,0,-23,-8,0,0,65,0,504,184,40,16,0,
0,3,-19,-85,0,0,100,0,136,184,32,32,0,-37,-53,0,0,100,0,240,128,80,56,0,-23,-8,0,0,65,0,504,184,40,16,0,
0,3,-25,-85,1,0,100,0,104,184,32,32,0,-37,-53,0,0,100,0,240,128,80,56,0,-23,-8,0,0,65,0,504,184,40,16,0,
0,3,-28,-76,3,0,100,0,136,184,32,32,0,-37,-53,0,0,100,0,320,128,80,56,0,-23,-8,0,0,65,0,504,184,40,16,0,
0,3,-26,-68,0,0,100,0,40,184,32,32,0,-37,-53,0,0,100,0,320,128,80,56,0,-23,-8,0,0,65,0,504,184,40,16,0,
0,3,-17,-57,0,0,100,0,72,184,32,32,0,-37,-53,0,0,100,0,400,128,80,56,0,-23,-8,0,0,65,0,504,184,40,16,0,
0,3,0,-39,0,0,100,0,72,184,32,32,0,-24,-53,0,0,100,0,480,128,80,56,0,-20,-8,0,0,65,0,504,184,40,16,0,
0,3,1,-38,0,0,100,0,72,184,32,32,0,-24,-53,0,0,100,0,560,128,80,56,0,-20,-8,0,0,65,0,504,184,40,16,0,
0,4,-62,-42,0,0,100,0,0,184,40,40,0,-5,-42,0,0,100,0,352,184,32,40,0,-39,-52,0,0,100,0,0,224,80,56,0,-26,-8,0,0,65,0,504,184,40,16,0,
0,5,-63,-52,0,0,80,0,80,224,104,56,0,-65,-52,0,0,20,0,80,224,104,56,0,-59,-52,0,0,20,0,80,224,104,56,0,-61,-52,0,0,20,0,80,224,104,56,0,-26,-8,0,0,46,0,504,184,40,16,0,
0,14,-148,-95,0,0,100,0,536,400,120,80,0,-165,-51,0,0,100,0,192,224,80,56,0,-162,-51,0,0,40,0,192,224,80,56,0,-160,-51,0,0,20,0,192,224,80,56,0,-145,-51,0,0,60,0,192,224,80,56,0,-142,-51,0,0,30,0,192,224,80,56,0,-140,-51,0,0,15,0,192,224,80,56,0,-125,-51,0,0,40,0,192,224,80,56,0,-122,-51,0,0,20,0,192,224,80,56,0,-120,-51,0,0,10,0,192,224,80,56,0,-95,-51,0,0,20,0,192,224,80,56,0,-92,-51,0,0,10,0,192,224,80,56,0,-90,-51,0,0,5,0,192,224,80,56,0,-151,-8,0,0,46,0,504,184,40,16,0,
0,14,-163,-81,0,0,100,0,656,400,104,88,0,-221,-51,0,0,100,0,192,224,80,56,0,-218,-51,0,0,40,0,192,224,80,56,0,-216,-51,0,0,20,0,192,224,80,56,0,-199,-51,0,0,60,0,192,224,80,56,0,-196,-51,0,0,30,0,192,224,80,56,0,-194,-51,0,0,15,0,192,224,80,56,0,-177,-51,0,0,40,0,192,224,80,56,0,-174,-51,0,0,20,0,192,224,80,56,0,-172,-51,0,0,10,0,192,224,80,56,0,-145,-51,0,0,20,0,192,224,80,56,0,-142,-51,0,0,10,0,192,224,80,56,0,-140,-51,0,0,5,0,192,224,80,56,0,-207,-8,0,0,46,0,504,184,40,16,0,
0,14,-167,-62,0,0,100,0,536,480,96,72,0,-229,-51,0,0,100,0,192,224,80,56,0,-226,-51,0,0,40,0,192,224,80,56,0,-224,-51,0,0,20,0,192,224,80,56,0,-221,-51,0,0,60,0,192,224,80,56,0,-218,-51,0,0,30,0,192,224,80,56,0,-216,-51,0,0,15,0,192,224,80,56,0,-213,-51,0,0,40,0,192,224,80,56,0,-210,-51,0,0,20,0,192,224,80,56,0,-208,-51,0,0,10,0,192,224,80,56,0,-205,-51,0,0,20,0,192,224,80,56,0,-202,-51,0,0,10,0,192,224,80,56,0,-200,-51,0,0,5,0,192,224,80,56,0,-215,-8,0,0,46,0,504,184,40,16,0,
0,14,-168,-65,0,0,100,0,632,488,96,80,0,-232,-51,0,0,100,0,192,224,80,56,0,-229,-51,0,0,40,0,192,224,80,56,0,-227,-51,0,0,20,0,192,224,80,56,0,-228,-51,0,0,60,0,192,224,80,56,0,-225,-51,0,0,30,0,192,224,80,56,0,-223,-51,0,0,15,0,192,224,80,56,0,-224,-51,0,0,40,0,192,224,80,56,0,-221,-51,0,0,20,0,192,224,80,56,0,-219,-51,0,0,10,0,192,224,80,56,0,-220,-51,0,0,20,0,192,224,80,56,0,-217,-51,0,0,10,0,192,224,80,56,0,-215,-51,0,0,5,0,192,224,80,56,0,-218,-8,0,0,46,0,504,184,40,16,0,
0,3,-233,-32,1,0,100,0,104,184,32,32,0,-248,-52,0,0,100,0,272,224,88,56,0,-239,-8,0,0,65,0,504,184,40,16,0,
0,5,-255,-39,0,0,100,0,0,184,40,40,0,-258,-60,0,0,100,0,384,216,80,64,0,-258,-52,0,0,100,0,640,224,80,56,0,-265,-60,0,0,100,0,640,0,80,64,0,-244,-8,0,0,65,0,504,184,40,16,0,
0,6,-234,-44,0,0,100,0,200,184,40,32,0,-255,-39,0,0,100,0,0,184,40,40,0,-258,-60,0,0,100,0,464,216,80,64,0,-263,-52,0,0,100,0,720,224,80,56,0,-269,-59,0,0,100,0,720,0,80,64,0,-244,-8,0,0,65,0,504,184,40,16,0,
0,6,-226,-60,0,0,100,0,240,184,32,40,0,-255,-39,0,0,100,0,0,184,40,40,0,-258,-60,0,0,100,0,464,216,80,64,0,-263,-52,0,0,100,0,720,224,80,56,0,-270,-59,0,0,100,0,640,64,80,64,0,-244,-8,0,0,65,0,504,184,40,16,0,
0,6,-219,-45,0,0,100,0,272,184,40,32,0,-255,-39,0,0,100,0,0,184,40,40,0,-258,-60,0,0,100,0,544,216,80,64,0,-264,-52,0,0,100,0,640,280,80,56,0,-269,-59,0,0,100,0,720,64,80,64,0,-244,-8,0,0,65,0,504,184,40,16,0,
0,6,-241,-41,0,0,100,0,312,184,40,32,0,-259,-39,0,0,100,0,0,184,40,40,0,-258,-60,0,0,100,0,0,280,80,64,0,-263,-51,0,0,100,0,720,280,80,56,0,-265,-56,0,0,100,0,720,0,80,64,0,-244,-8,0,0,65,0,504,184,40,16,0,
0,5,-158,-112,0,0,100,0,320,280,128,144,0,-203,-38,3,0,100,0,312,184,40,32,0,-255,-46,1,0,100,0,40,184,32,32,0,-268,-52,0,0,100,0,80,280,80,56,0,-241,-8,0,0,65,0,504,184,40,16,0,
0,5,-149,-59,0,0,100,0,448,280,72,72,0,-203,-30,0,0,100,0,384,184,40,16,0,-255,-46,1,0,100,0,40,184,32,32,0,-268,-52,0,0,100,0,160,280,80,56,0,-241,-8,0,0,65,0,504,184,40,16,0,
0,5,-166,-86,0,0,100,0,520,280,120,120,0,-203,-38,3,0,100,0,312,184,40,32,0,-255,-46,1,0,100,0,40,184,32,32,0,-268,-52,0,0,100,0,80,280,80,56,0,-241,-8,0,0,65,0,504,184,40,16,0,
0,5,-186,-111,0,0,100,0,0,416,160,168,0,-203,-30,0,0,100,0,384,184,40,16,0,-255,-46,1,0,100,0,40,184,32,32,0,-268,-52,0,0,100,0,160,280,80,56,0,-241,-8,0,0,65,0,504,184,40,16,0,
0,5,-214,-119,0,0,100,0,160,424,200,192,0,-203,-38,3,0,100,0,312,184,40,32,0,-255,-46,1,0,100,0,40,184,32,32,0,-268,-52,0,0,100,0,80,280,80,56,0,-241,-8,0,0,65,0,504,184,40,16,0,
0,5,-196,-111,0,0,100,0,360,424,176,168,0,-203,-30,0,0,100,0,384,184,40,16,0,-255,-46,1,0,100,0,40,184,32,32,0,-268,-52,0,0,100,0,160,280,80,56,0,-241,-8,0,0,65,0,504,184,40,16,0,
0,4,-203,-38,3,0,100,0,312,184,40,32,0,-255,-46,1,0,100,0,40,184,32,32,0,-268,-52,0,0,100,0,80,280,80,56,0,-241,-8,0,0,65,0,504,184,40,16,0,
0,4,-205,-33,0,0,100,0,272,184,40,32,0,-254,-45,1,0,100,0,40,184,32,32,0,-268,-52,0,0,100,0,240,280,80,56,0,-240,-8,0,0,65,0,504,184,40,16,0,
0,4,-175,-73,0,0,100,0,80,128,80,56,0,-199,-65,0,0,50,0,80,128,80,56,0,-223,-57,0,0,20,0,80,128,80,56,0,-170,-8,0,0,46,0,504,184,40,16,0,
0,4,-111,-72,0,0,100,0,80,128,80,56,0,-137,-79,0,0,50,0,80,128,80,56,0,-167,-81,0,0,20,0,80,128,80,56,0,-106,-8,0,0,46,0,504,184,40,16,0,
0,4,-43,-57,0,0,100,0,0,0,80,64,0,-51,-61,0,0,40,0,0,0,80,64,0,-59,-64,0,0,20,0,0,0,80,64,0,-26,-8,0,0,65,0,504,184,40,16,0,
0,5,-35,-55,0,0,60,0,80,64,80,64,0,-37,-59,0,0,100,0,0,640,80,64,0,-37,-58,0,0,100,0,640,0,80,64,0,-27,-49,1,0,100,0,720,680,80,40,0,-19,-8,0,0,65,0,504,184,40,16,0,
0,3,-35,-55,0,0,30,0,160,64,80,64,0,-37,-55,0,0,100,0,80,640,80,64,0,-20,-8,0,0,65,0,504,184,40,16,0,
0,3,-37,-46,0,0,100,0,424,184,32,32,0,-37,-59,0,0,100,0,160,640,80,64,0,-19,-8,0,0,65,0,504,184,40,16,0,
0,4,-41,-80,1,0,100,0,72,184,32,32,0,2,-90,2,0,100,0,272,184,40,40,0,-37,-60,0,0,100,0,240,640,80,64,0,-19,-8,0,0,65,0,504,184,40,16,0,
0,4,9,-100,0,0,100,0,240,184,32,40,0,-43,-99,1,0,100,0,136,184,32,32,0,-37,-60,0,0,100,0,240,640,80,64,0,-19,-8,0,0,65,0,504,184,40,16,0,
0,4,3,-101,0,0,100,0,200,184,40,40,0,-38,-100,0,0,100,0,104,184,32,32,0,-37,-60,0,0,100,0,240,640,80,64,0,-19,-8,0,0,65,0,504,184,40,16,0,
0,4,4,-102,0,0,100,0,168,184,32,40,0,-36,-97,2,0,100,0,136,184,32,32,0,-39,-59,0,0,100,0,320,640,80,64,0,-19,-8,0,0,65,0,504,184,40,16,0,
0,4,1,-102,2,0,100,0,272,184,40,40,0,-38,-95,1,0,100,0,72,184,32,32,0,-39,-59,0,0,100,0,320,640,80,64,0,-19,-8,0,0,65,0,504,184,40,16,0,
0,4,5,-95,0,0,100,0,240,184,32,40,0,-39,-93,1,0,100,0,136,184,32,32,0,-39,-59,0,0,100,0,320,640,80,64,0,-19,-8,0,0,65,0,504,184,40,16,0,
0,4,3,-79,0,0,100,0,200,184,40,40,0,-38,-78,0,0,100,0,104,184,32,32,0,-39,-59,0,0,100,0,400,640,80,64,0,-19,-8,0,0,65,0,504,184,40,16,0,
0,4,4,-62,0,0,100,0,168,184,32,40,0,-36,-57,2,0,100,0,136,184,32,32,0,-39,-59,0,0,100,0,480,640,80,64,0,-19,-8,0,0,65,0,504,184,40,16,0,
0,2,-36,-59,0,0,100,0,0,704,80,64,0,-19,-8,0,0,65,0,504,184,40,16,0,
0,2,-36,-59,0,0,100,0,560,640,80,64,0,-20,-8,0,0,65,0,504,184,40,16,0,
0,3,21,-30,0,0,100,0,528,200,16,16,0,-39,-59,0,0,100,0,80,704,80,64,0,-20,-8,0,0,65,0,504,184,40,16,0,
0,4,-19,-53,0,0,100,0,456,184,16,32,0,21,-29,0,0,100,0,544,184,16,16,0,-40,-59,0,0,100,0,160,704,80,64,0,-20,-8,0,0,65,0,504,184,40,16,0,
0,4,-19,-53,0,0,100,0,456,184,16,32,0,21,-29,0,0,100,0,544,184,16,16,0,-40,-59,0,0,100,0,240,704,80,64,0,-20,-8,0,0,65,0,504,184,40,16,0,
0,4,-19,-53,0,0,100,0,456,184,16,32,0,21,-29,0,0,100,0,544,184,16,16,0,-40,-59,0,0,100,0,320,704,80,64,0,-20,-8,0,0,65,0,504,184,40,16,0,
0,4,-19,-53,0,0,100,0,456,184,16,32,0,21,-29,0,0,100,0,544,184,16,16,0,-40,-59,0,0,100,0,400,704,80,64,0,-20,-8,0,0,65,0,504,184,40,16,0,
0,3,23,-29,0,0,100,0,560,184,16,16,0,-39,-59,0,0,100,0,480,704,80,64,0,-20,-8,0,0,65,0,504,184,40,16,0,
0,3,15,-50,0,0,100,0,624,184,16,16,0,-39,-59,0,0,100,0,560,704,80,64,0,-20,-8,0,0,65,0,504,184,40,16,0,
0,3,13,-53,0,0,100,0,624,184,16,16,0,-40,-59,0,0,100,0,560,576,80,64,0,-20,-8,0,0,65,0,504,184,40,16,0,
0,3,13,-53,0,0,100,0,624,184,16,16,0,-40,-59,0,0,100,0,640,576,80,64,0,-20,-8,0,0,65,0,504,184,40,16,0,
0,3,13,-53,0,0,100,0,624,184,16,16,0,-40,-59,0,0,100,0,720,576,80,64,0,-20,-8,0,0,65,0,504,184,40,16,0,
0,3,13,-53,0,0,100,0,624,184,16,16,0,-40,-59,0,0,100,0,640,728,80,64,0,-20,-8,0,0,65,0,504,184,40,16,0,
