0,4,-55,-61,0,1,0,0,360,736,48,48,0,-61,-68,0,0,100,0,576,32,56,56,0,-45,-60,0,0,100,0,0,0,96,72,0,-20,-8,0,0,65,0,576,0,40,16,0,
0,4,-56,-61,0,1,20,0,408,736,48,48,0,-62,-68,0,0,100,0,576,32,56,56,0,-45,-60,0,0,100,0,96,0,96,72,0,-20,-8,0,0,65,0,576,0,40,16,0,
0,4,-56,-61,0,1,40,0,456,736,48,48,0,-62,-68,0,0,100,0,576,32,56,56,0,-45,-60,0,0,100,0,192,0,96,72,0,-20,-8,0,0,65,0,576,0,40,16,0,
0,4,-55,-61,0,1,60,0,360,736,48,48,0,-61,-68,0,0,100,0,576,32,56,56,0,-45,-60,0,0,100,0,288,0,96,72,0,-20,-8,0,0,65,0,576,0,40,16,0,
0,4,-54,-60,0,1,40,0,360,736,48,48,0,-60,-67,0,0,100,0,576,32,56,56,0,-45,-60,0,0,100,0,384,0,96,72,0,-20,-8,0,0,65,0,576,0,40,16,0,
0,4,-54,-60,0,1,20,0,360,736,48,48,0,-60,-67,0,0,100,0,576,32,56,56,0,-45,-60,0,0,100,0,480,0,96,72,0,-20,-8,0,0,65,0,576,0,40,16,0,
0,2,-46,-104,0,0,100,0,560,88,80,112,0,-20,-8,0,0,46,0,576,16,40,16,0,
0,2,-22,-104,0,0,100,0,584,200,56,112,0,-20,-8,0,0,46,0,576,16,40,16,0,
0,2,-22,-104,0,0,100,0,584,312,56,112,0,-20,-8,0,0,46,0,576,16,40,16,0,
0,2,-22,-104,0,0,100,0,584,88,56,112,0,-20,-8,0,0,65,0,576,0,40,16,0,
0,2,-57,-85,0,0,100,0,0,72,104,104,0,-20,-8,0,0,65,0,576,0,40,16,0,
0,4,-117,-22,0,0,100,0,632,0,96,48,0,-9,-41,0,0,60,0,0,576,64,64,0,-57,-85,0,0,100,0,104,72,104,104,0,-20,-8,0,0,65,0,576,0,40,16,0,
0,5,0,-33,0,1,100,0,64,576,48,48,0,-9,-41,0,0,100,0,0,576,64,64,0,-117,-22,0,0,100,0,728,0,96,48,0,-57,-85,0,0,100,0,208,72,104,104,0,-20,-8,0,0,65,0,576,0,40,16,0,
0,5,0,-33,0,1,100,0,160,576,48,48,0,0,-33,0,0,100,0,112,576,48,48,0,-117,-22,0,0,100,0,640,48,96,48,0,-57,-85,0,0,100,0,312,72,104,104,0,-20,-8,0,0,65,0,576,0,40,16,0,
0,5,-14,-36,0,1,100,0,256,576,64,56,0,-6,-32,0,0,100,0,208,576,48,48,0,-117,-22,0,0,100,0,736,48,96,48,0,-57,-85,0,0,100,0,416,72,104,104,0,-20,-8,0,0,65,0,576,0,40,16,0,
0,5,-68,-52,0,1,100,0,0,640,96,72,0,-117,-46,0,1,100,0,736,96,96,72,0,-117,-46,0,0,100,0,640,96,96,72,0,-57,-85,0,0,100,0,0,176,104,104,0,-20,-8,0,0,65,0,576,0,40,16,0,
0,5,-75,-103,0,1,100,0,96,624,120,120,0,-116,-101,0,1,100,0,736,168,96,128,0,-116,-101,0,0,100,0,640,168,96,128,0,-57,-85,0,0,100,0,104,176,104,104,0,-20,-8,0,0,65,0,576,0,40,16,0,
0,5,-75,-103,0,1,100,0,0,744,120,120,0,-116,-109,0,1,100,0,736,296,96,136,0,-116,-109,0,0,100,0,640,296,96,136,0,-57,-85,0,0,100,0,208,176,104,104,0,-20,-8,0,0,65,0,576,0,40,16,0,
0,5,-75,-103,0,1,100,0,120,744,120,120,0,-116,-123,0,1,100,0,736,432,96,152,0,-116,-123,0,0,100,0,640,432,96,152,0,-57,-85,0,0,100,0,312,176,104,104,0,-20,-8,0,0,65,0,576,0,40,16,0,
0,5,-75,-103,0,1,100,0,240,744,120,120,0,-116,-118,0,1,100,0,736,584,96,152,0,-116,-118,0,0,100,0,640,584,96,152,0,-57,-85,0,0,100,0,416,176,104,104,0,-20,-8,0,0,65,0,576,0,40,16,0,
0,5,-75,-103,0,1,70,0,240,744,120,120,0,-116,-118,0,1,100,0,544,584,96,152,0,-116,-118,0,0,100,0,448,584,96,152,0,-57,-85,0,0,100,0,0,280,104,104,0,-20,-8,0,0,65,0,576,0,40,16,0,
0,5,-75,-103,0,1,40,0,240,744,120,120,0,-116,-120,0,1,60,0,544,584,96,152,0,-116,-118,0,0,80,0,448,584,96,152,0,-57,-85,0,0,100,0,104,280,104,104,0,-20,-8,0,0,65,0,576,0,40,16,0,
0,2,-57,-85,0,0,100,0,208,280,104,104,0,-20,-8,0,0,65,0,576,0,40,16,0,
0,3,-60,-68,0,0,100,0,576,32,56,56,0,-51,-58,0,0,100,0,0,384,96,64,0,-20,-8,0,0,65,0,576,0,40,16,0,
0,3,-59,-68,0,0,100,0,576,32,56,56,0,-51,-58,0,0,100,0,96,384,96,64,0,-20,-8,0,0,65,0,576,0,40,16,0,
0,3,-59,-68,0,0,100,0,576,32,56,56,0,-51,-58,0,0,100,0,192,384,96,64,0,-20,-8,0,0,65,0,576,0,40,16,0,
0,3,-60,-68,0,0,100,0,576,32,56,56,0,-51,-58,0,0,100,0,288,384,96,64,0,-20,-8,0,0,65,0,576,0,40,16,0,
0,3,-61,-67,0,0,100,0,576,32,56,56,0,-51,-58,0,0,100,0,384,384,96,64,0,-20,-8,0,0,65,0,576,0,40,16,0,
0,3,-61,-67,0,0,100,0,576,32,56,56,0,-51,-58,0,0,100,0,480,384,96,64,0,-20,-8,0,0,65,0,576,0,40,16,0,
0,3,-61,-67,0,0,100,0,576,32,56,56,0,-51,-58,0,0,100,0,0,448,96,64,0,-20,-8,0,0,65,0,576,0,40,16,0,
0,3,-61,-67,0,0,100,0,576,32,56,56,0,-51,-58,0,0,100,0,96,448,96,64,0,-20,-8,0,0,65,0,576,0,40,16,0,
0,3,-61,-67,0,0,100,0,576,32,56,56,0,-51,-58,0,0,100,0,192,448,96,64,0,-20,-8,0,0,65,0,576,0,40,16,0,
0,3,-61,-66,0,0,100,0,576,32,56,56,0,-51,-58,0,0,100,0,288,448,96,64,0,-20,-8,0,0,65,0,576,0,40,16,0,
0,2,-51,-58,0,0,100,0,384,448,96,64,0,-20,-8,0,0,65,0,576,0,40,16,0,
0,2,-48,-53,0,0,100,0,0,512,88,64,0,-20,-8,0,0,65,0,576,0,40,16,0,
0,2,-48,-53,0,0,100,0,88,512,88,64,0,-20,-8,0,0,65,0,576,0,40,16,0,
0,2,-48,-53,0,0,100,0,176,512,88,64,0,-20,-8,0,0,65,0,576,0,40,16,0,
0,2,-48,-53,0,0,100,0,264,512,88,64,0,-20,-8,0,0,65,0,576,0,40,16,0,
0,2,-48,-53,0,0,100,0,352,512,88,64,0,-20,-8,0,0,65,0,576,0,40,16,0,
0,2,-48,-53,0,0,100,0,440,512,88,64,0,-20,-8,0,0,65,0,576,0,40,16,0,
0,1,-20,-8,0,0,65,0,576,0,40,16,0,
