0,7,-56,-69,0,0,100,0,98,17,77,73,0,2,-54,0,0,100,0,55,118,37,56,0,-9,-46,0,0,100,0,44,265,32,46,0,1,-92,0,0,100,0,1,327,53,59,0,-31,-35,0,0,100,0,3,137,32,35,0,-4,-38,0,0,100,0,49,197,32,38,0,-38,-11,0,0,65,0,6,412,75,23,0,
0,7,-56,-68,0,0,100,0,183,17,77,73,0,-9,-45,0,0,100,0,105,265,32,46,0,2,-53,0,0,100,0,157,118,37,56,0,-6,-92,0,0,100,0,52,326,53,59,0,-31,-35,0,0,100,0,105,137,32,35,0,-4,-38,0,0,100,0,49,197,32,38,0,-38,-11,0,0,65,0,6,412,75,23,0,
0,7,-56,-69,0,0,100,0,262,17,77,73,0,-9,-46,0,0,100,0,172,265,32,46,0,2,-54,0,0,100,0,255,118,37,56,0,1,-93,0,0,100,0,118,326,53,59,0,-31,-35,0,0,100,0,203,137,32,35,0,-4,-38,0,0,100,0,49,197,32,38,0,-38,-11,0,0,65,0,6,412,75,23,0,
0,7,-56,-70,0,0,100,0,340,17,77,73,0,-9,-47,0,0,100,0,233,265,32,46,0,2,-55,0,0,100,0,357,118,37,56,0,-2,-91,0,0,100,0,173,329,53,59,0,-31,-35,0,0,100,0,305,137,32,35,0,-4,-38,0,0,100,0,49,197,32,38,0,-38,-11,0,0,65,0,6,412,75,23,0,
0,7,-56,-68,0,0,100,0,183,17,77,73,0,-9,-45,0,0,100,0,105,265,32,46,0,2,-53,0,0,100,0,157,118,37,56,0,-2,-90,0,0,100,0,309,342,53,59,0,-31,-35,0,0,100,0,105,137,32,35,0,-4,-38,0,0,100,0,49,197,32,38,0,-38,-11,0,0,65,0,6,412,75,23,0,
0,7,-55,-67,0,0,100,0,183,17,77,73,0,-8,-44,0,0,100,0,105,265,32,46,0,3,-52,0,0,100,0,157,191,37,56,0,-2,-88,0,0,100,0,366,343,53,59,0,-31,-35,0,0,100,0,105,137,32,35,0,-4,-38,0,0,100,0,49,197,32,38,0,-38,-11,0,0,65,0,6,412,75,23,0,
0,7,-55,-64,0,0,100,0,183,17,77,73,0,-9,-41,0,0,100,0,105,265,32,46,0,0,-52,0,0,100,0,206,190,37,56,0,-4,-87,0,0,100,0,440,342,53,59,0,-34,-35,0,0,100,0,105,137,32,35,0,-5,-38,0,0,100,0,49,197,32,38,0,-37,-11,0,0,65,0,6,412,75,23,0,
0,9,-65,-68,0,0,100,0,512,17,26,73,0,-106,-68,0,0,100,0,406,17,77,73,0,-60,-45,0,0,100,0,364,265,32,46,0,-54,-54,0,0,100,0,518,118,51,56,0,-52,-54,0,0,100,0,454,118,46,56,0,-43,-93,0,0,100,0,246,338,53,59,0,-71,-37,0,0,100,0,413,137,32,35,0,-44,-40,0,0,100,0,103,197,32,38,0,-83,-11,0,0,65,0,6,412,75,23,0,
0,7,-104,-68,0,0,100,0,406,17,77,73,0,-58,-45,0,0,100,0,364,265,32,46,0,-50,-54,0,0,100,0,454,118,46,56,0,-41,-93,0,0,100,0,246,338,53,59,0,-69,-37,0,0,100,0,413,137,32,35,0,-42,-40,0,0,100,0,103,197,32,38,0,-81,-11,0,0,65,0,6,412,75,23,0,
0,7,-94,-67,0,0,100,0,183,17,77,73,0,-49,-44,0,0,100,0,105,265,32,46,0,-38,-52,0,0,100,0,157,191,37,56,0,-39,-90,0,0,100,0,1,327,53,59,0,-72,-35,0,0,100,0,105,137,32,35,0,-45,-38,0,0,100,0,49,197,32,38,0,-79,-11,0,0,65,0,6,412,75,23,0,
0,7,-82,-70,0,0,100,0,340,17,77,73,0,-35,-47,0,0,100,0,233,265,32,46,0,-24,-55,0,0,100,0,357,118,37,56,0,-25,-93,0,0,100,0,1,327,53,59,0,-57,-35,0,0,100,0,305,137,32,35,0,-30,-38,0,0,100,0,49,197,32,38,0,-64,-11,0,0,65,0,6,412,75,23,0,
0,7,-61,-68,0,0,100,0,406,17,77,73,0,-15,-45,0,0,100,0,364,265,32,46,0,-7,-54,0,0,100,0,454,118,46,56,0,2,-93,0,0,100,0,246,338,53,59,0,-26,-37,0,0,100,0,413,137,32,35,0,1,-40,0,0,100,0,103,197,32,38,0,-38,-11,0,0,65,0,6,412,75,23,0,
0,7,-56,-68,0,0,100,0,183,17,77,73,0,-9,-45,0,0,100,0,105,265,32,46,0,2,-53,0,0,100,0,157,118,37,56,0,-2,-90,0,0,100,0,309,342,53,59,0,-31,-35,0,0,100,0,105,137,32,35,0,-4,-38,0,0,100,0,49,197,32,38,0,-38,-11,0,0,65,0,6,412,75,23,0,
0,7,-55,-67,0,0,100,0,183,17,77,73,0,-8,-44,0,0,100,0,105,265,32,46,0,3,-52,0,0,100,0,157,191,37,56,0,-2,-88,0,0,100,0,366,343,53,59,0,-31,-35,0,0,100,0,105,137,32,35,0,-4,-38,0,0,100,0,49,197,32,38,0,-38,-11,0,0,65,0,6,412,75,23,0,
0,7,-53,-64,0,0,100,0,183,17,77,73,0,-7,-41,0,0,100,0,105,265,32,46,0,2,-52,0,0,100,0,206,190,37,56,0,-2,-87,0,0,100,0,440,342,53,59,0,-32,-35,0,0,100,0,105,137,32,35,0,-3,-38,0,0,100,0,49,197,32,38,0,-38,-11,0,0,65,0,6,412,75,23,0,
0,10,-18,-127,0,0,100,0,529,216,43,40,0,-45,-99,0,0,100,0,270,188,63,73,0,-11,-46,0,0,100,0,491,274,34,46,0,-11,-47,0,0,100,0,231,265,34,46,0,-32,-46,0,0,100,0,403,284,53,46,0,2,-55,0,0,100,0,357,118,37,56,0,1,-106,0,0,100,0,508,330,53,72,0,-31,-35,0,0,100,0,305,137,32,35,0,-4,-38,0,0,100,0,49,197,32,38,0,-38,-11,0,0,65,0,6,412,75,23,0,
0,10,-27,-123,0,0,100,0,580,216,43,40,0,-44,-98,0,0,100,0,345,188,63,73,0,-11,-48,0,0,100,0,491,273,32,46,0,-9,-46,0,0,100,0,44,265,32,46,0,-32,-46,0,0,100,0,403,284,53,46,0,2,-54,0,0,100,0,55,118,37,56,0,0,-105,0,0,100,0,576,330,57,72,0,-31,-39,0,0,100,0,3,133,32,39,0,-4,-38,0,0,100,0,49,197,32,38,0,-38,-11,0,0,65,0,6,412,75,23,0,
0,7,-106,-68,0,0,100,0,406,17,77,73,0,-60,-45,0,0,100,0,364,265,32,46,0,-52,-54,0,0,100,0,454,118,46,56,0,-43,-93,0,0,100,0,246,338,53,59,0,-71,-37,0,0,100,0,413,137,32,35,0,-44,-40,0,0,100,0,103,197,32,38,0,-83,-11,0,0,65,0,6,412,75,23,0,
