0,2,-51,-82,0,0,100,0,0,0,96,96,0,-26,-9,0,0,65,0,192,0,56,24,0,
0,2,-50,-86,0,0,100,0,96,0,96,96,0,-26,-9,0,0,65,0,192,0,56,24,0,
0,2,-47,-87,0,0,100,0,0,96,96,96,0,-26,-9,0,0,65,0,192,0,56,24,0,
0,2,-49,-86,0,0,100,0,96,96,96,96,0,-26,-9,0,0,65,0,192,0,56,24,0,
0,2,-54,-79,0,0,100,0,192,32,96,96,0,-26,-9,0,0,65,0,192,0,56,24,0,
0,2,-50,-87,0,0,100,0,0,192,96,104,0,-26,-9,0,0,65,0,192,0,56,24,0,
0,2,-47,-88,0,0,100,0,96,192,88,96,0,-26,-9,0,0,65,0,192,0,56,24,0,
0,2,-50,-117,0,0,100,0,0,288,96,136,0,-26,-9,0,0,65,0,192,0,56,24,0,
0,2,-43,-132,0,0,100,0,104,288,80,144,0,-26,-9,0,0,65,0,192,0,56,24,0,
0,2,-45,-150,0,0,100,0,0,416,88,152,0,-26,-9,0,0,65,0,192,0,56,24,0,
0,2,-38,-117,0,0,100,0,104,424,80,120,0,-31,-9,0,0,65,0,192,0,56,24,0,
0,2,-26,-68,0,0,100,0,0,570,64,72,0,-36,-9,0,0,65,0,192,0,56,24,0,
0,2,-29,-68,0,0,100,0,66,568,64,72,0,-37,-9,0,0,65,0,192,0,56,24,0,
0,2,-33,-68,0,0,100,0,128,568,56,72,0,-37,-9,0,0,65,0,192,0,56,24,0,
0,2,-33,-68,0,0,100,0,128,568,56,72,0,-37,-9,0,0,65,0,192,0,56,24,0,
0,2,-36,-58,0,0,100,0,64,640,64,64,0,-37,-9,0,0,65,0,192,0,56,24,0,
0,2,-43,-58,0,0,100,0,120,640,72,64,0,-37,-9,0,0,65,0,192,0,56,24,0,
0,2,-37,-61,0,0,100,0,0,704,64,64,0,-37,-9,0,0,65,0,192,0,56,24,0,
0,2,-37,-61,0,0,100,0,0,704,64,64,0,-37,-9,0,0,65,0,192,0,56,24,0,
0,2,-37,-61,0,0,100,0,0,704,64,64,0,-37,-9,0,0,65,0,192,0,56,24,0,
0,2,-37,-61,0,0,100,0,0,704,64,64,0,-37,-9,0,0,65,0,192,0,56,24,0,
0,2,-39,-59,0,0,100,0,64,768,64,64,0,-37,-9,0,0,65,0,192,0,56,24,0,
0,2,-36,-58,0,0,100,0,128,768,56,64,0,-37,-9,0,0,65,0,192,0,56,24,0,
0,2,-32,-60,0,0,100,0,8,832,56,64,0,-37,-9,0,0,65,0,192,0,56,24,0,
0,2,-37,-59,0,0,100,0,64,832,64,64,0,-37,-9,0,0,65,0,192,0,56,24,0,
0,2,-40,-60,0,0,100,0,128,832,64,64,0,-37,-9,0,0,65,0,192,0,56,24,0,
0,2,-47,-111,0,0,100,0,288,0,96,128,0,-23,-9,0,0,65,0,192,0,56,24,0,
0,2,-54,-114,0,0,100,0,384,0,120,128,0,-22,-9,0,0,65,0,192,0,56,24,0,
0,2,-119,-112,0,0,100,0,192,128,192,136,0,-26,-9,0,0,65,0,192,0,56,24,0,
0,2,-134,-118,0,0,100,0,384,128,216,144,0,-22,-9,0,0,65,0,192,0,56,24,0,
0,2,-162,-135,0,0,100,0,192,264,224,152,0,-22,-9,0,0,65,0,192,0,56,24,0,
0,2,-164,-148,0,0,100,0,416,256,216,160,0,-22,-9,0,0,65,0,192,0,56,24,0,
0,2,-28,-61,0,0,100,0,504,0,80,64,0,-22,-9,0,0,65,0,192,0,56,24,0,
0,2,-50,-64,0,0,100,0,504,64,104,64,0,-26,-9,0,0,65,0,192,0,56,24,0,
0,2,-168,-71,0,0,100,0,184,416,216,96,0,-47,-9,0,0,65,0,192,0,56,24,0,
0,2,-186,-71,0,0,100,0,392,416,256,96,0,-47,-9,0,0,65,0,192,0,56,24,0,
0,2,-183,-71,0,0,100,0,216,504,232,112,0,-47,-9,0,0,65,0,192,0,56,24,0,
0,2,-67,-66,0,0,100,0,696,488,96,72,0,-47,-9,0,0,65,0,192,0,56,24,0,
0,2,-145,-91,0,0,100,0,448,504,192,112,0,-47,-9,0,0,65,0,192,0,56,24,0,
0,2,-163,-111,0,0,100,0,192,624,192,136,0,-47,-9,0,0,65,0,192,0,56,24,0,
0,2,-179,-123,0,0,100,0,384,616,248,144,0,-47,-9,0,0,65,0,192,0,56,24,0,
0,2,-175,-138,0,0,100,0,192,768,200,160,0,-47,-9,0,0,65,0,192,0,56,24,0,
0,2,-187,-136,0,0,100,0,400,760,248,168,0,-47,-9,0,0,65,0,192,0,56,24,0,
0,2,-148,-115,0,0,100,0,632,0,176,128,0,-47,-9,0,0,65,0,192,0,56,24,0,
0,2,-157,-113,0,0,100,0,816,0,208,128,0,-47,-9,0,0,65,0,192,0,56,24,0,
0,2,-163,-76,0,0,100,0,640,128,184,88,0,-47,-9,0,0,65,0,192,0,56,24,0,
0,2,-94,-54,0,0,100,0,936,128,120,64,0,-47,-9,0,0,65,0,192,0,56,24,0,
0,2,-152,-163,0,0,100,0,640,288,208,200,0,-58,-9,0,0,65,0,192,0,56,24,0,
0,2,-168,-169,0,0,100,0,864,192,192,192,0,-73,-9,0,0,65,0,192,0,56,24,0,
0,2,-174,-179,0,0,100,0,840,384,216,200,0,-73,-9,0,0,65,0,192,0,56,24,0,
0,2,-159,-201,0,0,100,0,640,568,216,200,0,-64,-9,0,0,65,0,192,0,56,24,0,
0,2,-151,-202,0,0,100,0,856,576,200,192,0,-64,-9,0,0,65,0,192,0,56,24,0,
0,2,-134,-214,0,0,100,0,760,776,152,144,0,-64,-9,0,0,65,0,192,0,56,24,0,
0,2,-173,-180,0,0,100,0,8,912,224,208,0,-63,-9,0,0,65,0,192,0,56,24,0,
0,2,-212,-169,0,0,100,0,232,928,280,192,0,-63,-9,0,0,65,0,192,0,56,24,0,
0,2,-192,-175,0,0,100,0,504,928,264,192,0,-63,-9,0,0,65,0,192,0,56,24,0,
0,2,-209,-176,0,0,100,0,768,928,288,192,0,-63,-9,0,0,65,0,192,0,56,24,0,
0,2,-94,-64,0,0,100,0,952,856,96,72,0,-63,-9,0,0,65,0,192,0,56,24,0,
