5,0,0,5,
6,0,0,6,
7,0,0,8,
8,0,0,3,
9,0,0,2,
10,0,0,2,
11,0,0,3,
12,0,0,3,
13,0,0,4,
14,0,0,6,
15,0,0,3,
16,0,0,4,
17,0,0,4,
18,0,0,8,
19,0,0,12,
20,0,0,2,
21,0,0,2,
22,0,0,4,
23,0,0,6,
24,0,0,6,
25,0,0,6,
26,0,0,2,
27,0,0,2,
