0,2,-52,-69,0,0,100,0,0,0,96,72,0,-17,-7,0,0,65,0,0,72,32,16,0,
0,2,-52,-69,0,0,100,0,96,0,96,72,0,-17,-7,0,0,65,0,0,72,32,16,0,
0,2,-52,-69,0,0,100,0,192,0,96,72,0,-17,-7,0,0,65,0,0,72,32,16,0,
0,2,-52,-69,0,0,100,0,288,0,96,72,0,-17,-7,0,0,65,0,0,72,32,16,0,
0,2,-57,-68,0,0,100,0,32,72,104,72,0,-17,-7,0,0,65,0,0,72,32,16,0,
0,3,-97,-36,0,0,100,0,0,144,32,32,0,-90,-68,0,0,100,0,136,72,144,72,0,-17,-7,0,0,65,0,0,72,32,16,0,
0,3,-109,-52,0,0,100,0,0,176,48,56,0,-100,-68,0,0,100,0,280,72,144,72,0,-27,-7,0,0,65,0,0,72,32,16,0,
0,3,-110,-59,0,0,65,0,56,144,56,80,0,-105,-68,0,0,100,0,280,72,144,72,0,-32,-7,0,0,100,0,0,72,32,16,0,
0,3,-101,-60,0,0,100,0,128,144,48,80,0,-102,-68,0,0,100,0,280,72,144,72,0,-29,-7,0,0,65,0,0,72,32,16,0,
0,2,-101,-68,0,0,100,0,280,72,144,72,0,-28,-7,0,0,65,0,0,72,32,16,0,
0,3,-115,-36,0,0,100,0,0,144,32,32,0,-108,-68,0,0,100,0,280,72,144,72,0,-35,-7,0,0,65,0,0,72,32,16,0,
0,2,-52,-69,0,0,100,0,0,240,96,72,0,-17,-7,0,0,65,0,0,72,32,16,0,
0,2,-52,-69,0,0,100,0,96,240,96,72,0,-17,-7,0,0,65,0,0,72,32,16,0,
0,2,-52,-69,0,0,100,0,192,240,96,72,0,-17,-7,0,0,65,0,0,72,32,16,0,
0,2,-52,-69,0,0,100,0,288,240,96,72,0,-17,-7,0,0,65,0,0,72,32,16,0,
0,2,-52,-69,0,0,100,0,384,240,96,72,0,-17,-7,0,0,65,0,0,72,32,16,0,
0,3,-124,-52,0,0,100,0,0,176,48,56,0,-115,-68,0,0,100,0,280,72,144,72,0,-42,-7,0,0,65,0,0,72,32,16,0,
0,3,-133,-52,0,0,100,0,0,176,48,56,0,-124,-68,0,0,100,0,280,72,144,72,0,-51,-7,0,0,65,0,0,72,32,16,0,
0,3,-123,-59,0,0,100,0,56,144,56,80,0,-118,-68,0,0,100,0,280,72,144,72,0,-45,-7,0,0,65,0,0,72,32,16,0,
0,3,-132,-59,0,0,100,0,56,144,56,80,0,-127,-68,0,0,100,0,280,72,144,72,0,-54,-7,0,0,65,0,0,72,32,16,0,
0,3,-112,-60,0,0,100,0,128,144,48,80,0,-113,-68,0,0,100,0,280,72,144,72,0,-40,-7,0,0,65,0,0,72,32,16,0,
0,3,-124,-60,0,0,100,0,128,144,48,80,0,-125,-68,0,0,100,0,280,72,144,72,0,-52,-7,0,0,65,0,0,72,32,16,0,
0,2,-112,-68,0,0,100,0,280,72,144,72,0,-39,-7,0,0,65,0,0,72,32,16,0,
0,2,-124,-68,0,0,100,0,280,72,144,72,0,-51,-7,0,0,65,0,0,72,32,16,0,
0,3,-125,-36,0,0,100,0,0,144,32,32,0,-118,-68,0,0,100,0,280,72,144,72,0,-45,-7,0,0,65,0,0,72,32,16,0,
