0,3,-8,-88,0,1,100,0,688,16,96,80,0,-42,-64,0,0,100,0,17,16,95,80,0,-25,-11,0,0,65,0,17,336,47,24,0,
0,3,-8,-88,0,1,100,0,688,96,96,80,0,-42,-64,0,0,100,0,17,96,95,80,0,-25,-11,0,0,65,0,17,336,47,24,0,
0,4,-55,-72,2,1,100,270,880,336,96,80,0,-57,-72,2,1,80,90,592,656,96,80,0,-60,-64,0,0,100,0,112,16,96,80,0,-32,-11,0,0,65,0,17,336,47,24,0,
0,4,-57,-71,2,1,100,270,880,416,96,80,0,-60,-72,2,1,80,90,592,656,96,80,0,-60,-64,0,0,100,0,112,96,96,80,0,-34,-11,0,0,65,0,17,336,47,24,0,
0,4,-93,-52,0,1,100,0,64,336,96,64,0,-62,-35,0,0,100,0,16,360,48,24,0,-60,-64,0,0,100,0,112,176,96,80,0,-37,-11,0,0,65,0,17,336,47,24,0,
0,4,-88,-31,0,1,100,0,16,400,48,32,0,-60,-63,0,0,100,0,112,257,96,79,0,-61,-67,0,0,20,0,496,576,96,80,0,-36,-11,0,0,65,0,17,336,47,24,0,
0,4,-60,-64,0,0,100,0,208,16,96,80,0,-65,-68,0,1,100,0,880,416,96,80,0,-64,-67,0,0,100,0,496,576,96,80,0,-36,-11,0,0,65,0,17,336,47,24,0,
0,4,-77,-63,0,1,100,0,880,496,96,80,0,-77,-62,0,0,100,0,496,576,96,80,0,-54,-65,0,0,100,0,208,95,96,81,0,-31,-11,0,0,65,0,17,336,47,24,0,
0,7,-4,-44,0,1,100,270,688,16,96,80,0,-62,-93,0,1,70,0,0,592,128,112,0,-5,-93,0,1,80,0,128,592,72,112,0,-62,-93,0,1,80,0,0,480,128,112,0,-14,-60,0,0,80,0,400,432,64,80,0,-50,-64,0,0,100,0,208,176,96,80,0,-27,-11,0,0,65,0,17,336,47,24,0,
0,8,-4,-43,0,1,100,270,688,16,96,80,0,-5,-93,0,1,50,0,128,592,72,112,0,-62,-93,0,1,30,0,0,592,128,112,0,-86,-78,0,1,100,0,64,400,64,80,0,-62,-93,0,1,30,0,0,480,128,112,0,-12,-58,0,0,100,0,400,432,64,80,0,-51,-64,0,0,100,0,207,256,97,80,0,-27,-11,0,0,65,0,17,336,47,24,0,
0,7,1,-37,0,1,100,270,688,96,96,80,0,-5,-93,0,1,30,0,128,592,72,112,0,-87,-102,0,1,100,0,128,400,128,112,0,-11,-58,0,0,100,0,400,432,64,80,0,-50,-64,0,0,100,0,304,16,96,80,0,-12,-42,0,0,100,0,368,336,32,32,0,-27,-11,0,0,65,0,17,336,47,24,0,
0,7,1,-37,0,1,100,270,688,96,96,80,0,-69,-116,0,1,100,0,256,400,128,112,0,-11,-58,0,0,100,0,400,432,64,80,0,-50,-64,0,0,100,0,304,96,96,80,0,-12,-42,0,0,100,0,368,336,32,32,0,-14,-48,0,0,100,0,448,336,48,48,0,-27,-11,0,0,65,0,17,336,47,24,0,
0,7,1,-37,0,1,100,270,688,96,96,80,0,-49,-112,0,1,100,0,240,512,128,96,0,-11,-58,0,0,100,0,400,432,64,80,0,-50,-64,0,0,100,0,304,96,96,80,0,-12,-42,0,0,100,0,368,336,32,32,0,-18,-42,0,0,100,0,400,336,48,48,0,-27,-11,0,0,65,0,17,336,47,24,0,
0,7,1,-37,0,1,100,270,688,96,96,80,0,-4,-97,0,1,100,0,128,512,64,80,0,-11,-58,0,0,100,0,400,432,64,80,0,-50,-64,0,0,100,0,304,96,96,80,0,-15,-41,0,0,100,0,336,336,32,32,0,-18,-42,0,0,100,0,400,336,48,48,0,-27,-11,0,0,65,0,17,336,47,24,0,
0,7,17,-80,0,1,30,0,193,512,47,80,0,-3,-35,0,1,100,270,688,176,96,80,0,-11,-58,0,0,100,0,400,432,64,80,0,-50,-64,0,0,100,0,304,96,96,80,0,-15,-41,0,0,100,0,336,336,32,32,0,-19,-42,0,0,100,0,400,384,48,48,0,-27,-11,0,0,65,0,17,336,47,24,0,
0,6,-3,-35,0,1,100,270,688,256,96,80,0,-11,-58,0,0,100,0,400,432,64,80,0,-50,-64,0,0,100,0,304,96,96,80,0,-15,-41,0,0,100,0,336,336,32,32,0,-19,-42,0,0,100,0,400,384,48,48,0,-27,-11,0,0,65,0,17,336,47,24,0,
0,3,-8,-88,0,1,100,0,688,176,96,80,0,-42,-64,0,0,100,0,17,176,95,80,0,-25,-11,0,0,65,0,17,336,47,24,0,
0,3,-8,-88,0,1,100,0,688,256,96,80,0,-42,-64,0,0,100,0,17,256,95,80,0,-25,-11,0,0,65,0,17,336,47,24,0,
0,3,-52,-68,0,1,60,0,592,656,96,80,0,-52,-68,0,0,100,0,400,16,96,80,0,-25,-11,0,0,65,0,17,336,47,24,0,
0,8,-53,-68,0,0,100,0,304,176,96,80,0,-68,-73,0,1,50,0,496,576,96,80,0,-77,-75,0,1,30,0,688,416,96,80,0,-68,-73,0,1,100,0,688,336,96,80,0,-68,-71,0,1,30,0,496,656,96,80,0,-69,-73,0,0,100,0,496,496,96,80,0,-69,-73,0,1,100,0,496,576,96,80,0,-25,-11,0,0,65,0,17,336,47,24,0,
0,8,-53,-68,0,0,100,0,496,96,96,80,0,-68,-71,0,0,100,0,496,496,96,80,0,-75,-75,0,1,70,0,688,416,96,80,0,-76,-63,0,1,10,0,688,416,96,80,0,-68,-71,0,1,100,0,496,576,96,80,0,-68,-73,0,1,100,0,688,336,96,80,0,-68,-71,0,1,30,0,496,656,96,80,0,-27,-12,0,0,65,0,17,336,47,24,0,
0,9,-53,-68,0,0,100,0,496,176,96,80,0,-68,-71,0,0,100,0,496,496,96,80,0,-75,-80,0,1,70,0,592,416,96,80,0,-75,-80,0,1,100,0,688,416,96,80,0,-68,-71,0,1,100,0,496,576,96,80,0,-68,-71,0,1,50,0,496,656,96,80,0,-68,-73,0,1,50,0,688,336,96,80,0,-75,-65,0,1,30,0,688,416,96,80,0,-27,-12,0,0,65,0,17,336,47,24,0,
0,7,-53,-68,0,0,100,0,592,16,96,80,0,-68,-71,0,0,100,0,496,496,96,80,0,-68,-71,0,1,100,0,880,336,96,80,0,-68,-71,0,1,40,0,784,336,96,80,0,-68,-71,0,0,100,0,496,416,96,80,0,-68,-71,0,1,30,0,688,656,96,80,0,-27,-12,0,0,65,0,17,336,47,24,0,
0,8,-53,-68,0,0,100,0,592,96,96,80,0,-68,-71,0,0,100,0,496,496,96,80,0,-68,-71,0,1,100,0,880,416,96,80,0,-68,-71,0,1,40,0,784,416,96,80,0,-68,-71,0,0,20,0,496,576,96,80,0,-68,-71,0,0,100,0,496,416,96,80,0,-68,-71,0,1,30,0,688,656,96,80,0,-27,-12,0,0,65,0,17,336,47,24,0,
0,8,-53,-68,0,0,100,0,592,176,96,80,0,-68,-71,0,0,100,0,496,496,96,80,0,-68,-71,0,1,100,0,880,496,96,80,0,-68,-71,0,1,40,0,784,496,96,80,0,-68,-71,0,1,50,0,496,576,96,80,0,-68,-71,0,0,100,0,496,416,96,80,0,-68,-71,0,1,30,0,688,656,96,80,0,-27,-12,0,0,65,0,17,336,47,24,0,
0,8,-53,-68,0,0,100,0,592,256,96,80,0,-68,-71,0,0,100,0,496,496,96,80,0,-68,-71,0,1,100,0,880,576,96,80,0,-68,-71,0,1,40,0,784,576,96,80,0,-68,-71,0,1,30,0,496,576,96,80,0,-68,-71,0,0,100,0,496,416,96,80,0,-68,-71,0,1,30,0,688,656,96,80,0,-27,-12,0,0,65,0,17,336,47,24,0,
0,8,-53,-68,0,0,100,0,400,96,96,80,0,-68,-73,0,1,50,0,496,576,96,80,0,-75,-75,0,1,50,0,688,416,96,80,0,-68,-73,0,1,100,0,688,336,96,80,0,-68,-71,0,1,30,0,496,656,96,80,0,-68,-72,0,0,100,0,496,496,96,80,0,-68,-72,0,1,100,0,496,576,96,80,0,-27,-12,0,0,65,0,17,336,47,24,0,
0,7,-3,-35,0,1,100,270,688,176,96,80,0,17,-80,0,1,30,0,193,512,47,80,0,-11,-58,0,0,100,0,400,432,64,80,0,-50,-64,0,0,100,0,304,96,96,80,0,-15,-41,0,0,100,0,336,336,32,32,0,-17,-41,0,0,100,0,448,384,48,48,0,-27,-11,0,0,65,0,17,336,47,24,0,
0,10,-53,-68,0,0,100,0,496,256,96,80,0,-73,-79,0,1,80,0,592,496,96,80,0,-73,-79,0,1,60,0,688,496,96,80,0,-68,-71,0,0,100,0,496,496,96,80,0,-68,-71,0,1,30,0,496,656,96,80,0,-68,-71,0,1,30,0,784,576,96,80,0,-68,-71,0,1,100,0,496,576,96,80,0,-68,-71,0,0,100,0,496,576,96,80,0,-68,-71,0,1,20,0,688,656,96,80,0,-27,-12,0,0,65,0,17,336,47,24,0,
0,10,-53,-68,0,0,100,0,592,256,96,80,0,-73,-83,0,1,40,0,592,576,96,80,0,-71,-73,0,1,30,0,688,576,96,80,0,-68,-71,0,0,100,0,496,496,96,80,0,-68,-71,0,1,50,0,784,576,96,80,0,-68,-71,0,1,30,0,496,576,96,80,0,-68,-71,0,1,20,0,880,336,96,80,0,-68,-71,0,0,100,0,496,576,96,80,0,-68,-71,0,1,20,0,688,656,96,80,0,-27,-12,0,0,65,0,17,336,47,24,0,
0,10,-53,-68,0,0,100,0,592,16,96,80,0,-71,-88,0,1,20,0,592,576,96,80,0,-70,-80,0,1,10,0,688,576,96,80,0,-68,-71,0,0,100,0,496,496,96,80,0,-68,-71,0,1,30,0,496,656,96,80,0,-68,-71,0,1,80,0,784,336,96,80,0,-68,-71,0,1,50,0,880,336,96,80,0,-68,-71,0,0,100,0,496,576,96,80,0,-68,-71,0,1,20,0,688,656,96,80,0,-27,-12,0,0,65,0,17,336,47,24,0,
0,5,-53,-68,0,0,100,0,400,176,96,80,0,-68,-71,0,0,100,0,496,496,96,80,0,-68,-71,0,1,100,0,496,576,96,80,0,-68,-71,0,0,100,0,496,576,96,80,0,-27,-12,0,0,65,0,17,336,47,24,0,
0,4,-52,-68,0,1,100,0,592,656,96,80,0,-52,-68,0,1,20,0,592,656,96,80,0,-52,-68,0,0,100,0,400,16,96,80,0,-27,-12,0,0,65,0,17,336,47,24,0,
0,4,-51,-69,0,1,100,0,592,656,96,80,0,-51,-69,0,1,100,0,592,656,96,80,0,-52,-68,0,0,100,0,400,256,96,80,0,-27,-12,0,0,65,0,17,336,47,24,0,
0,6,-3,-35,0,1,100,270,688,16,96,80,0,-11,-58,0,0,100,0,400,432,64,80,0,-50,-64,0,0,100,0,304,96,96,80,0,-15,-41,0,0,100,0,336,336,32,32,0,-19,-42,0,0,100,0,400,384,48,48,0,-27,-11,0,0,65,0,17,336,47,24,0,
0,6,-3,-35,0,1,100,270,688,96,96,80,0,-11,-58,0,0,100,0,400,432,64,80,0,-50,-64,0,0,100,0,304,96,96,80,0,-15,-41,0,0,100,0,336,336,32,32,0,-19,-42,0,0,100,0,400,384,48,48,0,-27,-11,0,0,65,0,17,336,47,24,0,
0,6,-3,-35,0,1,100,270,688,176,96,80,0,-11,-58,0,0,100,0,400,432,64,80,0,-50,-64,0,0,100,0,304,96,96,80,0,-15,-41,0,0,100,0,336,336,32,32,0,-19,-42,0,0,100,0,400,384,48,48,0,-27,-11,0,0,65,0,17,336,47,24,0,
