17,0,0,5,
18,0,0,5,
19,0,0,5,
20,0,0,5,
21,0,0,5,
22,0,0,5,
23,0,0,5,
24,0,0,5,
25,0,0,5,
26,0,0,5,
27,0,0,5,
28,0,0,5,
29,0,0,5,
30,0,0,5,
31,0,0,5,
32,0,0,3,
33,0,0,3,
34,0,0,5,
35,0,0,5,
36,0,0,5,
37,0,0,5,
38,0,0,5,
39,0,0,5,
40,0,0,5,
