0,2,-105,-104,0,0,100,0,0,0,176,112,0,-41,-17,0,0,65,0,0,112,80,32,0,
0,2,-105,-104,0,0,100,0,176,0,176,112,0,-41,-17,0,0,65,0,0,112,80,32,0,
0,2,-105,-104,0,0,100,0,352,0,176,112,0,-41,-17,0,0,65,0,0,112,80,32,0,
0,2,-105,-104,0,0,100,0,528,0,176,112,0,-41,-17,0,0,65,0,0,112,80,32,0,
0,2,-105,-104,0,0,100,0,176,112,176,112,0,-41,-17,0,0,65,0,0,112,80,32,0,
0,3,-105,-104,0,0,100,0,352,672,176,112,0,-105,-104,0,0,100,0,352,112,176,112,0,-41,-17,0,0,65,0,0,112,80,32,0,
0,2,-105,-104,0,0,100,0,352,112,176,112,0,-41,-17,0,0,65,0,0,112,80,32,0,
0,2,-105,-104,0,0,100,0,528,112,176,112,0,-41,-17,0,0,65,0,0,112,80,32,0,
0,3,-105,-104,0,0,100,0,0,560,176,112,0,-105,-104,0,0,100,0,0,224,176,112,0,-41,-17,0,0,65,0,0,112,80,32,0,
0,3,-105,-104,0,0,100,0,176,560,176,112,0,-105,-104,0,0,100,0,176,224,176,112,0,-41,-17,0,0,65,0,0,112,80,32,0,
0,3,-105,-104,0,0,100,0,352,224,176,112,0,-105,-104,0,0,100,0,352,560,176,112,0,-41,-17,0,0,65,0,0,112,80,32,0,
0,3,-105,-104,0,0,100,0,528,224,176,112,0,-105,-104,0,0,100,0,528,560,176,112,0,-41,-17,0,0,65,0,0,112,80,32,0,
0,2,-105,-104,0,0,100,0,528,224,176,112,0,-41,-17,0,0,65,0,0,112,80,32,0,
0,2,-105,-104,0,0,100,0,0,336,176,112,0,-41,-17,0,0,65,0,0,112,80,32,0,
0,2,-105,-104,0,0,100,0,176,336,176,112,0,-41,-17,0,0,65,0,0,112,80,32,0,
0,2,-105,-104,0,0,100,0,352,336,176,112,0,-41,-17,0,0,65,0,0,112,80,32,0,
0,3,-105,-104,0,0,80,0,528,672,176,112,0,-105,-104,0,0,100,0,528,336,176,112,0,-41,-17,0,0,65,0,0,112,80,32,0,
0,3,-105,-104,0,0,80,0,0,672,176,112,0,-105,-104,0,0,100,0,0,448,176,112,0,-41,-17,0,0,65,0,0,112,80,32,0,
0,3,-105,-48,0,0,80,0,176,728,176,56,0,-105,-104,0,0,100,0,176,448,176,112,0,-41,-17,0,0,65,0,0,112,80,32,0,
0,3,-105,-48,0,0,80,0,176,672,176,56,0,-105,-104,0,0,100,0,176,448,176,112,0,-41,-17,0,0,65,0,0,112,80,32,0,
0,2,-105,-104,0,0,100,0,352,448,176,112,0,-41,-17,0,0,65,0,0,112,80,32,0,
0,2,-105,-104,0,0,100,0,528,448,176,112,0,-41,-17,0,0,65,0,0,112,80,32,0,
