0,3,-32,-74,0,1,100,0,320,0,80,64,0,-24,-66,0,0,100,0,0,0,64,72,0,-20,-8,0,0,65,0,144,136,40,16,0,
0,3,-32,-74,0,1,100,0,400,0,80,64,0,-24,-66,0,0,100,0,64,0,64,72,0,-20,-8,0,0,65,0,144,136,40,16,0,
0,3,-32,-74,0,1,100,0,480,0,80,64,0,-24,-66,0,0,100,0,128,0,64,72,0,-20,-8,0,0,65,0,144,136,40,16,0,
0,3,-32,-74,0,1,100,0,560,0,80,64,0,-24,-66,0,0,100,0,192,0,64,72,0,-20,-8,0,0,65,0,144,136,40,16,0,
0,3,-40,-57,0,1,100,0,496,136,80,48,0,-30,-50,0,0,100,0,256,0,64,56,0,-20,-8,0,0,65,0,144,136,40,16,0,
0,6,-29,-51,0,0,100,0,0,72,56,64,0,-40,-22,0,1,100,0,88,384,32,24,0,-55,-22,0,0,80,0,0,200,88,24,0,-53,-25,0,0,100,0,56,168,32,32,0,-59,-38,0,0,100,0,56,136,32,32,0,-20,-8,0,0,65,0,144,136,40,16,0,
0,7,-111,-38,0,1,100,0,184,136,48,64,0,-29,-51,0,0,100,0,0,72,56,64,0,-109,-21,0,1,100,0,88,408,32,24,0,-103,-19,0,0,80,0,0,224,88,24,0,-94,-31,0,0,100,0,56,136,32,32,0,-62,-41,1,0,100,0,56,168,32,32,0,-20,-8,0,0,65,0,144,136,40,16,0,
0,7,-111,-38,0,1,100,0,232,136,48,64,0,-35,-51,0,0,100,0,56,72,56,64,0,-104,-59,0,1,100,0,88,432,40,32,0,-111,-52,0,0,80,0,0,248,48,56,0,-86,-57,1,0,100,0,56,136,32,32,0,-54,-54,1,0,100,0,56,168,32,32,0,-25,-8,0,0,65,0,144,136,40,16,0,
0,7,-111,-38,0,1,100,0,280,136,48,64,0,-35,-51,0,0,100,0,56,72,56,64,0,-50,-78,0,1,100,0,88,464,32,24,0,-113,-72,0,0,80,0,0,304,88,56,0,-65,-76,0,0,100,0,56,136,32,32,0,-38,-67,0,0,100,0,88,136,24,24,0,-25,-8,0,0,65,0,144,136,40,16,0,
0,6,-35,-51,0,0,100,0,112,72,56,64,0,10,-92,0,1,100,0,88,488,24,16,0,-56,-89,0,0,80,0,0,360,88,32,0,6,-88,0,0,100,0,112,136,32,32,0,-19,-67,0,0,100,0,56,136,32,32,0,-26,-8,0,0,65,0,144,136,40,16,0,
0,6,-35,-51,0,0,100,0,112,72,56,64,0,7,-97,0,1,100,0,88,504,32,24,0,-7,-90,0,0,40,0,0,392,40,16,0,6,-88,0,0,100,0,112,136,32,32,0,-19,-67,0,0,100,0,56,136,32,32,0,-26,-8,0,0,65,0,144,136,40,16,0,
0,5,0,-25,0,0,40,0,40,392,32,16,0,-7,-39,0,0,100,0,112,136,32,32,0,-18,-57,0,0,100,0,56,168,32,32,0,-35,-51,0,0,100,0,112,72,56,64,0,-26,-8,0,0,65,0,144,136,40,16,0,
0,5,-34,-61,1,0,100,0,56,168,32,32,0,-31,-51,0,0,100,0,168,72,40,64,0,-7,-51,0,0,100,0,88,136,24,24,0,-24,-44,0,0,100,0,56,168,32,32,0,-34,-8,0,0,65,0,144,136,40,16,0,
0,5,6,-66,1,0,100,0,112,136,32,32,0,7,-40,0,0,100,0,88,160,24,24,0,-31,-51,0,0,100,0,168,72,40,64,0,-24,-44,0,0,100,0,56,168,32,32,0,-34,-8,0,0,65,0,144,136,40,16,0,
0,5,-42,-51,0,0,100,0,208,72,48,64,0,6,-39,1,0,100,0,56,168,32,32,0,-26,-41,1,0,100,0,56,136,32,32,0,-46,-42,0,0,100,0,88,160,24,24,0,-41,-8,0,0,65,0,144,136,40,16,0,
0,6,-59,-31,2,0,100,0,88,160,24,24,0,-43,-55,0,0,100,0,256,72,40,64,0,-41,-40,0,1,100,0,88,528,24,16,0,-42,-39,0,0,80,0,0,408,64,16,0,-56,-45,1,0,100,0,56,168,32,32,0,-39,-8,0,0,65,0,144,136,40,16,0,
0,7,-125,-48,1,1,100,0,184,136,48,64,0,-101,-30,0,1,100,0,88,544,32,24,0,-99,-37,0,0,80,0,0,424,64,32,0,-90,-26,2,0,100,0,56,136,32,32,0,-60,-18,3,0,100,0,88,160,24,24,0,-43,-55,0,0,100,0,256,72,40,64,0,-39,-8,0,0,65,0,144,136,40,16,0,
0,8,-149,-38,1,1,100,0,184,136,48,64,0,-125,-48,1,1,100,0,232,136,48,64,0,-126,-22,0,1,100,0,88,568,88,32,0,-121,-27,0,0,80,0,0,456,88,32,0,-61,-19,1,0,100,0,56,168,32,32,0,-28,-32,0,0,100,0,56,136,32,32,0,-33,-65,0,0,100,0,296,72,48,64,0,-26,-8,0,0,46,0,144,152,32,16,0,
0,9,-149,-38,1,1,100,0,232,136,48,64,0,-125,-48,1,1,100,0,280,136,48,64,0,-113,-23,0,1,100,0,88,600,120,40,0,-33,-26,0,0,80,0,0,488,48,24,0,-12,-35,2,0,100,0,56,168,32,32,0,-29,-74,0,0,100,0,168,72,40,64,0,3,-48,3,0,100,0,88,136,24,24,0,-22,-67,0,0,100,0,56,168,32,32,0,-25,-8,0,0,46,0,144,152,32,16,0,
0,7,-3,-102,0,1,100,0,128,384,64,104,0,14,-101,0,0,80,0,0,512,32,72,0,9,-110,0,0,100,0,56,168,32,32,0,-33,-77,0,0,100,0,344,72,32,64,0,-23,-109,3,0,100,0,56,136,32,32,0,-41,-87,0,0,100,0,112,168,32,32,0,-35,-8,0,0,46,0,144,152,32,16,0,
0,7,20,-103,0,1,70,0,128,488,32,32,0,11,-103,0,0,50,0,32,512,32,40,0,8,-111,0,0,100,0,56,168,32,32,0,-34,-78,0,0,100,0,344,72,32,64,0,-24,-110,3,0,100,0,56,136,32,32,0,-42,-88,0,0,100,0,112,168,32,32,0,-36,-8,0,0,46,0,144,152,32,16,0,
0,6,19,-105,0,1,40,0,128,488,32,32,0,7,-113,0,0,100,0,56,168,32,32,0,-34,-78,0,0,100,0,344,72,32,64,0,-25,-111,3,0,100,0,56,136,32,32,0,-42,-88,0,0,100,0,112,168,32,32,0,-36,-8,0,0,46,0,144,152,32,16,0,
0,21,-115,-84,0,1,100,0,408,136,88,128,0,-170,-95,3,1,100,0,408,136,88,128,0,-112,-47,2,0,80,0,56,136,32,32,0,-81,-34,0,0,80,0,56,168,32,32,0,-46,-35,1,0,80,0,56,168,32,32,0,-108,-77,2,0,60,0,112,168,32,32,0,-91,-55,2,0,60,0,56,136,32,32,0,-60,-42,0,0,60,0,56,168,32,32,0,-155,-113,0,1,100,0,240,200,136,120,0,-125,-116,0,0,80,0,88,200,152,120,0,-96,-27,2,0,100,0,56,136,32,32,0,-64,-22,1,0,100,0,56,168,32,32,0,-42,-58,0,0,100,0,376,72,40,64,0,-77,-111,0,0,40,0,112,168,32,32,0,-78,-76,2,0,40,0,112,168,32,32,0,-59,-50,1,0,40,0,56,136,32,32,0,7,-113,0,0,20,0,56,168,32,32,0,-34,-78,0,0,20,0,344,72,32,64,0,-25,-111,3,0,20,0,56,136,32,32,0,-42,-88,0,0,20,0,112,168,32,32,0,-35,-8,0,0,46,0,144,152,32,16,0,
0,13,-170,-95,3,1,70,0,408,264,88,128,0,-115,-84,0,1,70,0,408,264,88,128,0,-155,-96,0,1,100,0,240,320,168,112,0,-122,-39,0,0,80,0,88,320,136,48,0,-97,-26,2,0,20,0,56,136,32,32,0,-64,-22,1,0,20,0,56,168,32,32,0,-32,-30,1,0,20,0,56,168,32,32,0,-50,-15,1,0,50,0,56,168,32,32,0,-19,-26,3,0,50,0,56,136,32,32,0,-20,-16,1,0,100,0,56,168,32,32,0,7,-28,2,0,100,0,88,136,24,24,0,-36,-51,0,0,100,0,416,72,64,64,0,-28,-8,0,0,65,0,144,136,40,16,0,
0,8,-170,-95,3,1,50,0,408,392,88,128,0,-115,-84,0,1,50,0,408,392,88,128,0,-155,-64,0,1,100,0,240,432,168,80,0,-72,-9,0,0,80,0,88,368,88,16,0,-20,-16,1,0,100,0,56,168,32,32,0,7,-28,2,0,100,0,88,136,24,24,0,-36,-51,0,0,100,0,416,72,64,64,0,-28,-8,0,0,65,0,144,136,40,16,0,
0,4,18,-52,1,0,100,0,112,168,32,32,0,13,-53,1,0,100,0,88,136,24,24,0,-29,-51,0,0,100,0,480,72,56,64,0,-28,-8,0,0,65,0,144,136,40,16,0,
0,4,10,-78,0,0,100,0,56,136,32,32,0,5,-54,0,0,100,0,88,136,24,24,0,-29,-51,0,0,100,0,480,72,56,64,0,-28,-8,0,0,65,0,144,136,40,16,0,
0,4,-14,-85,1,0,100,0,112,168,32,32,0,3,-53,0,0,100,0,88,136,24,24,0,-29,-51,0,0,100,0,536,72,56,64,0,-28,-8,0,0,65,0,144,136,40,16,0,
0,4,0,-52,0,0,100,0,144,168,24,24,0,-28,-55,3,0,100,0,56,136,32,32,0,-29,-51,0,0,100,0,0,136,56,64,0,-28,-8,0,0,65,0,144,136,40,16,0,
0,4,-21,-59,0,0,100,0,496,184,56,64,0,-48,-40,0,0,100,0,328,136,40,40,0,-19,-33,3,0,100,0,56,136,32,32,0,-20,-8,0,0,65,0,144,136,40,16,0,
0,5,5,-30,0,0,100,0,56,136,32,32,0,11,-51,0,0,100,0,328,136,32,32,0,-15,-58,1,0,100,0,56,168,32,32,0,-21,-59,0,0,100,0,496,248,56,64,0,-20,-8,0,0,65,0,144,136,40,16,0,
0,5,17,-64,0,0,100,0,88,160,24,24,0,31,-55,2,0,100,0,112,168,32,32,0,-15,-58,1,0,100,0,56,168,32,32,0,-21,-59,0,0,100,0,496,248,56,64,0,-20,-8,0,0,65,0,144,136,40,16,0,
0,5,11,-83,3,0,100,0,56,168,32,32,0,0,-73,0,0,100,0,88,136,24,24,0,-15,-59,1,0,100,0,56,168,32,32,0,-21,-59,0,0,100,0,496,312,56,64,0,-20,-8,0,0,65,0,144,136,40,16,0,
0,5,-15,-70,0,0,100,0,56,168,32,32,0,-32,-84,0,0,100,0,88,136,24,24,0,-15,-59,1,0,100,0,56,168,32,32,0,-21,-59,0,0,100,0,496,312,56,64,0,-20,-8,0,0,65,0,144,136,40,16,0,
0,5,-49,-56,0,0,100,0,56,168,32,32,0,-18,-59,0,0,100,0,56,136,32,32,0,-17,-59,1,0,100,0,56,168,32,32,0,-21,-59,0,0,100,0,496,376,56,64,0,-20,-8,0,0,65,0,144,136,40,16,0,
0,5,-44,-32,2,0,100,0,328,136,32,32,0,-17,-53,0,0,100,0,56,136,32,32,0,-17,-59,1,0,100,0,56,168,32,32,0,-21,-59,0,0,100,0,496,376,56,64,0,-20,-8,0,0,65,0,144,136,40,16,0,
0,5,-14,-29,2,0,100,0,112,136,32,32,0,-12,-52,0,0,100,0,56,136,32,32,0,-15,-58,1,0,100,0,56,168,32,32,0,-21,-59,0,0,100,0,496,440,56,64,0,-20,-8,0,0,65,0,144,136,40,16,0,
0,5,-5,-43,3,0,100,0,56,168,32,32,0,-11,-53,0,0,100,0,56,136,32,32,0,-15,-58,1,0,100,0,56,168,32,32,0,-21,-59,0,0,100,0,496,504,56,64,0,-20,-8,0,0,65,0,144,136,40,16,0,
0,2,-21,-59,0,0,100,0,496,568,56,64,0,-20,-8,0,0,65,0,144,136,40,16,0,
0,2,-21,-59,0,0,100,0,552,184,56,64,0,-20,-8,0,0,65,0,144,136,40,16,0,
0,2,-21,-59,0,0,100,0,552,248,56,64,0,-20,-8,0,0,65,0,144,136,40,16,0,
0,2,-21,-59,0,0,100,0,552,312,56,64,0,-20,-8,0,0,65,0,144,136,40,16,0,
0,2,-21,-59,0,0,100,0,552,376,56,64,0,-20,-8,0,0,65,0,144,136,40,16,0,
