0,2,-65,-86,0,0,100,0,12,0,128,92,0,-61,-19,0,0,65,0,539,36,121,36,0,
0,2,-71,-86,0,0,100,0,136,0,136,95,0,-61,-19,0,0,65,0,539,36,121,36,0,
0,2,-68,-86,0,0,100,0,269,0,128,97,0,-61,-19,0,0,65,0,539,36,121,36,0,
0,2,-65,-86,0,0,100,0,402,0,135,91,0,-61,-19,0,0,65,0,539,36,121,36,0,
0,2,-78,-91,0,0,100,0,14,101,142,101,0,-61,-19,0,0,65,0,539,36,121,36,0,
0,2,-69,-100,0,0,100,0,159,103,141,96,0,-61,-19,0,0,65,0,539,36,121,36,0,
0,2,-73,-171,0,0,100,0,305,94,132,105,0,-48,-9,0,0,65,0,563,73,74,19,0,
0,2,-71,-167,0,0,100,0,447,100,122,89,0,-45,-9,0,0,65,0,563,73,74,19,0,
0,5,-73,-175,0,1,100,0,4,575,88,92,0,-26,-197,0,0,100,0,583,102,57,68,0,-70,-169,0,0,100,0,25,196,113,78,0,-80,-188,0,0,100,0,144,189,100,88,0,-43,-9,0,0,65,0,563,73,74,19,0,
0,5,-72,-178,0,1,100,0,4,575,88,92,0,-25,-200,0,0,100,0,583,102,57,68,0,-69,-172,0,0,100,0,25,196,113,78,0,-79,-191,0,0,100,0,144,189,100,88,0,-44,-9,0,0,65,0,563,73,74,19,0,
0,6,-85,-142,0,1,100,0,360,588,76,63,0,-89,-143,0,1,100,0,96,587,81,74,0,-21,-171,0,0,100,0,551,173,55,43,0,-88,-149,0,0,100,0,18,279,131,87,0,-64,-170,0,0,100,0,260,202,77,48,0,-52,-9,0,0,65,0,563,73,74,19,0,
0,7,-145,-123,0,1,100,0,220,543,95,127,0,-144,-79,0,1,100,0,360,588,76,63,0,-148,-80,0,1,50,0,96,587,81,74,0,-76,-105,0,0,100,0,610,177,51,40,0,-147,-86,0,0,100,0,18,279,131,87,0,-121,-109,0,0,100,0,364,198,77,48,0,-111,-9,0,0,65,0,563,73,74,19,0,
0,6,-155,-81,0,1,100,0,475,596,85,76,0,-153,-120,0,1,100,0,220,543,95,127,0,-84,-101,0,0,100,0,552,220,51,40,0,-155,-83,0,0,100,0,18,279,131,87,0,-131,-107,0,0,100,0,453,193,77,48,0,-119,-9,0,0,65,0,563,73,74,19,0,
0,6,-156,-87,0,1,100,0,570,595,85,76,0,-169,-109,0,1,50,0,220,543,95,127,0,-100,-90,0,0,100,0,552,220,51,40,0,-171,-72,0,0,100,0,18,279,131,87,0,-147,-96,0,0,100,0,453,193,77,48,0,-160,-19,0,0,65,0,539,36,121,36,0,
0,2,-175,-84,0,0,100,0,447,100,122,89,0,-165,-19,0,0,65,0,539,36,121,36,0,
0,2,-170,-86,0,0,100,0,12,0,128,92,0,-168,-19,0,0,65,0,539,36,121,36,0,
0,2,-148,-99,0,0,100,0,12,0,128,92,0,-119,-9,0,0,65,0,563,73,74,19,0,
0,2,-61,-111,0,0,100,0,11,353,127,117,0,-61,-19,0,0,65,0,539,36,121,36,0,
0,2,-65,-98,0,0,100,0,162,96,139,103,0,-61,-19,0,0,65,0,539,36,121,36,0,
0,2,-72,-90,0,0,100,0,18,106,138,95,0,-61,-19,0,0,65,0,539,36,121,36,0,
0,2,-62,-120,0,0,100,0,139,353,124,109,0,-36,-9,0,0,65,0,563,73,74,19,0,
0,2,-62,-118,0,0,100,0,139,353,124,109,0,-36,-9,0,0,65,0,563,73,74,19,0,
0,2,-58,-135,0,0,100,0,264,348,128,120,0,-36,-9,0,0,65,0,563,73,74,19,0,
0,2,-58,-136,0,0,100,0,264,348,128,120,0,-36,-9,0,0,65,0,563,73,74,19,0,
0,2,-58,-137,0,0,100,0,403,345,134,131,0,-36,-9,0,0,65,0,563,73,74,19,0,
0,2,-58,-136,0,0,100,0,403,345,134,131,0,-36,-9,0,0,65,0,563,73,74,19,0,
0,2,-60,-134,0,0,100,0,530,345,133,127,0,-36,-9,0,0,65,0,563,73,74,19,0,
0,2,-58,-131,0,0,100,0,264,348,128,120,0,-36,-9,0,0,65,0,563,73,74,19,0,
