0,2,-32,-60,0,0,100,0,0,0,64,64,0,-16,-8,0,0,65,0,0,192,32,16,0,
0,2,-33,-62,0,0,100,0,128,0,64,64,0,-16,-8,0,0,65,0,0,192,32,16,0,
0,2,-33,-61,0,0,100,0,64,0,64,64,0,-16,-8,0,0,65,0,0,192,32,16,0,
0,2,-33,-61,0,0,100,0,192,0,64,64,0,-16,-8,0,0,65,0,0,192,32,16,0,
0,3,-49,-85,0,0,100,0,256,0,64,64,0,-33,-64,0,0,100,0,64,64,64,64,0,-16,-8,0,0,65,0,0,192,32,16,0,
0,2,-34,-61,0,0,100,0,0,64,64,64,0,-16,-8,0,0,65,0,0,192,32,16,0,
0,3,-49,-82,0,0,100,0,320,0,64,64,0,-33,-64,0,0,100,0,128,64,64,64,0,-16,-8,0,0,65,0,0,192,32,16,0,
0,3,-54,-85,0,0,100,0,384,0,64,64,0,-31,-64,0,0,100,0,192,64,64,64,0,-16,-8,0,0,65,0,0,192,32,16,0,
0,3,-54,-82,0,0,100,0,448,0,64,64,0,-31,-64,0,0,100,0,192,64,64,64,0,-16,-8,0,0,65,0,0,192,32,16,0,
0,3,-52,-80,0,0,100,0,256,64,64,64,0,-30,-63,0,0,100,0,0,128,64,64,0,-16,-8,0,0,65,0,0,192,32,16,0,
0,3,-54,-80,0,0,100,0,320,64,64,64,0,-30,-63,0,0,100,0,0,128,64,64,0,-16,-8,0,0,65,0,0,192,32,16,0,
0,3,-46,-83,0,0,100,0,384,64,64,64,0,-33,-64,0,0,100,0,128,64,64,64,0,-16,-8,0,0,65,0,0,192,32,16,0,
0,3,-48,-85,0,0,100,0,448,64,64,64,0,-33,-64,0,0,100,0,128,64,64,64,0,-16,-8,0,0,65,0,0,192,32,16,0,
0,3,-49,-87,0,0,100,0,256,128,64,64,0,-33,-64,0,0,100,0,128,64,64,64,0,-16,-8,0,0,65,0,0,192,32,16,0,
0,3,-58,-81,0,0,100,0,320,128,64,64,0,-37,-60,0,0,100,0,64,128,64,64,0,-16,-8,0,0,65,0,0,192,32,16,0,
0,4,-61,-79,0,0,100,0,448,128,64,64,0,-69,-86,0,0,37,0,384,128,64,64,0,-37,-60,0,0,100,0,64,128,64,64,0,-16,-8,0,0,65,0,0,192,32,16,0,
0,4,-65,-74,0,0,100,0,448,128,64,64,0,-64,-80,0,0,40,0,448,128,64,64,0,-32,-60,0,0,100,0,128,128,64,64,0,-16,-8,0,0,65,0,0,192,32,16,0,
0,4,-65,-73,0,0,100,0,448,128,64,64,0,-68,-82,0,0,40,0,384,128,64,64,0,-32,-60,0,0,100,0,192,128,64,64,0,-16,-8,0,0,65,0,0,192,32,16,0,
0,3,-66,-70,0,0,100,0,256,192,64,64,0,-33,-60,0,0,100,0,64,192,64,64,0,-16,-8,0,0,65,0,0,192,32,16,0,
0,4,-65,-65,0,0,100,0,448,128,64,64,0,-65,-71,0,0,40,0,448,128,64,64,0,-33,-60,0,0,100,0,64,192,64,64,0,-16,-8,0,0,65,0,0,192,32,16,0,
0,4,-65,-64,0,0,60,0,448,128,64,64,0,-34,-60,0,0,100,0,128,192,64,64,0,-65,-68,0,0,30,0,384,128,64,64,0,-16,-8,0,0,65,0,0,192,32,16,0,
0,4,-64,-60,0,0,60,0,448,128,64,64,0,-69,-69,0,0,20,0,384,128,64,64,0,-34,-60,0,0,100,0,128,192,64,64,0,-16,-8,0,0,65,0,0,192,32,16,0,
0,4,-63,-54,0,0,20,0,448,128,64,64,0,-66,-60,0,0,40,0,384,128,64,64,0,-32,-60,0,0,100,0,192,192,64,64,0,-16,-8,0,0,65,0,0,192,32,16,0,
0,3,-62,-50,0,0,20,0,448,128,64,64,0,-32,-60,0,0,100,0,192,192,64,64,0,-16,-8,0,0,65,0,0,192,32,16,0,
0,2,-32,-60,0,0,100,0,0,256,64,64,0,-16,-8,0,0,65,0,0,192,32,16,0,
0,3,-59,-38,0,0,100,0,320,192,64,64,0,-32,-60,0,0,100,0,64,256,64,64,0,-16,-8,0,0,65,0,0,192,32,16,0,
0,3,-79,-41,0,0,100,0,384,192,64,64,0,-34,-62,0,0,100,0,128,256,64,64,0,-16,-8,0,0,65,0,0,192,32,16,0,
0,3,-75,-49,0,0,100,0,448,192,64,64,0,-34,-62,0,0,100,0,192,256,64,64,0,-16,-8,0,0,65,0,0,192,32,16,0,
0,3,-73,-51,0,0,100,0,256,256,64,64,0,-33,-62,0,0,100,0,0,320,64,64,0,-16,-8,0,0,65,0,0,192,32,16,0,
0,3,-73,-49,0,0,100,0,320,256,64,64,0,-33,-62,0,0,100,0,64,320,64,64,0,-16,-8,0,0,65,0,0,192,32,16,0,
0,3,-79,-50,0,0,100,0,384,256,64,64,0,-33,-62,0,0,100,0,128,320,64,64,0,-16,-8,0,0,65,0,0,192,32,16,0,
0,3,-79,-49,0,0,100,0,448,256,64,64,0,-33,-62,0,0,100,0,192,320,64,64,0,-16,-8,0,0,65,0,0,192,32,16,0,
0,2,-32,-60,0,0,100,0,0,384,64,64,0,-16,-8,0,0,65,0,0,192,32,16,0,
