0,4,-62,-89,0,1,100,0,576,1096,64,56,0,-60,-77,0,0,100,0,576,0,112,80,0,-75,-83,0,1,100,0,744,920,144,104,0,-32,-16,0,0,65,0,512,16,64,32,0,
0,4,-62,-89,0,1,100,0,576,1096,64,56,0,-60,-77,0,0,100,0,688,0,112,80,0,-75,-82,0,1,100,0,744,1024,144,104,0,-32,-16,0,0,65,0,512,16,64,32,0,
0,6,-62,-89,0,1,60,0,576,1096,64,56,0,-62,-88,0,1,100,0,576,1096,64,56,0,-60,-77,0,0,100,0,800,0,112,80,0,-75,-82,0,1,40,0,888,1024,144,104,0,-75,-81,0,1,100,0,888,1024,144,104,0,-32,-16,0,0,65,0,512,16,64,32,0,
0,4,-62,-88,0,1,100,0,576,1096,64,56,0,-60,-77,0,0,100,0,912,0,112,80,0,-75,-82,0,1,80,0,888,920,144,104,0,-32,-16,0,0,65,0,512,16,64,32,0,
0,4,-72,-83,0,1,100,0,576,1096,64,56,0,-69,-90,0,0,100,0,0,776,112,104,0,-85,-77,0,1,100,0,744,920,144,104,0,-32,-16,0,0,65,0,512,16,64,32,0,
0,2,-77,-114,0,0,100,0,0,392,136,128,0,-32,-16,0,0,65,0,512,16,64,32,0,
0,2,-53,-114,0,0,100,0,136,392,136,128,0,-32,-16,0,0,65,0,512,16,64,32,0,
0,2,-53,-114,0,0,100,0,272,392,136,128,0,-32,-16,0,0,65,0,512,16,64,32,0,
0,2,-53,-114,0,0,100,0,408,392,136,128,0,-32,-16,0,0,65,0,512,16,64,32,0,
0,3,17,-131,0,1,100,0,112,776,88,88,0,-53,-114,0,0,100,0,544,392,136,128,0,-32,-16,0,0,65,0,512,16,64,32,0,
0,4,17,-132,0,1,100,0,112,776,88,88,0,17,-132,0,1,100,0,112,776,88,88,0,-53,-114,0,0,100,0,680,392,136,128,0,-32,-16,0,0,65,0,512,16,64,32,0,
0,3,17,-132,0,1,100,0,112,776,88,88,0,-53,-114,0,0,100,0,816,392,136,128,0,-32,-16,0,0,65,0,512,16,64,32,0,
0,4,18,-101,2,1,100,270,200,776,72,80,0,42,-90,0,1,100,0,272,776,72,72,0,-35,-114,0,0,100,0,816,520,136,128,0,-32,-16,0,0,65,0,512,16,64,32,0,
0,4,15,-21,0,1,100,0,272,776,72,72,0,-63,-93,0,0,100,0,680,520,136,128,0,16,-73,0,1,100,0,272,848,120,112,0,-32,-16,0,0,65,0,512,16,64,32,0,
0,7,-106,-24,3,1,100,90,112,864,72,72,0,-192,-23,3,1,100,0,112,864,72,72,0,-209,-112,0,1,100,90,112,864,72,72,0,-115,-137,0,1,100,0,112,864,72,72,0,-99,-64,0,1,100,0,392,776,112,120,0,-89,-93,0,0,100,0,544,520,136,128,0,-32,-16,0,0,65,0,512,16,64,32,0,
0,7,-178,-93,0,1,60,0,88,904,24,24,0,-173,-5,0,1,60,0,88,904,24,24,0,-87,6,0,1,60,0,88,904,24,24,0,-85,-106,0,1,60,0,88,904,24,24,0,-112,-70,0,1,100,0,272,776,72,72,0,-99,-114,0,0,100,0,408,520,136,128,0,-32,-16,0,0,65,0,512,16,64,32,0,
0,7,-178,-93,0,1,90,0,88,904,24,24,0,-173,-5,0,1,90,0,88,904,24,24,0,-87,6,0,1,90,0,88,904,24,24,0,-85,-106,0,1,90,0,88,904,24,24,0,-111,-70,0,1,100,0,272,776,72,72,0,-99,-114,0,0,100,0,272,520,136,128,0,-32,-16,0,0,65,0,512,16,64,32,0,
0,7,-178,-93,0,1,100,0,88,880,24,24,0,-173,-5,0,1,100,0,88,880,24,24,0,-87,6,0,1,100,0,88,880,24,24,0,-85,-106,0,1,100,0,88,880,24,24,0,-111,-70,0,1,100,0,272,776,72,72,0,-99,-114,0,0,100,0,136,520,136,128,0,-32,-16,0,0,65,0,512,16,64,32,0,
0,7,-175,-35,3,1,100,0,112,936,56,56,0,-177,-93,1,1,100,0,112,936,56,56,0,-123,-30,2,1,100,0,112,936,56,56,0,-124,-97,0,1,100,0,112,936,56,56,0,-111,-70,0,1,100,0,272,776,72,72,0,-99,-114,0,0,100,0,0,520,136,128,0,-32,-16,0,0,65,0,512,16,64,32,0,
0,8,-132,-43,2,1,100,0,56,880,32,32,0,-144,-46,3,1,100,0,56,880,32,32,0,-145,-58,1,1,100,0,56,880,32,32,0,-133,-60,0,1,100,0,56,880,32,32,0,-151,-65,0,1,100,0,56,936,56,56,0,-111,-70,0,1,100,0,272,776,72,72,0,-99,-114,0,0,100,0,0,648,136,128,0,-32,-16,0,0,65,0,512,16,64,32,0,
0,4,-150,-64,0,1,100,0,0,936,56,56,0,-111,-70,0,1,100,0,272,776,72,72,0,-99,-114,0,0,100,0,272,520,136,128,0,-32,-16,0,0,65,0,512,16,64,32,0,
0,4,-150,-64,0,1,100,0,0,880,56,56,0,-111,-70,0,1,100,0,272,776,72,72,0,-99,-114,0,0,100,0,136,520,136,128,0,-32,-16,0,0,65,0,512,16,64,32,0,
0,4,-168,-88,0,1,100,0,184,864,88,96,0,-111,-70,0,1,100,0,272,776,72,72,0,-99,-114,0,0,100,0,0,520,136,128,0,-32,-16,0,0,65,0,512,16,64,32,0,
0,7,-173,-97,0,1,40,0,0,992,104,112,0,-173,-96,0,1,100,0,0,992,104,112,0,-173,-95,0,1,40,0,104,992,104,112,0,-173,-96,0,1,100,0,104,992,104,112,0,-111,-70,0,1,100,0,272,776,72,72,0,-99,-114,0,0,100,0,0,648,136,128,0,-32,-16,0,0,65,0,512,16,64,32,0,
0,7,-189,-113,0,1,40,0,208,960,144,144,0,-189,-112,0,1,100,0,208,960,144,144,0,-173,-95,0,1,40,0,352,992,104,112,0,-173,-96,0,1,100,0,352,992,104,112,0,-111,-70,0,1,100,0,272,776,72,72,0,-99,-114,0,0,100,0,272,520,136,128,0,-32,-16,0,0,65,0,512,16,64,32,0,
0,7,-189,-113,0,1,100,0,504,776,144,144,0,-189,-112,0,1,100,0,504,776,144,144,0,-193,-112,0,1,100,0,648,776,144,144,0,-193,-113,0,1,100,0,648,776,144,144,0,-111,-70,0,1,100,0,272,776,72,72,0,-99,-114,0,0,100,0,136,520,136,128,0,-32,-16,0,0,65,0,512,16,64,32,0,
0,7,-189,-113,0,1,40,0,456,952,144,144,0,-189,-112,0,1,100,0,456,952,144,144,0,-193,-112,0,1,40,0,600,952,144,144,0,-193,-113,0,1,100,0,600,952,144,144,0,-111,-70,0,1,100,0,272,776,72,72,0,-99,-114,0,0,100,0,0,520,136,128,0,-32,-16,0,0,65,0,512,16,64,32,0,
0,3,-111,-70,0,1,50,0,272,776,72,72,0,-99,-114,0,0,100,0,0,648,136,128,0,-32,-16,0,0,65,0,512,16,64,32,0,
0,2,-99,-114,0,0,100,0,272,520,136,128,0,-32,-16,0,0,65,0,512,16,64,32,0,
0,1,-32,-16,0,0,100,0,512,16,64,32,0,
0,1,-32,-16,0,0,100,0,512,16,64,32,0,
0,1,-32,-16,0,0,100,0,512,16,64,32,0,
0,1,-32,-16,0,0,100,0,512,16,64,32,0,
0,2,-64,-95,0,0,100,0,0,80,112,104,0,-32,-16,0,0,65,0,512,16,64,32,0,
0,2,-64,-95,0,0,100,0,112,80,112,104,0,-32,-16,0,0,65,0,512,16,64,32,0,
0,4,-38,-80,0,1,100,0,384,16,32,32,0,-38,-80,0,1,100,0,416,16,32,32,0,-64,-95,0,0,100,0,224,80,112,104,0,-32,-16,0,0,65,0,512,16,64,32,0,
0,6,-38,-71,0,1,100,0,384,16,32,32,0,-38,-71,0,1,100,0,416,16,32,32,0,-39,-63,0,1,100,0,448,48,32,32,0,-39,-63,0,1,100,0,480,48,32,32,0,-64,-95,0,0,100,0,336,80,112,104,0,-32,-16,0,0,65,0,512,16,64,32,0,
0,4,-39,-65,0,1,100,0,384,48,32,32,0,-39,-65,0,1,100,0,416,48,32,32,0,-64,-95,0,0,100,0,448,80,112,104,0,-32,-16,0,0,65,0,512,16,64,32,0,
0,4,-44,-65,1,1,100,0,384,48,32,32,0,-44,-65,1,1,100,0,416,48,32,32,0,-64,-95,0,0,100,0,560,80,112,104,0,-32,-16,0,0,65,0,512,16,64,32,0,
0,4,-39,-57,0,1,100,0,384,16,32,32,0,-39,-57,0,1,100,0,416,16,32,32,0,-64,-95,0,0,100,0,672,80,112,104,0,-32,-16,0,0,65,0,512,16,64,32,0,
0,4,-39,-65,0,1,100,0,384,48,32,32,0,-39,-65,0,1,100,0,416,48,32,32,0,-64,-95,0,0,100,0,784,80,112,104,0,-32,-16,0,0,65,0,512,16,64,32,0,
0,4,-39,-82,0,1,100,0,384,16,32,32,0,-39,-82,0,1,100,0,416,16,32,32,0,-64,-95,0,0,100,0,896,80,112,104,0,-32,-16,0,0,65,0,512,16,64,32,0,
0,4,-39,-63,0,1,100,0,384,48,32,32,0,-39,-63,0,1,100,0,416,48,32,32,0,-64,-95,0,0,100,0,896,184,112,104,0,-32,-16,0,0,65,0,512,16,64,32,0,
0,4,-39,-56,0,1,100,0,384,16,32,32,0,-39,-56,0,1,100,0,416,16,32,32,0,-64,-95,0,0,100,0,784,184,112,104,0,-32,-16,0,0,65,0,512,16,64,32,0,
0,4,-39,-63,0,1,100,0,384,48,32,32,0,-39,-63,0,1,100,0,416,48,32,32,0,-64,-95,0,0,100,0,672,184,112,104,0,-32,-16,0,0,65,0,512,16,64,32,0,
0,5,-39,-82,0,1,100,0,384,16,32,32,0,-46,-83,3,1,100,0,416,16,32,32,0,-39,-82,0,1,100,0,416,16,32,32,0,-64,-95,0,0,100,0,560,184,112,104,0,-32,-16,0,0,65,0,512,16,64,32,0,
0,4,-39,-79,0,1,100,0,384,16,32,32,0,-39,-79,0,1,100,0,416,16,32,32,0,-64,-95,0,0,100,0,448,184,112,104,0,-32,-16,0,0,65,0,512,16,64,32,0,
0,4,-42,-63,0,1,100,0,480,16,32,32,0,-42,-63,0,1,100,0,480,16,32,32,0,-64,-95,0,0,100,0,336,184,112,104,0,-32,-16,0,0,65,0,512,16,64,32,0,
0,4,-38,-42,0,1,100,0,512,48,32,32,0,-38,-42,0,1,100,0,544,48,32,32,0,-64,-95,0,0,100,0,224,184,112,104,0,-32,-16,0,0,65,0,512,16,64,32,0,
0,1,-32,-16,0,0,100,0,512,16,64,32,0,
0,1,-32,-16,0,0,100,0,512,16,64,32,0,
0,1,-32,-16,0,0,100,0,512,16,64,32,0,
0,1,-32,-16,0,0,100,0,512,16,64,32,0,
0,2,-64,-95,0,0,100,0,224,288,112,104,0,-32,-16,0,0,65,0,512,16,64,32,0,
0,2,-64,-95,0,0,100,0,112,288,112,104,0,-32,-16,0,0,65,0,512,16,64,32,0,
0,2,-64,-95,0,0,100,0,112,184,112,104,0,-32,-16,0,0,65,0,512,16,64,32,0,
0,2,-64,-95,0,0,100,0,224,184,112,104,0,-32,-16,0,0,65,0,512,16,64,32,0,
