0,2,-47,-64,0,0,100,0,0,0,72,64,0,-30,-37,0,0,100,0,25,413,65,46,0,
0,2,-47,-64,0,0,100,0,72,0,72,64,0,-30,-37,0,0,100,0,25,413,65,46,0,
0,2,-47,-64,0,0,100,0,144,0,72,64,0,-30,-37,0,0,100,0,25,413,65,46,0,
0,2,-47,-64,0,0,100,0,216,0,72,64,0,-30,-37,0,0,100,0,25,413,65,46,0,
0,2,-39,-64,0,0,100,0,0,72,72,64,0,-30,-37,0,0,100,0,25,413,65,46,0,
0,3,-55,-30,0,0,100,0,72,330,80,32,0,-55,-64,0,0,100,0,72,72,80,64,0,-30,-37,0,0,100,0,25,413,65,46,0,
0,4,-53,-46,0,0,100,0,154,314,32,32,0,-23,-19,0,0,100,0,184,341,50,20,0,-55,-64,0,0,100,0,152,72,80,64,0,-30,-37,0,0,100,0,25,413,65,46,0,
0,4,-39,-53,0,0,100,0,248,307,40,16,0,-44,-16,0,0,100,0,243,344,53,20,0,-55,-64,0,0,100,0,232,72,80,64,0,-30,-37,0,0,100,0,25,413,65,46,0,
0,3,-55,-85,0,0,100,0,104,387,32,80,0,-55,-88,0,0,100,0,0,152,80,88,0,-29,-9,0,0,100,0,33,461,47,19,0,
0,3,-53,-99,0,0,100,0,147,373,40,48,0,-55,-96,0,0,100,0,80,144,80,96,0,-31,-9,0,0,100,0,33,461,47,19,0,
0,3,-28,-100,0,0,100,0,200,372,40,24,0,-39,-96,0,0,100,0,168,144,64,96,0,-27,-9,0,0,100,0,33,461,47,19,0,
0,2,-39,-64,0,0,100,0,232,176,64,64,0,-30,-37,0,0,100,0,25,413,65,46,0,
0,2,-39,-64,0,0,100,0,0,240,64,64,0,-30,-37,0,0,100,0,25,413,65,46,0,
0,2,-39,-64,0,0,100,0,64,240,64,64,0,-30,-37,0,0,100,0,25,413,65,46,0,
0,2,-35,-64,0,0,100,0,304,0,60,64,0,-30,-37,0,0,100,0,25,413,65,46,0,
0,2,-33,-64,0,0,100,0,368,0,58,64,0,-28,-38,0,0,100,0,25,413,65,46,0,
0,2,-18,-64,0,0,100,0,427,0,43,64,0,-26,-38,0,0,100,0,25,413,65,46,0,
0,2,-15,-64,0,0,100,0,472,0,40,64,0,-26,-38,0,0,100,0,25,413,65,46,0,
0,2,-14,-64,0,0,100,0,312,72,39,64,0,-26,-38,0,0,100,0,25,413,65,46,0,
0,2,-15,-64,0,0,100,0,351,72,40,64,0,-26,-38,0,0,100,0,25,413,65,46,0,
0,2,-15,-64,0,0,100,0,391,72,40,64,0,-26,-38,0,0,100,0,25,413,65,46,0,
0,2,-15,-64,0,0,100,0,391,72,40,64,0,-26,-38,0,0,100,0,25,413,65,46,0,
0,2,-15,-64,0,0,100,0,431,72,40,64,0,-26,-38,0,0,100,0,25,413,65,46,0,
0,2,-15,-64,0,0,100,0,472,72,40,64,0,-26,-38,0,0,100,0,25,413,65,46,0,
