0,2,-47,-77,0,0,100,0,0,0,80,96,0,-23,-8,0,0,65,0,80,96,48,16,0,
0,2,-47,-77,0,0,100,0,80,0,80,96,0,-23,-8,0,0,65,0,80,96,48,16,0,
0,2,-47,-77,0,0,100,0,160,0,80,96,0,-23,-8,0,0,65,0,80,96,48,16,0,
0,2,-47,-77,0,0,100,0,240,0,80,96,0,-23,-8,0,0,65,0,80,96,48,16,0,
0,2,-47,-77,0,0,100,0,0,96,80,96,0,-23,-8,0,0,65,0,80,96,48,16,0,
0,2,-47,-77,0,0,100,0,0,192,80,96,0,-23,-8,0,0,65,0,80,96,48,16,0,
0,2,-47,-77,0,0,100,0,80,192,80,96,0,-23,-8,0,0,65,0,80,96,48,16,0,
0,3,-54,-79,0,0,100,0,480,80,96,112,0,-47,-77,0,0,100,0,160,192,80,96,0,-23,-8,0,0,65,0,80,96,48,16,0,
0,3,-53,-83,0,0,100,0,576,80,96,112,0,-47,-77,0,0,100,0,240,192,80,96,0,-23,-8,0,0,65,0,80,96,48,16,0,
0,3,-15,-83,0,0,100,0,320,80,64,48,0,-46,-77,0,0,100,0,320,192,80,96,0,-23,-8,0,0,65,0,80,96,48,16,0,
0,2,-46,-77,0,0,100,0,320,192,80,96,0,-23,-8,0,0,65,0,80,96,48,16,0,
0,2,-47,-77,0,0,100,0,400,192,80,96,0,-23,-8,0,0,65,0,80,96,48,16,0,
0,2,-47,-77,0,0,100,0,480,192,80,96,0,-23,-8,0,0,65,0,80,96,48,16,0,
0,2,-47,-77,0,0,100,0,560,192,80,96,0,-23,-8,0,0,65,0,80,96,48,16,0,
0,2,-39,-85,0,0,100,0,0,288,80,96,0,-23,-8,0,0,65,0,128,96,48,16,0,
0,2,-41,-87,0,0,100,0,80,288,80,96,0,-23,-8,0,0,65,0,128,96,48,16,0,
0,2,-41,-87,0,0,100,0,160,288,80,96,0,-23,-8,0,0,65,0,128,96,48,16,0,
0,3,-70,-103,0,0,100,0,384,80,96,112,0,-47,-77,0,0,100,0,240,288,80,96,0,-23,-8,0,0,65,0,80,96,48,16,0,
0,5,-76,-28,0,0,100,0,0,520,104,56,0,-85,-114,0,0,100,0,0,384,144,136,0,-64,-53,0,0,100,0,320,128,64,64,0,-47,-77,0,0,100,0,240,288,80,96,0,-23,-8,0,0,65,0,80,96,48,16,0,
0,5,-85,-93,0,0,100,0,0,576,128,136,0,-101,-28,0,0,100,0,104,520,160,56,0,-91,-114,0,0,100,0,144,384,144,136,0,-47,-77,0,0,100,0,320,288,80,96,0,-23,-8,0,0,65,0,80,96,48,16,0,
0,5,-117,-124,0,0,100,0,128,576,176,136,0,-101,-28,0,0,100,0,264,520,160,56,0,-97,-114,0,0,100,0,288,384,160,136,0,-47,-77,0,0,100,0,320,288,80,96,0,-23,-8,0,0,65,0,80,96,48,16,0,
0,5,-141,-154,0,0,100,0,304,576,224,160,0,-129,-19,0,0,100,0,424,520,200,56,0,-117,-116,0,0,100,0,448,384,192,136,0,-47,-77,0,0,100,0,320,288,80,96,0,-23,-8,0,0,65,0,80,96,48,16,0,
0,3,-145,-128,0,0,100,0,0,712,224,160,0,-47,-77,0,0,100,0,320,288,80,96,0,-23,-8,0,0,65,0,80,96,48,16,0,
0,2,-47,-77,0,0,100,0,320,288,80,96,0,-23,-8,0,0,65,0,80,96,48,16,0,
0,2,-47,-77,0,0,100,0,400,288,80,96,0,-23,-8,0,0,65,0,80,96,48,16,0,
0,2,-34,-63,0,0,100,0,0,880,72,72,0,-23,-8,0,0,65,0,80,96,48,16,0,
0,2,-34,-63,0,0,100,0,72,880,72,72,0,-23,-8,0,0,65,0,80,96,48,16,0,
0,2,-34,-63,0,0,100,0,144,880,72,72,0,-23,-8,0,0,65,0,80,96,48,16,0,
0,2,-34,-63,0,0,100,0,216,880,72,72,0,-23,-8,0,0,65,0,80,96,48,16,0,
0,2,-34,-63,0,0,100,0,0,952,72,72,0,-23,-8,0,0,65,0,80,96,48,16,0,
0,2,-34,-63,0,0,100,0,72,952,72,72,0,-23,-8,0,0,65,0,80,96,48,16,0,
0,2,-34,-63,0,0,100,0,144,952,72,72,0,-23,-8,0,0,65,0,80,96,48,16,0,
0,2,-34,-63,0,0,100,0,216,952,72,72,0,-23,-8,0,0,65,0,80,96,48,16,0,
0,2,-34,-63,0,0,100,0,288,952,72,72,0,-23,-8,0,0,65,0,80,96,48,16,0,
0,2,-34,-63,0,0,100,0,72,1024,72,72,0,-23,-8,0,0,65,0,80,96,48,16,0,
0,2,-34,-63,0,0,100,0,144,1024,72,72,0,-23,-8,0,0,65,0,80,96,48,16,0,
0,2,-34,-63,0,0,100,0,216,1024,72,72,0,-23,-8,0,0,65,0,80,96,48,16,0,
0,3,-64,-98,0,0,75,0,360,824,136,136,0,-34,-63,0,0,100,0,216,1024,72,72,0,-23,-8,0,0,65,0,80,96,48,16,0,
0,3,-64,-98,0,0,75,0,496,824,136,136,0,-34,-63,0,0,100,0,216,1024,72,72,0,-23,-8,0,0,65,0,80,96,48,16,0,
0,3,-64,-98,0,0,75,0,632,824,136,136,0,-34,-63,0,0,100,0,216,1024,72,72,0,-23,-8,0,0,65,0,80,96,48,16,0,
0,3,-64,-98,0,0,75,0,768,824,136,136,0,-34,-63,0,0,100,0,216,1024,72,72,0,-23,-8,0,0,65,0,80,96,48,16,0,
0,3,-64,-98,0,0,75,0,360,960,136,136,0,-34,-63,0,0,100,0,216,1024,72,72,0,-23,-8,0,0,65,0,80,96,48,16,0,
0,3,-64,-98,0,0,75,0,496,960,136,136,0,-34,-63,0,0,100,0,216,1024,72,72,0,-23,-8,0,0,65,0,80,96,48,16,0,
0,3,-64,-98,0,0,75,0,632,960,136,136,0,-34,-63,0,0,100,0,216,1024,72,72,0,-23,-8,0,0,65,0,80,96,48,16,0,
0,3,-64,-98,0,0,75,0,768,960,136,136,0,-34,-63,0,0,100,0,216,1024,72,72,0,-23,-8,0,0,65,0,80,96,48,16,0,
0,2,-34,-63,0,0,100,0,0,1024,72,72,0,-23,-8,0,0,65,0,80,96,48,16,0,
