5,0,0,6,
6,0,0,6,
7,0,0,6,
8,0,0,6,
9,0,0,6,
10,0,0,6,
7,0,0,5,
8,0,0,5,
9,0,0,5,
10,0,0,8,
11,0,0,1,
12,0,0,7,
13,0,0,5,
14,0,0,7,
15,0,0,7,
16,0,0,6,
17,0,0,6,
18,0,0,6,
19,0,0,6,
20,0,0,5,
21,0,0,5,
22,0,0,5,
23,0,0,5,
24,0,0,5,
25,0,0,10,
