0,3,-48,-80,0,1,100,0,576,0,96,96,0,-48,-80,0,0,100,0,0,0,96,96,0,-48,-16,0,0,65,0,480,0,96,32,0,
0,3,-48,-80,0,1,100,0,672,0,96,96,0,-48,-80,0,0,100,0,96,0,96,96,0,-48,-16,0,0,65,0,480,0,96,32,0,
0,3,-48,-80,0,1,100,0,576,96,96,96,0,-48,-80,0,0,100,0,192,0,96,96,0,-48,-16,0,0,65,0,480,0,96,32,0,
0,3,-48,-80,0,1,100,0,672,96,96,96,0,-48,-80,0,0,100,0,288,0,96,96,0,-48,-16,0,0,65,0,480,0,96,32,0,
0,3,-48,-80,0,1,100,0,768,0,96,96,0,-48,-80,0,0,100,0,384,0,96,96,0,-48,-16,0,0,65,0,480,0,96,32,0,
0,3,-48,-80,0,1,100,0,576,192,96,96,0,-48,-80,0,0,100,0,0,96,96,96,0,-48,-16,0,0,65,0,480,0,96,32,0,
0,3,-48,-80,0,1,100,0,672,192,96,96,0,-48,-80,0,0,100,0,96,96,96,96,0,-46,-16,0,0,65,0,480,0,96,32,0,
0,3,-48,-80,0,1,100,0,768,192,96,96,0,-48,-80,0,0,100,0,192,96,96,96,0,-46,-16,0,0,65,0,480,0,96,32,0,
0,4,-48,-80,0,1,100,0,0,288,96,96,0,-48,-80,0,1,100,0,576,288,96,96,0,-48,-80,0,0,100,0,288,96,96,96,0,-48,-16,0,0,65,0,480,0,96,32,0,
0,5,-48,-80,0,1,80,0,96,288,96,96,0,-48,-80,0,1,30,0,0,288,96,96,0,-48,-80,0,1,100,0,672,288,96,96,0,-48,-80,0,0,100,0,384,96,96,96,0,-48,-16,0,0,65,0,480,0,96,32,0,
0,5,-40,-80,0,1,80,0,384,288,96,96,0,-48,-80,0,1,20,0,96,288,96,96,0,-48,-80,0,1,100,0,768,288,96,96,0,-48,-80,0,0,100,0,480,96,96,96,0,-48,-16,0,0,65,0,480,0,96,32,0,
0,4,-40,-80,0,1,20,0,384,288,96,96,0,-48,-80,0,1,100,0,576,384,96,96,0,-48,-80,0,0,100,0,0,192,96,96,0,-48,-16,0,0,65,0,480,0,96,32,0,
0,3,-64,-80,0,1,100,0,192,288,96,96,0,-48,-80,0,0,100,0,96,192,96,96,0,-53,-16,0,0,65,0,480,0,96,32,0,
0,4,-72,-80,0,1,80,0,288,288,96,96,0,-64,-80,0,1,30,0,192,288,96,96,0,-48,-80,0,0,100,0,192,192,96,96,0,-53,-16,0,0,65,0,480,0,96,32,0,
0,4,-40,-80,0,1,100,0,480,288,96,96,0,-71,-80,0,1,20,0,288,288,96,96,0,-48,-80,0,0,100,0,288,192,96,96,0,-53,-16,0,0,65,0,480,0,96,32,0,
0,3,-39,-79,0,1,20,0,480,288,96,96,0,-48,-80,0,0,100,0,480,192,96,96,0,-53,-16,0,0,65,0,480,0,96,32,0,
0,2,-48,-80,0,0,100,0,384,192,96,96,0,-49,-16,0,0,65,0,480,0,96,32,0,
0,3,-48,-80,0,1,80,0,576,480,96,96,0,-48,-80,0,0,100,0,0,384,96,96,0,-48,-16,0,0,65,0,480,0,96,32,0,
0,3,-48,-80,0,1,80,0,672,480,96,96,0,-48,-80,0,0,100,0,96,384,96,96,0,-54,-16,0,0,65,0,480,0,96,32,0,
0,3,-56,-80,0,1,60,0,768,480,96,96,0,-56,-80,0,0,100,0,192,384,96,96,0,-57,-16,0,0,65,0,480,0,96,32,0,
0,3,-56,-80,0,1,20,0,768,480,96,96,0,-48,-80,0,0,100,0,288,384,96,96,0,-54,-16,0,0,65,0,480,0,96,32,0,
0,2,-48,-80,0,0,100,0,384,384,96,96,0,-48,-16,0,0,65,0,480,0,96,32,0,
0,2,-48,-80,0,0,100,0,480,384,96,96,0,-48,-16,0,0,65,0,480,0,96,32,0,
0,2,-48,-80,0,0,100,0,0,480,96,96,0,-48,-16,0,0,65,0,480,0,96,32,0,
0,2,-48,-80,0,0,100,0,96,480,96,96,0,-48,-16,0,0,65,0,480,0,96,32,0,
0,2,-48,-80,0,0,100,0,192,480,96,96,0,-48,-16,0,0,65,0,480,0,96,32,0,
0,2,-48,-80,0,0,100,0,288,480,96,96,0,-48,-16,0,0,65,0,480,0,96,32,0,
0,2,-48,-80,0,0,100,0,384,480,96,96,0,-48,-16,0,0,65,0,480,0,96,32,0,
0,2,-48,-80,0,0,100,0,480,480,96,96,0,-48,-16,0,0,65,0,480,0,96,32,0,
0,2,-48,-80,0,0,100,0,192,576,96,96,0,-48,-16,0,0,65,0,480,0,96,32,0,
0,2,-48,-80,0,0,100,0,288,576,96,96,0,-48,-16,0,0,65,0,480,0,96,32,0,
0,2,-48,-80,0,0,100,0,384,576,96,96,0,-48,-16,0,0,65,0,480,0,96,32,0,
0,2,-48,-80,0,0,100,0,480,576,96,96,0,-48,-16,0,0,65,0,480,0,96,32,0,
