5,0,0,3,
6,0,0,3,
7,0,0,3,
8,0,0,3,
9,0,0,6,
10,0,0,3,
11,0,0,5,
12,0,0,5,
13,0,0,3,
14,0,0,5,
15,0,0,3,
16,0,0,5,
17,0,0,4,
18,0,0,3,
19,0,0,2,
20,0,0,2,
21,0,0,2,
22,0,0,2,
23,0,0,2,
24,0,0,2,
25,0,0,2,
26,0,0,2,
19,0,0,2,
20,0,0,2,
21,0,0,2,
22,0,0,2,
23,0,0,2,
24,0,0,2,
25,0,0,2,
26,0,0,2,
19,0,0,2,
20,0,0,2,
21,0,0,2,
22,0,0,2,
23,0,0,2,
24,0,0,2,
25,0,0,2,
26,0,0,2,
27,0,0,2,
28,0,0,2,
29,0,0,2,
30,0,0,2,
31,0,0,10,
32,0,0,4,
33,0,0,8,
