0,2,-38,-80,0,0,100,0,0,0,80,80,0,-21,-11,0,0,100,0,320,64,40,15,0,
0,2,-38,-80,0,0,100,0,80,0,80,80,0,-21,-11,0,0,100,0,320,64,40,15,0,
0,2,-38,-80,0,0,100,0,160,0,80,80,0,-21,-11,0,0,100,0,320,64,40,15,0,
0,2,-38,-80,0,0,100,0,240,0,80,80,0,-21,-11,0,0,100,0,320,64,40,15,0,
0,2,-38,-80,0,0,100,0,0,80,80,80,0,-21,-11,0,0,100,0,320,64,40,15,0,
0,2,-38,-80,0,0,100,0,80,80,80,80,0,-21,-11,0,0,100,0,320,64,40,15,0,
0,2,-38,-80,0,0,100,0,160,80,80,80,0,-21,-11,0,0,100,0,320,64,40,15,0,
0,6,-38,-80,0,0,100,0,240,80,80,80,0,8,-69,1,0,100,0,0,320,40,40,0,-42,-72,0,0,100,0,0,320,40,40,0,10,-52,1,0,100,0,0,320,40,40,0,-44,-55,0,0,100,0,0,320,40,40,0,-21,-11,0,0,100,0,320,64,40,15,0,
0,6,-38,-80,0,0,100,0,0,160,80,80,0,9,-69,1,0,100,0,40,320,40,40,0,-43,-72,0,0,100,0,40,320,40,40,0,12,-51,1,0,100,0,40,320,40,40,0,-46,-54,0,0,100,0,40,320,40,40,0,-21,-11,0,0,100,0,320,64,40,15,0,
0,6,-38,-80,0,0,100,0,80,160,80,80,0,10,-72,1,0,100,0,80,320,40,40,0,-47,-73,0,0,100,0,80,320,40,40,0,12,-54,1,0,100,0,80,320,40,40,0,-49,-56,0,0,100,0,80,320,40,40,0,-21,-11,0,0,100,0,320,64,40,15,0,
0,6,-38,-80,0,0,100,0,160,160,80,80,0,10,-70,1,0,100,0,120,320,40,40,0,-45,-73,0,0,100,0,120,320,40,40,0,13,-52,1,0,100,0,120,320,40,40,0,-48,-55,0,0,100,0,120,320,40,40,0,-21,-11,0,0,100,0,320,64,40,15,0,
0,6,-38,-80,0,0,100,0,240,160,80,80,0,8,-70,1,0,100,0,160,320,40,40,0,-42,-72,0,0,100,0,160,320,40,40,0,11,-52,1,0,100,0,160,320,40,40,0,-45,-54,0,0,100,0,160,320,40,40,0,-21,-11,0,0,100,0,320,64,40,15,0,
0,6,-6,-96,3,0,100,0,0,360,72,48,0,-62,-98,2,0,100,0,0,360,72,48,0,-4,-58,1,0,100,0,0,360,72,48,0,-64,-60,0,0,100,0,0,360,72,48,0,-38,-80,0,0,100,0,0,240,80,80,0,-21,-11,0,0,100,0,320,64,40,15,0,
0,6,-10,-98,3,0,100,0,72,360,72,48,0,-57,-100,2,0,100,0,72,360,72,48,0,-6,-54,1,0,100,0,72,360,72,48,0,-61,-56,0,0,100,0,72,360,72,48,0,-38,-80,0,0,100,0,80,240,80,80,0,-21,-11,0,0,100,0,320,64,40,15,0,
0,6,-4,-96,3,0,100,0,144,360,64,48,0,-55,-99,2,0,100,0,144,360,64,48,0,-2,-53,1,0,100,0,144,360,64,48,0,-57,-56,0,0,100,0,144,360,64,48,0,-38,-80,0,0,100,0,160,240,80,80,0,-21,-11,0,0,100,0,320,64,40,15,0,
0,2,-38,-80,0,0,100,0,240,240,80,80,0,-21,-11,0,0,100,0,320,64,40,15,0,
0,2,-34,-80,0,0,100,0,0,408,80,80,0,-21,-11,0,0,100,0,320,64,40,15,0,
0,2,-38,-80,0,0,100,0,80,408,80,80,0,-21,-11,0,0,100,0,320,64,40,15,0,
0,2,-38,-80,0,0,100,0,160,408,80,80,0,-21,-11,0,0,100,0,320,64,40,15,0,
0,2,-38,-80,0,0,100,0,0,488,80,80,0,-21,-11,0,0,100,0,320,64,40,15,0,
0,2,-38,-80,0,0,100,0,80,488,80,80,0,-21,-11,0,0,100,0,320,64,40,15,0,
0,2,-38,-80,0,0,100,0,160,488,80,80,0,-21,-11,0,0,100,0,320,64,40,15,0,
0,2,-38,-80,0,0,100,0,240,488,80,80,0,-21,-11,0,0,100,0,320,64,40,15,0,
