0,5,-13,-27,0,0,100,0,400,0,16,16,0,-43,-57,0,0,100,0,352,0,48,48,0,-15,-53,0,0,100,0,256,0,24,24,0,-31,-43,0,0,100,0,0,0,64,48,0,-40,-16,0,0,65,0,432,0,80,32,0,
0,5,-13,-26,0,0,100,0,400,0,16,16,0,-43,-56,0,0,100,0,352,0,48,48,0,-15,-52,0,0,100,0,280,0,24,24,0,-31,-43,0,0,100,0,64,0,64,48,0,-40,-16,0,0,65,0,432,0,80,32,0,
0,5,-13,-25,0,0,100,0,400,0,16,16,0,-43,-55,0,0,100,0,352,0,48,48,0,-15,-53,0,0,100,0,304,0,24,24,0,-31,-43,0,0,100,0,128,0,64,48,0,-40,-16,0,0,65,0,432,0,80,32,0,
0,5,-13,-26,0,0,100,0,400,0,16,16,0,-43,-56,0,0,100,0,352,0,48,48,0,-15,-53,0,0,100,0,328,0,24,24,0,-31,-43,0,0,100,0,192,0,64,48,0,-40,-16,0,0,65,0,432,0,80,32,0,
0,2,-30,-56,0,0,100,0,304,48,72,64,0,-40,-16,0,0,65,0,432,0,80,32,0,
0,7,-7,-37,0,0,100,0,224,176,16,16,0,0,-32,0,0,100,0,376,96,24,16,0,0,-34,0,0,100,0,168,304,24,16,0,-4,-55,1,0,100,0,400,48,48,48,0,-6,-52,0,0,100,0,256,0,24,24,0,-25,-47,0,0,100,0,224,192,56,56,0,-40,-16,0,0,65,0,432,0,80,32,0,
0,6,-11,-25,0,0,100,0,376,96,24,16,0,-3,-27,0,0,100,0,416,0,16,16,0,-12,-33,0,0,100,0,312,112,64,24,0,-15,-50,0,0,100,0,304,0,24,24,0,-26,-47,0,0,100,0,112,80,56,56,0,-40,-16,0,0,65,0,432,0,80,32,0,
0,5,-135,-44,0,1,100,0,0,320,192,64,0,-86,-40,1,0,100,0,240,48,64,32,0,-27,-47,0,0,100,0,256,24,24,24,0,-36,-48,0,0,100,0,168,80,56,56,0,-40,-16,0,0,65,0,432,0,80,32,0,
0,5,-135,-44,0,1,100,0,192,320,192,64,0,-56,-46,0,0,100,0,0,136,56,56,0,-22,-36,0,0,100,0,240,48,64,32,0,-51,-48,0,0,100,0,256,24,24,24,0,-71,-16,0,0,65,0,432,0,80,32,0,
0,5,-135,-44,0,1,100,0,0,384,192,64,0,-56,-46,0,0,100,0,56,136,56,56,0,-23,-35,0,0,100,0,240,48,64,32,0,-50,-47,0,0,100,0,280,24,24,24,0,-71,-16,0,0,65,0,432,0,80,32,0,
0,4,-56,-46,0,0,100,0,112,136,56,56,0,-23,-36,0,0,100,0,240,48,64,32,0,-50,-47,0,0,100,0,304,24,24,24,0,-71,-16,0,0,65,0,432,0,80,32,0,
0,4,-56,-46,0,0,100,0,168,136,56,56,0,-23,-36,0,0,100,0,240,48,64,32,0,-50,-47,0,0,100,0,328,24,24,24,0,-71,-16,0,0,65,0,432,0,80,32,0,
0,6,-10,-26,0,0,100,0,376,96,24,16,0,-3,-30,0,0,100,0,416,0,16,16,0,-6,-57,1,0,100,0,352,0,48,48,0,-13,-53,0,0,100,0,256,0,24,24,0,-26,-47,0,0,100,0,0,80,56,56,0,-40,-16,0,0,65,0,432,0,80,32,0,
0,6,-10,-25,0,0,100,0,376,96,24,16,0,-3,-29,0,0,100,0,416,0,16,16,0,-6,-56,1,0,100,0,352,0,48,48,0,-13,-52,0,0,100,0,280,0,24,24,0,-26,-47,0,0,100,0,56,80,56,56,0,-40,-16,0,0,65,0,432,0,80,32,0,
0,6,-12,-24,0,0,100,0,376,96,24,16,0,-5,-28,0,0,100,0,416,0,16,16,0,-8,-55,1,0,100,0,352,0,48,48,0,-15,-50,0,0,100,0,304,0,24,24,0,-26,-47,0,0,100,0,112,80,56,56,0,-40,-16,0,0,65,0,432,0,80,32,0,
0,6,-31,-31,0,0,100,0,376,72,24,24,0,-16,-45,0,0,100,0,224,80,32,32,0,-15,-54,0,0,100,0,256,0,24,24,0,-26,-54,0,0,100,0,112,256,56,64,0,-54,-58,0,0,100,-90,256,80,48,40,0,-40,-16,0,0,65,0,432,0,80,32,0,
0,9,-26,-61,0,0,100,0,168,280,24,24,0,-28,-106,0,0,100,90,240,48,64,32,0,-31,-61,0,0,100,90,208,48,32,32,0,1,-36,0,0,100,0,168,256,24,24,0,0,-37,0,0,100,0,192,280,24,24,0,-11,-58,0,0,100,0,328,0,24,24,0,-22,-59,0,0,100,0,112,192,56,64,0,1,-41,0,0,100,0,192,256,24,24,0,-40,-16,0,0,65,0,432,0,80,32,0,
0,9,-26,-62,0,0,100,0,168,280,24,24,0,-28,-107,0,0,100,90,240,48,64,32,0,-31,-62,0,0,100,90,208,48,32,32,0,1,-38,0,0,100,0,168,256,24,24,0,1,-38,0,0,100,0,192,280,24,24,0,-11,-58,0,0,100,0,256,0,24,24,0,-22,-59,0,0,100,0,168,192,56,64,0,1,-41,0,0,100,0,192,256,24,24,0,-40,-16,0,0,65,0,432,0,80,32,0,
0,9,-26,-60,0,0,100,0,168,280,24,24,0,-28,-105,0,0,100,90,240,48,64,32,0,-31,-60,0,0,100,90,208,48,32,32,0,-1,-38,0,0,100,0,168,256,24,24,0,-1,-38,0,0,100,0,192,280,24,24,0,-11,-57,0,0,100,0,280,0,24,24,0,-22,-59,0,0,100,0,0,256,56,64,0,0,-40,0,0,100,0,192,256,24,24,0,-40,-16,0,0,65,0,432,0,80,32,0,
0,9,-26,-60,0,0,100,0,168,280,24,24,0,-28,-105,0,0,100,90,240,48,64,32,0,-31,-60,0,0,100,90,208,48,32,32,0,-1,-37,0,0,100,0,168,256,24,24,0,-1,-37,0,0,100,0,192,280,24,24,0,-11,-57,0,0,100,0,304,0,24,24,0,-22,-59,0,0,100,0,56,256,56,64,0,0,-41,0,0,100,0,192,256,24,24,0,-40,-16,0,0,65,0,432,0,80,32,0,
0,10,-34,-142,0,1,100,0,384,384,48,96,0,-26,-60,0,0,100,0,168,280,24,24,0,-28,-105,0,0,100,90,240,48,64,32,0,-31,-60,0,0,100,90,208,48,32,32,0,-1,-37,0,0,100,0,168,256,24,24,0,-1,-37,0,0,100,0,192,280,24,24,0,-11,-57,0,0,100,0,328,0,24,24,0,-22,-59,0,0,100,0,56,256,56,64,0,0,-41,0,0,100,0,192,256,24,24,0,-40,-16,0,0,65,0,432,0,80,32,0,
0,9,-26,-60,0,0,100,0,168,280,24,24,0,-28,-105,0,0,100,90,240,48,64,32,0,-31,-60,0,0,100,90,208,48,32,32,0,-1,-37,0,0,100,0,168,256,24,24,0,-1,-37,0,0,100,0,192,280,24,24,0,-11,-57,0,0,100,0,256,0,24,24,0,-22,-59,0,0,100,0,56,256,56,64,0,0,-41,0,0,100,0,192,256,24,24,0,-40,-16,0,0,65,0,432,0,80,32,0,
0,9,-26,-60,0,0,100,0,168,280,24,24,0,-28,-105,0,0,100,90,240,48,64,32,0,-31,-60,0,0,100,90,208,48,32,32,0,-1,-37,0,0,100,0,168,256,24,24,0,-1,-37,0,0,100,0,192,280,24,24,0,-11,-57,0,0,100,0,280,0,24,24,0,-22,-59,0,0,100,0,56,256,56,64,0,0,-41,0,0,100,0,192,256,24,24,0,-40,-16,0,0,65,0,432,0,80,32,0,
0,9,-26,-60,0,0,100,0,168,280,24,24,0,-28,-105,0,0,100,90,240,48,64,32,0,-31,-60,0,0,100,90,208,48,32,32,0,-1,-37,0,0,100,0,168,256,24,24,0,-1,-37,0,0,100,0,192,280,24,24,0,-11,-57,0,0,100,0,304,0,24,24,0,-22,-59,0,0,100,0,56,256,56,64,0,0,-41,0,0,100,0,192,256,24,24,0,-40,-16,0,0,65,0,432,0,80,32,0,
0,9,-26,-60,0,0,100,0,168,280,24,24,0,-28,-105,0,0,100,90,240,48,64,32,0,-31,-60,0,0,100,90,208,48,32,32,0,-1,-37,0,0,100,0,168,256,24,24,0,-1,-37,0,0,100,0,192,280,24,24,0,-11,-57,0,0,100,0,328,0,24,24,0,-22,-59,0,0,100,0,56,256,56,64,0,0,-41,0,0,100,0,192,256,24,24,0,-40,-16,0,0,65,0,432,0,80,32,0,
