0,2,-30,-61,0,0,100,0,0,0,72,72,0,-27,-16,0,0,65,0,376,0,56,32,0,
0,2,-30,-61,0,0,100,0,72,0,72,72,0,-27,-16,0,0,65,0,376,0,56,32,0,
0,2,-30,-61,0,0,100,0,144,0,72,72,0,-27,-16,0,0,65,0,376,0,56,32,0,
0,2,-30,-61,0,0,100,0,216,0,72,72,0,-27,-16,0,0,65,0,376,0,56,32,0,
0,9,11,-63,0,0,100,0,768,968,64,56,0,-56,-77,0,0,100,0,768,904,64,64,0,-44,-59,0,0,100,0,576,72,48,48,0,-44,-59,0,0,100,0,0,72,72,72,0,4,-41,0,0,100,0,432,0,32,32,0,7,-48,0,0,100,0,624,72,32,48,0,-4,-35,0,0,100,0,376,32,40,40,0,1,-51,0,0,100,0,432,432,48,48,0,-27,-16,0,0,65,0,376,0,56,32,0,
0,9,11,-63,0,0,100,0,832,968,64,56,0,-56,-77,0,0,100,0,832,904,64,64,0,-44,-59,0,0,100,0,576,72,48,48,0,-44,-59,0,0,100,0,72,72,72,72,0,4,-41,0,0,100,0,432,0,32,32,0,7,-48,0,0,100,0,624,72,32,48,0,1,-34,0,0,100,0,416,32,40,40,0,-1,-53,0,0,100,0,192,432,48,48,0,-27,-16,0,0,65,0,376,0,56,32,0,
0,9,11,-63,0,0,100,0,896,968,64,56,0,-56,-77,0,0,100,0,896,904,64,64,0,-44,-59,0,0,100,0,576,72,48,48,0,-44,-59,0,0,100,0,144,72,72,72,0,4,-41,0,0,100,0,432,0,32,32,0,7,-48,0,0,100,0,624,72,32,48,0,0,-35,0,0,100,0,456,32,40,40,0,0,-52,0,0,100,0,240,432,48,48,0,-27,-16,0,0,65,0,376,0,56,32,0,
0,9,11,-63,0,0,100,0,960,968,64,56,0,-56,-77,0,0,100,0,960,904,64,64,0,-44,-59,0,0,100,0,576,72,48,48,0,-44,-59,0,0,100,0,216,72,72,72,0,4,-41,0,0,100,0,432,0,32,32,0,7,-48,0,0,100,0,624,72,32,48,0,-1,-35,0,0,100,0,496,32,40,40,0,-1,-49,0,0,100,0,288,432,48,48,0,-27,-16,0,0,65,0,376,0,56,32,0,
0,9,11,-63,0,0,100,0,768,968,64,56,0,-56,-77,0,0,100,0,768,904,64,64,0,-44,-58,0,0,100,0,576,72,48,48,0,-44,-59,0,0,100,0,288,72,72,72,0,4,-40,0,0,100,0,432,0,32,32,0,7,-47,0,0,100,0,624,72,32,48,0,-4,-34,0,0,100,0,376,32,40,40,0,1,-50,0,0,100,0,432,432,48,48,0,-27,-16,0,0,65,0,376,0,56,32,0,
0,9,11,-63,0,0,100,0,832,968,64,56,0,-56,-77,0,0,100,0,832,904,64,64,0,-44,-58,0,0,100,0,576,72,48,48,0,-44,-59,0,0,100,0,360,72,72,72,0,4,-40,0,0,100,0,432,0,32,32,0,7,-47,0,0,100,0,624,72,32,48,0,1,-33,0,0,100,0,416,32,40,40,0,-1,-52,0,0,100,0,192,432,48,48,0,-27,-16,0,0,65,0,376,0,56,32,0,
0,9,11,-63,0,0,100,0,896,968,64,56,0,-56,-77,0,0,100,0,896,904,64,64,0,-44,-58,0,0,100,0,576,72,48,48,0,-44,-59,0,0,100,0,432,72,72,72,0,4,-40,0,0,100,0,432,0,32,32,0,7,-47,0,0,100,0,624,72,32,48,0,0,-34,0,0,100,0,456,32,40,40,0,0,-51,0,0,100,0,240,432,48,48,0,-27,-16,0,0,65,0,376,0,56,32,0,
0,9,11,-63,0,0,100,0,960,968,64,56,0,-56,-77,0,0,100,0,960,904,64,64,0,-44,-58,0,0,100,0,576,72,48,48,0,-44,-59,0,0,100,0,504,72,72,72,0,4,-40,0,0,100,0,432,0,32,32,0,7,-47,0,0,100,0,624,72,32,48,0,-1,-34,0,0,100,0,496,32,40,40,0,-1,-48,0,0,100,0,288,432,48,48,0,-27,-16,0,0,65,0,376,0,56,32,0,
0,9,11,-63,0,0,100,0,768,968,64,56,0,-56,-77,0,0,100,0,768,904,64,64,0,-44,-58,0,0,100,0,784,144,48,48,0,-44,-59,0,0,100,0,288,72,72,72,0,4,-40,0,0,100,0,432,0,32,32,0,7,-47,0,0,100,0,864,240,32,48,0,-4,-34,0,0,100,0,432,32,40,40,0,1,-50,0,0,100,0,432,432,48,48,0,-27,-16,0,0,65,0,376,0,56,32,0,
0,11,11,-63,0,0,100,0,768,968,64,56,0,-56,-77,0,0,100,0,768,904,64,64,0,-44,-58,0,0,100,0,832,144,48,48,0,-44,-58,0,0,50,0,832,192,48,48,0,-44,-59,0,0,100,0,288,72,72,72,0,4,-40,0,0,100,0,464,0,32,32,0,7,-47,0,0,100,0,896,240,32,48,0,7,-47,0,0,75,0,896,288,32,48,0,-4,-34,0,0,100,0,432,32,40,40,0,1,-50,0,0,100,0,432,432,48,48,0,-27,-16,0,0,65,0,376,0,56,32,0,
0,11,11,-63,0,0,100,0,768,968,64,56,0,-56,-77,0,0,100,0,768,904,64,64,0,-44,-58,0,0,100,0,880,144,48,48,0,-44,-58,0,0,75,0,880,192,48,48,0,-44,-59,0,0,100,0,288,72,72,72,0,4,-40,0,0,100,0,464,0,32,32,0,7,-47,0,0,100,0,928,240,32,48,0,7,-47,0,0,75,0,928,288,32,48,0,-4,-34,0,0,100,0,432,32,40,40,0,1,-50,0,0,100,0,432,432,48,48,0,-27,-16,0,0,65,0,376,0,56,32,0,
0,11,11,-63,0,0,100,0,832,968,64,56,0,-56,-77,0,0,100,0,832,904,64,64,0,-44,-58,0,0,100,0,832,144,48,48,0,-44,-58,0,0,75,0,832,192,48,48,0,-44,-59,0,0,100,0,360,72,72,72,0,4,-40,0,0,100,0,464,0,32,32,0,7,-47,0,0,100,0,896,240,32,48,0,7,-47,0,0,75,0,896,288,32,48,0,-4,-34,0,0,100,0,472,32,40,40,0,1,-50,0,0,100,0,192,432,48,48,0,-27,-16,0,0,65,0,376,0,56,32,0,
0,11,11,-63,0,0,100,0,832,968,64,56,0,-56,-77,0,0,100,0,832,904,64,64,0,-44,-58,0,0,100,0,880,144,48,48,0,-44,-58,0,0,75,0,880,192,48,48,0,-44,-59,0,0,100,0,360,72,72,72,0,4,-40,0,0,100,0,464,0,32,32,0,7,-47,0,0,100,0,928,240,32,48,0,7,-47,0,0,75,0,928,288,32,48,0,-4,-34,0,0,100,0,472,32,40,40,0,1,-50,0,0,100,0,192,432,48,48,0,-27,-16,0,0,65,0,376,0,56,32,0,
0,11,11,-63,0,0,100,0,832,968,64,56,0,-56,-77,0,0,100,0,832,904,64,64,0,-44,-58,0,0,100,0,928,144,48,48,0,-44,-58,0,0,75,0,928,192,48,48,0,-44,-59,0,0,100,0,360,72,72,72,0,4,-40,0,0,100,0,432,0,32,32,0,7,-47,0,0,100,0,960,240,32,48,0,7,-47,0,0,75,0,960,288,32,48,0,-4,-34,0,0,100,0,472,32,40,40,0,1,-50,0,0,100,0,192,432,48,48,0,-27,-16,0,0,65,0,376,0,56,32,0,
0,4,-44,-38,0,0,100,0,888,336,48,48,0,-11,-41,0,0,100,0,936,336,48,48,0,-39,-56,0,0,100,0,288,0,88,72,0,-27,-16,0,0,65,0,376,0,56,32,0,
0,9,11,-63,0,0,75,0,768,968,64,56,0,-56,-77,0,0,75,0,768,904,64,64,0,-13,-74,0,0,100,0,784,0,48,48,0,-13,-74,0,0,50,0,784,48,48,48,0,-33,-44,0,0,100,0,896,240,32,48,0,-33,-44,0,0,50,0,896,288,32,48,0,-30,-61,0,0,100,0,264,288,72,72,0,-1,-41,0,0,100,0,0,432,48,48,0,-27,-16,0,0,65,0,376,0,56,32,0,
0,9,11,-63,0,0,50,0,832,968,64,56,0,-56,-77,0,0,50,0,832,904,64,64,0,-13,-74,0,0,100,0,832,0,48,48,0,-13,-74,0,0,50,0,832,48,48,48,0,-33,-44,0,0,100,0,928,240,32,48,0,-33,-44,0,0,50,0,928,288,32,48,0,-30,-61,0,0,100,0,264,288,72,72,0,-1,-41,0,0,100,0,0,432,48,48,0,-27,-16,0,0,65,0,376,0,56,32,0,
0,9,11,-63,0,0,25,0,896,968,64,56,0,-56,-77,0,0,25,0,896,904,64,64,0,-13,-74,0,0,100,0,880,0,48,48,0,-13,-74,0,0,50,0,880,48,48,48,0,-33,-44,0,0,100,0,896,240,32,48,0,-33,-44,0,0,50,0,896,288,32,48,0,-30,-61,0,0,100,0,336,288,72,72,0,-1,-41,0,0,100,0,48,432,48,48,0,-27,-16,0,0,65,0,376,0,56,32,0,
0,7,-13,-74,0,0,100,0,928,0,48,48,0,-13,-74,0,0,50,0,928,48,48,48,0,-33,-44,0,0,100,0,928,240,32,48,0,-33,-44,0,0,50,0,928,288,32,48,0,-30,-61,0,0,100,0,336,288,72,72,0,-1,-41,0,0,100,0,48,432,48,48,0,-27,-16,0,0,65,0,376,0,56,32,0,
0,7,-13,-74,0,0,100,0,784,0,48,48,0,-13,-74,0,0,50,0,784,48,48,48,0,-33,-44,0,0,100,0,896,240,32,48,0,-33,-44,0,0,50,0,896,288,32,48,0,-30,-61,0,0,100,0,408,288,72,72,0,-1,-41,0,0,100,0,96,432,48,48,0,-27,-16,0,0,65,0,376,0,56,32,0,
0,7,-13,-74,0,0,100,0,832,0,48,48,0,-13,-74,0,0,50,0,832,48,48,48,0,-33,-44,0,0,100,0,928,240,32,48,0,-33,-44,0,0,50,0,928,288,32,48,0,-30,-61,0,0,100,0,408,288,72,72,0,-1,-41,0,0,100,0,96,432,48,48,0,-27,-16,0,0,65,0,376,0,56,32,0,
0,7,-13,-74,0,0,100,0,880,0,48,48,0,-13,-74,0,0,50,0,880,48,48,48,0,-33,-44,0,0,100,0,896,240,32,48,0,-33,-44,0,0,50,0,896,288,32,48,0,-30,-61,0,0,100,0,480,288,72,72,0,-1,-41,0,0,100,0,144,432,48,48,0,-27,-16,0,0,65,0,376,0,56,32,0,
0,7,-13,-74,0,0,100,0,928,0,48,48,0,-13,-74,0,0,50,0,928,48,48,48,0,-33,-44,0,0,100,0,928,240,32,48,0,-33,-44,0,0,50,0,928,288,32,48,0,-30,-61,0,0,100,0,480,288,72,72,0,-1,-41,0,0,100,0,144,432,48,48,0,-27,-16,0,0,65,0,376,0,56,32,0,
0,5,-13,-74,0,0,100,0,976,0,48,48,0,-33,-44,0,0,100,0,960,240,32,48,0,-30,-61,0,0,100,0,264,288,72,72,0,-1,-41,0,0,100,0,0,432,48,48,0,-27,-16,0,0,65,0,376,0,56,32,0,
0,5,-16,-75,0,0,100,0,976,48,48,48,0,-41,-44,0,0,100,0,928,96,48,48,0,-30,-61,0,0,100,0,0,360,64,72,0,-1,-41,0,0,100,0,48,432,40,40,0,-27,-16,0,0,65,0,376,0,56,32,0,
0,5,-16,-74,0,0,100,0,976,48,48,48,0,-40,-44,0,0,100,0,928,96,48,48,0,-30,-61,0,0,100,0,64,360,64,72,0,-1,-41,0,0,100,0,96,432,40,40,0,-27,-16,0,0,65,0,376,0,56,32,0,
0,5,-24,-42,0,0,100,0,576,72,48,48,0,-27,-73,0,0,100,0,832,96,48,48,0,-30,-61,0,0,100,0,128,360,72,72,0,-3,-41,0,0,100,0,144,432,40,40,0,-27,-16,0,0,65,0,376,0,56,32,0,
0,5,-23,-42,0,0,100,0,576,72,48,48,0,-28,-73,0,0,100,0,832,96,48,48,0,-30,-61,0,0,100,0,200,360,72,72,0,-3,-41,0,0,100,0,0,432,40,40,0,-27,-16,0,0,65,0,376,0,56,32,0,
0,5,-30,-44,0,0,100,0,880,96,48,48,0,-41,-68,0,0,100,0,592,952,88,72,0,-32,-61,0,0,100,0,272,360,72,72,0,-12,-45,0,0,100,0,384,432,48,48,0,-26,-16,0,0,65,0,376,0,56,32,0,
0,5,-35,-47,0,0,100,0,880,96,48,48,0,-41,-68,0,0,100,0,680,952,88,72,0,-32,-61,0,0,100,0,344,360,72,72,0,-7,-50,0,0,100,0,336,432,48,48,0,-26,-16,0,0,65,0,376,0,56,32,0,
0,5,2,-37,0,0,100,0,784,96,48,48,0,-35,-47,0,0,100,0,880,96,48,48,0,-32,-61,0,0,100,0,344,360,72,72,0,-6,-53,0,0,100,0,192,432,48,48,0,-26,-16,0,0,65,0,376,0,56,32,0,
0,5,2,-37,0,0,100,0,784,96,48,48,0,-35,-47,0,0,100,0,880,96,48,48,0,-32,-61,0,0,100,0,416,360,72,72,0,-6,-53,0,0,100,0,240,432,48,48,0,-26,-16,0,0,65,0,376,0,56,32,0,
0,5,2,-37,0,0,100,0,784,96,48,48,0,-35,-47,0,0,100,0,880,96,48,48,0,-32,-61,0,0,100,0,488,360,72,72,0,-6,-50,0,0,100,0,288,432,48,48,0,-26,-16,0,0,65,0,376,0,56,32,0,
0,5,2,-37,0,0,100,0,784,96,48,48,0,-35,-47,0,0,100,0,880,96,48,48,0,-32,-61,0,0,100,0,560,360,72,72,0,-6,-50,0,0,100,0,336,432,48,48,0,-26,-16,0,0,65,0,376,0,56,32,0,
0,4,-29,-34,0,0,100,0,840,496,48,40,0,-9,-61,0,0,100,0,888,496,48,48,0,-29,-60,0,0,100,0,0,216,72,72,0,-27,-16,0,0,65,0,376,0,56,32,0,
0,4,-6,-43,0,0,100,0,936,448,48,48,0,-41,-60,0,0,100,0,72,216,80,72,0,-55,-36,0,0,100,0,936,496,48,48,0,-27,-16,0,0,65,0,376,0,56,32,0,
0,8,-96,-32,0,0,100,0,792,416,48,32,0,-96,-32,0,0,50,0,840,416,48,32,0,-105,-41,0,0,50,0,896,664,64,48,0,-138,-51,0,0,100,0,768,760,128,48,0,-22,-45,0,0,100,0,728,912,40,40,0,-30,-73,0,0,100,0,152,216,72,72,0,-4,-76,0,0,100,0,840,544,48,48,0,-27,-16,0,0,65,0,376,0,56,32,0,
0,8,-128,-34,0,0,100,0,792,416,48,32,0,-128,-34,0,0,50,0,840,416,48,32,0,-135,-40,0,0,50,180,896,664,64,48,0,-138,-51,0,0,100,0,768,760,128,48,0,-22,-45,0,0,100,0,728,912,40,40,0,-30,-73,0,0,100,0,152,216,72,72,0,-4,-76,0,0,100,0,840,544,48,48,0,-27,-16,0,0,65,0,376,0,56,32,0,
0,7,-133,-46,0,0,100,0,840,384,48,32,0,-133,-46,0,0,50,0,792,384,48,32,0,-142,-53,0,0,50,0,896,712,64,48,0,-138,-51,0,0,100,0,768,808,128,48,0,-30,-80,0,0,100,0,224,216,72,72,0,-3,-83,0,0,100,0,840,544,48,48,0,-27,-16,0,0,65,0,376,0,56,32,0,
0,7,-128,-53,1,0,100,0,888,384,48,32,0,-128,-53,1,0,50,0,936,384,48,32,0,-138,-59,0,0,50,0,896,760,64,48,0,-138,-51,0,0,100,0,768,856,128,48,0,-32,-77,0,0,100,0,296,216,72,72,0,-21,-57,2,0,100,0,840,544,48,48,0,-27,-16,0,0,65,0,376,0,56,32,0,
0,6,-119,-54,1,0,100,0,936,416,48,32,0,-119,-54,1,0,50,0,888,416,48,32,0,-127,-63,0,0,50,0,896,808,64,48,0,-37,-87,0,0,100,0,368,216,72,72,0,-37,-60,2,0,100,0,840,544,48,48,0,-27,-16,0,0,65,0,376,0,56,32,0,
0,6,-102,-51,1,0,100,0,888,416,48,32,0,-102,-51,1,0,50,0,936,416,48,32,0,-110,-60,0,0,50,0,896,856,64,48,0,-33,-85,0,0,100,0,440,216,72,72,0,-33,-84,2,0,100,90,840,544,48,48,0,-27,-16,0,0,65,0,376,0,56,32,0,
0,6,-70,-43,1,0,100,0,888,416,48,32,0,-70,-43,1,0,50,0,936,416,48,32,0,-78,-49,0,0,50,180,896,856,64,48,0,-33,-85,0,0,100,0,440,216,72,72,0,-33,-84,2,0,100,90,840,544,48,48,0,-27,-16,0,0,65,0,376,0,56,32,0,
0,6,-62,-41,1,0,100,0,936,416,48,32,0,-62,-41,1,0,50,0,888,416,48,32,0,-61,-44,1,0,50,0,672,912,56,40,0,-28,-84,0,0,100,0,512,216,72,72,0,-45,-85,0,0,100,270,840,544,48,48,0,-27,-16,0,0,65,0,376,0,56,32,0,
0,4,-45,-30,0,0,100,0,888,544,48,48,0,-30,-66,0,0,100,0,0,288,64,72,0,-13,-61,0,0,100,0,840,544,48,48,0,-27,-16,0,0,65,0,376,0,56,32,0,
0,4,-47,-29,0,0,100,0,888,544,48,48,0,-31,-66,0,0,100,0,64,288,64,72,0,-15,-60,0,0,100,0,840,544,48,48,0,-27,-16,0,0,65,0,376,0,56,32,0,
0,4,-47,-28,0,0,100,0,888,544,48,48,0,-31,-66,0,0,100,0,128,288,64,72,0,-15,-59,0,0,100,0,840,544,48,48,0,-27,-16,0,0,65,0,376,0,56,32,0,
0,4,-2,-50,0,0,100,0,576,72,48,48,0,-11,-75,0,0,100,0,192,288,72,72,0,29,-76,0,0,100,0,936,544,48,48,0,-10,-16,0,0,65,0,376,0,56,32,0,
0,4,17,-54,0,0,100,0,888,592,48,48,0,-5,-60,0,0,100,0,0,144,72,72,0,-8,-52,1,0,100,90,840,544,48,48,0,1,-16,0,0,65,0,376,0,56,32,0,
0,4,17,-56,0,0,100,0,888,496,48,48,0,-5,-60,0,0,100,0,72,144,72,72,0,-7,-52,1,0,100,90,840,544,48,48,0,1,-16,0,0,65,0,376,0,56,32,0,
0,4,18,-57,0,0,100,0,888,496,48,48,0,-5,-60,0,0,100,0,144,144,72,72,0,-6,-52,1,0,100,90,840,544,48,48,0,1,-16,0,0,65,0,376,0,56,32,0,
0,9,-105,-42,1,0,100,0,792,416,48,32,0,-105,-42,1,0,50,0,840,416,48,32,0,-113,-48,2,0,50,0,896,664,64,48,0,-130,-29,0,0,100,0,768,760,128,48,0,-147,-51,0,0,100,0,768,760,128,48,0,-57,-38,0,0,100,0,696,760,72,48,0,4,-36,0,0,100,0,792,592,48,48,0,-23,-62,0,0,100,0,216,144,72,72,0,-12,-16,0,0,65,0,376,0,56,32,0,
0,9,-137,-40,1,0,100,0,792,416,48,32,0,-137,-40,1,0,50,0,840,416,48,32,0,-145,-49,2,0,50,180,896,664,64,48,0,-130,-29,0,0,100,0,768,760,128,48,0,-147,-51,0,0,100,0,768,760,128,48,0,-57,-38,0,0,100,0,696,760,72,48,0,4,-36,0,0,100,0,792,592,48,48,0,-23,-62,0,0,100,0,216,144,72,72,0,-12,-16,0,0,65,0,376,0,56,32,0,
0,9,-143,-28,1,0,100,0,936,384,48,32,0,-143,-28,1,0,50,0,888,384,48,32,0,-151,-36,2,0,50,0,896,712,64,48,0,-130,-29,0,0,100,0,768,808,96,48,0,-147,-51,0,0,100,0,768,808,128,48,0,-40,-33,0,0,100,0,888,448,48,48,0,-45,-61,0,0,100,0,288,144,72,72,0,-57,-38,0,0,100,0,696,808,72,48,0,-34,-16,0,0,65,0,376,0,56,32,0,
0,9,-137,-20,0,0,100,0,888,384,48,32,0,-137,-20,0,0,50,0,936,384,48,32,0,-145,-29,2,0,50,0,896,760,64,48,0,-130,-29,0,0,100,0,768,856,96,48,0,-147,-51,0,0,100,0,768,856,128,48,0,-41,-33,0,0,100,0,888,448,48,48,0,-46,-61,0,0,100,0,360,144,72,72,0,-57,-38,0,0,100,0,696,856,72,48,0,-34,-16,0,0,65,0,376,0,56,32,0,
0,6,-128,-20,0,0,100,0,936,416,48,32,0,-128,-20,0,0,50,0,888,416,48,32,0,-136,-26,2,0,50,0,896,808,64,48,0,-41,-33,0,0,100,0,888,448,48,48,0,-46,-61,0,0,100,0,360,144,72,72,0,-34,-16,0,0,65,0,376,0,56,32,0,
0,6,-41,-33,0,0,100,0,888,448,48,48,0,-46,-61,0,0,100,0,360,144,72,72,0,-104,-22,0,0,100,0,888,416,48,32,0,-104,-22,0,0,50,0,936,416,48,32,0,-111,-29,2,0,50,0,896,856,64,48,0,-34,-16,0,0,65,0,376,0,56,32,0,
0,6,-41,-33,0,0,100,0,888,448,48,48,0,-46,-61,0,0,100,0,432,144,72,72,0,-80,-30,0,0,100,0,888,416,48,32,0,-80,-30,0,0,50,0,936,416,48,32,0,-89,-39,2,0,50,180,896,856,64,48,0,-34,-16,0,0,65,0,376,0,56,32,0,
0,6,-41,-33,0,0,100,0,888,448,48,48,0,-46,-61,0,0,100,0,432,144,72,72,0,-65,-34,0,0,100,0,936,416,48,32,0,-65,-34,0,0,50,0,888,416,48,32,0,-75,-36,0,0,50,0,672,912,56,40,0,-34,-16,0,0,65,0,376,0,56,32,0,
0,4,-41,-33,0,0,100,0,888,448,48,48,0,-46,-61,0,0,100,0,432,144,72,72,0,-32,-57,0,0,100,0,888,496,48,48,0,-34,-16,0,0,65,0,376,0,56,32,0,
