0,3,-56,-75,0,0,100,0,0,0,112,88,0,-39,-84,0,0,80,0,352,312,72,80,0,-27,-12,0,0,100,0,352,176,56,24,0,
0,3,-64,-75,0,0,100,0,112,0,120,88,0,-39,-83,0,0,70,0,352,312,72,80,0,-27,-12,0,0,100,0,352,176,56,24,0,
0,3,-64,-75,0,0,100,0,232,0,120,88,0,-39,-82,0,0,60,0,352,312,72,80,0,-27,-12,0,0,100,0,352,176,56,24,0,
0,3,-64,-75,0,0,100,0,352,0,120,88,0,-39,-83,0,0,70,0,352,312,72,80,0,-27,-12,0,0,100,0,352,176,56,24,0,
0,2,-53,-72,0,0,100,0,356,0,93,78,0,-32,-17,0,0,100,0,20,433,71,35,0,
0,4,-45,-104,0,0,100,0,472,200,96,112,0,-73,-81,0,0,60,0,808,288,72,88,0,-29,-84,0,0,80,0,352,312,72,80,0,-27,-12,0,0,100,0,352,176,56,24,0,
0,4,-72,-74,0,0,100,0,568,200,120,88,0,-51,-88,0,0,80,0,880,288,72,88,0,-13,-79,0,0,80,0,424,312,48,80,0,-29,-12,0,0,100,0,352,176,56,24,0,
0,4,-72,-74,0,0,100,0,688,200,120,88,0,-56,-88,0,0,80,0,880,288,72,88,0,-19,-79,0,0,80,0,424,312,48,80,0,-32,-12,0,0,100,0,352,176,56,24,0,
0,6,-148,-75,0,0,100,0,0,309,104,99,0,-119,-44,0,0,100,0,472,312,96,40,0,-71,-73,0,0,100,0,808,200,120,88,0,-66,-87,0,0,80,0,880,288,72,88,0,-29,-78,0,0,80,0,424,312,48,80,0,-40,-12,0,0,100,0,352,176,56,24,0,
0,6,-111,-118,0,0,100,0,120,260,116,188,0,-122,-44,0,0,100,0,472,312,96,40,0,-71,-73,0,0,100,0,568,288,120,88,0,-68,-87,0,0,80,0,880,288,72,88,0,-30,-78,0,0,80,0,424,312,48,80,0,-40,-12,0,0,100,0,352,176,56,24,0,
0,6,-103,-125,0,0,100,0,232,256,120,200,0,-121,-44,0,0,100,0,472,312,96,40,0,-71,-73,0,0,100,0,688,288,120,88,0,-67,-87,0,0,80,0,880,288,72,88,0,-29,-78,0,0,80,0,424,312,48,80,0,-40,-12,0,0,100,0,352,176,56,24,0,
0,5,-121,-44,0,0,100,0,472,312,96,40,0,-71,-73,0,0,100,0,688,288,120,88,0,-66,-87,0,0,80,0,880,288,72,88,0,-29,-78,0,0,80,0,424,312,48,80,0,-40,-12,0,0,100,0,352,176,56,24,0,
0,4,-42,-95,0,0,100,0,0,88,112,112,0,-83,-80,0,0,20,0,808,288,72,88,0,-39,-83,0,0,80,0,352,312,72,80,0,-27,-12,0,0,100,0,352,176,56,24,0,
0,4,-50,-95,0,0,100,0,112,88,120,112,0,-83,-80,0,0,40,0,808,288,72,88,0,-38,-83,0,0,80,0,352,312,72,80,0,-27,-12,0,0,100,0,352,176,56,24,0,
0,5,11,-119,0,1,100,0,0,472,88,88,0,-50,-95,0,0,100,0,232,88,120,112,0,-82,-80,0,0,60,0,808,288,72,88,0,-38,-83,0,0,80,0,352,312,72,80,0,-27,-12,0,0,100,0,352,176,56,24,0,
0,5,11,-119,0,1,40,0,0,472,88,88,0,-50,-95,0,0,100,0,232,88,120,112,0,-82,-80,0,0,60,0,808,288,72,88,0,-38,-83,0,0,80,0,352,312,72,80,0,-27,-12,0,0,100,0,352,176,56,24,0,
0,5,11,-119,0,1,20,0,0,472,88,88,0,-50,-95,0,0,100,0,232,88,120,112,0,-82,-80,0,0,60,0,808,288,72,88,0,-38,-83,0,0,80,0,352,312,72,80,0,-27,-12,0,0,100,0,352,176,56,24,0,
0,4,-50,-95,0,0,100,0,232,88,120,112,0,-82,-80,0,0,60,0,808,288,72,88,0,-38,-83,0,0,80,0,352,312,72,80,0,-27,-12,0,0,100,0,352,176,56,24,0,
0,4,-54,-74,0,0,100,0,472,0,120,88,0,-79,-80,0,0,60,0,808,288,72,88,0,-36,-83,0,0,80,0,352,312,72,80,0,-28,-12,0,0,100,0,352,176,56,24,0,
0,5,-60,-75,0,1,100,0,352,392,120,80,0,-66,-74,0,0,100,0,592,0,120,88,0,-73,-79,0,0,60,0,808,288,72,88,0,-30,-83,0,0,80,0,352,312,72,80,0,-28,-12,0,0,100,0,352,176,56,24,0,
0,5,-60,-53,0,1,100,0,472,392,96,56,0,-66,-74,0,0,100,0,712,0,120,88,0,-72,-79,0,0,60,0,808,288,72,88,0,-28,-83,0,0,80,0,352,312,72,80,0,-28,-12,0,0,100,0,352,176,56,24,0,
0,5,-70,-38,0,1,100,0,472,352,96,40,0,-66,-74,0,0,100,0,832,0,120,88,0,-73,-79,0,0,60,0,808,288,72,88,0,-30,-83,0,0,80,0,352,312,72,80,0,-28,-12,0,0,100,0,352,176,56,24,0,
0,4,-66,-74,0,0,100,0,832,0,120,88,0,-73,-79,0,0,60,0,808,288,72,88,0,-30,-83,0,0,80,0,352,312,72,80,0,-28,-12,0,0,100,0,352,176,56,24,0,
0,4,-74,-74,0,0,100,0,352,88,120,88,0,-71,-80,0,0,60,0,808,288,72,88,0,-28,-84,0,0,80,0,352,312,72,80,0,-26,-12,0,0,100,0,352,176,56,24,0,
0,4,-40,-103,0,0,100,0,472,88,96,112,0,-66,-80,0,0,60,0,808,288,72,88,0,-23,-82,0,0,80,0,352,312,72,80,0,-23,-12,0,0,100,0,352,176,56,24,0,
0,4,-40,-103,0,0,100,0,568,88,96,112,0,-65,-79,0,0,60,0,808,288,72,88,0,-22,-83,0,0,80,0,352,312,72,80,0,-23,-12,0,0,100,0,352,176,56,24,0,
0,8,-22,-86,0,1,20,0,688,544,80,112,0,-40,-103,0,0,100,0,664,88,96,112,0,-62,-95,0,1,10,0,536,544,64,56,0,-65,-80,0,0,60,0,808,288,72,88,0,-22,-83,0,0,80,0,352,312,72,80,0,-57,-109,0,1,10,0,408,472,128,128,0,-23,-12,0,0,100,0,352,176,56,24,0,-63,-18,0,1,5,0,696,416,96,40,0,
0,15,-63,-99,0,1,10,0,600,544,88,112,0,-84,-103,0,1,5,0,792,416,120,120,0,-22,-86,0,1,30,0,688,544,80,112,0,-57,-69,0,0,10,0,768,536,80,80,0,-40,-103,0,0,100,0,760,88,96,112,0,-67,-102,0,1,10,0,592,456,88,88,0,-62,-95,0,1,20,0,536,544,64,56,0,-71,-97,0,0,10,0,680,456,72,88,0,-65,-80,0,0,60,0,808,288,72,88,0,-22,-83,0,0,80,0,352,312,72,80,0,-2,-93,0,1,10,0,536,456,56,88,0,-57,-109,0,1,30,0,408,472,128,128,0,-93,-21,0,0,20,0,696,376,128,40,0,-23,-12,0,0,30,0,352,176,56,24,0,-63,-18,0,1,10,0,696,416,96,40,0,
0,15,-63,-99,0,1,20,0,600,544,88,112,0,-84,-103,0,1,10,0,792,416,120,120,0,-22,-86,0,1,50,0,688,544,80,112,0,-57,-69,0,0,20,0,768,536,80,80,0,-40,-103,0,0,100,0,856,88,96,112,0,-67,-102,0,1,20,0,592,456,88,88,0,-62,-95,0,1,30,0,536,544,64,56,0,-71,-97,0,0,20,0,680,456,72,88,0,-65,-80,0,0,60,0,808,288,72,88,0,-22,-83,0,0,80,0,352,312,72,80,0,-2,-93,0,1,30,0,536,456,56,88,0,-57,-109,0,1,50,0,408,472,128,128,0,-93,-21,0,0,30,0,824,376,128,40,0,-23,-12,0,0,10,0,352,176,56,24,0,-63,-18,0,1,20,0,696,416,96,40,0,
0,15,-63,-99,0,1,30,0,600,544,88,112,0,-84,-103,0,1,20,0,792,416,120,120,0,-22,-86,0,1,70,0,688,544,80,112,0,-57,-69,0,0,30,0,768,536,80,80,0,-40,-103,0,0,100,0,376,200,96,112,0,-67,-102,0,1,30,0,592,456,88,88,0,-62,-95,0,1,50,0,536,544,64,56,0,-71,-97,0,0,30,0,680,456,72,88,0,-65,-80,0,0,60,0,808,288,72,88,0,-22,-83,0,0,80,0,352,312,72,80,0,-2,-93,0,1,40,0,536,456,56,88,0,-57,-109,0,1,70,0,408,472,128,128,0,-93,-21,0,0,40,0,568,416,128,40,0,-23,-12,0,0,1,0,352,176,56,24,0,-63,-18,0,1,30,0,696,416,96,40,0,
0,14,-63,-99,0,1,40,0,600,544,88,112,0,-84,-103,0,1,30,0,792,416,120,120,0,-22,-86,0,1,80,0,688,544,80,112,0,-57,-69,0,0,40,0,768,536,80,80,0,-40,-103,0,0,100,0,664,88,96,112,0,-67,-102,0,1,40,0,592,456,88,88,0,-62,-95,0,1,70,0,536,544,64,56,0,-71,-97,0,0,40,0,680,456,72,88,0,-65,-80,0,0,60,0,808,288,72,88,0,-22,-83,0,0,80,0,352,312,72,80,0,-2,-93,0,1,50,0,536,456,56,88,0,-57,-109,0,1,50,0,408,472,128,128,0,-93,-21,0,0,60,0,568,376,128,40,0,-63,-18,0,1,40,0,696,416,96,40,0,
0,14,-63,-99,0,1,50,0,600,544,88,112,0,-84,-103,0,1,40,0,792,416,120,120,0,-22,-86,0,1,70,0,688,544,80,112,0,-57,-69,0,0,40,0,768,536,80,80,0,-40,-103,0,0,100,0,760,88,96,112,0,-67,-102,0,1,30,0,592,456,88,88,0,-62,-95,0,1,60,0,536,544,64,56,0,-71,-97,0,0,40,0,680,456,72,88,0,-65,-80,0,0,70,0,808,288,72,88,0,-22,-83,0,0,70,0,352,312,72,80,0,-2,-93,0,1,40,0,536,456,56,88,0,-57,-109,0,1,50,0,408,472,128,128,0,-93,-21,0,0,60,0,696,376,128,40,0,-63,-18,0,1,40,0,696,416,96,40,0,
0,14,-63,-99,0,1,60,0,600,544,88,112,0,-84,-103,0,1,50,0,792,416,120,120,0,-22,-86,0,1,60,0,688,544,80,112,0,-57,-69,0,0,50,0,768,536,80,80,0,-40,-103,0,0,100,0,856,88,96,112,0,-67,-102,0,1,20,0,592,456,88,88,0,-62,-95,0,1,50,0,536,544,64,56,0,-71,-97,0,0,50,0,680,456,72,88,0,-65,-80,0,0,80,0,808,288,72,88,0,-22,-83,0,0,60,0,352,312,72,80,0,-2,-93,0,1,30,0,536,456,56,88,0,-57,-109,0,1,40,0,408,472,128,128,0,-93,-21,0,0,60,0,824,376,128,40,0,-63,-18,0,1,30,0,696,416,96,40,0,
0,14,-63,-99,0,1,50,0,600,544,88,112,0,-84,-103,0,1,60,0,792,416,120,120,0,-22,-86,0,1,50,0,688,544,80,112,0,-57,-69,0,0,50,0,768,536,80,80,0,-40,-103,0,0,100,0,376,200,96,112,0,-67,-102,0,1,10,0,592,456,88,88,0,-62,-95,0,1,40,0,536,544,64,56,0,-71,-97,0,0,50,0,680,456,72,88,0,-65,-80,0,0,70,0,808,288,72,88,0,-22,-83,0,0,70,0,352,312,72,80,0,-2,-93,0,1,20,0,536,456,56,88,0,-57,-109,0,1,40,0,408,472,128,128,0,-93,-21,0,0,60,0,568,416,128,40,0,-63,-18,0,1,30,0,696,416,96,40,0,
0,14,-63,-99,0,1,40,0,600,544,88,112,0,-84,-103,0,1,70,0,792,416,120,120,0,-22,-86,0,1,60,0,688,544,80,112,0,-57,-69,0,0,60,0,768,536,80,80,0,-40,-103,0,0,100,0,664,88,96,112,0,-67,-102,0,1,5,0,592,456,88,88,0,-62,-95,0,1,50,0,536,544,64,56,0,-71,-97,0,0,60,0,680,456,72,88,0,-65,-80,0,0,60,0,808,288,72,88,0,-22,-83,0,0,80,0,352,312,72,80,0,-2,-93,0,1,30,0,536,456,56,88,0,-57,-109,0,1,30,0,408,472,128,128,0,-93,-21,0,0,60,0,568,376,128,40,0,-63,-18,0,1,20,0,696,416,96,40,0,
0,14,-63,-99,0,1,30,0,600,544,88,112,0,-84,-103,0,1,60,0,792,416,120,120,0,-22,-86,0,1,70,0,688,544,80,112,0,-57,-69,0,0,60,0,768,536,80,80,0,-40,-103,0,0,100,0,760,88,96,112,0,-67,-102,0,1,10,0,592,456,88,88,0,-62,-95,0,1,60,0,536,544,64,56,0,-71,-97,0,0,60,0,680,456,72,88,0,-65,-80,0,0,70,0,808,288,72,88,0,-22,-83,0,0,70,0,352,312,72,80,0,-2,-93,0,1,40,0,536,456,56,88,0,-57,-109,0,1,30,0,408,472,128,128,0,-93,-21,0,0,60,0,696,376,128,40,0,-63,-18,0,1,20,0,696,416,96,40,0,
0,14,-63,-99,0,1,20,0,600,544,88,112,0,-84,-103,0,1,50,0,792,416,120,120,0,-22,-86,0,1,80,0,688,544,80,112,0,-57,-69,0,0,50,0,768,536,80,80,0,-40,-103,0,0,100,0,856,88,96,112,0,-67,-102,0,1,20,0,592,456,88,88,0,-62,-95,0,1,70,0,536,544,64,56,0,-71,-97,0,0,50,0,680,456,72,88,0,-65,-80,0,0,80,0,808,288,72,88,0,-22,-83,0,0,60,0,352,312,72,80,0,-2,-93,0,1,50,0,536,456,56,88,0,-57,-109,0,1,40,0,408,472,128,128,0,-93,-21,0,0,60,0,824,376,128,40,0,-63,-18,0,1,30,0,696,416,96,40,0,
0,14,-63,-99,0,1,30,0,600,544,88,112,0,-84,-103,0,1,40,0,792,416,120,120,0,-22,-86,0,1,90,0,688,544,80,112,0,-57,-69,0,0,50,0,768,536,80,80,0,-40,-103,0,0,100,0,376,200,96,112,0,-67,-102,0,1,30,0,592,456,88,88,0,-62,-95,0,1,80,0,536,544,64,56,0,-71,-97,0,0,50,0,680,456,72,88,0,-65,-80,0,0,70,0,808,288,72,88,0,-22,-83,0,0,70,0,352,312,72,80,0,-2,-93,0,1,50,0,536,456,56,88,0,-57,-109,0,1,40,0,408,472,128,128,0,-93,-21,0,0,60,0,568,416,128,40,0,-63,-18,0,1,30,0,696,416,96,40,0,
0,2,-95,-19,0,0,100,0,568,416,128,40,0,-95,-20,0,0,100,0,824,376,128,40,0,
