0,3,-51,-79,0,0,100,0,0,0,120,96,0,-43,-95,0,1,100,0,0,768,112,96,0,-27,-12,0,0,65,0,0,464,56,24,0,
0,3,-51,-79,0,0,100,0,120,0,120,96,0,-43,-95,0,1,100,0,112,768,112,96,0,-27,-12,0,0,65,0,0,464,56,24,0,
0,3,-51,-79,0,0,100,0,240,0,120,96,0,-43,-95,0,1,100,0,224,768,112,96,0,-27,-12,0,0,65,0,0,464,56,24,0,
0,3,-51,-79,0,0,100,0,360,0,120,96,0,-43,-95,0,1,100,0,336,768,112,96,0,-27,-12,0,0,65,0,0,464,56,24,0,
0,5,-6,-47,0,1,100,0,0,720,88,48,0,-10,-56,0,1,100,0,320,864,112,64,0,-15,-42,0,0,100,0,56,464,72,40,0,-70,-79,0,0,100,0,480,0,120,96,0,-27,-12,0,0,65,0,0,464,56,24,0,
0,4,-11,-95,0,1,100,0,160,864,80,64,0,-53,-96,0,0,100,0,600,0,96,112,0,2,-93,0,1,100,0,448,736,48,56,0,-30,-12,0,0,65,0,0,464,56,24,0,
0,4,-8,-97,0,1,100,0,240,864,80,64,0,-53,-96,0,0,100,0,696,0,96,112,0,2,-89,0,1,100,0,496,736,48,56,0,-31,-12,0,0,65,0,0,464,56,24,0,
0,7,-126,-88,1,1,100,0,448,792,96,96,0,-125,-130,0,1,100,0,768,440,200,152,0,-121,-105,0,1,100,0,608,472,160,128,0,-68,-72,0,0,100,0,0,96,120,88,0,-91,-25,0,0,100,0,720,112,80,40,0,-121,-105,0,0,100,0,608,472,160,128,0,-33,-12,0,0,65,0,0,464,56,24,0,
0,7,-127,-88,1,1,70,0,448,792,96,96,0,-133,-116,0,1,100,0,672,600,184,136,0,-120,-96,0,1,100,0,456,616,112,120,0,-68,-72,0,0,100,0,120,96,120,88,0,-91,-24,0,0,100,0,720,112,80,40,0,-120,-96,0,0,100,0,456,616,112,120,0,-34,-12,0,0,65,0,0,464,56,24,0,
0,7,-127,-88,1,1,40,0,448,792,96,96,0,-136,-117,0,1,100,0,856,600,168,136,0,-120,-73,0,1,100,0,568,616,104,96,0,-68,-72,0,0,100,0,240,96,120,88,0,-91,-25,0,0,100,0,720,112,80,40,0,-120,-73,0,0,100,0,568,616,104,96,0,-34,-12,0,0,65,0,0,464,56,24,0,
0,4,-68,-72,0,0,100,0,240,96,120,88,0,-91,-25,0,0,100,0,720,112,80,40,0,-88,-39,0,1,100,0,384,720,64,48,0,-34,-12,0,0,65,0,0,464,56,24,0,
0,5,-37,-71,0,1,100,0,0,864,80,64,0,-68,-71,0,0,100,0,360,96,120,88,0,-47,-65,0,0,100,0,720,152,80,32,0,-28,-62,0,1,100,0,88,720,64,48,0,-31,-12,0,0,65,0,0,464,56,24,0,
0,5,-37,-70,0,1,100,0,80,864,80,64,0,-68,-71,0,0,100,0,480,96,120,88,0,-49,-64,0,0,100,0,720,152,80,32,0,-29,-62,0,1,100,0,152,720,64,48,0,-32,-12,0,0,65,0,0,464,56,24,0,
0,7,-82,-65,0,1,100,0,448,792,96,96,0,-136,-124,0,1,100,0,800,0,200,152,0,-118,-110,0,1,100,0,192,376,168,136,0,-29,-38,0,0,100,0,720,240,80,56,0,-70,-71,0,0,100,0,0,184,120,88,0,-118,-110,0,0,100,0,192,376,168,136,0,-35,-12,0,0,65,0,0,464,56,24,0,
0,9,-125,-90,1,1,100,0,448,792,96,96,0,-108,-110,3,1,100,0,448,792,96,96,0,-82,-65,0,1,70,0,448,792,96,96,0,-143,-113,0,1,100,0,800,152,200,144,0,-119,-108,0,1,100,0,360,376,168,136,0,-30,-36,0,0,100,0,720,240,80,56,0,-70,-71,0,0,100,0,120,184,120,88,0,-119,-108,0,0,100,0,360,376,168,136,0,-36,-12,0,0,65,0,0,464,56,24,0,
0,9,-126,-90,1,1,40,0,448,792,96,96,0,-108,-110,3,1,40,0,448,792,96,96,0,-82,-65,0,1,40,0,448,792,96,96,0,-136,-104,0,1,100,0,800,304,192,136,0,-103,-68,0,1,100,0,528,376,144,96,0,-30,-36,0,0,100,0,720,240,80,56,0,-70,-71,0,0,100,0,240,184,120,88,0,-103,-68,0,0,100,0,528,376,144,96,0,-36,-12,0,0,65,0,0,464,56,24,0,
0,4,-30,-36,0,0,100,0,720,240,80,56,0,-21,-30,0,1,100,0,328,720,56,48,0,-70,-71,0,0,100,0,240,184,120,88,0,-36,-12,0,0,65,0,0,464,56,24,0,
0,3,-52,-80,0,0,100,0,0,272,120,96,0,-41,-97,0,1,60,0,112,768,112,96,0,-27,-12,0,0,65,0,0,464,56,24,0,
0,4,-1,-55,0,0,100,270,600,304,72,72,0,7,-85,0,1,100,270,672,304,104,80,0,-58,-80,0,0,100,0,480,184,120,96,0,-27,-12,0,0,65,0,0,464,56,24,0,
0,4,-28,-57,0,0,100,180,600,304,72,72,0,-29,-49,0,1,100,180,672,304,104,80,0,-58,-80,0,0,100,0,600,112,120,96,0,-27,-12,0,0,65,0,0,464,56,24,0,
0,4,-26,-85,0,0,100,90,600,304,72,72,0,-42,-87,0,1,100,90,672,304,104,80,0,-58,-80,0,0,100,0,600,208,120,96,0,-27,-12,0,0,65,0,0,464,56,24,0,
0,4,2,-82,0,0,100,0,600,304,72,72,0,-28,-98,0,1,100,0,672,304,104,80,0,-58,-80,0,0,100,0,360,184,120,96,0,-27,-12,0,0,65,0,0,464,56,24,0,
0,4,-47,-80,0,0,100,0,120,272,96,96,0,-32,-81,0,0,100,0,720,184,80,56,0,-9,-76,0,1,100,0,216,720,56,48,0,-27,-12,0,0,65,0,0,464,56,24,0,
0,4,-47,-80,0,0,100,0,216,272,96,96,0,-31,-82,0,0,100,0,720,184,80,56,0,-10,-78,0,1,100,0,272,720,56,48,0,-28,-12,0,0,65,0,0,464,56,24,0,
0,5,-64,-95,0,0,100,0,0,512,152,104,0,-64,-95,0,1,100,0,0,616,152,104,0,7,-43,0,0,100,0,56,464,72,40,0,-48,-80,0,0,100,0,312,280,96,96,0,-26,-12,0,0,65,0,0,464,56,24,0,
0,5,-64,-95,0,0,100,0,152,512,152,104,0,-64,-95,0,1,100,0,152,616,152,104,0,6,-43,0,0,100,0,56,464,72,40,0,-48,-80,0,0,100,0,408,280,96,96,0,-26,-12,0,0,65,0,0,464,56,24,0,
0,5,-64,-95,0,0,100,0,304,512,152,104,0,-64,-95,0,1,100,0,304,616,152,104,0,6,-43,0,0,100,0,56,464,72,40,0,-48,-80,0,0,100,0,504,280,96,96,0,-26,-12,0,0,65,0,0,464,56,24,0,
0,4,-64,-95,0,0,100,0,456,512,152,104,0,6,-43,0,0,100,0,56,464,72,40,0,-48,-80,0,0,100,0,0,368,96,96,0,-26,-12,0,0,65,0,0,464,56,24,0,
0,3,6,-43,0,0,100,0,56,464,72,40,0,-48,-80,0,0,100,0,96,368,96,96,0,-26,-12,0,0,65,0,0,464,56,24,0,
0,3,6,-43,0,0,100,0,56,464,72,40,0,-48,-80,0,0,100,0,408,280,96,96,0,-26,-12,0,0,65,0,0,464,56,24,0,
0,3,6,-43,0,0,100,0,56,464,72,40,0,-48,-80,0,0,100,0,504,280,96,96,0,-26,-12,0,0,65,0,0,464,56,24,0,
0,3,6,-43,0,0,100,0,56,464,72,40,0,-48,-80,0,0,100,0,0,368,96,96,0,-26,-12,0,0,65,0,0,464,56,24,0,
0,3,6,-43,0,0,100,0,56,464,72,40,0,-48,-80,0,0,100,0,96,368,96,96,0,-26,-12,0,0,65,0,0,464,56,24,0,
0,8,-126,-90,1,1,20,0,448,792,96,96,0,-108,-110,3,1,20,0,448,792,96,96,0,-136,-104,0,1,50,0,800,304,192,136,0,-103,-68,0,1,50,0,528,376,144,96,0,-30,-36,0,0,100,0,720,240,80,56,0,-70,-71,0,0,100,0,240,184,120,88,0,-103,-68,0,0,50,0,528,376,144,96,0,-36,-12,0,0,65,0,0,464,56,24,0,
0,4,-30,-36,0,0,100,0,720,240,80,56,0,-20,-29,0,1,100,0,328,720,56,48,0,-70,-71,0,0,100,0,240,184,120,88,0,-36,-12,0,0,65,0,0,464,56,24,0,
