3,0,0,3,
4,0,0,7,
5,0,0,7,
6,0,0,7,
7,0,0,6,
8,0,0,6,
9,0,0,6,
4,0,0,6,
5,0,0,5,
6,0,0,5,
7,0,0,5,
8,0,0,4,
9,0,0,4,
3,0,0,3,
11,0,0,5,
12,0,0,6,
13,0,0,3,
14,0,0,5,
15,0,0,6,
16,0,0,3,
11,0,0,5,
12,0,0,6,
13,0,0,3,
14,0,0,5,
15,0,0,6,
16,0,0,3,
11,0,0,5,
12,0,0,6,
16,0,0,3,
3,0,0,15,
