0,2,-48,-56,0,0,100,0,0,16,96,64,0,-32,-24,0,0,65,0,400,48,64,32,0,
0,2,-48,-56,0,0,100,0,96,16,96,64,0,-32,-24,0,0,65,0,400,48,64,32,0,
0,2,-48,-56,0,0,100,0,192,16,96,64,0,-32,-24,0,0,65,0,400,48,64,32,0,
0,2,-48,-56,0,0,100,0,288,16,96,64,0,-32,-24,0,0,65,0,400,48,64,32,0,
0,2,-32,-56,0,0,100,0,0,336,80,64,0,-32,-24,0,0,65,0,400,48,64,32,0,
0,2,-32,-56,0,0,100,0,96,336,80,64,0,-32,-24,0,0,65,0,400,48,64,32,0,
0,2,-32,-56,0,0,100,0,192,336,80,64,0,-32,-24,0,0,65,0,400,48,64,32,0,
0,4,-64,-72,0,0,100,0,224,464,64,80,0,-32,-56,0,0,100,0,288,336,80,64,0,-48,-72,0,1,100,0,0,464,80,80,0,-32,-24,0,0,65,0,400,48,64,32,0,
0,4,-64,-72,0,0,100,0,288,464,80,80,0,-32,-56,0,0,100,0,384,336,80,64,0,-64,-72,0,1,100,0,80,464,80,80,0,-32,-24,0,0,65,0,400,48,64,32,0,
0,6,-64,-56,0,0,100,0,0,544,64,80,0,-48,-56,0,1,100,0,464,464,80,80,0,-64,-72,0,0,100,0,368,464,80,80,0,-32,-56,0,0,100,0,480,336,80,64,0,-64,-72,0,1,100,0,160,464,64,80,0,-32,-24,0,0,65,0,400,48,64,32,0,
0,4,-64,-56,0,0,100,0,64,544,80,80,0,-64,-56,0,1,100,0,544,464,80,80,0,-32,-56,0,0,100,0,560,336,80,64,0,-30,-24,0,0,65,0,400,48,64,32,0,
0,4,-64,-56,0,0,100,0,144,544,80,80,0,-64,-56,0,1,100,0,624,464,64,80,0,-32,-56,0,0,100,0,656,336,80,64,0,-22,-24,0,0,65,0,400,48,64,32,0,
0,2,-16,-56,0,0,100,0,0,400,64,64,0,-22,-24,0,0,65,0,400,48,64,32,0,
0,4,-64,-72,0,0,100,0,512,544,64,96,0,-48,-56,0,0,100,0,64,400,96,64,0,-64,-72,0,1,100,0,240,544,112,112,0,-32,-24,0,0,65,0,400,48,64,32,0,
0,4,-64,-72,0,0,100,0,592,544,80,96,0,-48,-56,0,0,100,0,160,400,96,64,0,-64,-72,0,1,100,0,352,544,80,112,0,-32,-24,0,0,65,0,400,48,64,32,0,
0,4,-64,-88,0,0,100,0,672,528,80,128,0,-48,-56,0,0,100,0,256,400,96,64,0,-80,-72,0,1,100,0,432,544,80,112,0,-32,-24,0,0,65,0,400,48,64,32,0,
0,2,-48,-56,0,0,100,0,352,400,96,64,0,-32,-24,0,0,65,0,400,48,64,32,0,
0,2,-48,-56,0,0,100,0,0,96,96,64,0,-32,-24,0,0,65,0,400,48,64,32,0,
0,2,-48,-56,0,0,100,0,96,96,96,64,0,-32,-24,0,0,65,0,400,48,64,32,0,
0,2,-48,-56,0,0,100,0,192,96,96,64,0,-32,-24,0,0,65,0,400,48,64,32,0,
0,2,-48,-56,0,0,100,0,288,96,96,64,0,-32,-24,0,0,65,0,400,48,64,32,0,
0,2,-48,-56,0,0,100,0,384,96,96,64,0,-32,-24,0,0,65,0,400,48,64,32,0,
0,2,-48,-56,0,0,100,0,480,96,96,64,0,-32,-24,0,0,65,0,400,48,64,32,0,
0,2,-32,-88,0,0,100,0,576,64,64,96,0,-32,-24,0,0,65,0,400,48,64,32,0,
0,2,-32,-88,0,0,100,0,640,64,64,96,0,-32,-24,0,0,65,0,400,48,64,32,0,
0,2,-32,-88,0,0,100,0,704,64,64,96,0,-32,-24,0,0,65,0,400,48,64,32,0,
0,2,-32,-72,0,0,100,0,16,160,64,96,0,-32,-24,0,0,65,0,400,48,64,32,0,
0,2,-32,-72,0,0,100,0,96,160,64,96,0,-32,-24,0,0,65,0,400,48,64,32,0,
0,2,-32,-56,0,0,100,0,176,176,64,64,0,-32,-24,0,0,65,0,400,48,64,32,0,
0,2,-48,-56,0,0,100,0,240,176,96,64,0,-32,-24,0,0,65,0,400,48,64,32,0,
0,2,-48,-56,0,0,100,0,336,176,96,64,0,-32,-24,0,0,65,0,400,48,64,32,0,
0,2,-48,-56,0,0,100,0,16,272,96,64,0,-32,-24,0,0,65,0,400,48,64,32,0,
0,2,-48,-56,0,0,100,0,112,272,96,64,0,-32,-24,0,0,65,0,400,48,64,32,0,
0,2,-48,-56,0,0,100,0,208,272,96,64,0,-32,-24,0,0,65,0,400,48,64,32,0,
0,2,-48,-56,0,0,100,0,304,272,96,64,0,-32,-24,0,0,65,0,400,48,64,32,0,
