0,2,-56,-88,0,0,100,0,0,0,96,96,0,-48,-16,0,0,100,0,576,0,96,32,0,
0,2,-56,-88,0,0,100,0,96,0,96,96,0,-48,-16,0,0,100,0,576,0,96,32,0,
0,2,-56,-88,0,0,100,0,192,0,96,96,0,-48,-16,0,0,100,0,576,0,96,32,0,
0,2,-56,-88,0,0,100,0,288,0,96,96,0,-48,-16,0,0,100,0,576,0,96,32,0,
0,2,-56,-88,0,0,100,0,384,0,96,96,0,-48,-16,0,0,100,0,576,0,96,32,0,
0,5,47,-22,0,1,100,0,288,480,16,16,0,35,-21,0,1,100,0,256,480,16,16,0,-24,-88,0,0,100,0,0,96,96,96,0,14,-54,0,0,100,0,0,480,64,64,0,-48,-16,0,0,100,0,576,0,96,32,0,
0,5,48,-22,0,1,100,0,288,480,16,16,0,36,-19,0,1,100,0,256,480,16,16,0,-24,-88,0,0,100,0,96,96,96,96,0,14,-52,0,0,100,0,64,480,64,64,0,-48,-16,0,0,100,0,576,0,96,32,0,
0,10,19,-67,0,1,100,0,288,480,16,16,0,19,-41,0,1,100,0,288,480,16,16,0,35,-45,0,1,100,0,272,480,16,16,0,25,-42,0,1,100,0,272,496,16,16,0,-56,-88,0,0,100,0,192,96,96,96,0,44,-41,0,1,100,0,256,496,16,16,0,41,-52,0,1,100,0,304,496,16,16,0,29,-39,0,1,100,0,304,480,16,16,0,-7,-79,0,0,100,0,128,480,64,64,0,-50,-16,0,0,100,0,576,0,96,32,0,
0,9,-116,-74,0,1,100,0,480,0,96,96,0,31,-37,0,1,100,0,272,496,16,16,0,45,-40,0,1,100,0,256,496,16,16,0,-90,-52,0,1,50,0,192,480,64,64,0,42,-52,0,1,50,0,304,496,16,16,0,-68,-48,0,1,100,0,256,480,16,16,0,-63,-42,0,1,100,0,272,480,16,16,0,-88,-88,0,0,100,0,288,96,128,96,0,-51,-16,0,0,100,0,576,0,96,32,0,
0,16,0,-24,0,1,100,0,304,496,16,16,0,13,-33,0,1,100,0,288,496,16,16,0,43,-44,0,1,100,0,272,496,16,16,0,27,-45,0,1,100,0,256,496,16,16,0,29,-31,0,1,100,0,256,496,16,16,0,37,-43,0,1,100,0,304,480,16,16,0,35,-38,0,1,100,0,304,480,16,16,0,20,-39,0,1,100,0,304,480,16,16,0,49,-51,0,1,100,0,256,480,16,16,0,30,-45,0,1,100,0,256,480,16,16,0,31,-53,0,1,100,0,256,480,16,16,0,36,-49,0,1,100,0,272,480,16,16,0,47,-56,0,1,100,0,288,480,16,16,0,31,-71,0,0,100,0,256,512,32,32,0,-56,-88,0,0,100,0,416,96,128,96,0,-47,-16,0,0,100,0,576,0,96,32,0,
0,15,-1,-23,0,1,80,0,304,496,16,16,0,12,-32,0,1,70,0,288,496,16,16,0,41,-42,0,1,60,0,272,496,16,16,0,24,-42,0,1,80,0,256,496,16,16,0,47,-56,0,1,100,0,256,480,16,16,0,28,-30,0,1,60,0,256,496,16,16,0,19,-38,0,1,30,0,304,480,16,16,0,48,-50,0,1,50,0,256,480,16,16,0,29,-44,0,1,50,0,256,480,16,16,0,30,-52,0,1,40,0,256,480,16,16,0,35,-48,0,1,80,0,272,480,16,16,0,46,-55,0,1,60,0,288,480,16,16,0,31,-70,0,0,100,0,288,512,32,32,0,-24,-88,0,0,100,0,544,96,128,96,0,-45,-16,0,0,100,0,576,0,96,32,0,
0,9,-2,-22,0,1,30,0,304,496,16,16,0,11,-31,0,1,30,0,288,496,16,16,0,40,-41,0,1,50,0,272,496,16,16,0,23,-41,0,1,40,0,256,496,16,16,0,27,-29,0,1,30,0,256,496,16,16,0,37,-32,0,1,100,0,304,480,16,16,0,36,-43,0,0,100,0,352,512,32,32,0,-24,-88,0,0,100,0,0,192,96,96,0,-45,-16,0,0,100,0,576,0,96,32,0,
0,8,37,-44,0,1,50,0,288,496,16,16,0,46,-39,0,1,70,0,272,496,16,16,0,28,-22,0,1,100,0,256,496,16,16,0,41,-33,0,1,100,0,256,496,16,16,0,46,-25,0,1,100,0,256,496,16,16,0,28,-29,0,0,100,0,256,512,32,32,0,-24,-88,0,0,100,0,96,192,96,96,0,-48,-16,0,0,100,0,576,0,96,32,0,
0,12,38,-45,0,1,50,0,288,496,16,16,0,46,-39,0,1,40,0,272,496,16,16,0,29,-23,0,1,100,0,256,496,16,16,0,43,-35,0,1,90,0,256,496,16,16,0,16,-16,0,1,100,0,288,496,16,16,0,8,-18,0,1,100,0,304,480,16,16,0,2,-15,0,1,100,0,288,480,16,16,0,-3,-21,0,1,100,0,272,480,16,16,0,-9,-16,0,1,100,0,272,480,16,16,0,47,-25,0,1,70,0,256,496,16,16,0,-56,-88,0,0,100,0,192,192,96,96,0,-49,-16,0,0,100,0,576,0,96,32,0,
0,9,39,-46,0,1,30,0,288,496,16,16,0,47,-40,0,1,40,0,272,496,16,16,0,30,-23,0,1,100,0,256,496,16,16,0,44,-35,0,1,90,0,256,496,16,16,0,49,-25,0,1,40,0,256,496,16,16,0,-116,-74,0,1,100,0,480,0,96,96,0,-93,-54,0,1,100,0,64,480,64,64,0,-88,-88,0,0,100,0,288,192,128,96,0,-52,-16,0,0,100,0,576,0,96,32,0,
0,6,17,-62,0,1,20,0,304,480,16,16,0,26,-49,0,1,50,0,256,480,16,16,0,37,-42,0,1,100,0,272,480,16,16,0,26,-43,0,0,100,0,288,512,32,32,0,-56,-88,0,0,100,0,416,192,128,96,0,-49,-16,0,0,100,0,576,0,96,32,0,
0,4,27,-48,0,1,40,0,304,480,16,16,0,30,-35,0,0,100,0,352,512,32,32,0,-24,-88,0,0,100,0,544,192,96,96,0,-48,-16,0,0,100,0,576,0,96,32,0,
0,4,-24,-88,0,0,100,0,640,192,96,96,0,6,-79,0,1,40,0,0,480,64,64,0,6,-79,0,0,100,0,0,480,64,64,0,-48,-16,0,0,100,0,576,0,96,32,0,
0,2,-24,-88,0,0,100,0,64,288,64,96,0,-47,-16,0,0,100,0,576,0,96,32,0,
0,2,-24,-88,0,0,100,0,128,288,64,96,0,-47,-16,0,0,100,0,576,0,96,32,0,
0,3,-80,-88,0,0,100,0,192,288,96,96,0,-77,-83,0,0,100,0,0,352,32,32,0,-50,-16,0,0,100,0,576,0,96,32,0,
0,3,-72,-128,0,0,100,0,0,320,32,32,0,-80,-88,0,0,100,0,288,288,96,96,0,-50,-16,0,0,100,0,576,0,96,32,0,
0,3,-54,-137,0,0,100,0,0,288,32,32,0,-80,-88,0,0,100,0,288,288,96,96,0,-50,-16,0,0,100,0,576,0,96,32,0,
0,3,-50,-135,0,0,100,0,32,288,32,32,0,-56,-88,0,0,100,0,384,288,96,96,0,-50,-16,0,0,100,0,576,0,96,32,0,
0,3,-35,-112,0,0,100,0,32,320,32,32,0,-56,-88,0,0,100,0,480,288,96,96,0,-50,-16,0,0,100,0,576,0,96,32,0,
0,3,-36,-65,0,0,100,0,32,352,32,32,0,-56,-88,0,0,100,0,576,288,96,96,0,-50,-16,0,0,100,0,576,0,96,32,0,
0,2,-56,-88,0,0,100,0,0,384,96,96,0,-49,-16,0,0,100,0,576,0,96,32,0,
0,2,-56,-88,0,0,100,0,96,384,96,96,0,-48,-16,0,0,100,0,576,0,96,32,0,
0,2,-56,-88,0,0,100,0,288,384,96,96,0,-48,-16,0,0,100,0,576,0,96,32,0,
0,2,-56,-88,0,0,100,0,384,384,96,96,0,-48,-16,0,0,100,0,576,0,96,32,0,
0,2,-56,-88,0,0,100,0,480,384,96,96,0,-48,-16,0,0,100,0,576,0,96,32,0,
0,2,-56,-88,0,0,100,0,576,384,96,96,0,-48,-16,0,0,100,0,576,0,96,32,0,
