0,2,-52,-74,0,0,100,0,0,0,96,80,0,-48,-20,0,0,100,0,480,0,96,40,0,
0,2,-52,-74,0,0,100,0,96,0,96,80,0,-48,-20,0,0,100,0,480,0,96,40,0,
0,2,-52,-74,0,0,100,0,192,0,96,80,0,-48,-20,0,0,100,0,480,0,96,40,0,
0,2,-52,-74,0,0,100,0,288,0,96,80,0,-48,-20,0,0,100,0,480,0,96,40,0,
0,2,-54,-74,0,0,100,0,0,80,96,80,0,-48,-20,0,0,100,0,480,0,96,40,0,
0,2,-54,-74,0,0,100,0,96,80,96,80,0,-48,-20,0,0,100,0,480,0,96,40,0,
0,2,-54,-74,0,0,100,0,192,80,96,80,0,-48,-20,0,0,100,0,480,0,96,40,0,
0,2,-54,-74,0,0,100,0,288,80,96,80,0,-48,-20,0,0,100,0,480,0,96,40,0,
0,2,-52,-74,0,0,100,0,0,160,96,80,0,-49,-20,0,0,100,0,480,0,96,40,0,
0,2,-52,-74,0,0,100,0,96,160,96,80,0,-50,-20,0,0,100,0,480,0,96,40,0,
0,2,-52,-74,0,0,100,0,192,160,96,80,0,-50,-20,0,0,100,0,480,0,96,40,0,
0,2,-52,-74,0,0,100,0,288,160,96,80,0,-50,-20,0,0,100,0,480,0,96,40,0,
0,2,-52,-74,0,0,100,0,384,160,96,80,0,-50,-20,0,0,100,0,480,0,96,40,0,
0,2,-52,-74,0,0,100,0,384,80,96,80,0,-50,-20,0,0,100,0,480,0,96,40,0,
0,2,-52,-74,0,0,100,0,480,80,96,80,0,-50,-20,0,0,100,0,480,0,96,40,0,
0,2,-52,-74,0,0,100,0,480,160,96,80,0,-50,-20,0,0,100,0,480,0,96,40,0,
0,2,-52,-74,0,0,100,0,480,240,96,80,0,-50,-20,0,0,100,0,480,0,96,40,0,
0,2,-52,-74,0,0,100,0,0,240,96,80,0,-47,-20,0,0,100,0,480,0,96,40,0,
0,2,-52,-74,0,0,100,0,96,240,96,80,0,-47,-20,0,0,100,0,480,0,96,40,0,
0,5,-100,-122,0,0,100,0,0,416,144,128,0,-70,-34,0,1,20,0,288,864,144,64,0,-52,-74,0,0,100,0,96,240,96,80,0,-47,-20,0,0,100,0,480,0,96,40,0,-72,-38,0,0,100,0,0,800,144,64,0,
0,5,-100,-122,0,0,100,0,144,416,144,128,0,-70,-34,0,1,100,0,288,864,144,64,0,-52,-74,0,0,100,0,192,240,96,80,0,-47,-20,0,0,100,0,480,0,96,40,0,-72,-38,0,0,100,0,144,800,144,64,0,
0,5,-100,-122,0,0,100,0,288,416,144,128,0,-70,-34,0,1,70,0,288,864,144,64,0,-52,-74,0,0,100,0,288,240,96,80,0,-47,-20,0,0,100,0,480,0,96,40,0,-72,-38,0,0,100,0,288,800,144,64,0,
0,5,-100,-122,0,0,100,0,432,416,144,128,0,-70,-34,0,1,50,0,288,864,144,64,0,-52,-74,0,0,100,0,384,240,96,80,0,-47,-20,0,0,100,0,480,0,96,40,0,-72,-38,0,0,100,0,432,800,144,64,0,
0,5,-100,-122,0,0,100,0,0,544,144,128,0,-70,-34,0,1,50,0,288,864,144,64,0,-52,-74,0,0,100,0,384,240,96,80,0,-47,-20,0,0,100,0,480,0,96,40,0,-72,-38,0,0,100,0,432,800,144,64,0,
0,5,-100,-122,0,0,100,0,144,544,144,128,0,-70,-34,0,1,50,0,288,864,144,64,0,-52,-74,0,0,100,0,384,240,96,80,0,-47,-20,0,0,100,0,480,0,96,40,0,-72,-38,0,0,100,0,432,800,144,64,0,
0,5,-100,-122,0,0,100,0,288,544,144,128,0,-70,-34,0,1,50,0,288,864,144,64,0,-52,-74,0,0,100,0,384,240,96,80,0,-47,-20,0,0,100,0,480,0,96,40,0,-72,-38,0,0,100,0,432,800,144,64,0,
0,5,-100,-122,0,0,100,0,432,544,144,128,0,-70,-34,0,1,50,0,288,864,144,64,0,-52,-90,0,0,100,0,0,320,96,96,0,-47,-20,0,0,100,0,480,0,96,40,0,-72,-38,0,0,100,0,432,800,144,64,0,
0,5,-100,-122,0,0,100,0,0,672,144,128,0,-70,-34,0,1,50,0,288,864,144,64,0,-52,-90,0,0,100,0,96,320,96,96,0,-47,-20,0,0,100,0,480,0,96,40,0,-72,-38,0,0,100,0,432,800,144,64,0,
0,5,-100,-122,0,0,100,0,144,672,144,128,0,-70,-34,0,1,30,0,288,864,144,64,0,-52,-90,0,0,100,0,192,320,96,96,0,-47,-20,0,0,100,0,480,0,96,40,0,-72,-38,0,0,100,0,0,864,144,64,0,
0,4,-52,-90,0,0,100,0,288,320,96,96,0,-70,-34,0,1,10,0,288,864,144,64,0,-47,-20,0,0,100,0,480,0,96,40,0,-72,-38,0,0,100,0,144,864,144,64,0,
