0,5,-48,-24,0,1,100,0,576,0,96,32,0,-48,-24,0,1,30,0,576,96,96,32,0,-5,-69,0,1,90,0,384,0,48,48,0,-50,-88,0,0,100,0,0,0,96,96,0,-48,-16,0,0,100,0,480,0,96,32,0,
0,5,-48,-24,0,1,100,0,576,32,96,32,0,-48,-24,0,1,30,0,576,0,96,32,0,-5,-69,0,1,90,0,432,0,48,48,0,-50,-88,0,0,100,0,96,0,96,96,0,-48,-16,0,0,100,0,480,0,96,32,0,
0,5,-48,-24,0,1,100,0,576,64,96,32,0,-48,-24,0,1,30,0,576,32,96,32,0,-5,-68,0,1,90,0,384,48,48,48,0,-50,-88,0,0,100,0,192,0,96,96,0,-48,-16,0,0,100,0,480,0,96,32,0,
0,5,-48,-24,0,1,100,0,576,96,96,32,0,-48,-24,0,1,30,0,576,64,96,32,0,-5,-68,0,1,90,0,432,48,48,48,0,-50,-88,0,0,100,0,288,0,96,96,0,-48,-16,0,0,100,0,480,0,96,32,0,
0,4,-48,-24,0,1,100,0,576,96,96,32,0,-48,-24,0,1,30,0,576,64,96,32,0,-48,-88,0,0,100,0,0,96,96,96,0,-48,-16,0,0,100,0,480,0,96,32,0,
0,4,-48,-24,0,1,100,0,576,32,96,32,0,-48,-24,0,1,30,0,576,0,96,32,0,-48,-88,0,0,100,0,96,96,96,96,0,-48,-16,0,0,100,0,480,0,96,32,0,
0,7,-48,-24,0,1,100,0,576,64,96,32,0,-48,-24,0,1,30,0,576,32,96,32,0,0,-84,0,1,100,0,576,128,64,64,0,4,-74,0,1,100,0,0,336,48,48,0,-32,-88,0,0,30,0,384,288,96,96,0,-48,-88,0,0,100,0,192,96,96,96,0,-48,-16,0,0,100,0,480,0,96,32,0,
0,7,-48,-24,0,1,100,0,576,96,96,32,0,-48,-24,0,1,30,0,576,64,96,32,0,0,-84,0,1,100,0,576,192,64,64,0,4,-74,0,1,100,0,0,336,48,48,0,-24,-88,0,0,60,0,480,288,96,96,0,-48,-88,0,0,100,0,288,96,96,96,0,-48,-16,0,0,100,0,480,0,96,32,0,
0,7,-48,-24,0,1,100,0,576,0,96,32,0,-48,-24,0,1,30,0,576,96,96,32,0,0,-84,0,1,100,0,576,128,64,64,0,4,-74,0,1,100,0,0,336,48,48,0,-24,-88,0,0,90,0,480,384,96,96,0,-48,-88,0,0,100,0,384,96,96,96,0,-48,-16,0,0,100,0,480,0,96,32,0,
0,7,-48,-24,0,1,100,0,576,32,96,32,0,-48,-24,0,1,30,0,576,0,96,32,0,0,-84,0,1,100,0,576,192,64,64,0,4,-74,0,1,100,0,0,336,48,48,0,-24,-88,0,0,90,0,384,288,96,96,0,-48,-88,0,0,100,0,480,96,96,96,0,-48,-16,0,0,100,0,480,0,96,32,0,
0,7,-48,-24,0,1,100,0,576,64,96,32,0,-48,-24,0,1,30,0,576,32,96,32,0,0,-84,0,1,100,0,576,128,64,64,0,4,-74,0,1,100,0,0,336,48,48,0,-24,-88,0,0,90,0,480,288,96,96,0,-48,-88,0,0,100,0,192,96,96,96,0,-48,-16,0,0,100,0,480,0,96,32,0,
0,7,-48,-24,0,1,100,0,576,96,96,32,0,-48,-24,0,1,30,0,576,64,96,32,0,0,-84,0,1,100,0,576,192,64,64,0,4,-74,0,1,100,0,0,336,48,48,0,-24,-88,0,0,90,0,480,384,96,96,0,-48,-88,0,0,100,0,288,96,96,96,0,-48,-16,0,0,100,0,480,0,96,32,0,
0,7,-48,-24,0,1,100,0,576,0,96,32,0,-48,-24,0,1,30,0,576,96,96,32,0,-15,-88,0,1,100,0,576,128,64,64,0,-8,-81,0,1,100,0,0,336,48,48,0,-24,-88,0,0,90,0,384,288,96,96,0,-48,-88,0,0,100,0,0,192,96,96,0,-48,-16,0,0,100,0,480,0,96,32,0,
0,8,-48,-24,0,1,100,0,576,32,96,32,0,-48,-24,0,1,30,0,576,0,96,32,0,-96,-96,0,1,100,0,576,288,128,96,0,-61,-62,0,1,100,0,0,384,96,48,0,-112,-88,0,0,100,0,48,288,144,96,0,-24,-88,0,0,40,0,480,288,96,96,0,-64,-88,0,0,100,0,96,192,96,96,0,-50,-16,0,0,100,0,480,0,96,32,0,
0,7,-96,-96,0,1,100,0,576,384,128,96,0,-96,-96,0,1,50,0,576,288,128,96,0,-80,-64,0,1,100,0,0,432,96,48,0,-61,-62,0,1,30,0,0,384,96,48,0,-144,-88,0,0,100,0,576,576,160,96,0,-48,-88,0,0,100,0,192,192,96,96,0,-51,-16,0,0,100,0,480,0,96,32,0,
0,6,-96,-96,0,1,100,0,576,480,160,96,0,-96,-96,0,1,50,0,576,384,128,96,0,-50,-72,0,1,100,0,0,288,48,48,0,-168,-88,0,0,100,0,576,672,160,96,0,-48,-88,0,0,100,0,288,192,96,96,0,-51,-16,0,0,100,0,480,0,96,32,0,
0,6,-96,-96,0,1,70,0,640,192,160,96,0,-96,-96,0,1,20,0,576,480,160,96,0,-176,-96,0,0,30,0,576,768,96,96,0,-136,-88,0,0,30,0,672,768,96,96,0,-48,-88,0,0,100,0,384,192,96,96,0,-51,-16,0,0,100,0,480,0,96,32,0,
0,3,-96,-96,0,1,30,0,640,192,160,96,0,-48,-88,0,0,100,0,480,192,96,96,0,-51,-16,0,0,100,0,480,0,96,32,0,
0,5,-5,-69,0,1,50,0,432,48,48,48,0,-48,-24,0,1,50,0,576,32,96,32,0,-48,-24,0,1,15,0,576,0,96,32,0,-48,-88,0,0,100,0,96,384,96,96,0,-48,-16,0,0,100,0,480,0,96,32,0,
0,4,-48,-24,0,1,20,0,576,64,96,32,0,-48,-24,0,1,5,0,576,32,96,32,0,-48,-88,0,0,100,0,192,384,96,96,0,-48,-16,0,0,100,0,480,0,96,32,0,
0,2,-48,-88,0,0,100,0,288,384,96,96,0,-48,-16,0,0,100,0,480,0,96,32,0,
0,2,-48,-88,0,0,100,0,384,384,96,96,0,-48,-16,0,0,100,0,480,0,96,32,0,
0,2,-48,-88,0,0,100,0,0,480,96,96,0,-48,-16,0,0,100,0,480,0,96,32,0,
0,2,-48,-88,0,0,100,0,192,480,96,96,0,-48,-16,0,0,100,0,480,0,96,32,0,
0,2,-48,-88,0,0,100,0,288,480,96,96,0,-48,-16,0,0,100,0,480,0,96,32,0,
0,2,-48,-88,0,0,100,0,384,480,96,96,0,-48,-16,0,0,100,0,480,0,96,32,0,
0,2,-48,-88,0,0,100,0,480,480,96,96,0,-48,-16,0,0,100,0,480,0,96,32,0,
0,2,-48,-88,0,0,100,0,192,576,96,96,0,-48,-16,0,0,100,0,480,0,96,32,0,
0,2,-48,-88,0,0,100,0,288,576,96,96,0,-48,-16,0,0,100,0,480,0,96,32,0,
0,2,-48,-88,0,0,100,0,384,576,96,96,0,-48,-16,0,0,100,0,480,0,96,32,0,
0,2,-48,-88,0,0,100,0,480,576,96,96,0,-48,-16,0,0,100,0,480,0,96,32,0,
0,2,-48,-88,0,0,100,0,0,672,96,96,0,-48,-16,0,0,100,0,480,0,96,32,0,
0,2,-48,-88,0,0,100,0,96,672,96,96,0,-48,-16,0,0,100,0,480,0,96,32,0,
0,2,-48,-88,0,0,100,0,192,672,96,96,0,-48,-16,0,0,100,0,480,0,96,32,0,
0,2,-48,-88,0,0,100,0,288,672,96,96,0,-47,-16,0,0,100,0,480,0,96,32,0,
0,2,-48,-88,0,0,100,0,384,672,96,96,0,-47,-16,0,0,100,0,480,0,96,32,0,
0,2,-48,-88,0,0,100,0,480,672,96,96,0,-46,-16,0,0,100,0,480,0,96,32,0,
0,2,-48,-88,0,0,100,0,96,768,96,96,0,-47,-16,0,0,100,0,480,0,96,32,0,
0,2,-48,-88,0,0,100,0,0,768,96,96,0,-48,-16,0,0,100,0,480,0,96,32,0,
0,2,-48,-88,0,0,100,0,192,768,96,96,0,-48,-16,0,0,100,0,480,0,96,32,0,
0,2,-48,-88,0,0,100,0,288,768,96,96,0,-48,-16,0,0,100,0,480,0,96,32,0,
0,2,-48,-88,0,0,100,0,384,768,96,96,0,-48,-16,0,0,100,0,480,0,96,32,0,
0,2,-48,-88,0,0,100,0,480,768,96,96,0,-48,-16,0,0,100,0,480,0,96,32,0,
