0,2,-99,-91,0,0,100,0,0,0,176,112,0,-51,-23,0,0,65,0,880,0,96,48,0,
0,2,-99,-91,0,0,100,0,176,0,176,112,0,-51,-23,0,0,65,0,880,0,96,48,0,
0,2,-97,-91,0,0,100,0,354,0,176,112,0,-51,-23,0,0,65,0,880,0,96,48,0,
0,2,-99,-91,0,0,100,0,528,0,176,112,0,-51,-23,0,0,65,0,880,0,96,48,0,
0,2,-94,-91,0,0,100,0,704,0,176,112,0,-51,-23,0,0,65,0,880,0,96,48,0,
0,2,-99,-91,0,0,100,0,0,112,176,112,0,-51,-23,0,0,65,0,880,0,96,48,0,
0,2,-99,-91,0,0,100,0,176,112,176,112,0,-51,-23,0,0,65,0,880,0,96,48,0,
0,3,-99,-110,0,0,100,0,0,336,178,112,0,-99,-91,0,0,100,0,352,112,176,112,0,-51,-23,0,0,65,0,880,0,96,48,0,
0,3,-97,-110,0,0,100,0,178,336,176,112,0,-99,-91,0,0,100,0,528,112,176,112,0,-51,-23,0,0,65,0,880,0,96,48,0,
0,3,-96,-110,0,0,100,0,355,336,176,112,0,-99,-91,0,0,100,0,704,112,176,112,0,-51,-23,0,0,65,0,880,0,96,48,0,
0,4,-155,-82,0,0,100,0,0,560,176,112,0,-99,-91,0,0,100,0,0,224,176,112,0,-99,-75,0,0,100,0,0,448,176,112,0,-51,-23,0,0,65,0,880,0,96,48,0,
0,4,-179,-85,0,0,100,0,176,560,176,112,0,-99,-91,0,0,100,0,176,224,176,112,0,-98,-74,0,0,100,0,176,448,176,112,0,-51,-23,0,0,65,0,880,0,96,48,0,
0,3,-99,-91,0,0,100,0,352,224,176,112,0,-98,-74,0,0,100,0,352,448,176,112,0,-51,-23,0,0,65,0,880,0,96,48,0,
0,2,-99,-91,0,0,100,0,528,224,176,112,0,-51,-23,0,0,65,0,880,0,96,48,0,
0,3,-28,-53,0,1,100,0,880,48,48,32,0,-99,-91,0,0,100,0,704,224,176,112,0,-51,-23,0,0,65,0,880,0,96,48,0,
0,4,-28,-53,0,1,50,0,880,48,48,32,0,-28,-53,0,1,100,0,928,48,48,32,0,-99,-89,0,0,100,0,880,226,176,112,0,-51,-23,0,0,65,0,880,0,96,48,0,
0,3,-29,-53,0,1,80,0,928,48,48,32,0,-95,-89,0,0,100,0,532,338,176,112,0,-51,-23,0,0,65,0,880,0,96,48,0,
0,2,-99,-90,0,0,100,0,704,337,176,112,0,-51,-23,0,0,65,0,880,0,96,48,0,
0,2,-99,-99,0,0,100,0,880,338,176,112,0,-51,-23,0,0,65,0,880,0,96,48,0,
0,2,-99,-105,0,0,100,0,528,450,176,112,0,-51,-23,0,0,65,0,880,0,96,48,0,
0,2,-99,-109,0,0,100,0,704,448,176,112,0,-51,-23,0,0,65,0,880,0,96,48,0,
0,2,-99,-105,0,0,100,0,880,450,176,112,0,-51,-23,0,0,65,0,880,0,96,48,0,
0,2,-99,-105,0,0,100,0,528,560,176,112,0,-51,-23,0,0,65,0,880,0,96,48,0,
0,3,-28,-53,0,1,40,0,928,48,48,32,0,-99,-91,0,0,100,0,880,112,176,112,0,-51,-23,0,0,65,0,880,0,96,48,0,
