0,2,-36,-69,0,0,100,0,0,0,80,72,0,-22,-18,0,0,65,0,464,0,48,32,0,
0,2,-36,-69,0,0,100,0,80,0,80,72,0,-22,-18,0,0,65,0,464,0,48,32,0,
0,2,-36,-69,0,0,100,0,160,0,80,72,0,-22,-18,0,0,65,0,464,0,48,32,0,
0,2,-36,-69,0,0,100,0,240,0,80,72,0,-22,-18,0,0,65,0,464,0,48,32,0,
0,4,6,-76,0,0,100,0,0,144,48,48,0,-21,-80,0,0,100,0,0,72,56,80,0,-26,-79,0,0,100,0,0,256,40,48,0,-22,-18,0,0,65,0,464,0,48,32,0,
0,4,7,-77,0,0,100,0,48,144,56,48,0,-21,-80,0,0,100,0,56,72,56,72,0,-18,-80,0,0,100,0,40,256,40,48,0,-22,-18,0,0,65,0,464,0,48,32,0,
0,4,3,-87,0,0,100,0,104,144,56,48,0,-21,-73,0,0,100,0,112,72,56,72,0,-10,-92,0,0,100,0,80,256,40,48,0,-22,-18,0,0,65,0,464,0,48,32,0,
0,4,-11,-76,0,0,100,0,104,144,56,48,0,-33,-67,0,0,100,0,192,72,64,64,0,-24,-82,0,0,100,0,80,256,40,48,0,-22,-18,0,0,65,0,464,0,48,32,0,
0,5,-11,-76,0,0,100,0,160,144,56,48,0,-33,-67,0,0,100,0,192,72,64,64,0,-64,-47,0,1,100,0,0,456,48,56,0,-24,-82,0,0,100,0,120,256,40,48,0,-22,-18,0,0,65,0,464,0,48,32,0,
0,5,-28,-48,0,0,100,0,216,144,56,40,0,-98,-55,0,1,100,0,48,448,88,64,0,-30,-69,0,0,100,0,256,72,64,64,0,-34,-49,0,0,100,0,160,256,48,48,0,-22,-18,0,0,65,0,464,0,48,32,0,
0,5,-104,-55,0,1,100,0,136,448,64,64,0,-22,-54,0,0,100,0,272,144,48,48,0,-24,-74,0,0,100,0,320,72,64,64,0,-29,-50,0,0,100,0,256,256,48,48,0,-22,-18,0,0,65,0,464,0,48,32,0,
0,5,-104,-63,0,1,100,0,200,440,56,72,0,-20,-53,0,0,100,0,368,144,48,48,0,-22,-75,0,0,100,0,384,72,64,64,0,-27,-51,0,0,100,0,352,256,48,48,0,-22,-18,0,0,65,0,464,0,48,32,0,
0,5,-104,-71,0,1,100,0,256,432,48,80,0,-3,-58,0,0,100,0,320,144,48,48,0,-24,-69,0,0,100,0,448,72,64,64,0,-36,-59,0,0,100,0,304,256,48,48,0,-22,-18,0,0,65,0,464,0,48,32,0,
0,5,-104,-71,0,1,100,0,304,432,48,80,0,-3,-57,0,0,100,0,320,144,48,48,0,-24,-68,0,0,100,0,448,72,64,64,0,-36,-58,0,0,100,0,304,256,48,48,0,-22,-18,0,0,65,0,464,0,48,32,0,
0,2,-36,-73,0,0,100,0,320,0,72,72,0,-22,-18,0,0,65,0,464,0,48,32,0,
0,4,-2,-85,0,0,100,0,104,144,56,48,0,-24,-73,0,0,100,0,0,304,48,72,0,-38,-82,0,0,100,0,0,192,48,48,0,-22,-18,0,0,65,0,464,0,48,32,0,
0,4,-2,-84,0,0,100,0,160,144,56,48,0,-24,-72,0,0,100,0,48,304,48,72,0,-38,-81,0,0,100,0,48,192,48,48,0,-22,-18,0,0,65,0,464,0,48,32,0,
0,4,-1,-63,0,0,100,0,304,192,56,48,0,-24,-74,0,0,100,0,96,304,48,72,0,-48,-68,0,0,100,0,96,192,56,48,0,-22,-18,0,0,65,0,464,0,48,32,0,
0,4,-3,-61,0,0,100,0,416,192,48,48,0,-24,-76,0,0,100,0,144,304,48,72,0,-31,-61,0,0,100,0,208,192,48,48,0,-22,-18,0,0,65,0,464,0,48,32,0,
0,4,-3,-62,0,0,100,0,464,192,48,48,0,-24,-77,0,0,100,0,192,304,48,72,0,-31,-62,0,0,100,0,256,192,48,48,0,-22,-18,0,0,65,0,464,0,48,32,0,
0,4,-3,-65,0,0,100,0,360,192,56,48,0,-24,-75,0,0,100,0,240,304,48,72,0,-35,-72,0,0,100,0,152,192,56,48,0,-22,-18,0,0,65,0,464,0,48,32,0,
0,4,0,-78,0,0,100,0,104,144,56,48,0,-23,-68,0,0,100,0,368,304,48,72,0,-32,-77,0,0,100,0,0,192,48,48,0,-22,-18,0,0,65,0,464,0,48,32,0,
0,4,0,-76,0,0,100,0,160,144,56,48,0,-23,-67,0,0,100,0,416,304,48,72,0,-32,-76,0,0,100,0,48,192,48,48,0,-22,-18,0,0,65,0,464,0,48,32,0,
0,4,0,-76,0,0,100,0,160,144,56,48,0,-23,-67,0,0,100,0,464,304,48,72,0,-32,-76,0,0,100,0,48,192,48,48,0,-22,-18,0,0,65,0,464,0,48,32,0,
0,5,-2,-59,0,0,100,0,416,192,48,48,0,-36,-112,0,1,100,0,352,464,40,48,0,-24,-74,0,0,100,0,192,304,48,72,0,-30,-59,0,0,100,0,208,192,48,48,0,-22,-18,0,0,65,0,464,0,48,32,0,
0,5,-2,-59,0,0,100,0,464,192,48,48,0,-36,-112,0,1,100,0,392,464,40,48,0,-24,-74,0,0,100,0,0,304,48,72,0,-30,-59,0,0,100,0,256,192,48,48,0,-22,-18,0,0,65,0,464,0,48,32,0,
0,5,-2,-59,0,0,100,0,464,192,48,48,0,-36,-112,0,1,100,0,432,464,40,48,0,-24,-74,0,0,100,0,0,304,48,72,0,-30,-59,0,0,100,0,256,192,48,48,0,-22,-18,0,0,65,0,464,0,48,32,0,
0,5,-2,-59,0,0,100,0,464,192,48,48,0,-37,-112,0,1,100,0,472,464,40,48,0,-24,-74,0,0,100,0,0,304,48,72,0,-30,-59,0,0,100,0,256,192,48,48,0,-22,-18,0,0,65,0,464,0,48,32,0,
0,5,-104,-63,0,1,100,0,200,440,56,72,0,-21,-52,0,0,100,0,368,144,48,48,0,-22,-75,0,0,100,0,384,72,64,64,0,-27,-48,0,0,100,0,256,256,48,48,0,-22,-18,0,0,65,0,464,0,48,32,0,
