5,0,0,15,
6,0,0,4,
7,0,0,4,
8,0,0,5,
9,0,0,2,
10,0,0,3,
11,0,0,5,
12,0,0,4,
13,0,0,2,
14,0,0,5,
15,0,0,3,
16,0,0,5,
17,0,0,5,
18,0,0,3,
19,0,0,8,
20,0,0,5,
21,0,0,8,
22,0,0,2,
23,0,0,1,
24,0,0,5,
25,0,0,2,
26,0,0,3,
27,0,0,5,
28,0,0,5,
29,0,0,8,
30,0,0,20,
