0,2,-41,-54,0,0,100,0,0,0,88,64,0,-36,-12,0,0,65,0,440,472,72,24,0,
0,2,-41,-54,0,0,100,0,88,0,88,64,0,-36,-12,0,0,65,0,440,472,72,24,0,
0,2,-41,-54,0,0,100,0,176,0,88,64,0,-36,-12,0,0,65,0,440,472,72,24,0,
0,2,-41,-54,0,0,100,0,264,0,88,64,0,-36,-12,0,0,65,0,440,472,72,24,0,
0,2,-50,-61,0,0,100,0,0,64,120,64,0,-36,-12,0,0,65,0,440,472,72,24,0,
0,2,-53,-54,0,0,100,0,120,64,120,64,0,-36,-12,0,0,65,0,440,472,72,24,0,
0,2,-30,-111,0,0,100,0,240,64,80,104,0,-36,-12,0,0,65,0,440,472,72,24,0,
0,2,-32,-119,0,0,100,0,240,64,80,104,0,-36,-12,0,0,65,0,440,472,72,24,0,
0,3,-63,-183,0,0,100,0,432,0,80,144,0,-63,-118,0,0,100,0,320,64,112,80,0,-36,-12,0,0,65,0,440,472,72,24,0,
0,3,-58,-45,0,0,100,0,352,0,56,64,0,-40,-120,0,0,100,0,320,144,72,112,0,-36,-12,0,0,65,0,440,472,72,24,0,
0,2,-37,-112,0,0,100,0,320,144,72,112,0,-36,-12,0,0,65,0,440,472,72,24,0,
0,2,-47,-55,0,0,100,0,120,128,104,64,0,-36,-12,0,0,65,0,440,472,72,24,0,
0,2,-47,-55,0,0,100,0,0,192,104,64,0,-36,-12,0,0,65,0,440,472,72,24,0,
0,2,-47,-55,0,0,100,0,120,192,104,64,0,-36,-12,0,0,65,0,440,472,72,24,0,
0,2,-47,-55,0,0,100,0,0,128,104,64,0,-36,-12,0,0,65,0,440,472,72,24,0,
0,2,-41,-54,0,0,100,0,0,0,88,64,0,-36,-12,0,0,65,0,440,472,72,24,0,
