5,0,0,5,
6,0,0,3,
7,0,0,9,
8,0,0,3,
9,0,0,6,
10,0,0,5,
11,0,0,3,
12,0,0,1,
13,0,0,6,
14,0,0,4,
15,0,0,3,
16,0,0,1,
17,0,0,6,
18,0,0,4,
19,0,0,3,
20,0,0,6,
21,0,0,12,
22,0,0,1,
23,0,0,6,
24,0,0,5,
25,0,0,5,
26,0,0,5,
27,0,0,5,
28,0,0,3,
