0,2,-45,-81,0,0,100,0,16,112,96,96,0,-22,-19,0,0,65,0,224,64,48,32,0,
0,2,-45,-81,0,0,100,0,112,112,96,96,0,-22,-19,0,0,65,0,224,64,48,32,0,
0,2,-45,-81,0,0,100,0,208,112,96,96,0,-22,-19,0,0,65,0,224,64,48,32,0,
0,2,-45,-81,0,0,100,0,304,112,96,96,0,-22,-19,0,0,65,0,224,64,48,32,0,
0,2,-45,-81,0,0,100,0,16,208,96,96,0,-22,-19,0,0,65,0,224,64,48,32,0,
0,2,-45,-81,0,0,100,0,112,208,96,96,0,-22,-19,0,0,65,0,224,64,48,32,0,
0,3,-20,-53,0,1,100,0,416,112,32,32,0,-45,-81,0,0,100,0,208,208,96,96,0,-22,-19,0,0,65,0,224,64,48,32,0,
0,3,-20,-53,0,1,100,0,448,112,32,32,0,-45,-81,0,0,100,0,304,208,96,96,0,-22,-19,0,0,65,0,224,64,48,32,0,
0,3,-20,-53,0,1,100,0,480,112,32,32,0,-45,-81,0,0,100,0,304,208,96,96,0,-22,-19,0,0,65,0,224,64,48,32,0,
0,3,-20,-53,0,1,50,0,480,112,32,32,0,-45,-81,0,0,100,0,304,208,96,96,0,-22,-19,0,0,65,0,224,64,48,32,0,
0,3,-20,-53,0,1,20,0,480,112,32,32,0,-45,-81,0,0,100,0,304,208,96,96,0,-22,-19,0,0,65,0,224,64,48,32,0,
0,2,-45,-81,0,0,100,0,304,208,96,96,0,-22,-19,0,0,65,0,224,64,48,32,0,
0,2,-13,-79,0,0,100,0,208,304,96,96,0,7,-19,0,0,65,0,224,64,48,32,0,
0,5,-275,-73,0,0,100,0,16,304,96,96,0,-192,-77,0,1,30,0,416,240,72,80,0,-218,-77,0,1,30,0,416,240,72,80,0,-244,-43,0,1,100,0,416,144,240,48,0,-251,-19,0,0,65,0,224,64,48,32,0,
0,5,-310,-73,0,0,100,0,16,304,96,96,0,-258,-70,0,1,30,0,488,240,72,80,0,-223,-70,0,1,20,0,488,240,72,80,0,-279,-43,0,1,60,0,416,192,128,48,0,-286,-19,0,0,65,0,224,64,48,32,0,
0,5,-315,-73,0,0,100,0,16,304,96,96,0,-255,-62,0,1,15,0,560,240,72,80,0,-219,-62,0,1,10,0,560,240,72,80,0,-281,-43,0,1,20,0,416,192,128,48,0,-291,-19,0,0,65,0,224,64,48,32,0,
0,2,-311,-73,1,0,100,0,16,304,96,96,0,-287,-19,1,0,65,0,224,64,48,32,0,
0,2,-314,-78,1,0,100,0,304,304,96,96,0,-287,-19,1,0,65,0,224,64,48,32,0,
0,5,-73,-73,1,0,100,0,16,304,96,96,0,-129,-77,1,1,30,0,416,240,72,80,0,-103,-77,1,1,30,0,416,240,72,80,0,-249,-43,1,1,100,0,416,144,240,48,0,-49,-19,1,0,65,0,224,64,48,32,0,
0,5,-40,-73,1,0,100,0,16,304,96,96,0,-65,-70,1,1,30,0,488,240,72,80,0,-100,-70,1,1,20,0,488,240,72,80,0,-114,-43,1,1,60,0,416,192,128,48,0,-16,-19,1,0,65,0,224,64,48,32,0,
0,5,-26,-73,1,0,100,0,16,304,96,96,0,-52,-62,1,1,20,0,560,240,72,80,0,-88,-62,1,1,10,0,560,240,72,80,0,-98,-43,1,1,20,0,416,192,128,48,0,-2,-19,1,0,65,0,224,64,48,32,0,
0,2,-17,-73,0,0,100,0,16,304,96,96,0,7,-19,0,0,65,0,224,64,48,32,0,
0,2,-314,-78,1,0,100,0,208,304,96,96,0,-287,-19,1,0,65,0,224,64,48,32,0,
0,2,-13,-79,0,0,100,0,304,304,96,96,0,7,-19,0,0,65,0,224,64,48,32,0,
0,4,-320,-73,0,0,100,0,16,304,96,96,0,-245,-63,0,1,10,0,560,240,72,80,0,-285,-43,0,1,20,0,416,192,128,48,0,-296,-19,0,0,65,0,224,64,48,32,0,
0,3,-22,-73,1,0,100,0,16,304,96,96,0,-60,-61,1,1,10,0,560,240,72,80,0,2,-19,1,0,65,0,224,64,48,32,0,
0,2,-45,-73,0,0,100,0,16,304,96,96,0,-22,-19,0,0,65,0,224,64,48,32,0,
0,2,-16,-73,0,0,100,0,16,304,96,96,0,8,-19,0,0,65,0,224,64,48,32,0,
