0,2,-65,-69,0,0,100,0,0,0,104,72,0,-27,-11,0,0,65,0,416,3,53,18,0,
0,2,-65,-69,0,0,100,0,104,0,104,72,0,-27,-11,0,0,65,0,416,3,53,18,0,
0,2,-65,-69,0,0,100,0,208,0,104,72,0,-27,-11,0,0,65,0,416,3,53,18,0,
0,2,-65,-69,0,0,100,0,312,0,104,72,0,-27,-11,0,0,65,0,416,3,53,18,0,
0,2,-73,-77,0,0,100,0,0,80,120,80,0,-27,-11,0,0,65,0,416,3,53,18,0,
0,2,-73,-77,0,0,100,0,0,80,120,80,0,-27,-11,0,0,65,0,416,3,53,18,0,
0,5,-81,-89,0,1,100,0,487,21,117,70,0,-62,-71,0,1,50,0,0,402,92,53,0,-62,-71,0,0,40,0,0,402,92,53,0,-73,-85,0,0,100,0,120,72,120,88,0,-27,-11,0,0,65,0,416,3,53,18,0,
0,5,-86,-45,0,1,100,0,618,10,137,84,0,-61,-35,0,1,50,0,92,402,105,57,0,-61,-35,0,0,40,0,92,402,105,57,0,-73,-85,0,0,100,0,240,72,120,88,0,-27,-11,0,0,65,0,416,3,53,18,0,
0,5,-68,-83,0,1,100,0,763,7,147,100,0,-47,-66,0,1,50,0,197,402,68,70,0,-47,-66,0,0,40,0,197,402,68,70,0,-73,-85,0,0,100,0,360,72,120,88,0,-24,-11,0,0,65,0,416,3,53,18,0,
0,5,-61,-81,0,1,100,0,922,17,144,90,0,-22,-63,0,1,50,0,265,402,99,69,0,-22,-63,0,0,40,0,265,402,99,69,0,-65,-77,0,0,100,0,8,160,120,80,0,-21,-11,0,0,65,0,416,3,53,18,0,
0,5,-35,-94,0,1,50,0,486,117,114,99,0,24,-59,0,1,50,0,0,455,46,61,0,24,-59,0,0,40,0,0,455,46,61,0,-65,-77,0,0,100,0,128,160,120,80,0,-20,-11,0,0,65,0,416,3,53,18,0,
0,5,-24,-83,0,1,100,0,618,129,96,99,0,-6,-68,0,1,50,0,46,459,61,52,0,-2,-68,0,0,40,0,46,459,61,52,0,-63,-77,0,0,100,0,250,160,118,80,0,-21,-11,0,0,65,0,416,3,53,18,0,
0,5,-94,-110,0,1,100,0,727,110,187,117,0,-67,-80,0,1,50,0,107,464,109,72,0,-67,-80,0,0,40,0,107,464,109,72,0,-73,-77,0,0,100,0,360,160,120,80,0,-27,-11,0,0,65,0,416,3,53,18,0,
0,5,-83,-104,0,1,100,0,933,112,120,118,0,-66,-89,0,1,50,0,216,473,93,82,0,-66,-87,0,0,40,0,216,473,93,82,0,-73,-77,0,0,100,0,0,240,120,80,0,-30,-11,0,0,65,0,416,3,53,18,0,
0,5,-103,-98,0,1,100,0,497,234,178,141,0,-62,-53,0,1,50,0,0,516,107,59,0,-62,-53,0,0,40,0,0,516,107,59,0,-73,-77,0,0,100,0,120,240,124,80,0,-40,-11,0,0,65,0,416,3,53,18,0,
0,5,-93,-113,0,1,100,0,675,235,175,145,0,-44,-58,0,1,50,0,107,537,94,65,0,-44,-58,0,0,40,0,107,537,94,65,0,-73,-77,0,0,100,0,240,240,120,80,0,-40,-11,0,0,65,0,416,3,53,18,0,
0,5,-66,-111,0,1,100,0,872,238,177,149,0,1,-60,0,1,50,0,202,556,66,71,0,1,-61,0,0,40,0,202,556,66,71,0,-73,-77,0,0,100,0,360,240,120,80,0,-40,-11,0,0,65,0,416,3,53,18,0,
0,5,-118,-111,3,1,100,0,675,235,175,145,0,-89,-84,0,1,50,0,268,555,92,96,0,-89,-84,0,0,40,0,268,555,92,96,0,-89,-77,0,0,100,0,0,320,120,80,0,-40,-11,0,0,65,0,416,3,53,18,0,
0,5,-117,-106,0,1,70,0,492,399,136,122,0,-97,-39,0,1,40,0,0,575,64,55,0,-97,-39,0,0,20,0,0,575,64,55,0,-89,-71,0,0,100,0,120,320,120,80,0,-38,-11,0,0,65,0,416,3,53,18,0,
0,3,-126,-89,0,1,90,0,626,420,107,102,0,-89,-71,0,0,100,0,240,320,120,80,0,-38,-11,0,0,65,0,416,3,53,18,0,
0,3,-101,-82,0,1,60,0,740,426,68,99,0,-89,-71,0,0,100,0,240,320,120,80,0,-38,-11,0,0,65,0,416,3,53,18,0,
0,3,-92,-86,0,1,15,0,818,423,51,99,0,-89,-71,0,0,100,0,240,320,120,80,0,-38,-11,0,0,65,0,416,3,53,18,0,
0,2,-89,-71,0,0,100,0,240,320,120,80,0,-38,-11,0,0,65,0,416,3,53,18,0,
0,2,-89,-71,0,0,100,0,240,320,120,80,0,-38,-11,0,0,65,0,416,3,53,18,0,
0,3,-47,-60,0,1,100,0,2,995,28,24,0,-65,-85,0,0,100,0,0,648,104,88,0,-27,-11,0,0,65,0,416,3,53,18,0,
0,3,-53,-66,0,1,100,0,53,933,54,46,0,-65,-85,0,0,100,0,104,648,104,88,0,-27,-11,0,0,65,0,416,3,53,18,0,
0,3,-52,-71,0,1,100,0,2,933,50,61,0,-65,-85,0,0,100,0,104,648,104,88,0,-27,-11,0,0,65,0,416,3,53,18,0,
0,4,-52,-71,0,1,30,0,2,933,50,61,0,-20,-56,0,1,100,0,53,980,67,38,0,-65,-85,0,0,100,0,208,648,104,88,0,-27,-11,0,0,65,0,416,3,53,18,0,
0,3,-16,-90,0,1,100,0,123,953,61,65,0,-62,-85,0,0,100,0,315,648,101,88,0,-27,-11,0,0,65,0,416,3,53,18,0,
0,3,-31,-91,0,1,100,0,187,931,84,40,0,-65,-85,0,0,100,0,0,736,104,88,0,-27,-11,0,0,65,0,416,3,53,18,0,
0,4,-32,-91,0,1,30,0,187,931,84,40,0,-46,-35,0,1,100,0,187,972,84,46,0,-65,-85,0,0,100,0,104,736,104,88,0,-27,-11,0,0,65,0,416,3,53,18,0,
0,4,-64,-93,0,1,10,0,416,736,104,88,0,-57,-89,0,1,100,0,273,931,58,87,0,-65,-85,0,0,100,0,208,736,104,88,0,-27,-11,0,0,65,0,416,3,53,18,0,
0,8,-64,-93,0,1,20,0,728,736,104,88,0,-55,-80,3,1,30,0,362,932,27,21,0,-64,-93,0,1,100,0,416,736,104,88,0,-55,-82,0,1,40,0,332,954,52,64,0,-6,-68,0,1,20,0,332,932,27,21,0,-28,-27,0,1,40,0,362,932,27,21,0,-65,-85,0,0,100,0,416,824,104,88,0,-27,-11,0,0,65,0,416,3,53,18,0,
0,7,-64,-93,0,1,20,0,416,736,104,88,0,-64,-93,0,1,80,0,520,736,104,88,0,-47,-74,0,1,20,0,332,932,27,21,0,-52,-56,0,1,30,0,362,932,27,21,0,-51,-80,0,1,50,0,385,954,70,64,0,-65,-85,0,0,100,0,520,824,104,88,0,-27,-11,0,0,65,0,416,3,53,18,0,
0,7,-64,-93,0,1,20,0,520,736,104,88,0,-64,-88,0,1,80,0,624,736,104,88,0,-35,-71,0,1,30,0,332,932,27,21,0,-46,-45,0,1,30,0,362,932,27,21,0,-34,-72,0,1,50,0,385,954,70,64,0,-65,-85,0,0,100,0,624,824,104,88,0,-27,-11,0,0,65,0,416,3,53,18,0,
0,6,-64,-93,0,1,30,0,416,736,104,88,0,-64,-93,0,1,80,0,728,736,104,88,0,-18,-69,0,1,50,0,332,932,27,21,0,-40,-37,0,1,50,0,362,932,27,21,0,-65,-85,0,0,100,0,728,824,104,88,0,-27,-11,0,0,65,0,416,3,53,18,0,
0,5,-55,-72,3,1,20,0,362,932,27,21,0,-6,-68,0,1,20,0,332,932,27,21,0,-28,-27,0,1,20,0,362,932,27,21,0,-65,-85,0,0,100,0,416,824,104,88,0,-27,-11,0,0,65,0,416,3,53,18,0,
0,4,-27,-29,3,1,100,0,362,932,27,21,0,-58,-64,0,1,20,0,362,932,27,21,0,-65,-85,0,0,100,0,520,824,104,88,0,-27,-11,0,0,65,0,416,3,53,18,0,
0,4,-5,-39,0,1,100,0,362,932,27,21,0,18,-5,3,1,20,0,362,932,27,21,0,-65,-85,0,0,100,0,624,824,104,88,0,-27,-11,0,0,65,0,416,3,53,18,0,
0,3,37,-15,0,1,20,0,362,932,27,21,0,-65,-85,0,0,100,0,728,824,104,88,0,-27,-11,0,0,65,0,416,3,53,18,0,
0,4,-64,-93,0,1,50,0,520,736,104,88,0,-57,-89,0,1,30,0,273,931,58,87,0,-65,-86,0,0,100,0,0,823,104,88,0,-27,-11,0,0,65,0,416,3,53,18,0,
0,5,-64,-93,0,1,75,0,624,736,104,88,0,-35,-71,0,1,25,0,332,932,27,21,0,-46,-45,0,1,25,0,362,932,27,21,0,-65,-86,0,0,100,0,104,823,104,88,0,-27,-11,0,0,65,0,416,3,53,18,0,
0,5,-64,-93,0,1,100,0,728,736,104,88,0,-18,-69,0,1,25,0,332,932,27,21,0,-40,-37,0,1,25,0,362,932,27,21,0,-65,-86,0,0,100,0,208,823,104,88,0,-27,-11,0,0,65,0,416,3,53,18,0,
