5,0,0,5,
6,0,0,5,
7,0,0,6,
8,0,0,8,
9,0,0,4,
10,0,0,4,
11,0,0,5,
12,0,0,6,
13,0,0,8,
14,0,0,4,
15,0,0,3,
16,0,0,8,
31,0,0,4,
17,0,0,8,
18,0,0,4,
19,0,0,4,
20,0,0,8,
21,0,0,4,
22,0,0,4,
23,0,0,6,
24,0,0,6,
25,0,0,8,
26,0,0,10,
27,0,0,5,
28,0,0,5,
29,0,0,20,
51,0,0,4,
52,0,0,4,
53,0,0,4,
30,0,0,22,
