4,0,0,8,
5,0,0,8,
6,0,0,8,
7,0,0,6,
8,0,0,6,
9,0,0,5,
10,0,0,4,
11,0,0,8,
12,0,0,6,
13,0,0,5,
14,0,0,4,
15,0,0,5,
16,0,0,6,
17,0,0,6,
18,0,0,10,
19,0,0,7,
20,0,0,4,
21,0,0,4,
22,0,0,4,
23,0,0,4,
24,0,0,4,
25,0,0,5,
26,0,0,6,
27,0,0,10,
