0,2,-67,-79,0,0,100,0,0,0,128,96,0,-39,-29,0,0,65,0,592,336,80,48,0,
0,2,-67,-79,0,0,100,0,128,0,128,96,0,-39,-29,0,0,65,0,592,336,80,48,0,
0,2,-67,-79,0,0,100,0,256,0,128,96,0,-39,-29,0,0,65,0,592,336,80,48,0,
0,2,-67,-79,0,0,100,0,384,0,128,96,0,-39,-29,0,0,65,0,592,336,80,48,0,
0,2,-83,-95,0,0,100,0,0,96,144,112,0,-39,-29,0,0,65,0,592,384,80,48,0,
0,4,-92,-104,0,0,100,0,720,192,128,128,0,-91,-95,0,0,80,0,720,96,144,96,0,-99,-95,0,0,100,0,144,96,144,112,0,-44,-29,0,0,65,0,592,384,80,48,0,
0,4,-94,-106,0,0,100,0,848,192,128,128,0,-91,-95,0,0,65,0,864,96,144,96,0,-99,-95,0,0,100,0,288,96,144,112,0,-44,-29,0,0,65,0,592,384,80,48,0,
0,3,-95,-111,0,0,100,0,720,320,128,128,0,-99,-95,0,0,100,0,432,96,144,112,0,-44,-29,0,0,65,0,592,384,80,48,0,
0,3,-95,-112,0,0,100,0,848,320,128,128,0,-99,-95,0,0,100,0,576,96,144,112,0,-44,-29,0,0,65,0,592,384,80,48,0,
0,3,13,-47,0,0,75,0,432,208,48,48,0,-99,-95,0,0,100,0,0,208,144,112,0,-44,-29,0,0,65,0,592,384,80,48,0,
0,3,-35,-31,0,0,70,0,480,208,48,48,0,-99,-95,0,0,100,0,144,208,144,112,0,-44,-29,0,0,65,0,592,384,80,48,0,
0,2,-99,-95,0,0,100,0,288,208,144,112,0,-44,-29,0,0,65,0,592,384,80,48,0,
0,4,-103,-59,0,0,100,0,720,448,96,64,0,-104,-57,0,0,100,0,432,256,112,64,0,-115,-95,0,0,100,0,0,320,144,112,0,-49,-29,0,0,65,0,592,384,80,48,0,
0,3,-99,-62,0,0,100,0,816,448,96,64,0,-115,-95,0,0,100,0,144,320,144,112,0,-49,-29,0,0,65,0,592,384,80,48,0,
0,3,-97,-63,0,0,100,0,912,448,96,64,0,-115,-95,0,0,100,0,288,320,144,112,0,-49,-29,0,0,65,0,592,384,80,48,0,
0,2,-115,-95,0,0,100,0,432,320,144,112,0,-42,-29,0,0,65,0,592,384,80,48,0,
0,2,-67,-79,0,0,100,0,0,544,128,96,0,-39,-29,0,0,65,0,592,336,80,48,0,
0,2,-67,-79,0,0,100,0,128,544,128,96,0,-39,-29,0,0,65,0,592,336,80,48,0,
0,2,-67,-79,0,0,100,0,256,544,128,96,0,-39,-29,0,0,65,0,592,336,80,48,0,
0,3,-67,-79,0,0,100,0,384,544,128,96,0,-53,-70,0,0,100,0,0,864,96,64,0,-42,-29,0,0,65,0,592,336,80,48,0,
0,4,-67,-79,0,0,100,0,224,736,64,48,0,-67,-79,0,0,100,0,512,544,128,96,0,-55,-70,0,0,100,0,96,864,96,64,0,-42,-29,0,0,65,0,592,336,80,48,0,
0,5,-50,-72,0,0,100,0,768,960,32,32,0,-83,-95,0,0,90,0,288,736,64,48,0,-67,-79,0,0,100,0,640,544,128,96,0,-53,-71,0,0,100,0,192,880,96,64,0,-42,-29,0,0,65,0,592,336,80,48,0,
0,5,-67,-79,0,0,100,0,768,544,128,96,0,-83,-95,0,0,75,0,224,784,64,48,0,-52,-73,0,0,100,0,800,960,32,32,0,-53,-70,0,0,100,0,0,928,96,64,0,-42,-29,0,0,65,0,592,336,80,48,0,
0,5,-91,-95,0,0,50,0,288,784,64,48,0,-54,-75,0,0,100,0,832,960,32,32,0,-67,-79,0,0,100,0,0,640,128,96,0,-54,-70,0,0,100,0,96,928,96,64,0,-42,-29,0,0,65,0,592,336,80,48,0,
0,5,-67,-79,0,0,100,0,128,640,128,96,0,-93,-87,0,0,40,0,224,832,64,48,0,-59,-76,0,0,100,0,864,960,32,32,0,-63,-68,0,0,100,0,192,944,112,64,0,-42,-29,0,0,65,0,592,336,80,48,0,
0,3,-67,-79,0,0,100,0,256,640,128,96,0,-54,-69,0,0,100,0,304,960,96,64,0,-42,-29,0,0,65,0,592,336,80,48,0,
0,3,-67,-79,0,0,100,0,384,640,128,96,0,-53,-69,0,0,100,0,400,960,96,64,0,-42,-29,0,0,65,0,592,336,80,48,0,
0,3,-67,-79,0,0,100,0,512,640,128,96,0,-54,-70,0,0,100,0,496,960,96,64,0,-42,-29,0,0,65,0,592,336,80,48,0,
0,3,-67,-79,0,0,100,0,640,640,128,96,0,-53,-68,0,0,100,0,592,960,96,64,0,-42,-29,0,0,65,0,592,336,80,48,0,
