0,6,-10,-29,0,0,100,0,179,70,36,26,0,-37,-43,0,0,100,0,124,15,56,41,0,-29,-40,0,0,100,0,124,55,56,41,0,-22,-18,0,0,100,0,179,51,36,20,0,-15,-24,0,0,100,0,179,22,36,30,0,-25,-8,0,0,65,0,83,0,50,16,0,
0,6,-10,-28,0,0,100,0,0,219,36,26,0,-37,-42,0,0,100,0,0,120,56,41,0,-29,-39,0,0,100,0,124,55,56,41,0,-22,-18,0,0,100,0,0,200,36,20,0,-15,-24,0,0,100,0,175,244,36,30,0,-25,-8,0,0,65,0,83,0,50,16,0,
0,6,-10,-28,0,0,100,0,179,70,36,26,0,-37,-43,0,0,100,0,110,120,56,41,0,-29,-40,0,0,100,0,124,55,56,41,0,-22,-18,0,0,100,0,179,51,36,20,0,-15,-24,0,0,100,0,175,244,36,30,0,-25,-8,0,0,65,0,83,0,50,16,0,
0,6,-10,-29,0,0,100,0,35,219,36,26,0,-37,-45,0,0,100,0,55,120,56,41,0,-29,-41,0,0,100,0,124,55,56,41,0,-22,-19,0,0,100,0,35,200,36,20,0,-15,-24,0,0,100,0,209,22,36,30,0,-25,-8,0,0,65,0,83,0,50,16,0,
0,6,-9,-28,0,0,100,0,35,219,36,26,0,-36,-42,0,0,100,0,0,120,56,41,0,-28,-39,0,0,100,0,124,55,56,41,0,-20,-17,0,0,100,0,35,200,36,20,0,-15,-24,0,0,100,0,0,244,36,30,0,-25,-8,0,0,65,0,83,0,50,16,0,
0,6,-9,-29,0,0,100,0,179,70,36,26,0,-36,-43,0,0,100,0,110,120,56,41,0,-28,-40,0,0,100,0,0,160,56,41,0,-21,-18,0,0,100,0,179,51,36,20,0,-15,-24,0,0,100,0,0,244,36,30,0,-25,-8,0,0,65,0,83,0,50,16,0,
0,6,-8,-30,0,0,100,0,179,70,36,26,0,-35,-45,0,0,100,0,55,120,56,41,0,-27,-41,0,0,100,0,0,160,56,41,0,-20,-20,0,0,100,0,179,51,36,20,0,-15,-24,0,0,100,0,35,244,36,30,0,-25,-8,0,0,65,0,83,0,50,16,0,
0,6,-9,-30,0,0,100,0,179,70,36,26,0,-36,-45,0,0,100,0,55,120,56,41,0,-28,-41,0,0,100,0,0,160,56,41,0,-21,-20,0,0,100,0,179,51,36,20,0,-15,-24,0,0,100,0,0,244,36,30,0,-25,-8,0,0,65,0,83,0,50,16,0,
0,6,-7,-28,0,0,100,0,105,219,36,26,0,-31,-48,0,0,100,0,165,120,56,41,0,-24,-43,0,0,100,0,55,160,56,41,0,-19,-22,0,0,100,0,0,200,36,20,0,-15,-24,0,0,100,0,70,244,36,30,0,-25,-8,0,0,65,0,83,0,50,16,0,
0,6,-8,-28,0,0,100,0,105,219,36,26,0,-32,-48,0,0,100,0,165,120,56,41,0,-25,-43,0,0,100,0,55,160,56,41,0,-20,-22,0,0,100,0,0,200,36,20,0,-15,-24,0,0,100,0,70,244,36,30,0,-25,-8,0,0,65,0,83,0,50,16,0,
0,6,-5,-29,0,0,100,0,140,219,36,26,0,-28,-49,0,0,100,0,220,120,56,41,0,-23,-44,0,0,100,0,110,160,56,41,0,-19,-24,0,0,100,0,105,200,36,20,0,-15,-24,0,0,100,0,70,244,36,30,0,-25,-8,0,0,65,0,83,0,50,16,0,
0,6,-6,-29,0,0,100,0,140,219,36,26,0,-29,-49,0,0,100,0,220,120,56,41,0,-24,-44,0,0,100,0,110,160,56,41,0,-20,-24,0,0,100,0,105,200,36,20,0,-15,-24,0,0,100,0,70,244,36,30,0,-25,-8,0,0,65,0,83,0,50,16,0,
0,7,-26,-44,0,0,60,0,0,273,47,50,0,-4,-29,0,0,100,0,175,219,36,26,0,-22,-52,0,0,100,0,275,120,56,41,0,-22,-46,0,0,100,0,165,160,56,41,0,-19,-26,0,0,100,0,140,200,36,20,0,-15,-24,0,0,100,0,105,244,36,30,0,-25,-8,0,0,65,0,83,0,50,16,0,
0,7,-26,-44,0,0,80,0,46,273,47,50,0,-5,-29,0,0,100,0,210,219,36,26,0,-23,-52,0,0,100,0,330,120,56,41,0,-23,-46,0,0,100,0,220,160,56,41,0,-20,-26,0,0,100,0,175,200,36,20,0,-15,-24,0,0,100,0,105,244,36,30,0,-25,-8,0,0,65,0,83,0,50,16,0,
0,7,-26,-44,0,0,100,0,92,273,47,50,0,-4,-29,0,0,100,0,175,219,36,26,0,-22,-52,0,0,100,0,275,120,56,41,0,-22,-46,0,0,100,0,165,160,56,41,0,-19,-26,0,0,100,0,140,200,36,20,0,-15,-24,0,0,100,0,105,244,36,30,0,-25,-8,0,0,65,0,83,0,50,16,0,
0,8,-28,-44,0,0,70,0,0,273,47,50,0,-29,-44,0,0,50,0,138,273,47,50,0,-5,-29,0,0,100,0,210,219,36,26,0,-23,-52,0,0,100,0,330,120,56,41,0,-23,-46,0,0,100,0,220,160,56,41,0,-20,-26,0,0,100,0,175,200,36,20,0,-15,-24,0,0,100,0,105,244,36,30,0,-25,-8,0,0,65,0,83,0,50,16,0,
0,8,-29,-44,0,0,30,0,138,273,47,50,0,-26,-44,0,0,80,0,46,273,47,50,0,-4,-29,0,0,100,0,175,219,36,26,0,-22,-52,0,0,100,0,275,120,56,41,0,-22,-46,0,0,100,0,165,160,56,41,0,-19,-26,0,0,100,0,140,200,36,20,0,-15,-24,0,0,100,0,105,244,36,30,0,-25,-8,0,0,65,0,83,0,50,16,0,
0,8,-26,-44,0,0,50,0,46,273,47,50,0,-29,-44,0,0,100,0,138,273,47,50,0,-5,-29,0,0,100,0,210,219,36,26,0,-23,-52,0,0,100,0,330,120,56,41,0,-23,-46,0,0,100,0,220,160,56,41,0,-20,-26,0,0,100,0,175,200,36,20,0,-15,-24,0,0,100,0,105,244,36,30,0,-25,-8,0,0,65,0,83,0,50,16,0,
0,7,-26,-44,0,0,30,0,92,273,47,50,0,-4,-29,0,0,100,0,175,219,36,26,0,-22,-52,0,0,100,0,275,120,56,41,0,-22,-46,0,0,100,0,165,160,56,41,0,-19,-26,0,0,100,0,140,200,36,20,0,-15,-24,0,0,100,0,105,244,36,30,0,-25,-8,0,0,65,0,83,0,50,16,0,
0,7,-29,-44,0,0,30,0,138,273,47,50,0,-5,-29,0,0,100,0,210,219,36,26,0,-23,-52,0,0,100,0,330,120,56,41,0,-23,-46,0,0,100,0,220,160,56,41,0,-20,-26,0,0,100,0,175,200,36,20,0,-15,-24,0,0,100,0,105,244,36,30,0,-25,-8,0,0,65,0,83,0,50,16,0,
0,6,-4,-29,0,0,100,0,175,219,36,26,0,-22,-52,0,0,100,0,275,120,56,41,0,-22,-46,0,0,100,0,165,160,56,41,0,-19,-26,0,0,100,0,140,200,36,20,0,-15,-24,0,0,100,0,105,244,36,30,0,-25,-8,0,0,65,0,83,0,50,16,0,
0,6,-5,-29,0,0,100,0,210,219,36,26,0,-23,-52,0,0,100,0,330,120,56,41,0,-23,-46,0,0,100,0,220,160,56,41,0,-20,-26,0,0,100,0,175,200,36,20,0,-15,-24,0,0,100,0,105,244,36,30,0,-25,-8,0,0,65,0,83,0,50,16,0,
0,6,-12,-28,0,0,100,0,179,70,36,26,0,-39,-42,0,0,100,0,124,15,56,41,0,-31,-39,0,0,100,0,124,55,56,41,0,-24,-17,0,0,100,0,179,51,36,20,0,-15,-24,0,0,100,0,240,22,36,30,0,-25,-8,0,0,65,0,83,0,50,16,0,
0,7,-13,-27,0,0,100,-90,35,219,36,26,0,-38,-41,0,0,100,0,0,120,56,41,0,-30,-38,0,0,100,0,330,160,56,41,0,-23,-19,0,0,100,0,179,51,36,20,0,-15,-24,0,0,100,0,179,22,36,30,0,-29,-17,0,0,100,0,0,349,47,28,0,-25,-8,0,0,65,0,83,0,50,16,0,
0,8,-9,-28,0,0,100,0,179,70,36,26,0,-37,-43,0,0,100,0,110,120,56,41,0,-29,-39,0,0,100,0,124,55,56,41,0,-22,-17,0,0,100,0,35,200,36,20,0,-15,-24,0,0,100,0,179,22,36,30,0,5,-35,0,0,100,0,0,322,47,28,0,-29,-17,0,0,100,0,0,349,47,28,0,-25,-8,0,0,65,0,83,0,50,16,0,
0,8,-10,-27,0,0,100,0,179,70,36,26,0,-38,-41,0,0,100,0,0,120,56,41,0,-30,-37,0,0,100,0,275,160,56,41,0,-15,-26,0,0,100,90,140,200,36,20,0,-15,-24,0,0,100,0,179,22,36,30,0,9,-28,0,0,100,0,46,322,47,28,0,-29,-17,0,0,100,0,46,349,47,28,0,-25,-8,0,0,65,0,83,0,50,16,0,
0,8,-9,-28,0,0,100,0,179,70,36,26,0,-39,-43,0,0,100,0,55,120,56,41,0,-29,-39,0,0,100,0,330,160,56,41,0,-24,-21,0,0,100,0,70,200,36,20,0,-15,-24,0,0,100,0,179,22,36,30,0,-29,-17,0,0,100,0,46,349,47,28,0,-42,-30,1,0,100,0,0,322,47,28,0,-25,-8,0,0,65,0,83,0,50,16,0,
0,8,-9,-27,0,0,100,0,179,70,36,26,0,-39,-42,0,0,100,0,55,120,56,41,0,-29,-38,0,0,100,0,330,160,56,41,0,-24,-20,0,0,100,0,70,200,36,20,0,-15,-24,0,0,100,0,179,22,36,30,0,-29,-17,0,0,100,0,46,349,47,28,0,-42,-25,1,0,100,0,46,322,47,28,0,-25,-8,0,0,65,0,83,0,50,16,0,
0,7,-9,-26,0,0,100,0,179,70,36,26,0,-39,-41,0,0,100,0,55,120,56,41,0,-29,-37,0,0,100,0,330,160,56,41,0,-24,-19,0,0,100,0,70,200,36,20,0,-15,-24,0,0,100,0,274,22,36,30,0,-29,-17,0,0,100,0,46,349,47,28,0,-25,-8,0,0,65,0,83,0,50,16,0,
0,7,-29,-17,0,0,100,0,46,349,47,28,0,-9,-33,0,0,100,0,210,219,36,26,0,-32,-53,0,0,100,0,220,120,56,41,0,-27,-48,0,0,100,0,110,160,56,41,0,-23,-30,0,0,100,0,105,200,36,20,0,-19,-28,0,0,100,0,140,244,36,30,0,-27,-8,0,0,65,0,83,0,50,16,0,
0,7,-29,-17,0,0,100,0,46,349,47,28,0,-12,-36,0,0,100,0,210,219,36,26,0,-35,-56,0,0,100,0,220,120,56,41,0,-30,-51,0,0,100,0,110,160,56,41,0,-26,-33,0,0,100,0,105,200,36,20,0,-22,-31,0,0,100,0,140,244,36,30,0,-30,-8,0,0,65,0,83,0,50,16,0,
0,4,-37,-51,0,0,100,0,440,120,56,41,0,-36,-36,0,0,100,0,385,160,56,41,0,-29,-17,0,0,100,0,46,349,47,28,0,-34,-8,0,0,65,0,83,0,50,16,0,
0,4,-37,-40,0,0,100,0,440,120,56,41,0,-36,-26,0,0,100,0,440,160,56,41,0,-29,-17,0,0,100,0,46,349,47,28,0,-34,-8,0,0,65,0,83,0,50,16,0,
0,4,-37,-32,0,0,100,0,385,120,56,41,0,-36,-26,0,0,100,0,440,160,56,41,0,-29,-17,0,0,100,0,46,349,47,28,0,-34,-8,0,0,65,0,83,0,50,16,0,
0,4,-37,-25,0,0,100,0,274,206,56,41,0,-36,-26,0,0,100,0,440,160,56,41,0,-29,-17,0,0,100,0,46,349,47,28,0,-34,-8,0,0,65,0,83,0,50,16,0,
