15,0,0,8,
16,0,0,8,
17,0,0,8,
18,0,0,4,
19,0,0,8,
20,0,0,10,
21,0,0,6,
22,0,0,6,
23,0,0,10,
24,0,0,10,
25,0,0,6,
26,0,0,6,
27,0,0,9,
28,0,0,7,
29,0,0,6,
30,0,0,8,
31,0,0,10,
32,0,0,7,
33,0,0,7,
34,0,0,8,
35,0,0,9,
36,0,0,10,
37,0,0,10,
