0,6,-64,-80,0,0,100,0,72,0,112,96,0,-36,-32,0,0,100,0,416,480,32,32,0,-72,-32,0,0,100,0,0,736,64,48,0,-1,-44,0,0,100,0,0,832,24,24,0,-1,-44,0,0,85,0,24,832,24,24,0,-22,-8,0,0,65,0,8,8,48,16,0,
0,6,-64,-80,0,0,100,0,184,0,112,96,0,-35,-33,0,0,100,0,416,480,32,32,0,-71,-33,0,0,100,0,64,736,64,48,0,-1,-45,0,0,100,0,0,832,24,24,0,-1,-45,0,0,85,0,48,832,24,24,0,-22,-8,0,0,65,0,8,8,48,16,0,
0,6,-64,-80,0,0,100,0,296,0,112,96,0,-34,-33,0,0,100,0,416,480,32,32,0,-70,-33,0,0,100,0,128,736,64,48,0,-1,-45,0,0,100,0,0,832,24,24,0,-1,-45,0,0,85,0,72,832,24,24,0,-22,-8,0,0,65,0,8,8,48,16,0,
0,6,-64,-80,0,0,100,0,408,0,112,96,0,-35,-32,0,0,100,0,416,480,32,32,0,-71,-32,0,0,100,0,192,736,64,48,0,-1,-44,0,0,100,0,0,832,24,24,0,-1,-44,0,0,85,0,96,832,24,24,0,-22,-8,0,0,65,0,8,8,48,16,0,
0,15,-8,-63,0,0,100,0,0,856,48,72,0,-8,-63,0,1,25,0,48,856,48,72,0,-8,-63,0,0,65,0,48,856,48,72,0,-7,-63,0,0,25,0,48,856,48,72,0,-56,-80,0,0,100,0,0,96,104,96,0,-8,-40,0,0,100,0,240,784,48,24,0,-8,-40,0,1,25,0,240,808,48,24,0,-8,-40,0,0,65,0,240,808,48,24,0,-6,-40,0,0,45,0,240,808,48,24,0,-9,-65,0,0,100,0,0,928,48,72,0,-8,-65,0,0,35,0,48,928,48,72,0,-9,-65,0,0,15,0,48,928,48,72,0,-31,-33,0,0,100,0,448,480,32,32,0,-56,-32,0,0,85,0,0,784,48,48,0,-22,-8,0,0,65,0,8,8,48,16,0,
0,10,-13,-64,0,0,100,0,0,856,48,72,0,-13,-64,0,0,100,0,48,856,48,72,0,-61,-80,0,0,100,0,0,96,104,96,0,-13,-64,0,0,100,0,0,928,48,72,0,-13,-64,0,0,100,0,48,928,48,72,0,-13,-40,0,0,100,0,240,784,48,24,0,-13,-40,0,0,100,0,240,808,48,24,0,-36,-33,0,0,100,0,448,480,32,32,0,-61,-32,0,0,85,0,0,784,48,48,0,-27,-8,0,0,65,0,8,8,48,16,0,
0,10,-21,-62,0,0,100,0,0,856,48,72,0,-21,-62,0,0,85,0,96,856,48,72,0,-72,-80,0,0,100,0,104,96,104,96,0,-24,-62,0,0,100,0,0,928,48,72,0,-24,-62,0,0,60,0,96,928,48,72,0,-18,-41,0,0,100,0,240,784,48,24,0,-23,-41,0,0,75,0,240,808,48,24,0,-51,-24,0,0,100,0,480,480,32,32,0,-64,-24,0,0,90,0,48,784,48,48,0,-38,-8,0,0,65,0,8,8,48,16,0,
0,12,-20,-56,0,0,100,0,0,624,48,48,0,-20,-64,0,0,85,0,768,816,64,64,0,-75,-80,0,0,100,0,104,96,104,96,0,-56,-62,1,0,100,0,0,928,48,72,0,-56,-62,1,0,60,0,144,928,48,72,0,-15,-25,0,0,100,0,0,704,32,32,0,-15,-25,0,0,85,0,96,704,32,32,0,-22,-38,0,0,100,0,0,832,24,24,0,-22,-38,0,0,85,0,72,832,24,24,0,-54,-24,0,0,100,0,480,480,32,32,0,-67,-24,0,0,100,0,48,784,48,48,0,-42,-8,0,0,65,0,8,8,48,16,0,
0,14,-136,-80,0,1,80,0,640,288,192,128,0,-136,-80,0,0,20,0,640,288,192,128,0,-61,-80,0,0,100,0,208,96,104,96,0,-41,-38,1,0,100,0,0,832,24,24,0,-41,-38,1,0,85,0,96,832,24,24,0,-63,-59,1,0,100,0,0,624,48,48,0,-79,-67,1,0,85,0,832,816,64,64,0,-17,-65,0,0,100,0,0,856,48,72,0,-17,-65,0,0,60,0,192,856,48,72,0,-53,-28,0,0,100,0,0,672,32,32,0,-53,-28,0,0,85,0,128,672,32,32,0,-6,-37,0,0,100,0,512,480,32,32,0,-13,-48,0,0,100,0,96,784,48,48,0,-45,-8,0,0,65,0,8,8,48,16,0,
0,16,-136,-80,0,1,80,0,832,288,192,128,0,-136,-80,0,0,20,0,832,288,192,128,0,-61,-80,0,0,100,0,312,96,104,96,0,-38,-39,1,0,100,0,0,832,24,24,0,-38,-39,1,0,85,0,24,832,24,24,0,-63,-61,1,0,100,0,0,624,48,48,0,-79,-69,1,0,85,0,640,816,64,64,0,-30,-67,0,0,100,0,0,928,48,72,0,-30,-67,0,0,60,0,48,928,48,72,0,-52,-29,0,0,100,0,0,672,32,32,0,-52,-29,0,0,85,0,32,672,32,32,0,-21,-32,0,0,100,0,0,704,32,32,0,-21,-32,0,0,85,0,32,704,32,32,0,-4,-36,0,0,100,0,512,480,32,32,0,-11,-47,0,0,100,0,96,784,48,48,0,-44,-8,0,0,65,0,8,8,48,16,0,
0,11,-72,-72,0,1,65,0,880,216,144,72,0,-72,-72,0,1,15,0,880,216,144,72,0,-53,-66,1,0,100,0,0,856,48,72,0,-53,-66,1,0,75,0,96,856,48,72,0,-55,-67,1,0,100,0,0,928,48,72,0,-55,-67,1,0,45,0,96,928,48,72,0,-33,-44,1,0,100,0,120,832,24,24,0,-33,-44,1,0,85,0,168,832,24,24,0,-61,-80,0,0,100,0,416,96,104,96,0,-13,-72,0,0,100,0,864,656,80,80,0,-33,-8,0,0,65,0,8,8,48,16,0,
0,11,-50,-68,1,0,100,0,0,928,48,72,0,-50,-68,1,0,85,0,144,928,48,72,0,-7,-68,0,0,100,0,0,856,48,72,0,-7,-68,0,0,85,0,144,856,48,72,0,-30,-45,1,0,100,0,0,832,24,24,0,-30,-45,1,0,85,0,48,832,24,24,0,-4,-45,0,0,100,0,120,832,24,24,0,-4,-45,0,0,85,0,192,832,24,24,0,-56,-80,0,0,100,0,0,192,104,96,0,-24,-96,0,0,100,0,288,752,80,80,0,-28,-8,0,0,65,0,8,8,48,16,0,
0,13,-49,-65,1,0,100,0,0,856,48,72,0,-49,-65,1,0,85,0,192,856,48,72,0,-4,-59,0,0,100,0,0,624,48,48,0,-4,-67,0,0,85,0,832,816,64,64,0,-8,-31,0,0,100,0,160,704,32,32,0,-8,-31,0,0,85,0,288,704,32,32,0,-2,-43,0,0,100,0,0,832,24,24,0,-2,-43,0,0,85,0,96,832,24,24,0,-26,-43,1,0,100,0,120,832,24,24,0,-26,-43,1,0,85,0,216,832,24,24,0,-56,-80,0,0,100,0,104,192,104,96,0,-16,-94,0,0,100,0,368,752,80,80,0,-26,-8,0,0,65,0,8,8,48,16,0,
0,13,-49,-66,1,0,100,0,0,856,48,72,0,-49,-66,1,0,85,0,48,856,48,72,0,-4,-60,0,0,100,0,0,624,48,48,0,-4,-68,0,0,85,0,640,816,64,64,0,-8,-32,0,0,100,0,160,704,32,32,0,-8,-32,0,0,85,0,192,704,32,32,0,-2,-43,0,0,100,0,0,832,24,24,0,-2,-43,0,0,85,0,24,832,24,24,0,-26,-43,1,0,100,0,120,832,24,24,0,-26,-43,1,0,85,0,144,832,24,24,0,-56,-80,0,0,100,0,208,192,104,96,0,-16,-96,0,0,100,0,448,752,80,80,0,-26,-8,0,0,65,0,8,8,48,16,0,
0,13,-50,-66,1,0,100,0,0,856,48,72,0,-50,-66,1,0,85,0,96,856,48,72,0,-3,-60,0,0,100,0,0,624,48,48,0,-3,-68,0,0,85,0,704,816,64,64,0,-8,-32,0,0,100,0,160,704,32,32,0,-8,-32,0,0,85,0,224,704,32,32,0,-2,-43,0,0,100,0,0,832,24,24,0,-2,-43,0,0,85,0,48,832,24,24,0,-26,-43,1,0,100,0,120,832,24,24,0,-26,-43,1,0,85,0,168,832,24,24,0,-56,-80,0,0,100,0,312,192,104,96,0,-56,-96,0,0,100,0,528,752,112,80,0,-26,-8,0,0,65,0,8,8,48,16,0,
0,11,-3,-68,0,0,100,0,0,856,48,72,0,-3,-68,0,0,90,0,144,856,48,72,0,-5,-68,0,0,100,0,0,928,48,72,0,-5,-68,0,0,70,0,144,928,48,72,0,-5,-43,0,0,100,0,0,832,24,24,0,-5,-43,0,0,80,0,72,832,24,24,0,-1,-42,0,0,100,0,240,832,24,24,0,-2,-40,0,0,60,0,312,832,24,24,0,-56,-80,0,0,100,0,416,192,104,96,0,-84,-80,0,0,100,0,752,576,112,80,0,-27,-8,0,0,65,0,8,8,48,16,0,
0,11,-2,-66,0,0,100,0,0,856,48,72,0,-2,-66,0,0,80,0,192,856,48,72,0,-3,-66,0,0,100,0,0,928,48,72,0,-3,-66,0,0,60,0,192,928,48,72,0,-4,-42,0,0,100,0,0,832,24,24,0,-4,-42,0,0,70,0,96,832,24,24,0,0,-41,0,0,100,0,240,832,24,24,0,-1,-39,0,0,50,0,336,832,24,24,0,-96,-80,0,0,100,0,0,288,136,96,0,-88,-77,0,0,100,0,640,576,112,80,0,-27,-8,0,0,65,0,8,8,48,16,0,
0,12,-2,-67,0,0,100,0,0,856,48,72,0,-2,-67,0,0,75,0,48,856,48,72,0,-3,-67,0,0,100,0,0,928,48,72,0,-3,-67,0,0,60,0,48,928,48,72,0,-4,-42,0,0,100,0,0,832,24,24,0,-4,-42,0,0,60,0,24,832,24,24,0,0,-41,0,0,100,0,240,832,24,24,0,-1,-39,0,0,40,0,264,832,24,24,0,-96,-80,0,0,100,0,136,288,136,96,0,-88,-80,0,1,75,0,640,576,112,80,0,-88,-80,0,0,100,0,640,496,112,80,0,-27,-8,0,0,65,0,8,8,48,16,0,
0,16,-98,-74,0,1,50,0,320,656,80,80,0,-82,-74,0,1,50,0,320,576,80,80,0,-82,-74,0,1,50,0,640,416,80,80,0,-2,-67,0,0,100,0,0,856,48,72,0,-2,-67,0,0,80,0,144,856,48,72,0,-3,-67,0,0,100,0,0,928,48,72,0,-3,-67,0,0,70,0,144,928,48,72,0,-4,-42,0,0,100,0,0,832,24,24,0,-4,-42,0,0,70,0,48,832,24,24,0,0,-41,0,0,100,0,240,832,24,24,0,-1,-39,0,0,50,0,288,832,24,24,0,-64,-60,1,1,100,180,592,336,48,48,0,-64,-60,0,1,100,0,592,336,48,48,0,-96,-80,0,0,100,0,272,288,136,96,0,-88,-80,0,0,100,0,640,496,112,80,0,-27,-8,0,0,65,0,8,8,48,16,0,
0,16,-98,-74,0,1,70,0,400,656,80,80,0,-82,-74,0,1,70,0,400,576,80,80,0,-82,-74,0,1,70,0,720,416,80,80,0,-2,-67,0,0,100,0,0,856,48,72,0,-2,-67,0,0,85,0,144,856,48,72,0,-3,-67,0,0,100,0,0,928,48,72,0,-3,-67,0,0,65,0,144,928,48,72,0,-4,-42,0,0,100,0,0,832,24,24,0,-4,-42,0,0,80,0,72,832,24,24,0,0,-41,0,0,100,0,240,832,24,24,0,-1,-39,0,0,60,0,312,832,24,24,0,-64,-60,1,1,100,180,544,336,48,48,0,-64,-60,0,1,100,0,544,336,48,48,0,-96,-80,0,0,100,0,272,288,136,96,0,-88,-80,0,0,100,0,640,496,112,80,0,-27,-8,0,0,65,0,8,8,48,16,0,
0,16,-98,-74,0,1,90,0,480,656,80,80,0,-82,-74,0,1,90,0,480,576,80,80,0,-82,-74,0,1,90,0,800,416,80,80,0,-2,-67,0,0,100,0,0,856,48,72,0,-2,-67,0,0,85,0,192,856,48,72,0,-3,-67,0,0,100,0,0,928,48,72,0,-3,-67,0,0,60,0,192,928,48,72,0,-4,-42,0,0,100,0,0,832,24,24,0,-4,-42,0,0,90,0,96,832,24,24,0,0,-41,0,0,100,0,240,832,24,24,0,-1,-39,0,0,70,0,336,832,24,24,0,-64,-60,1,1,100,180,592,288,48,48,0,-64,-60,0,1,100,0,592,288,48,48,0,-96,-80,0,0,100,0,272,288,136,96,0,-88,-80,0,0,100,0,640,496,112,80,0,-27,-8,0,0,65,0,8,8,48,16,0,
0,16,-98,-74,0,1,100,0,560,656,80,80,0,-82,-74,0,1,100,0,560,576,80,80,0,-82,-74,0,1,100,0,880,416,80,80,0,-2,-67,0,0,100,0,0,856,48,72,0,-2,-67,0,0,85,0,48,856,48,72,0,-3,-67,0,0,100,0,0,928,48,72,0,-3,-67,0,0,60,0,48,928,48,72,0,-4,-42,0,0,100,0,0,832,24,24,0,-4,-42,0,0,80,0,24,832,24,24,0,0,-41,0,0,100,0,240,832,24,24,0,-1,-39,0,0,60,0,264,832,24,24,0,-64,-60,1,1,100,180,544,288,48,48,0,-64,-60,0,1,100,0,544,288,48,48,0,-96,-80,0,0,100,0,272,288,136,96,0,-88,-80,0,0,100,0,640,496,112,80,0,-27,-8,0,0,65,0,8,8,48,16,0,
0,21,-128,-96,0,1,75,0,480,840,128,128,0,-104,-96,0,1,50,0,896,736,128,128,0,-96,-80,0,1,50,0,272,288,136,96,0,-1,-68,0,0,100,0,0,856,48,56,0,-1,-68,0,1,50,0,96,856,48,72,0,-1,-68,0,0,85,0,96,856,48,72,0,-2,-68,0,0,100,0,0,928,48,72,0,-2,-68,0,1,25,0,96,928,48,72,0,-2,-68,0,0,60,0,96,928,48,72,0,-4,-42,0,0,100,0,0,832,24,24,0,-4,-42,0,0,70,0,48,832,24,24,0,0,-41,0,0,100,0,240,832,24,24,0,-1,-39,0,0,50,0,288,832,24,24,0,-64,-60,1,1,100,180,592,336,48,48,0,-64,-60,0,1,100,0,592,336,48,48,0,-96,-80,0,0,100,0,272,288,136,96,0,-88,-80,0,1,50,0,640,496,112,80,0,-88,-80,0,0,100,0,640,496,112,80,0,-152,-80,0,1,100,0,752,656,112,96,0,-120,-80,0,1,100,0,784,192,96,96,0,-27,-8,0,0,65,0,8,8,48,16,0,
0,19,-92,-80,0,1,25,0,408,288,136,96,0,3,-65,0,0,100,0,0,856,48,72,0,3,-65,0,0,85,0,144,856,48,72,0,3,-65,0,0,100,0,0,928,48,72,0,3,-65,0,0,60,0,144,928,48,72,0,1,-42,0,0,100,0,0,832,24,24,0,1,-42,0,0,60,0,72,832,24,24,0,5,-41,0,0,100,0,240,832,24,24,0,4,-39,0,0,40,0,312,832,24,24,0,-56,-68,0,1,50,90,592,336,48,48,0,-56,-52,1,1,50,0,592,336,48,48,0,-92,-80,0,0,100,0,408,288,136,96,0,-76,-80,0,1,25,0,752,496,112,80,0,-76,-80,0,0,100,0,752,496,112,80,0,-168,-80,0,1,100,0,640,656,112,96,0,-184,-80,0,1,100,0,640,656,112,96,0,-152,-80,0,1,100,0,736,880,112,96,0,-120,-80,0,1,100,0,640,880,96,96,0,-23,-8,0,0,65,0,8,8,48,16,0,
0,17,4,-65,0,0,100,0,0,856,48,72,0,4,-65,0,0,85,0,192,856,48,72,0,4,-65,0,0,100,0,0,928,48,72,0,4,-65,0,0,60,0,192,928,48,72,0,2,-42,0,0,100,0,0,832,24,24,0,2,-42,0,0,70,0,96,832,24,24,0,6,-41,0,0,100,0,240,832,24,24,0,5,-39,0,0,50,0,336,832,24,24,0,-53,-69,0,1,25,90,592,336,48,48,0,-54,-50,1,1,25,0,592,336,48,48,0,-92,-80,0,0,100,0,0,384,136,96,0,-75,-79,0,0,100,0,752,496,112,80,0,-184,-80,0,1,50,0,688,192,96,96,0,-224,-80,0,1,50,0,640,656,112,96,0,-154,-80,0,1,25,0,736,880,112,96,0,-122,-80,0,1,25,0,640,880,96,96,0,-22,-8,0,0,65,0,8,8,48,16,0,
0,14,6,-65,0,0,100,0,0,856,48,72,0,6,-65,0,0,85,0,48,856,48,72,0,6,-65,0,0,100,0,0,928,48,72,0,6,-65,0,0,60,0,48,928,48,72,0,2,-42,0,0,100,0,0,832,24,24,0,2,-42,0,0,80,0,24,832,24,24,0,6,-41,0,0,100,0,240,832,24,24,0,5,-39,0,0,60,0,264,832,24,24,0,-36,-80,0,0,100,0,56,384,80,96,0,-75,-79,0,0,100,0,752,496,112,80,0,-92,-80,0,0,50,0,0,384,136,96,0,-216,-80,0,1,25,0,688,192,96,96,0,-256,-80,0,1,25,0,640,656,112,96,0,-22,-8,0,0,65,0,8,8,48,16,0,
0,11,3,-66,0,0,100,0,0,856,48,72,0,3,-66,0,0,85,0,144,856,48,72,0,3,-66,0,0,100,0,0,928,48,72,0,3,-66,0,0,60,0,144,928,48,72,0,1,-43,0,0,100,0,0,832,24,24,0,1,-43,0,0,70,0,48,832,24,24,0,5,-42,0,0,100,0,240,832,24,24,0,4,-40,0,0,50,0,288,832,24,24,0,-92,-80,0,0,100,0,136,384,136,96,0,-83,-78,0,0,100,0,640,496,112,80,0,-22,-8,0,0,65,0,8,8,48,16,0,
0,11,2,-65,0,0,100,0,0,856,48,72,0,2,-65,0,0,80,0,192,856,48,72,0,2,-65,0,0,100,0,0,928,48,72,0,2,-65,0,0,50,0,192,928,48,72,0,1,-43,0,0,100,0,0,832,24,24,0,1,-43,0,0,60,0,72,832,24,24,0,5,-42,0,0,100,0,240,832,24,24,0,4,-40,0,0,40,0,312,832,24,24,0,-92,-80,0,0,100,0,272,384,136,96,0,-83,-77,0,0,100,0,640,496,112,80,0,-22,-8,0,0,65,0,8,8,48,16,0,
0,16,-64,-80,0,0,100,0,520,0,112,96,0,2,-45,0,0,100,0,0,832,24,24,0,2,-45,0,0,85,0,24,832,24,24,0,-34,-32,0,1,35,0,416,480,32,32,0,-34,-32,0,0,100,0,416,480,32,32,0,-70,-32,0,1,75,0,0,736,64,48,0,-70,-32,0,0,50,0,0,736,64,48,0,3,-67,1,0,100,0,0,576,48,48,0,3,-75,1,0,75,0,768,752,64,64,0,-44,-62,1,0,100,0,0,624,48,48,0,-60,-70,1,0,75,0,768,816,64,64,0,6,-31,0,0,100,0,0,704,32,32,0,6,-31,0,0,75,0,64,704,32,32,0,-33,-32,0,0,100,0,0,672,32,32,0,-33,-32,0,0,75,0,64,672,32,32,0,-22,-8,0,0,65,0,8,8,48,16,0,
0,15,-64,-80,0,0,100,0,632,0,112,96,0,2,-46,0,0,100,0,0,832,24,24,0,2,-46,0,0,85,0,96,832,24,24,0,-33,-33,0,0,100,0,416,480,32,32,0,-69,-33,0,1,25,0,0,736,64,48,0,-69,-33,0,0,75,0,0,736,64,48,0,4,-68,1,0,100,0,0,576,48,48,0,4,-76,1,0,65,0,832,752,64,64,0,-43,-63,1,0,100,0,0,624,48,48,0,-59,-71,1,0,65,0,832,816,64,64,0,7,-32,0,0,100,0,0,704,32,32,0,7,-32,0,0,65,0,96,704,32,32,0,-32,-33,0,0,100,0,0,672,32,32,0,-32,-33,0,0,65,0,96,672,32,32,0,-22,-8,0,0,65,0,8,8,48,16,0,
0,15,-40,-80,0,0,100,0,408,384,80,96,0,2,-47,0,0,100,0,0,832,24,24,0,2,-47,0,0,85,0,24,832,24,24,0,-31,-34,0,0,100,0,416,480,32,32,0,-67,-34,0,0,50,0,0,736,64,48,0,-67,-50,0,0,100,0,880,0,72,72,0,4,-70,1,0,100,0,0,576,48,48,0,4,-78,1,0,80,0,640,752,64,64,0,-43,-65,1,0,100,0,0,624,48,48,0,-59,-73,1,0,75,0,640,816,64,64,0,7,-34,0,0,100,0,0,704,32,32,0,7,-34,0,0,80,0,128,704,32,32,0,-32,-35,0,0,100,0,0,672,32,32,0,-32,-35,0,0,75,0,128,672,32,32,0,-22,-8,0,0,65,0,8,8,48,16,0,
0,15,-42,-38,3,1,100,0,544,288,48,48,0,-40,-80,0,0,100,0,488,384,80,96,0,2,-45,0,0,100,0,0,832,24,24,0,2,-45,0,0,85,0,48,832,24,24,0,-30,-31,0,0,100,0,416,480,32,32,0,-66,-47,0,0,100,0,952,0,72,72,0,4,-67,1,0,100,0,0,576,48,48,0,4,-75,1,0,85,0,704,752,64,64,0,-43,-62,1,0,100,0,0,624,48,48,0,-59,-70,1,0,85,0,704,816,64,64,0,7,-31,0,0,100,0,0,704,32,32,0,7,-31,0,0,85,0,32,704,32,32,0,-32,-32,0,0,100,0,0,672,32,32,0,-32,-32,0,0,85,0,32,672,32,32,0,-22,-8,0,0,65,0,8,8,48,16,0,
0,19,-42,-38,3,1,100,0,592,288,48,48,0,-40,-40,3,1,100,0,592,288,48,48,0,-45,-43,0,1,100,0,544,288,48,48,0,-46,-42,0,1,100,0,544,288,48,48,0,-64,-80,0,1,15,0,744,0,112,96,0,-64,-80,0,0,100,0,744,0,112,96,0,2,-46,0,0,100,0,0,832,24,24,0,2,-46,0,0,85,0,72,832,24,24,0,-31,-33,0,0,100,0,416,480,32,32,0,-67,-49,0,0,100,0,880,72,72,72,0,4,-68,1,0,100,0,0,576,48,48,0,4,-76,1,0,75,0,768,752,64,64,0,-43,-63,1,0,100,0,0,624,48,48,0,-59,-71,1,0,75,0,768,816,64,64,0,7,-32,0,0,100,0,0,704,32,32,0,7,-32,0,0,75,0,64,704,32,32,0,-32,-33,0,0,100,0,0,672,32,32,0,-32,-33,0,0,75,0,64,672,32,32,0,-22,-8,0,0,65,0,8,8,48,16,0,
0,18,-42,-38,0,1,100,90,544,336,48,48,0,-40,-40,0,1,100,-90,544,336,48,48,0,-45,-42,0,1,100,0,592,288,48,48,0,-48,-40,0,1,100,0,592,288,48,48,0,-64,-80,0,0,100,0,744,0,112,96,0,2,-46,0,0,100,0,0,832,24,24,0,2,-46,0,0,85,0,96,832,24,24,0,-31,-33,0,0,100,0,416,480,32,32,0,-67,-49,0,0,100,0,952,72,72,72,0,4,-68,1,0,100,0,0,576,48,48,0,4,-76,1,0,65,0,832,752,64,64,0,-43,-63,1,0,100,0,0,624,48,48,0,-59,-71,1,0,65,0,832,816,64,64,0,7,-32,0,0,100,0,0,704,32,32,0,7,-32,0,0,65,0,96,704,32,32,0,-32,-33,0,0,100,0,0,672,32,32,0,-32,-33,0,0,65,0,96,672,32,32,0,-22,-8,0,0,65,0,8,8,48,16,0,
0,16,-40,-40,0,1,100,-90,592,336,48,48,0,-49,-39,0,1,100,0,544,336,48,48,0,-64,-80,0,0,100,0,744,0,112,96,0,2,-46,0,0,100,0,0,832,24,24,0,2,-46,0,0,85,0,24,832,24,24,0,-31,-33,0,0,100,0,544,480,32,32,0,-67,-49,0,0,100,0,880,144,72,72,0,4,-68,1,0,100,0,0,576,48,48,0,4,-76,1,0,85,0,640,752,64,64,0,-43,-63,1,0,100,0,0,624,48,48,0,-59,-71,1,0,85,0,640,816,64,64,0,7,-32,0,0,100,0,0,704,32,32,0,7,-32,0,0,85,0,32,704,32,32,0,-32,-33,0,0,100,0,0,672,32,32,0,-32,-33,0,0,85,0,32,672,32,32,0,-22,-8,0,0,65,0,8,8,48,16,0,
0,16,-39,-41,3,1,50,0,592,336,48,48,0,-52,-36,0,1,100,0,592,336,48,48,0,-64,-80,0,0,100,0,744,0,112,96,0,2,-46,0,0,100,0,0,832,24,24,0,2,-46,0,0,85,0,48,832,24,24,0,-31,-33,0,0,100,0,544,480,32,32,0,-67,-49,0,0,100,0,952,144,72,72,0,4,-68,1,0,100,0,0,576,48,48,0,4,-76,1,0,75,0,704,752,64,64,0,-43,-63,1,0,100,0,0,624,48,48,0,-59,-71,1,0,75,0,704,816,64,64,0,7,-32,0,0,100,0,0,704,32,32,0,7,-32,0,0,75,0,64,704,32,32,0,-32,-33,0,0,100,0,0,672,32,32,0,-32,-33,0,0,75,0,64,672,32,32,0,-22,-8,0,0,65,0,8,8,48,16,0,
0,15,-40,-40,3,1,25,0,592,336,48,48,0,-53,-35,0,1,50,0,592,336,48,48,0,-40,-80,0,0,100,0,520,96,80,96,0,2,-46,0,0,100,0,0,832,24,24,0,2,-46,0,0,85,0,72,832,24,24,0,-31,-33,0,0,100,0,544,480,32,32,0,4,-68,1,0,100,0,0,576,48,48,0,4,-76,1,0,65,0,768,752,64,64,0,-43,-63,1,0,100,0,0,624,48,48,0,-59,-71,1,0,65,0,768,816,64,64,0,7,-32,0,0,100,0,0,704,32,32,0,7,-32,0,0,65,0,96,704,32,32,0,-32,-33,0,0,100,0,0,672,32,32,0,-32,-33,0,0,65,0,96,672,32,32,0,-22,-8,0,0,65,0,8,8,48,16,0,
0,13,-40,-80,0,0,100,0,600,96,80,96,0,2,-46,0,0,100,0,0,832,24,24,0,2,-46,0,0,85,0,96,832,24,24,0,-31,-33,0,0,100,0,544,480,32,32,0,4,-68,1,0,100,0,0,576,48,48,0,4,-76,1,0,80,0,832,752,64,64,0,-43,-63,1,0,100,0,0,624,48,48,0,-59,-71,1,0,75,0,832,816,64,64,0,7,-32,0,0,100,0,0,704,32,32,0,7,-32,0,0,80,0,128,704,32,32,0,-32,-33,0,0,100,0,0,672,32,32,0,-32,-33,0,0,75,0,128,672,32,32,0,-22,-8,0,0,65,0,8,8,48,16,0,
0,13,-40,-80,0,0,100,0,680,96,80,96,0,2,-46,0,0,100,0,0,832,24,24,0,2,-46,0,0,85,0,24,832,24,24,0,-31,-33,0,0,100,0,544,480,32,32,0,4,-68,1,0,100,0,0,576,48,48,0,4,-76,1,0,85,0,640,752,64,64,0,-43,-63,1,0,100,0,0,624,48,48,0,-59,-71,1,0,85,0,640,816,64,64,0,7,-32,0,0,100,0,0,704,32,32,0,7,-32,0,0,85,0,32,704,32,32,0,-32,-33,0,0,100,0,0,672,32,32,0,-32,-33,0,0,85,0,32,672,32,32,0,-22,-8,0,0,65,0,8,8,48,16,0,
0,13,-40,-80,0,0,100,0,760,96,80,96,0,2,-46,0,0,100,0,0,832,24,24,0,2,-46,0,0,85,0,48,832,24,24,0,-31,-33,0,0,100,0,544,480,32,32,0,4,-68,1,0,100,0,0,576,48,48,0,4,-76,1,0,75,0,704,752,64,64,0,-43,-63,1,0,100,0,0,624,48,48,0,-59,-71,1,0,75,0,704,816,64,64,0,7,-32,0,0,100,0,0,704,32,32,0,7,-32,0,0,75,0,64,704,32,32,0,-32,-33,0,0,100,0,0,672,32,32,0,-32,-33,0,0,75,0,64,672,32,32,0,-22,-8,0,0,65,0,8,8,48,16,0,
0,13,-40,-80,0,0,100,0,520,192,80,96,0,2,-46,0,0,100,0,0,832,24,24,0,2,-46,0,0,85,0,72,832,24,24,0,-31,-33,0,0,100,0,544,480,32,32,0,4,-68,1,0,100,0,0,576,48,48,0,4,-76,1,0,65,0,768,752,64,64,0,-43,-63,1,0,100,0,0,624,48,48,0,-59,-71,1,0,65,0,768,816,64,64,0,7,-32,0,0,100,0,0,704,32,32,0,7,-32,0,0,65,0,96,704,32,32,0,-32,-33,0,0,100,0,0,672,32,32,0,-32,-33,0,0,65,0,96,672,32,32,0,-22,-8,0,0,65,0,8,8,48,16,0,
0,13,-40,-80,0,0,100,0,600,192,80,96,0,2,-46,0,0,100,0,0,832,24,24,0,2,-46,0,0,85,0,96,832,24,24,0,-31,-33,0,0,100,0,544,480,32,32,0,4,-68,1,0,100,0,0,576,48,48,0,4,-76,1,0,80,0,832,752,64,64,0,-43,-63,1,0,100,0,0,624,48,48,0,-59,-71,1,0,75,0,832,816,64,64,0,7,-32,0,0,100,0,0,704,32,32,0,7,-32,0,0,80,0,128,704,32,32,0,-32,-33,0,0,100,0,0,672,32,32,0,-32,-33,0,0,75,0,128,672,32,32,0,-22,-8,0,0,65,0,8,8,48,16,0,
0,13,-32,-44,0,1,100,0,568,384,32,32,0,-34,-39,0,0,100,0,384,480,32,32,0,-64,-40,0,0,100,0,384,512,64,64,0,-48,-80,0,0,100,0,0,480,96,96,0,-52,-72,0,0,100,0,0,576,48,48,0,-68,-80,0,0,85,0,640,752,64,64,0,3,-67,0,0,100,0,0,624,48,48,0,3,-75,0,0,85,0,640,816,64,64,0,6,-33,0,0,100,0,0,704,32,32,0,6,-33,0,0,85,0,32,704,32,32,0,-32,-35,0,0,100,0,0,672,32,32,0,-32,-35,0,0,85,0,32,672,32,32,0,-22,-8,0,0,65,0,8,8,48,16,0,
0,13,-32,-45,0,1,100,0,600,384,32,32,0,-34,-40,0,0,100,0,384,480,32,32,0,-64,-41,0,0,90,0,448,512,64,64,0,-48,-80,0,0,100,0,96,480,96,96,0,-51,-73,0,0,100,0,0,576,48,48,0,-67,-81,0,0,75,0,704,752,64,64,0,2,-68,0,0,100,0,0,624,48,48,0,2,-76,0,0,75,0,704,816,64,64,0,5,-34,0,0,100,0,0,704,32,32,0,5,-34,0,0,75,0,64,704,32,32,0,-31,-36,0,0,100,0,0,672,32,32,0,-31,-36,0,0,75,0,64,672,32,32,0,-22,-8,0,0,65,0,8,8,48,16,0,
0,13,-32,-45,0,1,100,0,568,416,32,32,0,-34,-40,0,0,100,0,384,480,32,32,0,-64,-41,0,0,85,0,512,512,64,64,0,-48,-80,0,0,100,0,192,480,96,96,0,-52,-72,0,0,100,0,0,576,48,48,0,-68,-80,0,0,65,0,768,752,64,64,0,3,-67,0,0,100,0,0,624,48,48,0,3,-75,0,0,65,0,768,816,64,64,0,6,-33,0,0,100,0,0,704,32,32,0,6,-33,0,0,65,0,96,704,32,32,0,-32,-35,0,0,100,0,0,672,32,32,0,-32,-35,0,0,65,0,96,672,32,32,0,-22,-8,0,0,65,0,8,8,48,16,0,
0,13,-32,-44,0,1,100,0,600,416,32,32,0,-34,-39,0,0,100,0,384,480,32,32,0,-64,-40,0,0,90,0,576,512,64,64,0,-48,-80,0,0,100,0,288,480,96,96,0,-53,-71,0,0,100,0,0,576,48,48,0,-69,-79,0,0,80,0,832,752,64,64,0,4,-66,0,0,100,0,0,624,48,48,0,4,-74,0,0,75,0,832,816,64,64,0,7,-32,0,0,100,0,0,704,32,32,0,7,-32,0,0,80,0,128,704,32,32,0,-33,-34,0,0,100,0,0,672,32,32,0,-33,-34,0,0,75,0,128,672,32,32,0,-22,-8,0,0,65,0,8,8,48,16,0,
0,1,-22,-8,0,0,100,0,8,8,48,16,0,
0,1,0,0,0,0,100,0,48,856,48,144,0,
0,1,0,0,0,0,100,0,96,856,48,144,0,
0,1,0,0,0,0,100,0,144,856,48,144,0,
0,1,0,0,0,0,100,0,192,856,48,144,0,
