0,4,9,-58,0,1,100,0,544,0,48,56,0,-52,-88,0,1,90,0,640,536,128,104,0,-52,-88,0,0,100,0,640,0,128,104,0,-32,-16,0,0,65,0,1024,0,64,32,0,
0,4,9,-58,0,1,100,0,592,0,48,56,0,-52,-88,0,1,60,0,768,536,128,104,0,-52,-88,0,0,100,0,768,0,128,104,0,-32,-16,0,0,65,0,1024,0,64,32,0,
0,4,9,-58,0,1,100,0,544,56,48,56,0,-52,-88,0,1,50,0,896,536,128,104,0,-52,-88,0,0,100,0,896,0,128,104,0,-32,-16,0,0,65,0,1024,0,64,32,0,
0,4,9,-58,0,1,100,0,592,56,48,56,0,-52,-88,0,1,60,0,768,536,128,104,0,-52,-88,0,0,100,0,768,0,128,104,0,-32,-16,0,0,65,0,1024,0,64,32,0,
0,5,-10,-32,0,1,100,0,56,144,40,16,0,-5,-24,0,1,100,0,56,160,48,16,0,-65,-73,0,0,100,0,640,104,96,88,0,2,-47,0,1,100,90,544,0,48,56,0,-32,-16,0,0,65,0,1024,0,64,32,0,
0,2,-65,-73,0,0,100,0,640,104,96,88,0,-32,-16,0,0,65,0,1024,0,64,32,0,
0,2,-65,-73,0,0,100,0,640,104,96,88,0,-32,-16,0,0,65,0,1024,0,64,32,0,
0,12,-82,-27,0,1,20,0,0,320,32,32,0,-24,-92,0,1,20,0,0,320,32,32,0,-6,-6,0,1,20,0,0,320,32,32,0,-73,-60,0,1,100,0,856,456,72,48,0,-62,-50,0,1,100,0,0,256,144,64,0,-73,-60,0,0,100,0,856,456,72,48,0,-7,-54,0,0,100,0,640,504,40,32,0,-24,-40,0,0,100,0,640,456,72,48,0,-27,-35,0,0,100,0,896,104,48,40,0,-43,-54,0,0,100,0,832,104,64,48,0,-39,-29,0,0,100,0,832,152,64,40,0,-40,-16,0,0,65,0,1024,0,64,32,0,
0,15,-73,-15,0,1,20,0,0,320,32,32,0,-43,-90,0,1,20,0,0,320,32,32,0,-3,-22,0,1,20,0,0,320,32,32,0,-63,-10,0,1,50,0,0,320,32,32,0,-50,-84,0,1,50,0,0,320,32,32,0,1,-32,0,1,50,0,0,320,32,32,0,-73,-60,0,1,100,0,856,456,72,48,0,-63,-50,0,1,50,0,0,256,144,64,0,-73,-60,0,0,100,0,856,456,72,48,0,-7,-54,0,0,100,0,680,504,40,32,0,-24,-40,0,0,100,0,712,456,72,48,0,-27,-35,0,0,100,0,896,104,48,40,0,-43,-54,0,0,100,0,832,104,64,48,0,-39,-29,0,0,100,0,832,152,64,40,0,-40,-16,0,0,65,0,1024,0,64,32,0,
0,16,-46,-14,0,1,30,0,0,320,32,32,0,-69,-69,0,1,30,0,0,320,32,32,0,-15,-65,0,1,30,0,0,320,32,32,0,-38,-17,0,1,80,0,0,320,32,32,0,-72,-60,0,1,80,0,0,320,32,32,0,-21,-69,0,1,80,0,0,320,32,32,0,-72,-48,0,1,60,0,544,232,72,32,0,-73,-60,0,1,100,0,856,456,72,48,0,-65,-51,0,1,80,0,208,256,64,56,0,-73,-60,0,0,100,0,856,456,72,48,0,-7,-54,0,0,100,0,720,504,40,32,0,-24,-40,0,0,100,0,784,456,72,48,0,-27,-35,0,0,100,0,896,104,48,40,0,-43,-54,0,0,100,0,832,104,64,48,0,-39,-29,0,0,100,0,832,152,64,40,0,-40,-16,0,0,65,0,1024,0,64,32,0,
0,15,-31,-28,0,1,50,0,0,320,32,32,0,-66,-42,0,1,50,0,0,320,32,32,0,-35,-68,0,1,50,0,0,320,32,32,0,-28,-35,0,1,100,0,0,320,32,32,0,-60,-38,0,1,100,0,0,320,32,32,0,-42,-66,0,1,100,0,0,320,32,32,0,-73,-60,0,1,100,0,856,456,72,48,0,-64,-50,0,1,50,0,208,256,64,56,0,-73,-60,0,0,100,0,856,456,72,48,0,-7,-54,0,0,100,0,640,504,40,32,0,-24,-40,0,0,100,0,640,456,72,48,0,-27,-35,0,0,100,0,896,104,48,40,0,-43,-54,0,0,100,0,832,104,64,48,0,-39,-29,0,0,100,0,832,152,64,40,0,-40,-16,0,0,65,0,1024,0,64,32,0,
0,14,-33,-39,0,1,50,0,0,320,32,32,0,-56,-39,0,1,50,0,0,320,32,32,0,-44,-59,0,1,50,0,0,320,32,32,0,-48,-56,0,1,100,0,0,320,32,32,0,-51,-40,0,1,100,0,0,320,32,32,0,-35,-45,0,1,100,0,0,320,32,32,0,-73,-60,0,1,100,0,856,456,72,48,0,-73,-60,0,0,100,0,856,456,72,48,0,-7,-54,0,0,100,0,680,504,40,32,0,-24,-40,0,0,100,0,712,456,72,48,0,-27,-35,0,0,100,0,896,104,48,40,0,-43,-54,0,0,100,0,832,104,64,48,0,-39,-29,0,0,100,0,832,152,64,40,0,-40,-16,0,0,65,0,1024,0,64,32,0,
0,9,-53,-56,0,1,100,0,32,320,48,48,0,-73,-60,0,1,100,0,856,456,72,48,0,-73,-60,0,0,100,0,856,456,72,48,0,-7,-54,0,0,100,0,720,504,40,32,0,-24,-40,0,0,100,0,784,456,72,48,0,-27,-35,0,0,100,0,896,104,48,40,0,-43,-54,0,0,100,0,832,104,64,48,0,-39,-29,0,0,100,0,832,152,64,40,0,-40,-16,0,0,65,0,1024,0,64,32,0,
0,12,0,0,0,0,100,0,472,432,8,8,0,0,0,0,0,100,0,440,328,8,8,0,0,0,0,0,100,0,408,304,8,8,0,-61,-65,0,1,100,0,80,320,64,64,0,-73,-60,0,1,100,0,856,456,72,48,0,-73,-60,0,0,100,0,856,456,72,48,0,-7,-54,0,0,100,0,640,504,40,32,0,-24,-40,0,0,100,0,640,456,72,48,0,-27,-35,0,0,100,0,896,104,48,40,0,-43,-54,0,0,100,0,832,104,64,48,0,-39,-29,0,0,100,0,832,152,64,40,0,-40,-16,0,0,65,0,1024,0,64,32,0,
0,14,-56,-63,0,0,100,0,928,456,56,32,0,-67,-44,0,0,100,0,928,488,56,32,0,-48,-50,0,0,100,0,984,456,40,32,0,-67,-51,0,0,100,0,216,312,56,24,0,-104,-71,0,1,100,0,0,512,88,40,0,-129,-79,0,1,100,0,88,552,88,40,0,-149,-88,0,1,100,0,176,592,88,40,0,-4,-53,0,0,100,0,680,504,40,32,0,-22,-39,0,0,100,0,712,456,72,48,0,-25,-34,0,0,100,0,896,104,48,40,0,-40,-53,0,0,100,0,832,104,64,48,0,-39,-29,0,0,100,0,896,152,64,40,0,-65,-68,0,1,100,0,144,312,72,72,0,-38,-16,0,0,65,0,1024,0,64,32,0,
0,18,-204,-172,0,1,50,0,0,640,248,224,0,-199,-139,0,1,100,0,496,640,160,136,0,-48,-40,0,1,100,0,264,456,128,56,0,-86,-109,0,1,40,0,272,280,64,128,0,-55,-62,0,0,100,0,928,456,56,32,0,-66,-43,0,0,100,0,928,488,56,32,0,-47,-49,0,0,100,0,984,456,40,32,0,-57,-50,0,0,100,0,216,336,56,24,0,-3,-52,0,0,100,0,720,504,40,32,0,-21,-38,0,0,100,0,784,456,72,48,0,-24,-33,0,0,100,0,896,104,48,40,0,-39,-52,0,0,100,0,832,104,64,48,0,-39,-29,0,0,100,0,896,152,64,40,0,-108,-73,3,1,100,0,0,512,88,40,0,-183,-97,3,1,100,0,88,552,88,40,0,-253,-122,3,1,100,0,176,592,88,40,0,-152,-130,0,1,100,0,496,280,144,160,0,-38,-16,0,0,65,0,1024,0,64,32,0,
0,21,-206,-173,0,1,100,0,0,640,248,224,0,-48,-40,0,1,100,0,264,512,128,56,0,-80,-106,0,1,100,0,272,280,64,128,0,-55,-61,0,0,100,0,928,456,56,32,0,-66,-42,0,0,100,0,928,488,56,32,0,-47,-48,0,0,100,0,984,456,40,32,0,-70,-52,0,0,100,0,216,360,56,24,0,-3,-51,0,0,100,0,640,504,40,32,0,-21,-38,0,0,100,0,640,456,72,48,0,-24,-33,0,0,100,0,896,104,48,40,0,-39,-51,0,0,100,0,832,104,64,48,0,-39,-29,0,0,100,0,896,152,64,40,0,-249,-121,0,1,100,0,176,512,88,40,0,-182,-96,0,1,100,0,88,512,88,40,0,-108,-70,0,1,100,0,0,512,88,40,0,-171,-95,0,1,100,0,176,592,88,40,0,-110,-70,0,1,100,0,88,592,88,40,0,-250,-124,0,1,100,0,0,592,88,40,0,-232,-106,0,1,100,0,408,440,232,96,0,-152,-130,0,1,50,0,496,280,144,160,0,-38,-16,0,0,65,0,1024,0,64,32,0,
0,18,-206,-173,0,1,100,0,248,640,248,224,0,-48,-40,0,1,100,0,264,568,128,56,0,-64,-98,0,1,70,0,336,280,64,128,0,-56,-61,0,0,100,0,928,456,56,32,0,-67,-42,0,0,100,0,928,488,56,32,0,-48,-48,0,0,100,0,984,456,40,32,0,-69,-51,0,0,100,0,216,312,56,24,0,-4,-51,0,0,100,0,680,504,40,32,0,-22,-38,0,0,100,0,712,456,72,48,0,-25,-33,0,0,100,0,896,104,48,40,0,-40,-51,0,0,100,0,832,104,64,48,0,-39,-29,0,0,100,0,896,152,64,40,0,-244,-118,3,1,80,0,0,552,88,40,0,-105,-65,3,1,80,0,176,512,88,40,0,-182,-96,3,1,80,0,88,512,88,40,0,-256,-114,0,1,100,0,392,536,248,88,0,-232,-106,0,1,50,0,408,440,232,96,0,-38,-16,0,0,65,0,1024,0,64,32,0,
0,15,-100,-109,0,1,100,90,176,512,96,40,0,-48,-94,0,1,50,0,400,280,64,128,0,-55,-61,0,0,100,0,928,456,56,32,0,-66,-42,0,0,100,0,928,488,56,32,0,-47,-48,0,0,100,0,984,456,40,32,0,-65,-49,0,0,100,0,216,336,56,24,0,-3,-51,0,0,100,0,720,504,40,32,0,-22,-38,0,0,100,0,712,456,72,48,0,-25,-33,0,0,100,0,896,104,48,40,0,-39,-51,0,0,100,0,832,104,64,48,0,-39,-29,0,0,100,0,896,152,64,40,0,-253,-121,0,1,50,180,88,512,88,40,0,-181,-96,0,1,50,-180,0,552,88,40,0,-108,-71,0,1,50,180,176,592,88,40,0,-38,-16,0,0,65,0,1024,0,64,32,0,
0,15,-63,-144,0,1,100,0,592,0,48,56,0,-150,-30,0,1,100,0,544,56,48,56,0,-56,-61,0,0,100,0,928,456,56,32,0,-67,-42,0,0,100,0,928,488,56,32,0,-48,-48,0,0,100,0,984,456,40,32,0,-67,-50,0,0,100,0,216,360,56,24,0,-4,-51,0,0,100,0,640,504,40,32,0,-22,-38,0,0,100,0,784,456,72,48,0,-25,-33,0,0,100,0,896,104,48,40,0,-40,-51,0,0,100,0,832,104,64,48,0,-39,-29,0,0,100,0,896,152,64,40,0,-250,-124,0,1,30,0,0,552,88,40,0,-179,-97,0,1,30,0,176,592,88,40,0,-110,-70,0,1,30,0,88,592,88,40,0,-38,-16,0,0,65,0,1024,0,64,32,0,
0,12,-56,-61,0,0,100,0,928,456,56,32,0,-67,-42,0,0,100,0,928,488,56,32,0,-48,-48,0,0,100,0,984,456,40,32,0,-66,-49,0,0,100,0,216,312,56,24,0,-4,-51,0,0,100,0,680,504,40,32,0,-22,-38,0,0,100,0,640,456,72,48,0,-25,-33,0,0,100,0,896,104,48,40,0,-40,-51,0,0,100,0,832,104,64,48,0,-39,-29,0,0,100,0,896,152,64,40,0,-250,-124,3,1,20,0,0,592,88,40,0,-171,-95,3,1,20,0,176,592,88,40,0,-38,-16,0,0,65,0,1024,0,64,32,0,
0,11,-56,-61,0,0,100,0,928,456,56,32,0,-67,-42,0,0,100,0,928,488,56,32,0,-48,-48,0,0,100,0,984,456,40,32,0,-67,-49,0,0,100,0,216,336,56,24,0,-4,-51,0,0,100,0,720,504,40,32,0,-22,-38,0,0,100,0,712,456,72,48,0,-25,-33,0,0,100,0,896,104,48,40,0,-40,-51,0,0,100,0,832,104,64,48,0,-39,-29,0,0,100,0,896,152,64,40,0,-250,-121,0,1,10,0,176,592,88,40,0,-38,-16,0,0,65,0,1024,0,64,32,0,
0,10,-56,-64,0,0,100,0,928,456,56,32,0,-67,-45,0,0,100,0,928,488,56,32,0,-48,-51,0,0,100,0,984,456,40,32,0,-67,-52,0,0,50,0,216,360,56,24,0,-5,-54,0,0,100,0,640,504,40,32,0,-24,-40,0,0,100,0,784,456,72,48,0,-27,-35,0,0,100,0,896,104,48,40,0,-40,-54,0,0,100,0,832,104,64,48,0,-39,-29,0,0,100,0,832,152,64,40,0,-40,-16,0,0,65,0,1024,0,64,32,0,
0,10,-56,-64,0,0,100,0,928,456,56,32,0,-67,-45,0,0,100,0,928,488,56,32,0,-48,-51,0,0,100,0,984,456,40,32,0,-68,-53,0,0,50,0,216,312,56,24,0,-5,-54,0,0,100,0,680,504,40,32,0,-24,-40,0,0,100,0,640,456,72,48,0,-27,-35,0,0,100,0,896,104,48,40,0,-40,-54,0,0,100,0,832,104,64,48,0,-39,-29,0,0,100,0,832,152,64,40,0,-40,-16,0,0,65,0,1024,0,64,32,0,
0,9,-59,-62,0,0,100,0,928,456,56,32,0,-68,-47,0,0,100,0,928,488,56,32,0,-48,-51,0,0,100,0,984,456,40,32,0,-5,-54,0,0,100,0,720,504,40,32,0,-24,-40,0,0,100,0,712,456,72,48,0,-27,-35,0,0,100,0,896,104,48,40,0,-40,-54,0,0,100,0,832,104,64,48,0,-39,-29,0,0,100,0,832,152,64,40,0,-40,-16,0,0,65,0,1024,0,64,32,0,
0,9,-69,-60,0,1,100,0,856,456,72,48,0,-69,-60,0,1,100,0,856,456,72,48,0,-69,-60,0,0,100,0,856,456,72,48,0,-10,-42,0,0,100,0,760,504,40,32,0,-24,-40,0,0,100,0,1016,368,72,48,0,-27,-35,0,0,100,0,896,104,48,40,0,-40,-54,0,0,100,0,832,104,64,48,0,-39,-29,0,0,100,0,832,152,64,40,0,-40,-16,0,0,65,0,1024,0,64,32,0,
0,8,-68,-59,0,1,50,0,856,456,72,48,0,-68,-59,0,0,100,0,856,456,72,48,0,-10,-42,0,0,100,0,760,504,40,32,0,-24,-40,0,0,100,0,1016,368,72,48,0,-27,-35,0,0,100,0,896,104,48,40,0,-40,-54,0,0,100,0,832,104,64,48,0,-39,-29,0,0,100,0,832,152,64,40,0,-40,-16,0,0,65,0,1024,0,64,32,0,
0,7,-69,-59,0,0,100,0,856,456,72,48,0,-11,-42,0,0,100,0,760,504,40,32,0,-24,-40,0,0,100,0,1016,368,72,48,0,-27,-35,0,0,100,0,896,104,48,40,0,-41,-54,0,0,100,0,832,104,64,48,0,-39,-29,0,0,100,0,832,152,64,40,0,-40,-16,0,0,65,0,1024,0,64,32,0,
0,11,-4,-28,2,0,100,0,312,128,32,24,0,-14,-50,0,0,100,0,312,184,32,32,0,-27,-46,0,1,100,90,544,0,48,56,0,-62,-35,0,0,100,0,544,232,72,32,0,-8,-24,0,0,100,0,200,128,32,32,0,-24,-38,0,0,100,0,224,184,40,32,0,-24,-27,0,0,100,0,264,216,40,32,0,-16,-62,1,0,80,0,200,64,64,64,0,8,-62,1,0,70,0,136,64,56,64,0,-10,-21,0,0,100,0,432,256,16,24,0,-27,-7,0,0,100,0,32,368,48,16,0,
0,6,-40,-46,3,1,100,0,416,72,64,72,0,-51,-46,0,1,100,180,544,56,48,56,0,-55,-46,0,0,100,0,304,216,104,64,0,-56,-62,0,0,80,0,136,64,64,64,0,-56,-54,0,0,70,0,200,64,64,64,0,-27,-7,0,0,100,0,32,368,48,16,0,
0,2,-43,-72,0,0,100,0,640,192,96,88,0,-31,-16,0,0,65,0,1024,0,64,32,0,
0,2,-43,-72,0,0,100,0,736,192,96,88,0,-30,-16,0,0,65,0,1024,0,64,32,0,
0,5,-36,-53,0,1,100,0,56,144,40,16,0,-31,-45,0,1,100,0,56,160,48,16,0,-32,-58,0,0,100,0,776,368,48,48,0,-43,-72,0,0,100,0,832,192,96,88,0,-30,-16,0,0,65,0,1024,0,64,32,0,
0,4,-36,-72,0,1,100,0,0,0,48,56,0,-33,-59,0,0,100,0,776,368,48,48,0,-43,-72,0,0,100,0,832,192,96,88,0,-30,-16,0,0,65,0,1024,0,64,32,0,
0,4,-38,-64,0,1,100,0,48,0,48,56,0,-33,-59,0,0,100,0,776,368,48,48,0,-43,-72,0,0,100,0,832,192,96,88,0,-30,-16,0,0,65,0,1024,0,64,32,0,
0,4,-34,-70,0,1,100,0,96,0,48,56,0,-33,-59,0,0,100,0,776,368,48,48,0,-43,-72,0,0,100,0,832,192,96,88,0,-30,-16,0,0,65,0,1024,0,64,32,0,
0,4,-31,-68,0,1,100,0,144,0,48,56,0,-33,-59,0,0,100,0,776,368,48,48,0,-43,-72,0,0,100,0,832,192,96,88,0,-30,-16,0,0,65,0,1024,0,64,32,0,
0,5,-29,-55,0,1,80,0,0,56,48,56,0,0,-32,0,1,100,0,0,0,48,56,0,1,-20,0,0,100,0,736,368,40,24,0,-43,-72,0,0,100,0,928,192,96,88,0,-30,-16,0,0,65,0,1024,0,64,32,0,
0,5,-30,-60,0,1,60,0,48,56,48,56,0,0,-32,0,1,100,180,48,0,48,56,0,1,-20,0,0,100,0,736,368,40,24,0,-43,-72,0,0,100,0,1024,192,96,88,0,-30,-16,0,0,65,0,1024,0,64,32,0,
0,5,1,-22,0,1,100,0,56,128,24,16,0,0,-10,0,1,100,0,56,144,40,16,0,1,-20,0,0,100,0,736,368,40,24,0,-43,-72,0,0,100,0,1024,192,96,88,0,-30,-16,0,0,65,0,1024,0,64,32,0,
0,3,1,-20,0,0,100,0,736,368,40,24,0,-43,-72,0,0,100,0,1024,192,96,88,0,-30,-16,0,0,65,0,1024,0,64,32,0,
0,3,1,-20,0,0,100,0,736,368,40,24,0,-43,-72,0,0,100,0,640,280,96,88,0,-29,-16,0,0,65,0,1024,0,64,32,0,
0,3,1,-20,0,0,100,0,736,368,40,24,0,-50,-72,0,0,100,0,736,280,96,88,0,-29,-16,0,0,65,0,1024,0,64,32,0,
0,3,1,-20,0,0,100,0,736,368,40,24,0,-50,-72,0,0,100,0,832,280,96,88,0,-29,-16,0,0,65,0,1024,0,64,32,0,
0,3,1,-20,0,0,100,0,736,368,40,24,0,-50,-72,0,0,100,0,928,280,96,88,0,-29,-16,0,0,65,0,1024,0,64,32,0,
0,3,1,-20,0,0,100,0,736,368,40,24,0,-50,-72,0,0,100,0,1024,280,96,88,0,-29,-16,0,0,65,0,1024,0,64,32,0,
0,3,1,-20,0,0,100,0,736,368,40,24,0,-50,-72,0,0,100,0,640,368,96,88,0,-29,-16,0,0,65,0,1024,0,64,32,0,
0,3,1,-20,0,0,100,0,736,368,40,24,0,-50,-72,0,0,100,0,824,368,96,88,0,-29,-16,0,0,65,0,1024,0,64,32,0,
0,3,1,-20,0,0,100,0,736,368,40,24,0,-50,-72,0,0,100,0,920,368,96,88,0,-29,-16,0,0,65,0,1024,0,64,32,0,
