0,15,-28,-64,0,0,100,0,0,288,48,32,0,-19,-56,0,0,100,0,0,0,32,32,1,-18,-42,0,0,100,0,0,32,40,40,1,-15,-36,0,0,100,0,0,320,16,16,0,-23,-38,0,0,100,0,0,336,24,24,0,-16,-92,0,0,100,0,0,176,64,112,0,-31,-36,0,0,100,0,0,360,32,32,0,-23,-40,0,0,100,0,24,336,24,24,0,-27,-47,0,0,100,0,0,488,48,48,0,7,-36,0,0,100,0,16,320,16,16,0,-4,-39,0,0,100,0,48,336,24,24,0,-15,-41,0,0,100,0,0,392,40,40,0,-7,-41,0,0,100,0,72,336,24,24,0,-32,-46,0,0,100,0,0,432,64,56,0,-35,-20,0,0,65,0,960,0,64,32,0,
0,16,-28,-64,0,0,100,0,0,288,48,32,0,-19,-56,0,0,100,0,64,0,32,32,1,-18,-42,0,0,100,0,40,32,40,40,1,-15,-36,0,0,100,0,0,320,16,16,0,-23,-38,0,0,100,0,0,336,24,24,0,-23,-40,0,0,100,0,24,336,24,24,0,-16,-92,0,0,100,0,0,176,64,112,0,-31,-36,0,0,100,0,32,360,32,32,0,-30,-69,0,0,100,0,0,536,56,56,0,-27,-47,0,0,100,0,0,488,48,48,0,7,-36,0,0,100,0,16,320,16,16,0,-4,-39,0,0,100,0,48,336,24,24,0,-15,-41,0,0,100,0,40,392,40,40,0,-7,-41,0,0,100,0,72,336,24,24,0,-32,-46,0,0,100,0,0,432,64,56,0,-35,-20,0,0,65,0,960,0,64,32,0,
0,16,-28,-64,0,0,100,0,0,288,48,32,0,-19,-56,0,0,100,0,96,0,32,32,1,-18,-42,0,0,100,0,80,32,40,40,1,-15,-36,0,0,100,0,0,320,16,16,0,-23,-38,0,0,100,0,0,336,24,24,0,-23,-40,0,0,100,0,24,336,24,24,0,-16,-92,0,0,100,0,0,176,64,112,0,-31,-36,0,0,100,0,64,360,32,32,0,-30,-69,0,0,100,0,0,536,56,56,0,-27,-47,0,0,100,0,0,488,48,48,0,7,-36,0,0,100,0,16,320,16,16,0,-4,-39,0,0,100,0,48,336,24,24,0,-15,-41,0,0,100,0,80,392,40,40,0,-7,-41,0,0,100,0,72,336,24,24,0,-32,-46,0,0,100,0,0,432,64,56,0,-35,-20,0,0,65,0,960,0,64,32,0,
0,16,-28,-64,0,0,100,0,0,288,48,32,0,-19,-56,0,0,100,0,128,0,32,32,1,-18,-42,0,0,100,0,120,32,40,40,1,-15,-36,0,0,100,0,0,320,16,16,0,-23,-38,0,0,100,0,0,336,24,24,0,-23,-40,0,0,100,0,24,336,24,24,0,-16,-92,0,0,100,0,0,176,64,112,0,-31,-36,0,0,100,0,96,360,32,32,0,-30,-69,0,0,100,0,0,536,56,56,0,-27,-47,0,0,100,0,0,488,48,48,0,7,-36,0,0,100,0,16,320,16,16,0,-4,-39,0,0,100,0,48,336,24,24,0,-15,-41,0,0,100,0,120,392,40,40,0,-7,-41,0,0,100,0,72,336,24,24,0,-32,-46,0,0,100,0,0,432,64,56,0,-35,-20,0,0,65,0,960,0,64,32,0,
0,15,-20,-27,0,0,100,0,64,320,16,16,0,-21,-35,0,0,100,0,48,320,16,16,0,-19,-32,0,0,100,0,216,336,24,24,0,-12,-38,0,0,100,0,192,336,24,24,0,-43,-92,0,0,100,0,0,176,64,112,0,-26,-64,0,0,100,0,0,288,48,32,0,-17,-56,0,0,100,0,0,0,32,32,1,-18,-43,0,0,100,0,0,32,40,40,1,-29,-35,0,0,100,0,0,360,32,32,0,-15,-41,0,0,100,0,0,392,40,40,0,-27,-47,0,0,100,0,0,488,48,48,0,-30,-46,0,0,100,0,0,432,64,56,0,-24,-39,0,0,100,0,312,336,24,24,0,-20,-39,0,0,100,0,336,336,24,24,0,-34,-20,0,0,65,0,960,0,64,32,0,
0,15,-19,-41,0,0,100,0,48,320,16,16,0,-20,-33,0,0,100,0,64,320,16,16,0,-18,-36,0,0,100,0,264,336,24,24,0,-11,-38,0,0,100,0,288,336,24,24,0,-40,-98,0,0,100,0,64,176,64,112,0,-26,-64,0,0,100,0,0,288,48,32,0,-17,-56,0,0,100,0,0,0,32,32,1,-18,-44,0,0,100,0,0,32,40,40,1,-29,-35,0,0,100,0,0,360,32,32,0,-15,-41,0,0,100,0,0,392,40,40,0,-27,-47,0,0,100,0,0,488,48,48,0,-30,-46,0,0,100,0,0,432,64,56,0,-24,-44,1,0,100,0,312,336,24,24,0,-20,-40,0,0,100,0,336,336,24,24,0,-34,-20,0,0,65,0,960,0,64,32,0,
0,15,-19,-44,0,0,100,0,64,320,16,16,0,-18,-51,0,0,100,0,48,320,16,16,0,-18,-44,2,0,100,0,264,336,24,24,0,-10,-41,2,0,100,0,288,336,24,24,0,-39,-107,0,0,100,0,64,176,64,112,0,-23,-63,0,0,100,0,0,288,48,32,0,-17,-43,0,0,100,0,0,32,40,40,1,-14,-55,0,0,100,0,0,0,32,32,1,-22,-53,0,0,100,0,312,336,24,24,0,-18,-48,2,0,100,0,336,336,24,24,0,-29,-37,0,0,100,0,0,360,32,32,0,-15,-43,0,0,100,0,0,392,40,40,0,-25,-48,0,0,100,0,0,488,48,48,0,-30,-46,0,0,100,0,128,432,64,56,0,-34,-20,0,0,65,0,960,0,64,32,0,
0,17,-55,-46,0,1,100,0,816,304,96,56,0,-56,-45,0,1,100,0,920,304,104,64,0,-20,-26,0,0,100,0,64,320,16,16,0,-19,-31,0,0,100,0,216,336,24,24,0,-12,-38,0,0,100,0,192,336,24,24,0,-21,-34,0,0,100,0,48,320,16,16,0,-43,-91,0,0,100,0,0,176,64,112,0,-26,-64,0,0,100,0,0,288,48,32,0,-17,-56,0,0,100,0,0,0,32,32,1,-18,-43,0,0,100,0,0,32,40,40,1,-24,-38,0,0,100,0,312,336,24,24,0,-29,-35,0,0,100,0,0,360,32,32,0,-15,-41,0,0,100,0,0,392,40,40,0,-27,-47,0,0,100,0,0,488,48,48,0,-30,-46,0,0,100,0,0,432,64,56,0,-21,-39,0,0,100,0,336,336,24,24,0,-34,-20,0,0,65,0,960,0,64,32,0,
0,17,-55,-46,0,1,100,0,712,304,104,64,0,-56,-45,0,1,100,0,920,304,104,64,0,-20,-27,0,0,100,0,64,320,16,16,0,-19,-32,0,0,100,0,216,336,24,24,0,-12,-38,0,0,100,0,192,336,24,24,0,-21,-35,0,0,100,0,48,320,16,16,0,-43,-92,0,0,100,0,0,176,64,112,0,-26,-64,0,0,100,0,0,288,48,32,0,-17,-56,0,0,100,0,0,0,32,32,1,-18,-43,0,0,100,0,0,32,40,40,1,-24,-39,0,0,100,0,312,336,24,24,0,-29,-35,0,0,100,0,0,360,32,32,0,-15,-41,0,0,100,0,0,392,40,40,0,-27,-47,0,0,100,0,0,488,48,48,0,-30,-46,0,0,100,0,0,432,64,56,0,-21,-40,0,0,100,0,336,336,24,24,0,-34,-20,0,0,65,0,960,0,64,32,0,
0,17,-56,-46,0,1,100,0,608,304,104,64,0,-56,-45,0,1,100,0,920,304,104,64,0,-20,-27,0,0,100,0,64,320,16,16,0,-19,-32,0,0,100,0,216,336,24,24,0,-12,-38,0,0,100,0,192,336,24,24,0,-21,-35,0,0,100,0,48,320,16,16,0,-43,-92,0,0,100,0,0,176,64,112,0,-26,-64,0,0,100,0,0,288,48,32,0,-17,-56,0,0,100,0,0,0,32,32,1,-18,-43,0,0,100,0,0,32,40,40,1,-29,-35,0,0,100,0,0,360,32,32,0,-15,-41,0,0,100,0,0,392,40,40,0,-27,-47,0,0,100,0,0,488,48,48,0,-30,-46,0,0,100,0,0,432,64,56,0,-24,-39,0,0,100,0,312,336,24,24,0,-21,-40,0,0,100,0,336,336,24,24,0,-34,-20,0,0,65,0,960,0,64,32,0,
0,17,-55,-45,0,1,40,0,504,304,104,64,0,-56,-45,0,1,100,0,920,304,104,64,0,-20,-27,0,0,100,0,64,320,16,16,0,-19,-32,0,0,100,0,216,336,24,24,0,-12,-38,0,0,100,0,192,336,24,24,0,-21,-35,0,0,100,0,48,320,16,16,0,-43,-92,0,0,100,0,0,176,64,112,0,-26,-64,0,0,100,0,0,288,48,32,0,-17,-56,0,0,100,0,0,0,32,32,1,-18,-43,0,0,100,0,0,32,40,40,1,-29,-35,0,0,100,0,0,360,32,32,0,-15,-41,0,0,100,0,0,392,40,40,0,-27,-47,0,0,100,0,0,488,48,48,0,-30,-46,0,0,100,0,0,432,64,56,0,-24,-39,0,0,100,0,312,336,24,24,0,-21,-40,0,0,100,0,336,336,24,24,0,-34,-20,0,0,65,0,960,0,64,32,0,
0,16,-56,-45,0,1,100,0,920,304,104,64,0,-20,-27,0,0,100,0,64,320,16,16,0,-19,-32,0,0,100,0,216,336,24,24,0,-12,-38,0,0,100,0,192,336,24,24,0,-21,-35,0,0,100,0,48,320,16,16,0,-43,-92,0,0,100,0,0,176,64,112,0,-26,-64,0,0,100,0,0,288,48,32,0,-17,-56,0,0,100,0,0,0,32,32,1,-18,-43,0,0,100,0,0,32,40,40,1,-29,-35,0,0,100,0,0,360,32,32,0,-15,-41,0,0,100,0,0,392,40,40,0,-27,-47,0,0,100,0,0,488,48,48,0,-30,-46,0,0,100,0,0,432,64,56,0,-24,-39,0,0,100,0,312,336,24,24,0,-21,-40,0,0,100,0,336,336,24,24,0,-34,-20,0,0,65,0,960,0,64,32,0,
0,16,-56,-45,0,1,100,0,920,304,104,64,0,-20,-42,0,0,100,-90,48,320,16,16,0,-16,-36,0,0,100,0,64,320,16,16,0,-18,-40,0,0,100,0,120,336,24,24,0,-12,-38,0,0,100,0,192,336,24,24,0,-35,-98,0,0,100,0,128,176,64,112,0,-26,-64,0,0,100,0,0,288,48,32,0,-17,-56,0,0,100,0,0,0,32,32,1,-18,-43,0,0,100,0,0,32,40,40,1,-29,-35,0,0,100,0,0,360,32,32,0,-15,-41,0,0,100,0,0,392,40,40,0,-27,-47,0,0,100,0,0,488,48,48,0,-30,-46,0,0,100,0,0,432,64,56,0,-24,-41,0,0,100,270,264,336,24,24,0,-21,-36,0,0,100,0,336,336,24,24,0,-34,-20,0,0,65,0,960,0,64,32,0,
0,16,-55,-45,0,1,100,0,504,304,104,64,0,-26,-64,0,0,100,0,0,288,48,32,0,-17,-56,0,0,100,0,32,0,32,32,1,-27,-32,1,0,100,-270,48,320,16,16,0,-13,-28,0,0,100,90,64,320,16,16,0,-14,-35,0,0,100,0,240,336,24,24,0,-11,-39,0,0,100,0,192,336,24,24,0,-56,-50,0,0,100,-90,64,176,64,112,0,-18,-43,0,0,100,0,40,32,40,40,1,-29,-35,0,0,100,0,32,360,32,32,0,-15,-41,0,0,100,0,40,392,40,40,0,-27,-47,0,0,100,0,0,488,48,48,0,-30,-46,0,0,100,0,0,432,64,56,0,-29,-37,0,0,100,0,360,336,24,24,0,-20,-39,0,0,100,0,336,336,24,24,0,-34,-20,0,0,65,0,960,0,64,32,0,
0,16,-81,-104,0,1,100,0,880,368,144,144,0,-26,-64,0,0,100,0,0,288,48,32,0,-17,-56,0,0,100,0,32,0,32,32,1,-27,-32,1,0,100,-270,48,320,16,16,0,-13,-28,0,0,100,90,64,320,16,16,0,-56,-50,0,0,100,-90,64,176,64,112,0,-14,-35,0,0,100,0,240,336,24,24,0,-11,-39,0,0,100,0,192,336,24,24,0,-18,-43,0,0,100,0,80,32,40,40,1,-29,-35,0,0,100,0,64,360,32,32,0,-15,-41,0,0,100,0,80,392,40,40,0,-27,-47,0,0,100,0,0,488,48,48,0,-30,-46,0,0,100,0,0,432,64,56,0,-29,-37,0,0,100,0,360,336,24,24,0,-20,-39,0,0,100,0,336,336,24,24,0,-34,-20,0,0,65,0,960,0,64,32,0,
0,16,-82,-105,0,1,100,0,736,368,144,144,0,-26,-64,0,0,100,0,0,288,48,32,0,-17,-56,0,0,100,0,32,0,32,32,1,-27,-32,1,0,100,-270,48,320,16,16,0,-13,-28,0,0,100,90,64,320,16,16,0,-56,-50,0,0,100,-90,64,176,64,112,0,-14,-35,0,0,100,0,240,336,24,24,0,-11,-39,0,0,100,0,192,336,24,24,0,-18,-43,0,0,100,0,120,32,40,40,1,-29,-35,0,0,100,0,96,360,32,32,0,-15,-41,0,0,100,0,120,392,40,40,0,-27,-47,0,0,100,0,0,488,48,48,0,-30,-46,0,0,100,0,0,432,64,56,0,-29,-37,0,0,100,0,360,336,24,24,0,-20,-39,0,0,100,0,336,336,24,24,0,-34,-20,0,0,65,0,960,0,64,32,0,
0,16,-82,-104,0,1,100,0,592,368,144,144,0,-26,-64,0,0,100,0,0,288,48,32,0,-17,-56,0,0,100,0,32,0,32,32,1,-27,-32,1,0,100,-270,48,320,16,16,0,-13,-28,0,0,100,90,64,320,16,16,0,-56,-50,0,0,100,-90,64,176,64,112,0,-14,-35,0,0,100,0,240,336,24,24,0,-11,-39,0,0,100,0,192,336,24,24,0,-18,-43,0,0,100,0,0,32,40,40,1,-29,-35,0,0,100,0,0,360,32,32,0,-15,-41,0,0,100,0,0,392,40,40,0,-27,-47,0,0,100,0,0,488,48,48,0,-30,-46,0,0,100,0,0,432,64,56,0,-29,-37,0,0,100,0,360,336,24,24,0,-20,-39,0,0,100,0,336,336,24,24,0,-34,-20,0,0,65,0,960,0,64,32,0,
0,16,-79,-103,0,1,100,0,448,368,144,144,0,-26,-64,0,0,100,0,0,288,48,32,0,-17,-56,0,0,100,0,32,0,32,32,1,-27,-32,1,0,100,-270,48,320,16,16,0,-13,-28,0,0,100,90,64,320,16,16,0,-56,-50,0,0,100,-90,64,176,64,112,0,-14,-35,0,0,100,0,240,336,24,24,0,-11,-39,0,0,100,0,192,336,24,24,0,-18,-43,0,0,100,0,40,32,40,40,1,-29,-35,0,0,100,0,32,360,32,32,0,-15,-41,0,0,100,0,40,392,40,40,0,-27,-47,0,0,100,0,0,488,48,48,0,-30,-46,0,0,100,0,0,432,64,56,0,-29,-37,0,0,100,0,360,336,24,24,0,-20,-39,0,0,100,0,336,336,24,24,0,-34,-20,0,0,65,0,960,0,64,32,0,
0,16,-79,-103,0,1,100,0,880,512,144,144,0,-26,-64,0,0,100,0,0,288,48,32,0,-17,-56,0,0,100,0,32,0,32,32,1,-27,-32,1,0,100,-270,48,320,16,16,0,-13,-28,0,0,100,90,64,320,16,16,0,-56,-50,0,0,100,-90,64,176,64,112,0,-14,-35,0,0,100,0,240,336,24,24,0,-11,-39,0,0,100,0,192,336,24,24,0,-18,-43,0,0,100,0,80,32,40,40,1,-29,-35,0,0,100,0,64,360,32,32,0,-15,-41,0,0,100,0,80,392,40,40,0,-27,-47,0,0,100,0,0,488,48,48,0,-30,-46,0,0,100,0,0,432,64,56,0,-29,-37,0,0,100,0,360,336,24,24,0,-20,-39,0,0,100,0,336,336,24,24,0,-34,-20,0,0,65,0,960,0,64,32,0,
0,16,-79,-103,0,1,100,0,736,512,144,144,0,-26,-64,0,0,100,0,0,288,48,32,0,-17,-56,0,0,100,0,32,0,32,32,1,-27,-32,1,0,100,-270,48,320,16,16,0,-13,-28,0,0,100,90,64,320,16,16,0,-56,-50,0,0,100,-90,64,176,64,112,0,-14,-35,0,0,100,0,240,336,24,24,0,-11,-39,0,0,100,0,192,336,24,24,0,-18,-43,0,0,100,0,120,32,40,40,1,-29,-35,0,0,100,0,96,360,32,32,0,-15,-41,0,0,100,0,120,392,40,40,0,-27,-47,0,0,100,0,0,488,48,48,0,-30,-46,0,0,100,0,0,432,64,56,0,-29,-37,0,0,100,0,360,336,24,24,0,-20,-39,0,0,100,0,336,336,24,24,0,-34,-20,0,0,65,0,960,0,64,32,0,
0,16,-79,-103,0,1,100,0,592,512,144,144,0,-26,-64,0,0,100,0,0,288,48,32,0,-17,-56,0,0,100,0,32,0,32,32,1,-27,-32,1,0,100,-270,48,320,16,16,0,-13,-28,0,0,100,90,64,320,16,16,0,-56,-50,0,0,100,-90,64,176,64,112,0,-14,-35,0,0,100,0,240,336,24,24,0,-11,-39,0,0,100,0,192,336,24,24,0,-18,-43,0,0,100,0,0,32,40,40,1,-29,-35,0,0,100,0,0,360,32,32,0,-15,-41,0,0,100,0,0,392,40,40,0,-27,-47,0,0,100,0,0,488,48,48,0,-30,-46,0,0,100,0,0,432,64,56,0,-29,-37,0,0,100,0,360,336,24,24,0,-20,-39,0,0,100,0,336,336,24,24,0,-34,-20,0,0,65,0,960,0,64,32,0,
0,16,-79,-103,0,1,100,0,448,512,144,144,0,-26,-64,0,0,100,0,0,288,48,32,0,-17,-56,0,0,100,0,32,0,32,32,1,-27,-32,1,0,100,-270,48,320,16,16,0,-13,-28,0,0,100,90,64,320,16,16,0,-56,-50,0,0,100,-90,64,176,64,112,0,-14,-35,0,0,100,0,240,336,24,24,0,-11,-39,0,0,100,0,192,336,24,24,0,-18,-43,0,0,100,0,40,32,40,40,1,-29,-35,0,0,100,0,32,360,32,32,0,-15,-41,0,0,100,0,40,392,40,40,0,-27,-47,0,0,100,0,0,488,48,48,0,-30,-46,0,0,100,0,0,432,64,56,0,-29,-37,0,0,100,0,360,336,24,24,0,-20,-39,0,0,100,0,336,336,24,24,0,-34,-20,0,0,65,0,960,0,64,32,0,
0,16,-79,-103,0,1,100,0,880,656,144,144,0,-26,-64,0,0,100,0,0,288,48,32,0,-17,-56,0,0,100,0,32,0,32,32,1,-27,-32,1,0,100,-270,48,320,16,16,0,-13,-28,0,0,100,90,64,320,16,16,0,-56,-50,0,0,100,-90,64,176,64,112,0,-14,-35,0,0,100,0,240,336,24,24,0,-11,-39,0,0,100,0,192,336,24,24,0,-18,-43,0,0,100,0,80,32,40,40,1,-29,-35,0,0,100,0,64,360,32,32,0,-15,-41,0,0,100,0,80,392,40,40,0,-27,-47,0,0,100,0,0,488,48,48,0,-30,-46,0,0,100,0,0,432,64,56,0,-29,-37,0,0,100,0,360,336,24,24,0,-20,-39,0,0,100,0,336,336,24,24,0,-34,-20,0,0,65,0,960,0,64,32,0,
0,16,-79,-103,0,1,100,0,736,656,144,144,0,-26,-64,0,0,100,0,0,288,48,32,0,-17,-56,0,0,100,0,32,0,32,32,1,-27,-32,1,0,100,-270,48,320,16,16,0,-13,-28,0,0,100,90,64,320,16,16,0,-56,-50,0,0,100,-90,64,176,64,112,0,-14,-35,0,0,100,0,240,336,24,24,0,-11,-39,0,0,100,0,192,336,24,24,0,-18,-43,0,0,100,0,120,32,40,40,1,-29,-35,0,0,100,0,96,360,32,32,0,-15,-41,0,0,100,0,120,392,40,40,0,-27,-47,0,0,100,0,0,488,48,48,0,-30,-46,0,0,100,0,0,432,64,56,0,-29,-37,0,0,100,0,360,336,24,24,0,-34,-20,0,0,65,0,960,0,64,32,0,-20,-39,0,0,100,0,336,336,24,24,0,
0,16,-79,-105,0,1,100,0,592,656,144,144,0,-26,-64,0,0,100,0,0,288,48,32,0,-17,-56,0,0,100,0,32,0,32,32,1,-27,-32,1,0,100,-270,48,320,16,16,0,-13,-28,0,0,100,90,64,320,16,16,0,-56,-50,0,0,100,-90,64,176,64,112,0,-14,-35,0,0,100,0,240,336,24,24,0,-11,-39,0,0,100,0,192,336,24,24,0,-18,-43,0,0,100,0,0,32,40,40,1,-29,-35,0,0,100,0,0,360,32,32,0,-15,-41,0,0,100,0,0,392,40,40,0,-27,-47,0,0,100,0,0,488,48,48,0,-30,-46,0,0,100,0,0,432,64,56,0,-29,-37,0,0,100,0,360,336,24,24,0,-20,-39,0,0,100,0,336,336,24,24,0,-34,-20,0,0,65,0,960,0,64,32,0,
0,16,-78,-105,0,1,50,0,448,656,136,144,0,-26,-64,0,0,100,0,0,288,48,32,0,-17,-56,0,0,100,0,32,0,32,32,1,-27,-32,1,0,100,-270,48,320,16,16,0,-13,-28,0,0,100,90,64,320,16,16,0,-56,-50,0,0,100,-90,64,176,64,112,0,-14,-35,0,0,100,0,240,336,24,24,0,-11,-39,0,0,100,0,192,336,24,24,0,-18,-43,0,0,100,0,40,32,40,40,1,-29,-35,0,0,100,0,32,360,32,32,0,-15,-41,0,0,100,0,40,392,40,40,0,-27,-47,0,0,100,0,0,488,48,48,0,-30,-46,0,0,100,0,0,432,64,56,0,-29,-37,0,0,100,0,360,336,24,24,0,-20,-39,0,0,100,0,336,336,24,24,0,-34,-20,0,0,65,0,960,0,64,32,0,
0,16,-80,-105,0,1,30,0,880,800,144,144,0,-26,-64,0,0,100,0,0,288,48,32,0,-17,-56,0,0,100,0,32,0,32,32,1,-27,-32,1,0,100,-270,48,320,16,16,0,-13,-28,0,0,100,90,64,320,16,16,0,-56,-50,0,0,100,-90,64,176,64,112,0,-14,-35,0,0,100,0,240,336,24,24,0,-11,-39,0,0,100,0,192,336,24,24,0,-18,-43,0,0,100,0,80,32,40,40,1,-29,-35,0,0,100,0,64,360,32,32,0,-15,-41,0,0,100,0,80,392,40,40,0,-27,-47,0,0,100,0,0,488,48,48,0,-30,-46,0,0,100,0,0,432,64,56,0,-29,-37,0,0,100,0,360,336,24,24,0,-20,-39,0,0,100,0,336,336,24,24,0,-34,-20,0,0,65,0,960,0,64,32,0,
0,16,-80,-105,0,1,10,0,880,800,144,144,0,-26,-64,0,0,100,0,0,288,48,32,0,-17,-56,0,0,100,0,32,0,32,32,1,-27,-32,1,0,100,-270,48,320,16,16,0,-13,-28,0,0,100,90,64,320,16,16,0,-56,-50,0,0,100,-90,64,176,64,112,0,-14,-35,0,0,100,0,240,336,24,24,0,-11,-39,0,0,100,0,192,336,24,24,0,-18,-43,0,0,100,0,120,32,40,40,1,-29,-35,0,0,100,0,96,360,32,32,0,-15,-41,0,0,100,0,120,392,40,40,0,-27,-47,0,0,100,0,0,488,48,48,0,-30,-46,0,0,100,0,0,432,64,56,0,-29,-37,0,0,100,0,360,336,24,24,0,-20,-39,0,0,100,0,336,336,24,24,0,-34,-20,0,0,65,0,960,0,64,32,0,
0,15,-26,-64,0,0,100,0,0,288,48,32,0,-17,-56,0,0,100,0,32,0,32,32,1,-27,-32,1,0,100,-270,48,320,16,16,0,-13,-28,0,0,100,90,64,320,16,16,0,-56,-50,0,0,100,-90,64,176,64,112,0,-14,-35,0,0,100,0,240,336,24,24,0,-11,-39,0,0,100,0,192,336,24,24,0,-18,-43,0,0,100,0,0,32,40,40,1,-29,-35,0,0,100,0,0,360,32,32,0,-15,-41,0,0,100,0,0,392,40,40,0,-27,-47,0,0,100,0,0,488,48,48,0,-30,-46,0,0,100,0,0,432,64,56,0,-29,-37,0,0,100,0,360,336,24,24,0,-20,-39,0,0,100,0,336,336,24,24,0,-34,-20,0,0,65,0,960,0,64,32,0,
0,16,-28,-64,0,0,100,0,0,288,48,32,0,-24,-36,0,0,100,0,0,320,16,16,0,-19,-56,0,0,100,0,32,0,32,32,1,7,-36,0,0,100,0,16,320,16,16,0,-18,-42,0,0,100,0,0,32,40,40,1,-27,-47,0,0,100,0,0,488,48,48,0,-16,-92,0,0,100,0,0,176,64,112,0,-31,-36,0,0,100,0,32,360,32,32,0,-27,-40,0,0,100,0,120,336,24,24,0,-23,-40,0,0,100,0,24,336,24,24,0,7,-36,0,0,100,0,16,320,16,16,0,-15,-41,0,0,100,0,40,392,40,40,0,-4,-39,0,0,100,0,48,336,24,24,0,-7,-41,0,0,100,0,72,336,24,24,0,-32,-46,0,0,100,0,0,432,64,56,0,-35,-20,0,0,65,0,960,0,64,32,0,
0,16,-28,-64,0,0,100,0,0,288,48,32,0,-19,-56,0,0,100,0,32,0,32,32,1,7,-36,0,0,100,0,16,320,16,16,0,-18,-42,0,0,100,0,0,32,40,40,1,-27,-47,0,0,100,0,0,488,48,48,0,-16,-92,0,0,100,0,0,176,64,112,0,-31,-36,0,0,100,0,64,360,32,32,0,-26,-40,0,0,100,0,32,320,16,16,0,-28,-44,0,0,100,0,120,336,24,24,0,-22,-40,0,0,100,0,24,336,24,24,0,7,-36,0,0,100,0,16,320,16,16,0,-15,-41,0,0,100,0,80,392,40,40,0,-4,-39,0,0,100,0,48,336,24,24,0,-7,-41,0,0,100,0,72,336,24,24,0,-32,-46,0,0,100,0,0,432,64,56,0,-35,-20,0,0,65,0,960,0,64,32,0,
0,16,7,-36,0,0,100,0,16,320,16,16,0,-28,-64,0,0,100,0,0,288,48,32,0,-19,-56,0,0,100,0,32,0,32,32,1,-18,-42,0,0,100,0,0,32,40,40,1,-27,-47,0,0,100,0,0,488,48,48,0,-16,-92,0,0,100,0,0,176,64,112,0,-31,-36,0,0,100,0,96,360,32,32,0,-30,-36,0,0,100,0,32,320,16,16,0,-28,-40,0,0,100,0,168,336,24,24,0,-22,-42,0,0,100,0,144,336,24,24,0,7,-36,0,0,100,0,16,320,16,16,0,-15,-41,0,0,100,0,120,392,40,40,0,-4,-39,0,0,100,0,48,336,24,24,0,-7,-41,0,0,100,0,72,336,24,24,0,-32,-46,0,0,100,0,0,432,64,56,0,-35,-20,0,0,65,0,960,0,64,32,0,
0,15,-29,-64,0,0,100,0,0,288,48,32,0,-20,-56,0,0,100,0,32,0,32,32,1,-19,-42,0,0,100,0,0,32,40,40,1,-28,-47,0,0,100,0,0,488,48,48,0,7,-36,0,0,100,0,16,320,16,16,0,-16,-92,0,0,100,0,0,176,64,112,0,-32,-36,0,0,100,0,0,360,32,32,0,-16,-41,0,0,100,0,0,392,40,40,0,-4,-40,0,0,100,0,48,336,24,24,0,-32,-33,0,0,100,0,32,320,16,16,0,-30,-38,0,0,100,0,168,336,24,24,0,-22,-42,0,0,100,0,144,336,24,24,0,-8,-41,0,0,100,0,72,336,24,24,0,-33,-46,0,0,100,0,0,432,64,56,0,-36,-20,0,0,65,0,960,0,64,32,0,
0,15,-30,-64,0,0,100,0,0,288,48,32,0,-21,-56,0,0,100,0,160,0,32,32,1,-20,-42,0,0,100,0,40,32,40,40,1,-17,-92,0,0,100,0,0,176,64,112,0,6,-36,0,0,100,0,16,320,16,16,0,-29,-47,0,0,100,0,0,488,48,48,0,-33,-36,0,0,100,0,32,360,32,32,0,-17,-41,0,0,100,0,40,392,40,40,0,-5,-41,0,0,100,0,96,336,24,24,0,-9,-41,0,0,100,0,72,336,24,24,0,-33,-46,0,0,100,0,64,432,64,56,0,-32,-31,0,0,100,0,32,320,16,16,0,-30,-36,0,0,100,0,168,336,24,24,0,-21,-43,0,0,100,0,144,336,24,24,0,-36,-20,0,0,65,0,960,0,64,32,0,
0,15,6,-36,0,0,100,0,16,320,16,16,0,-30,-64,0,0,100,0,0,288,48,32,0,-21,-56,0,0,100,0,96,0,32,32,1,-20,-42,0,0,100,0,80,32,40,40,1,-17,-92,0,0,100,0,0,176,64,112,0,-29,-47,0,0,100,0,0,488,48,48,0,-33,-36,0,0,100,0,64,360,32,32,0,-17,-41,0,0,100,0,80,392,40,40,0,-32,-31,0,0,100,0,32,320,16,16,0,-5,-41,0,0,100,0,96,336,24,24,0,-9,-41,0,0,100,0,72,336,24,24,0,-33,-46,0,0,100,0,64,432,64,56,0,-30,-36,0,0,100,0,168,336,24,24,0,-21,-43,0,0,100,0,144,336,24,24,0,-36,-20,0,0,65,0,960,0,64,32,0,
0,15,6,-36,0,0,100,0,16,320,16,16,0,-30,-64,0,0,100,0,0,288,48,32,0,-21,-56,0,0,100,0,128,0,32,32,1,-20,-42,0,0,100,0,120,32,40,40,1,-17,-92,0,0,100,0,0,176,64,112,0,-29,-47,0,0,100,0,0,488,48,48,0,-33,-36,0,0,100,0,96,360,32,32,0,-17,-41,0,0,100,0,120,392,40,40,0,-32,-31,0,0,100,0,32,320,16,16,0,-5,-41,0,0,100,0,96,336,24,24,0,-9,-41,0,0,100,0,72,336,24,24,0,-33,-46,0,0,100,0,64,432,64,56,0,-30,-36,0,0,100,0,168,336,24,24,0,-21,-43,0,0,100,0,144,336,24,24,0,-36,-20,0,0,65,0,960,0,64,32,0,
0,15,6,-36,0,0,100,0,16,320,16,16,0,-30,-64,0,0,100,0,0,288,48,32,0,-21,-56,0,0,100,0,0,0,32,32,1,-20,-42,0,0,100,0,0,32,40,40,1,-17,-92,0,0,100,0,0,176,64,112,0,-29,-47,0,0,100,0,0,488,48,48,0,-33,-36,0,0,100,0,0,360,32,32,0,-17,-41,0,0,100,0,0,392,40,40,0,-5,-41,0,0,100,0,96,336,24,24,0,-32,-31,0,0,100,0,32,320,16,16,0,-9,-41,0,0,100,0,72,336,24,24,0,-33,-46,0,0,100,0,64,432,64,56,0,-30,-36,0,0,100,0,168,336,24,24,0,-21,-43,0,0,100,0,144,336,24,24,0,-36,-20,0,0,65,0,960,0,64,32,0,
0,15,-30,-64,0,0,100,0,0,288,48,32,0,-21,-56,0,0,100,0,64,0,32,32,1,6,-36,0,0,100,0,16,320,16,16,0,-20,-42,0,0,100,0,40,32,40,40,1,-17,-92,0,0,100,0,0,176,64,112,0,-29,-47,0,0,100,0,0,488,48,48,0,-33,-36,0,0,100,0,32,360,32,32,0,-17,-41,0,0,100,0,40,392,40,40,0,-32,-31,0,0,100,0,32,320,16,16,0,-5,-41,0,0,100,0,96,336,24,24,0,-9,-41,0,0,100,0,72,336,24,24,0,-33,-46,0,0,100,0,64,432,64,56,0,-30,-36,0,0,100,0,168,336,24,24,0,-21,-43,0,0,100,0,144,336,24,24,0,-36,-20,0,0,65,0,960,0,64,32,0,
0,15,4,-30,0,0,100,0,16,320,16,16,0,-16,-93,0,0,100,0,64,176,64,112,0,-34,-59,0,0,100,0,0,288,48,32,0,-25,-51,0,0,100,0,96,0,32,32,1,-25,-37,1,0,100,0,0,32,40,40,1,-6,-36,0,0,100,0,96,336,24,24,0,-11,-33,1,0,100,0,64,360,32,32,0,-20,-31,1,0,100,0,64,360,32,32,0,-12,-38,0,0,100,0,72,336,24,24,0,-31,-44,1,0,100,0,0,488,48,48,0,-32,-46,0,0,100,0,192,432,64,56,0,-26,-30,0,0,100,0,80,320,16,16,0,-29,-32,0,0,100,0,384,336,24,24,0,-26,-34,0,0,100,0,192,336,24,24,0,-29,-20,0,0,65,0,960,0,64,32,0,
