0,2,-42,-57,0,0,100,0,0,0,70,60,0,-24,-8,0,0,65,0,355,0,48,16,0,
0,2,-42,-57,0,0,100,0,70,0,70,60,0,-24,-8,0,0,65,0,355,0,48,16,0,
0,2,-42,-57,0,0,100,0,140,0,70,60,0,-24,-8,0,0,65,0,355,0,48,16,0,
0,2,-42,-57,0,0,100,0,210,0,70,60,0,-24,-8,0,0,65,0,355,0,48,16,0,
0,2,-48,-56,0,0,100,0,280,0,70,60,0,-24,-8,0,0,65,0,355,0,48,16,0,
0,2,-50,-57,0,0,100,0,72,100,78,60,0,-24,-8,0,0,65,0,355,0,48,16,0,
0,2,-36,-85,0,0,100,0,230,72,70,88,0,-25,-8,0,0,65,0,355,0,48,16,0,
0,2,-36,-93,0,0,100,0,380,64,70,96,0,-26,-8,0,0,65,0,355,0,48,16,0,
0,2,-36,-93,0,0,100,0,530,64,70,96,0,-26,-8,0,0,65,0,355,0,48,16,0,
0,3,-98,-77,0,0,100,0,16,440,134,80,0,-98,-93,0,0,100,0,16,164,134,96,0,-35,-8,0,0,65,0,355,0,48,16,0,
0,3,-112,-85,0,0,100,0,152,432,148,76,0,-112,-93,0,0,100,0,152,164,148,96,0,-37,-8,0,0,65,0,355,0,48,16,0,
0,3,-86,-85,0,0,100,0,328,432,122,56,0,-86,-81,0,0,100,0,328,176,122,84,0,-37,-8,0,0,65,0,355,0,48,16,0,
0,2,-52,-81,0,0,100,0,512,176,88,84,0,-37,-8,0,0,65,0,355,0,48,16,0,
0,2,-39,-77,0,0,100,0,0,260,70,80,0,-24,-8,0,0,65,0,355,0,48,16,0,
0,2,-39,-77,0,0,100,0,70,260,70,80,0,-24,-8,0,0,65,0,355,0,48,16,0,
0,2,-39,-77,0,0,100,0,140,260,70,80,0,-18,-8,0,0,65,0,355,0,48,16,0,
0,2,-39,-77,0,0,100,0,210,260,70,80,0,-18,-8,0,0,65,0,355,0,48,16,0,
0,2,-39,-77,0,0,100,0,0,340,70,80,0,-18,-8,0,0,65,0,355,0,48,16,0,
0,2,-39,-77,0,0,100,0,70,340,70,80,0,-18,-8,0,0,65,0,355,0,48,16,0,
0,2,-39,-77,0,0,100,0,140,340,70,80,0,-18,-8,0,0,65,0,355,0,48,16,0,
0,2,-39,-77,0,0,100,0,210,340,70,80,0,-18,-8,0,0,65,0,355,0,48,16,0,
