0,8,-49,-40,0,0,100,0,0,21,48,36,0,-21,-34,0,0,100,0,52,26,22,27,0,-17,-54,0,0,100,0,52,1,28,23,0,-21,-53,0,0,100,0,1,251,41,45,0,-20,-22,0,0,100,0,0,63,23,28,0,-1,-22,0,0,100,0,24,63,16,25,0,6,-39,0,0,100,0,90,56,38,38,0,-24,-8,0,0,65,0,0,0,48,16,0,
0,8,-49,-39,0,0,100,0,0,21,48,36,0,-21,-34,0,0,100,0,76,26,22,27,0,-17,-54,0,0,100,0,82,1,28,23,0,-21,-53,0,0,100,0,44,251,41,45,0,-20,-22,0,0,100,0,0,63,23,28,0,-1,-22,0,0,100,0,24,63,16,25,0,6,-39,0,0,100,0,90,56,38,38,0,-24,-8,0,0,65,0,0,0,48,16,0,
0,8,-49,-40,0,0,100,0,0,21,48,36,0,-21,-34,0,0,100,0,52,26,22,27,0,-17,-54,0,0,100,0,112,1,28,23,0,-21,-53,0,0,100,0,1,251,41,45,0,-20,-22,0,0,100,0,0,63,23,28,0,-1,-22,0,0,100,0,24,63,16,25,0,6,-39,0,0,100,0,90,56,38,38,0,-24,-8,0,0,65,0,0,0,48,16,0,
0,8,-49,-41,0,0,100,0,0,21,48,36,0,-21,-37,0,0,100,0,100,26,22,27,0,-17,-54,0,0,100,0,142,1,28,23,0,-21,-53,0,0,100,0,87,251,41,45,0,-20,-22,0,0,100,0,0,63,23,28,0,-1,-22,0,0,100,0,24,63,16,25,0,6,-39,0,0,100,0,90,56,38,38,0,-24,-8,0,0,65,0,0,0,48,16,0,
0,7,-17,-54,0,0,100,0,52,1,28,23,0,-21,-53,0,0,100,0,1,251,41,45,0,-20,-22,0,0,100,0,0,63,23,28,0,-1,-22,0,0,100,0,24,63,16,25,0,6,-39,0,0,100,0,90,56,38,38,0,-49,-74,0,0,100,0,5,130,54,43,0,-24,-8,0,0,65,0,0,0,48,16,0,
0,4,-25,-56,0,0,100,0,293,0,59,49,0,-19,-18,0,0,100,0,299,57,38,23,0,-22,-84,0,0,100,0,5,130,54,43,0,-24,-8,0,0,65,0,0,0,48,16,0,
0,4,-24,-55,0,0,100,0,293,0,59,49,0,-19,-18,0,0,100,0,299,57,38,23,0,-22,-84,0,0,100,0,5,130,54,43,0,-24,-8,0,0,65,0,0,0,48,16,0,
0,4,-42,-41,0,0,100,0,277,209,59,44,0,-40,-53,0,0,100,0,354,0,53,62,0,-12,-81,0,0,100,0,5,130,54,43,0,-30,-8,0,0,65,0,0,0,48,16,0,
0,5,-65,-108,0,0,100,0,176,205,45,121,0,-58,-107,0,0,100,0,456,81,34,48,0,-50,-104,0,0,100,0,408,82,44,73,0,-12,-80,0,0,100,0,5,130,54,43,0,-43,-8,0,0,65,0,0,0,48,16,0,
0,5,-55,-122,0,0,100,0,230,200,33,88,0,-58,-114,0,0,100,0,456,81,34,48,0,-50,-111,0,0,100,0,408,82,44,73,0,-12,-79,0,0,100,0,5,130,54,43,0,-43,-8,0,0,65,0,0,0,48,16,0,
0,5,-54,-127,0,0,30,0,230,200,33,88,0,-58,-114,0,0,100,0,456,81,34,48,0,-53,-118,0,0,100,0,405,0,50,80,0,-11,-79,0,0,100,0,56,131,50,37,0,-43,-8,0,0,65,0,0,0,48,16,0,
0,4,-58,-115,0,0,100,0,456,81,34,48,0,-53,-118,0,0,100,0,405,0,50,80,0,-9,-79,0,0,100,0,56,131,50,37,0,-43,-8,0,0,65,0,0,0,48,16,0,
0,3,-34,-114,0,0,100,0,458,0,39,84,0,-12,-80,0,0,100,0,56,131,50,37,0,-42,-8,0,0,65,0,0,0,48,16,0,
0,3,-41,-74,0,0,100,0,56,131,50,37,0,-27,-106,0,0,100,0,458,0,39,84,0,-33,-8,0,0,65,0,0,0,48,16,0,
0,6,-9,-55,0,0,100,0,132,28,29,23,0,-23,-60,0,0,100,0,204,25,48,40,0,-10,-28,0,0,100,0,259,25,26,29,0,6,-42,0,0,100,0,90,56,38,38,0,-63,-60,0,0,100,0,56,131,50,37,0,-24,-8,0,0,65,0,0,0,48,16,0,
0,6,-10,-47,0,0,100,0,132,28,29,23,0,-24,-52,0,0,100,0,204,25,48,40,0,-14,-21,0,0,100,0,256,55,30,26,0,5,-34,0,0,100,0,90,56,38,38,0,-63,-60,0,0,100,0,56,131,50,37,0,-24,-8,0,0,65,0,0,0,48,16,0,
0,8,-12,-52,1,0,100,0,82,1,28,23,0,-20,-52,0,0,100,0,87,251,41,45,0,-19,-22,0,0,100,0,0,63,23,28,0,-1,-22,0,0,100,0,24,63,16,25,0,7,-38,0,0,100,0,90,56,38,38,0,-76,-73,0,0,100,0,178,125,44,66,0,-62,-72,0,0,100,0,105,127,50,44,0,-24,-8,0,0,65,0,0,0,48,16,0,
0,8,-17,-54,0,0,100,0,142,1,28,23,0,-21,-53,0,0,100,0,87,251,41,45,0,-20,-22,0,0,100,0,0,63,23,28,0,-1,-22,0,0,100,0,24,63,16,25,0,6,-39,0,0,100,0,90,56,38,38,0,-75,-80,0,0,100,0,222,117,44,75,0,-59,-67,0,0,100,0,105,127,50,44,0,-24,-8,0,0,65,0,0,0,48,16,0,
0,8,-17,-54,0,0,100,0,52,1,28,23,0,-21,-53,0,0,100,0,1,251,41,45,0,-20,-22,0,0,100,0,0,63,23,28,0,-1,-22,0,0,100,0,24,63,16,25,0,6,-39,0,0,100,0,90,56,38,38,0,-77,-85,0,0,30,0,277,113,59,80,0,-58,-68,0,0,100,0,105,127,50,44,0,-24,-8,0,0,65,0,0,0,48,16,0,
0,7,-17,-54,0,0,100,0,52,1,28,23,0,-21,-53,0,0,100,0,1,251,41,45,0,-20,-22,0,0,100,0,0,63,23,28,0,-1,-22,0,0,100,0,24,63,16,25,0,6,-39,0,0,100,0,90,56,38,38,0,-57,-65,0,0,100,0,4,129,53,44,0,-24,-8,0,0,65,0,0,0,48,16,0,
0,7,-50,-40,0,0,100,0,0,21,48,36,0,-17,-54,0,0,100,0,52,1,28,23,0,-21,-53,0,0,100,0,1,251,41,45,0,-20,-22,0,0,100,0,0,63,23,28,0,-1,-22,0,0,100,0,24,63,16,25,0,6,-39,0,0,100,0,90,56,38,38,0,-24,-8,0,0,65,0,0,0,48,16,0,
0,6,-50,-39,0,0,100,0,0,21,48,36,0,-18,-51,0,0,100,0,128,58,41,42,0,-18,-54,0,0,100,0,52,1,28,23,0,-22,-52,0,0,100,0,1,251,41,45,0,-18,-23,0,0,100,0,2,91,36,28,0,-24,-8,0,0,65,0,0,0,48,16,0,
0,7,-50,-40,0,0,100,0,0,21,48,36,0,-17,-53,0,0,100,0,128,58,41,42,0,-18,-53,0,0,100,0,52,1,28,23,0,-22,-53,0,0,100,0,44,251,41,45,0,-20,-22,0,0,100,0,0,63,23,28,0,-1,-22,0,0,100,0,24,63,16,25,0,-24,-8,0,0,65,0,0,0,48,16,0,
0,8,-50,-43,0,0,100,0,0,21,48,36,0,-17,-54,0,0,100,0,262,1,28,23,0,13,-12,0,0,100,0,164,26,17,14,0,-21,-53,0,0,100,0,1,251,41,45,0,-20,-22,0,0,100,0,0,63,23,28,0,-1,-22,0,0,100,0,24,63,16,25,0,4,-38,0,0,100,0,90,56,38,38,0,-24,-8,0,0,65,0,0,0,48,16,0,
0,8,-43,-55,0,0,100,-90,0,21,48,36,0,15,-13,0,0,100,0,164,26,17,14,0,-17,-54,0,0,100,0,202,1,28,23,0,-21,-53,0,0,100,0,87,251,41,45,0,-20,-22,0,0,100,0,0,63,23,28,0,-1,-22,0,0,100,0,24,63,16,25,0,6,-39,0,0,100,0,90,56,38,38,0,-24,-8,0,0,65,0,0,0,48,16,0,
0,8,-74,-51,0,0,100,0,15,179,57,47,0,15,-13,0,0,100,0,164,26,17,14,0,-17,-54,0,0,100,0,232,1,28,23,0,-21,-53,0,0,100,0,87,251,41,45,0,-20,-22,0,0,100,0,0,63,23,28,0,-1,-22,0,0,100,0,24,63,16,25,0,6,-39,0,0,100,0,90,56,38,38,0,-24,-8,0,0,65,0,0,0,48,16,0,
0,8,-72,-53,0,0,100,0,15,179,57,47,0,15,-13,0,0,100,0,164,26,17,14,0,-17,-54,0,0,100,0,262,1,28,23,0,-21,-53,0,0,100,0,1,251,41,45,0,-20,-22,0,0,100,0,0,63,23,28,0,-1,-22,0,0,100,0,24,63,16,25,0,6,-39,0,0,100,0,90,56,38,38,0,-24,-8,0,0,65,0,0,0,48,16,0,
0,8,-72,-53,0,0,100,0,15,179,57,47,0,15,-13,0,0,100,0,164,26,17,14,0,-17,-54,0,0,100,0,172,1,28,23,0,-21,-53,0,0,100,0,1,251,41,45,0,-20,-22,0,0,100,0,0,63,23,28,0,-1,-22,0,0,100,0,24,63,16,25,0,6,-39,0,0,100,0,90,56,38,38,0,-24,-8,0,0,65,0,0,0,48,16,0,
0,8,-72,-52,0,0,100,0,15,179,57,47,0,15,-13,0,0,100,0,164,26,17,14,0,-17,-54,0,0,100,0,202,1,28,23,0,-21,-53,0,0,100,0,44,251,41,45,0,-20,-22,0,0,100,0,0,63,23,28,0,-1,-22,0,0,100,0,24,63,16,25,0,6,-39,0,0,100,0,90,56,38,38,0,-24,-8,0,0,65,0,0,0,48,16,0,
0,8,-72,-53,0,0,100,0,15,179,57,47,0,15,-13,0,0,100,0,164,26,17,14,0,-17,-54,0,0,100,0,232,1,28,23,0,-21,-53,0,0,100,0,1,251,41,45,0,-20,-22,0,0,100,0,0,63,23,28,0,-1,-22,0,0,100,0,24,63,16,25,0,6,-39,0,0,100,0,90,56,38,38,0,-24,-8,0,0,65,0,0,0,48,16,0,
0,8,-72,-54,0,0,100,0,15,179,57,47,0,15,-13,0,0,100,0,164,26,17,14,0,-17,-54,0,0,100,0,262,1,28,23,0,-21,-53,0,0,100,0,87,251,41,45,0,-20,-22,0,0,100,0,0,63,23,28,0,-1,-22,0,0,100,0,24,63,16,25,0,6,-39,0,0,100,0,90,56,38,38,0,-24,-8,0,0,65,0,0,0,48,16,0,
0,3,-27,-60,0,0,100,0,87,176,71,66,0,-52,-45,0,0,100,0,0,21,48,36,0,-24,-8,0,0,65,0,0,0,48,16,0,
