0,2,-50,-102,0,0,100,0,0,0,96,104,0,-32,-17,0,0,65,0,192,0,64,32,0,
0,2,-50,-102,0,0,100,0,96,0,96,104,0,-32,-17,0,0,65,0,192,0,64,32,0,
0,2,-50,-100,0,0,100,0,0,107,96,104,0,-32,-17,0,0,65,0,192,0,64,32,0,
0,2,-49,-99,0,0,100,0,96,106,104,112,0,-32,-17,0,0,65,0,192,0,64,32,0,
0,2,-47,-104,0,0,100,0,192,32,96,112,0,-32,-17,0,0,65,0,192,0,64,32,0,
0,2,-47,-106,0,0,100,0,286,0,96,112,0,-28,-17,0,0,65,0,192,0,64,32,0,
0,2,-42,-110,0,0,100,0,384,0,96,112,0,-24,-17,0,0,65,0,192,0,64,32,0,
0,2,-43,-109,0,0,100,0,479,0,96,120,0,-22,-17,0,0,65,0,192,0,64,32,0,
0,2,-42,-108,0,0,100,0,577,0,96,120,0,-22,-17,0,0,65,0,192,0,64,32,0,
0,2,-43,-102,0,0,100,0,287,120,96,112,0,-22,-17,0,0,65,0,192,0,64,32,0,
0,2,-41,-102,0,0,100,0,385,120,96,104,0,-22,-17,0,0,65,0,192,0,64,32,0,
0,2,-31,-83,0,0,100,0,200,152,88,96,0,-22,-17,0,0,65,0,192,0,64,32,0,
0,2,-152,-117,0,0,100,0,672,0,224,124,0,-4,-17,0,0,65,0,192,0,64,32,0,
0,2,-452,-85,0,0,100,0,0,256,528,96,0,-2,-17,0,0,65,0,192,0,64,32,0,
0,2,-511,-98,0,0,100,0,16,344,592,104,0,0,-17,0,0,65,0,192,0,64,32,0,
0,2,-672,-86,0,0,100,0,8,448,760,96,0,0,-17,0,0,65,0,192,0,64,32,0,
0,2,-694,-88,0,0,100,0,0,544,768,96,0,0,-17,0,0,65,0,192,0,64,32,0,
0,2,-686,-83,0,0,100,0,8,640,760,88,0,0,-17,0,0,65,0,192,0,64,32,0,
0,2,-694,-80,0,0,100,0,0,728,768,80,0,0,-17,0,0,65,0,192,0,64,32,0,
0,2,-686,-88,0,0,100,0,8,808,760,96,0,0,-17,0,0,65,0,192,0,64,32,0,
0,2,-687,-81,0,0,100,0,8,904,760,88,0,0,-17,0,0,65,0,192,0,64,32,0,
0,2,-685,-91,0,0,100,0,8,1248,760,96,0,0,-17,0,0,65,0,192,0,64,32,0,
0,2,-678,-80,0,0,100,0,16,992,752,80,0,0,-17,0,0,65,0,192,0,64,32,0,
0,2,-694,-80,0,0,100,0,0,1072,768,80,0,0,-17,0,0,65,0,192,0,64,32,0,
0,2,-694,-79,0,0,100,0,0,1160,776,88,0,0,-17,0,0,65,0,192,0,64,32,0,
0,2,-30,-92,0,0,100,0,536,224,104,104,0,0,-17,0,0,65,0,192,0,64,32,0,
0,2,-48,-107,0,0,100,0,688,120,96,112,0,-32,-17,0,0,65,0,192,0,64,32,0,
0,2,-50,-99,0,0,100,0,792,128,104,104,0,-32,-17,0,0,65,0,192,0,64,32,0,
0,2,-48,-101,0,0,100,0,656,232,96,104,0,-32,-17,0,0,65,0,192,0,64,32,0,
0,2,-51,-103,0,0,100,0,752,232,112,104,0,-32,-17,0,0,65,0,192,0,64,32,0,
0,2,-50,-105,0,0,100,0,606,344,96,104,0,-32,-17,0,0,65,0,192,0,64,32,0,
0,2,-47,-109,0,0,100,0,704,344,96,104,0,-28,-17,0,0,65,0,192,0,64,32,0,
0,2,-48,-99,0,0,100,0,800,337,96,80,0,-28,-17,0,0,65,0,192,0,64,32,0,
0,2,-49,-115,0,0,100,0,800,410,96,96,0,-26,-17,0,0,65,0,192,0,64,32,0,
0,2,-56,-102,0,0,100,0,792,504,104,88,0,-22,-17,0,0,65,0,192,0,64,32,0,
0,2,-50,-112,0,0,100,0,800,584,96,96,0,-22,-17,0,0,65,0,192,0,64,32,0,
0,2,-56,-108,0,0,100,0,792,672,104,88,0,-22,-17,0,0,65,0,192,0,64,32,0,
0,2,-55,-113,0,0,100,0,792,754,104,92,0,-22,-17,0,0,65,0,192,0,64,32,0,
0,3,-34,-88,0,0,100,0,792,1168,80,40,0,-63,-108,0,0,100,0,784,840,112,96,0,-22,-17,0,0,65,0,192,0,64,32,0,
0,3,-35,-82,0,0,100,0,792,1208,88,48,0,-63,-112,0,0,100,0,784,924,112,104,0,-22,-17,0,0,65,0,192,0,64,32,0,
0,3,-34,-88,0,0,100,0,792,1168,80,40,0,-55,-116,0,0,100,0,792,1024,104,96,0,-22,-17,0,0,65,0,192,0,64,32,0,
0,3,-35,-82,0,0,100,0,792,1208,88,48,0,-55,-112,0,0,100,0,792,755,104,92,0,-22,-17,0,0,65,0,192,0,64,32,0,
0,3,-34,-88,0,0,100,0,792,1168,80,40,0,-63,-108,0,0,100,0,784,840,112,96,0,-22,-17,0,0,65,0,192,0,64,32,0,
0,2,-63,-114,0,0,100,0,784,922,112,104,0,-22,-17,0,0,65,0,192,0,64,32,0,
0,2,-55,-116,0,0,100,0,792,1024,104,96,0,-22,-17,0,0,65,0,192,0,64,32,0,
0,2,-55,-113,0,0,100,0,792,754,104,92,0,-22,-17,0,0,65,0,192,0,64,32,0,
0,2,-63,-108,0,0,100,0,784,840,112,96,0,-22,-17,0,0,65,0,192,0,64,32,0,
