0,19,-6,-13,0,0,100,0,1,593,34,36,0,0,-12,0,0,100,0,25,211,22,22,0,-66,-35,0,0,100,0,1,546,50,45,0,-66,-63,0,0,100,0,1,513,50,31,0,-49,-56,0,0,100,0,0,211,22,21,0,-53,-29,0,0,100,0,0,184,29,26,0,4,-47,0,0,100,0,160,379,48,44,0,18,-58,0,0,100,0,209,513,54,74,0,-27,-44,0,0,100,0,237,0,23,18,0,-19,-67,0,0,100,0,185,155,34,30,0,-11,-51,0,0,100,0,131,0,25,28,0,-23,-36,0,0,100,0,158,1,41,25,0,-15,-29,0,0,100,0,199,1,35,30,0,6,-51,0,0,100,0,257,492,30,19,0,3,-60,0,0,100,0,257,471,20,19,0,-19,-75,0,0,100,0,1,471,62,40,0,-31,-62,0,0,100,0,131,378,27,27,0,-33,-44,0,0,100,0,1,425,63,44,0,-24,-9,0,0,65,0,0,0,48,18,0,
0,19,-6,-13,0,0,100,0,37,593,34,36,0,0,-12,0,0,100,0,25,211,22,22,0,-66,-35,0,0,100,0,53,546,50,45,0,-66,-63,0,0,100,0,53,513,50,31,0,-49,-56,0,0,100,0,0,211,22,21,0,-53,-29,0,0,100,0,0,184,29,26,0,4,-47,0,0,100,0,160,379,48,44,0,18,-58,0,0,100,0,265,513,54,74,0,-27,-44,0,0,100,0,237,0,23,18,0,-19,-67,0,0,100,0,185,155,34,30,0,-11,-51,0,0,100,0,131,0,25,28,0,-23,-36,0,0,100,0,158,1,41,25,0,-15,-29,0,0,100,0,199,1,35,30,0,6,-51,0,0,100,0,257,492,30,19,0,3,-60,0,0,100,0,257,471,20,19,0,-19,-75,0,0,100,0,1,471,62,40,0,-31,-62,0,0,100,0,131,378,27,27,0,-33,-44,0,0,100,0,1,425,63,44,0,-24,-9,0,0,65,0,0,0,48,18,0,
0,19,-6,-14,0,0,100,0,73,593,34,36,0,0,-13,0,0,100,0,25,211,22,22,0,-66,-34,0,0,100,0,105,546,50,45,0,-66,-64,0,0,100,0,105,513,50,31,0,-49,-57,0,0,100,0,0,211,22,21,0,-53,-28,0,0,100,0,0,184,29,26,0,4,-46,0,0,100,0,160,379,48,44,0,18,-57,0,0,100,0,321,513,54,74,0,-27,-43,0,0,100,0,237,0,23,18,0,-19,-66,0,0,100,0,185,155,34,30,0,-11,-50,0,0,100,0,131,0,25,28,0,-23,-35,0,0,100,0,158,1,41,25,0,-15,-28,0,0,100,0,199,1,35,30,0,6,-50,0,0,100,0,289,492,30,19,0,3,-59,0,0,100,0,279,471,20,19,0,-19,-74,0,0,100,0,65,471,62,40,0,-31,-61,0,0,100,0,131,378,27,27,0,-33,-43,0,0,100,0,66,425,63,44,0,-24,-9,0,0,65,0,0,0,48,18,0,
0,19,-6,-14,0,0,100,0,109,593,34,36,0,0,-13,0,0,100,0,25,211,22,22,0,-66,-34,0,0,100,0,157,546,50,45,0,-66,-64,0,0,100,0,157,513,50,31,0,-49,-57,0,0,100,0,0,211,22,21,0,-53,-28,0,0,100,0,0,184,29,26,0,4,-46,0,0,100,0,160,379,48,44,0,18,-57,0,0,100,0,377,513,54,74,0,-27,-43,0,0,100,0,237,0,23,18,0,-19,-66,0,0,100,0,185,155,34,30,0,-11,-50,0,0,100,0,131,0,25,28,0,-23,-35,0,0,100,0,158,1,41,25,0,-15,-28,0,0,100,0,199,1,35,30,0,6,-50,0,0,100,0,289,492,30,19,0,3,-59,0,0,100,0,279,471,20,19,0,-19,-74,0,0,100,0,65,471,62,40,0,-31,-61,0,0,100,0,131,378,27,27,0,-33,-43,0,0,100,0,66,425,63,44,0,-24,-9,0,0,65,0,0,0,48,18,0,
0,19,-6,-15,0,0,100,0,1,593,34,36,0,0,-14,0,0,100,0,25,211,22,22,0,-66,-33,0,0,100,0,1,546,50,45,0,-66,-63,0,0,100,0,1,513,50,31,0,-49,-56,0,0,100,0,0,211,22,21,0,-53,-27,0,0,100,0,0,184,29,26,0,4,-46,0,0,100,0,160,379,48,44,0,18,-57,0,0,100,0,209,513,54,74,0,-27,-43,0,0,100,0,237,0,23,18,0,-19,-67,0,0,100,0,185,155,34,30,0,-11,-51,0,0,100,0,131,0,25,28,0,-23,-36,0,0,100,0,158,1,41,25,0,-15,-29,0,0,100,0,199,1,35,30,0,6,-51,0,0,100,0,321,492,30,19,0,3,-60,0,0,100,0,301,471,20,19,0,-19,-75,0,0,100,0,129,471,62,40,0,-31,-61,0,0,100,0,131,378,27,27,0,-33,-44,0,0,100,0,131,425,63,44,0,-24,-9,0,0,65,0,0,0,48,18,0,
0,19,-6,-15,0,0,100,0,37,593,34,36,0,0,-14,0,0,100,0,25,211,22,22,0,-66,-33,0,0,100,0,53,546,50,45,0,-66,-64,0,0,100,0,53,513,50,31,0,-49,-56,0,0,100,0,0,211,22,21,0,-53,-27,0,0,100,0,0,184,29,26,0,4,-46,0,0,100,0,160,379,48,44,0,18,-57,0,0,100,0,265,513,54,74,0,-27,-43,0,0,100,0,237,0,23,18,0,-19,-67,0,0,100,0,185,155,34,30,0,-11,-51,0,0,100,0,131,0,25,28,0,-23,-36,0,0,100,0,158,1,41,25,0,-15,-29,0,0,100,0,199,1,35,30,0,6,-51,0,0,100,0,321,492,30,19,0,3,-60,0,0,100,0,301,471,20,19,0,-19,-75,0,0,100,0,129,471,62,40,0,-31,-61,0,0,100,0,131,378,27,27,0,-33,-44,0,0,100,0,131,425,63,44,0,-24,-9,0,0,65,0,0,0,48,18,0,
0,19,-6,-14,0,0,100,0,73,593,34,36,0,0,-13,0,0,100,0,25,211,22,22,0,-66,-34,0,0,100,0,105,546,50,45,0,-66,-63,0,0,100,0,105,513,50,31,0,-49,-55,0,0,100,0,0,211,22,21,0,-53,-28,0,0,100,0,0,184,29,26,0,4,-47,0,0,100,0,160,379,48,44,0,18,-58,0,0,100,0,321,513,54,74,0,-27,-44,0,0,100,0,237,0,23,18,0,-19,-68,0,0,100,0,185,155,34,30,0,-11,-52,0,0,100,0,131,0,25,28,0,-23,-37,0,0,100,0,158,1,41,25,0,-15,-30,0,0,100,0,199,1,35,30,0,6,-52,0,0,100,0,353,492,30,19,0,3,-61,0,0,100,0,323,471,20,19,0,-19,-76,0,0,100,0,193,471,62,40,0,-31,-62,0,0,100,0,131,378,27,27,0,-33,-45,0,0,100,0,196,425,63,44,0,-24,-9,0,0,65,0,0,0,48,18,0,
0,19,-6,-14,0,0,100,0,109,593,34,36,0,0,-13,0,0,100,0,25,211,22,22,0,-66,-34,0,0,100,0,157,546,50,45,0,-66,-62,0,0,100,0,157,513,50,31,0,-49,-55,0,0,100,0,0,211,22,21,0,-53,-28,0,0,100,0,0,184,29,26,0,4,-47,0,0,100,0,160,379,48,44,0,18,-58,0,0,100,0,377,513,54,74,0,-27,-44,0,0,100,0,237,0,23,18,0,-19,-68,0,0,100,0,185,155,34,30,0,-11,-52,0,0,100,0,131,0,25,28,0,-23,-37,0,0,100,0,158,1,41,25,0,-15,-30,0,0,100,0,199,1,35,30,0,6,-52,0,0,100,0,353,492,30,19,0,3,-61,0,0,100,0,323,471,20,19,0,-19,-76,0,0,100,0,193,471,62,40,0,-31,-62,0,0,100,0,131,378,27,27,0,-33,-45,0,0,100,0,196,425,63,44,0,-24,-9,0,0,65,0,0,0,48,18,0,
0,19,11,-19,0,0,100,0,25,211,22,22,0,-19,-59,0,0,100,0,185,155,34,30,0,-14,-29,0,0,100,0,133,33,11,11,0,-56,-80,0,0,100,0,0,39,74,92,0,-64,-87,1,0,100,270,209,513,54,74,0,-49,-56,0,0,100,0,0,211,22,21,0,-46,-23,0,0,100,0,0,184,29,26,0,7,-36,0,0,100,0,116,23,12,14,0,4,-34,0,0,100,0,261,443,27,26,0,-12,-41,0,0,100,0,131,1,26,27,0,-24,-28,0,0,100,0,158,0,41,25,0,-14,-23,0,0,100,0,52,21,32,17,0,-17,-35,0,0,100,0,133,46,14,15,0,-20,-20,0,0,100,0,85,0,45,24,0,-24,-19,0,0,100,0,107,255,51,18,0,-11,-36,0,0,100,0,357,23,9,7,0,2,-48,0,0,100,0,357,1,28,20,0,-10,-68,0,0,100,0,1,471,62,40,0,-24,-9,0,0,65,0,0,0,48,18,0,
0,19,5,-92,0,1,100,0,126,302,55,47,0,35,-28,1,0,100,180,25,211,22,22,0,-44,-56,0,0,100,-90,0,211,22,21,0,-17,-15,0,0,100,-90,0,184,29,26,0,-16,-60,0,0,100,0,185,155,34,30,0,-11,-38,0,0,100,0,159,33,28,18,0,-16,-89,1,0,100,0,0,39,74,92,0,-27,-86,0,0,100,0,441,554,71,38,0,4,-37,0,0,100,0,187,32,17,18,0,7,-35,0,0,100,0,261,443,27,26,0,-9,-42,0,0,100,0,131,1,26,27,0,-21,-29,0,0,100,0,158,0,41,25,0,5,-20,0,0,100,0,110,0,17,22,0,-18,-19,0,0,100,0,86,1,21,24,0,-7,-35,0,0,100,0,357,23,9,7,0,5,-50,0,0,100,0,357,1,28,20,0,-21,-20,0,0,100,0,107,255,51,18,0,-31,-49,0,0,100,0,124,644,74,33,0,-24,-9,0,0,65,0,0,0,48,18,0,
0,25,-52,-63,0,1,80,0,384,480,37,32,0,40,-41,0,1,80,0,384,480,37,32,0,4,-19,0,1,80,0,384,480,37,32,0,-23,-126,0,1,50,0,0,630,119,111,0,-22,-126,0,1,100,0,0,302,115,111,0,-40,-78,0,0,100,0,358,596,79,42,0,10,-67,0,0,100,0,434,595,35,72,0,26,-72,0,0,100,0,471,598,40,58,0,46,-34,1,0,100,180,25,211,22,22,0,-44,-56,0,0,100,-90,0,211,22,21,0,6,-13,0,0,100,0,279,0,32,31,0,-16,-60,0,0,100,0,185,155,34,30,0,-10,-38,0,0,100,0,159,33,28,18,0,-15,-89,1,0,100,0,0,39,74,92,0,5,-36,0,0,100,0,187,32,17,18,0,7,-35,0,0,100,0,290,443,27,26,0,-9,-42,0,0,100,0,131,1,26,27,0,-21,-29,0,0,100,0,158,0,41,25,0,5,-20,0,0,100,0,110,0,17,22,0,-18,-19,0,0,100,0,86,1,21,24,0,-7,-35,0,0,100,0,357,23,9,7,0,5,-50,0,0,100,0,387,1,28,20,0,-21,-20,0,0,100,0,54,255,51,18,0,-31,-49,0,0,100,0,200,644,74,33,0,-24,-9,0,0,65,0,0,0,48,18,0,
0,25,-52,-63,0,1,50,0,384,480,37,32,0,40,-41,0,1,50,0,384,480,37,32,0,4,-19,0,1,50,0,384,480,37,32,0,-22,-126,1,1,100,0,0,302,115,111,0,-23,-126,0,1,50,0,0,630,119,111,0,-40,-78,0,0,100,180,358,596,79,42,0,10,-67,0,0,100,180,434,595,35,72,0,26,-72,0,0,100,180,471,598,40,58,0,46,-34,1,0,100,180,25,211,22,22,0,-44,-56,0,0,100,-90,0,211,22,21,0,6,-13,0,0,100,0,279,0,32,31,0,-16,-60,0,0,100,0,185,155,34,30,0,-10,-38,0,0,100,0,159,33,28,18,0,-15,-89,1,0,100,0,0,39,74,92,0,5,-36,0,0,100,0,187,32,17,18,0,7,-35,0,0,100,0,319,443,27,26,0,-9,-42,0,0,100,0,131,1,26,27,0,-21,-29,0,0,100,0,158,0,41,25,0,5,-20,0,0,100,0,110,0,17,22,0,-18,-19,0,0,100,0,86,1,21,24,0,-7,-35,0,0,100,0,357,23,9,7,0,5,-50,0,0,100,0,417,1,28,20,0,-21,-20,0,0,100,0,107,255,51,18,0,-31,-49,0,0,100,0,276,644,74,33,0,-24,-9,0,0,65,0,0,0,48,18,0,
0,25,-52,-63,0,1,80,0,384,480,37,32,0,40,-41,0,1,80,0,384,480,37,32,0,4,-19,0,1,80,0,384,480,37,32,0,-22,-126,0,1,100,90,0,302,115,111,0,-23,-126,0,1,50,0,0,630,119,111,0,-40,-78,0,0,100,0,358,596,79,42,0,10,-67,0,0,100,0,434,595,35,72,0,26,-72,0,0,100,0,471,598,40,58,0,46,-34,1,0,100,180,25,211,22,22,0,-44,-56,0,0,100,-90,0,211,22,21,0,6,-13,0,0,100,0,279,0,32,31,0,-16,-60,0,0,100,0,185,155,34,30,0,-10,-38,0,0,100,0,159,33,28,18,0,-15,-89,1,0,100,0,0,39,74,92,0,5,-36,0,0,100,0,187,32,17,18,0,7,-35,0,0,100,0,348,443,24,26,0,-9,-42,0,0,100,0,131,1,26,27,0,-21,-29,0,0,100,0,158,0,41,25,0,5,-20,0,0,100,0,110,0,17,22,0,-18,-19,0,0,100,0,86,1,21,24,0,-7,-35,0,0,100,0,357,23,9,7,0,5,-50,0,0,100,0,447,1,28,20,0,-21,-20,0,0,100,0,160,255,51,18,0,-31,-49,0,0,100,0,352,644,74,33,0,-24,-9,0,0,65,0,0,0,48,18,0,
0,25,-52,-63,0,1,50,0,384,480,37,32,0,40,-41,0,1,50,0,384,480,37,32,0,4,-19,0,1,50,0,384,480,37,32,0,-22,-126,3,1,100,0,0,302,115,111,0,-23,-126,0,1,50,0,0,630,119,111,0,-40,-78,0,0,100,180,358,596,79,42,0,10,-67,0,0,100,180,434,595,35,72,0,26,-72,0,0,100,180,471,598,40,58,0,46,-34,1,0,100,180,25,211,22,22,0,-44,-56,0,0,100,-90,0,211,22,21,0,6,-13,0,0,100,0,279,0,32,31,0,-16,-60,0,0,100,0,185,155,34,30,0,-10,-38,0,0,100,0,159,33,28,18,0,-15,-89,1,0,100,0,0,39,74,92,0,5,-36,0,0,100,0,187,32,17,18,0,7,-35,0,0,100,0,261,443,27,26,0,-9,-42,0,0,100,0,131,1,26,27,0,-21,-29,0,0,100,0,158,0,41,25,0,5,-20,0,0,100,0,110,0,17,22,0,-18,-19,0,0,100,0,86,1,21,24,0,-7,-35,0,0,100,0,357,23,9,7,0,5,-50,0,0,100,0,357,1,28,20,0,-21,-20,0,0,100,0,1,255,51,18,0,-31,-49,0,0,100,0,124,644,73,33,0,-24,-9,0,0,65,0,0,0,48,18,0,
0,26,-52,-63,0,1,30,0,384,480,37,32,0,40,-41,0,1,30,0,384,480,37,32,0,4,-19,0,1,30,0,384,480,37,32,0,-23,-123,0,1,50,0,0,302,115,111,0,-24,-123,0,1,10,0,0,630,119,111,0,-40,-78,0,0,50,0,358,596,79,42,0,10,-67,0,0,50,0,434,595,35,72,0,26,-72,0,0,50,0,471,598,40,58,0,46,-34,1,0,100,180,25,211,22,22,0,-44,-56,0,0,100,-90,0,211,22,21,0,6,-13,0,0,100,0,279,0,32,31,0,-16,-60,0,0,100,0,185,155,34,30,0,-10,-38,0,0,100,0,159,33,28,18,0,21,-82,1,1,100,0,217,397,26,24,0,-15,-89,1,0,100,0,0,39,74,92,0,5,-36,0,0,100,0,187,32,17,18,0,7,-35,0,0,100,0,290,443,27,26,0,-9,-42,0,0,100,0,131,1,26,27,0,-21,-29,0,0,100,0,158,0,41,25,0,5,-20,0,0,100,0,110,0,17,22,0,-18,-19,0,0,100,0,86,1,21,24,0,-7,-35,0,0,100,0,357,23,9,7,0,5,-50,0,0,100,0,387,1,28,20,0,-21,-20,0,0,100,0,54,255,51,18,0,-31,-49,0,0,100,0,200,644,74,33,0,-24,-9,0,0,65,0,0,0,48,18,0,
0,18,46,-34,1,0,100,180,25,211,22,22,0,-44,-56,0,0,100,-90,0,211,22,21,0,6,-13,0,0,100,0,279,0,32,31,0,-16,-60,0,0,100,0,185,155,34,30,0,-10,-38,0,0,100,0,159,33,28,18,0,21,-82,1,1,100,0,217,397,26,24,0,-15,-89,1,0,100,0,0,39,74,92,0,5,-36,0,0,100,0,187,32,17,18,0,7,-35,0,0,100,0,319,443,27,26,0,-9,-42,0,0,100,0,131,1,26,27,0,-21,-29,0,0,100,0,158,0,41,25,0,5,-20,0,0,100,0,110,0,17,22,0,-18,-19,0,0,100,0,86,1,21,24,0,-7,-35,0,0,100,0,357,23,9,7,0,5,-50,0,0,100,0,417,1,28,20,0,-21,-20,0,0,100,0,107,255,51,18,0,-31,-49,0,0,100,0,276,644,74,33,0,-24,-9,0,0,65,0,0,0,48,18,0,
0,18,46,-34,1,0,100,180,25,211,22,22,0,-44,-56,0,0,100,-90,0,211,22,21,0,6,-13,0,0,100,0,279,0,32,31,0,-14,-41,0,0,100,0,187,50,25,18,0,15,-86,1,1,100,0,217,397,26,24,0,-21,-93,1,0,100,0,0,39,74,92,0,-16,-61,0,0,100,0,221,155,34,30,0,5,-35,0,0,100,0,187,32,17,18,0,6,-35,0,0,100,0,261,443,27,26,0,-10,-42,0,0,100,0,131,1,26,27,0,-22,-29,0,0,100,0,158,0,41,25,0,5,-20,0,0,100,0,110,0,17,22,0,-18,-19,0,0,100,0,86,1,21,24,0,-8,-38,0,0,100,0,357,23,9,7,0,5,-51,0,0,100,0,447,1,28,20,0,-22,-20,0,0,100,0,107,255,51,18,0,-28,-49,0,0,100,0,124,644,74,33,0,-24,-9,0,0,65,0,0,0,48,18,0,
0,15,46,-34,1,0,100,180,25,211,22,22,0,-44,-56,0,0,100,-90,0,211,22,21,0,6,-13,0,0,100,0,279,0,32,31,0,-24,-52,0,0,100,0,146,32,10,11,0,-29,-106,0,1,100,0,242,399,22,21,0,-43,-103,0,0,100,0,84,51,49,90,0,-15,-64,0,0,100,0,293,155,34,30,0,8,-34,0,0,100,0,348,443,27,26,0,-24,-53,0,0,100,0,142,81,48,48,0,-21,-19,0,0,100,0,145,130,42,24,0,6,-53,0,0,100,0,447,1,28,20,0,-8,-42,0,0,100,0,357,23,9,7,0,-16,-21,0,0,100,0,148,235,47,18,0,2,-46,0,0,100,0,280,593,43,36,0,-24,-9,0,0,65,0,0,0,48,18,0,
0,15,46,-34,1,0,100,180,25,211,22,22,0,-44,-56,0,0,100,-90,0,211,22,21,0,6,-13,0,0,100,0,279,0,32,31,0,-35,-114,0,1,100,0,319,369,32,32,0,-24,-53,0,0,100,0,146,32,10,11,0,-43,-104,0,0,100,0,84,51,49,90,0,-15,-65,0,0,100,0,293,155,34,30,0,8,-35,0,0,100,0,261,443,27,26,0,-24,-54,0,0,100,0,142,81,48,48,0,-21,-19,0,0,100,0,145,130,42,24,0,6,-53,0,0,100,0,357,1,28,20,0,-8,-43,0,0,100,0,357,23,9,7,0,-16,-21,0,0,100,0,1,235,47,18,0,2,-46,0,0,100,0,145,593,43,36,0,-24,-9,0,0,65,0,0,0,48,18,0,
0,15,46,-34,1,0,100,180,25,211,22,22,0,-44,-56,0,0,100,-90,0,211,22,21,0,6,-13,0,0,100,0,279,0,32,31,0,-32,-143,0,1,100,0,365,338,29,93,0,-24,-53,0,0,100,0,146,32,10,11,0,-43,-104,0,0,100,0,84,51,49,90,0,-15,-65,0,0,100,0,293,155,34,30,0,8,-35,0,0,100,0,290,443,27,26,0,-24,-54,0,0,100,0,142,81,48,48,0,-21,-19,0,0,100,0,145,130,42,24,0,6,-53,0,0,100,0,387,1,28,20,0,-7,-43,0,0,100,0,357,23,9,7,0,-16,-21,0,0,100,0,50,235,47,18,0,2,-46,0,0,100,0,190,593,43,36,0,-24,-9,0,0,65,0,0,0,48,18,0,
0,16,46,-34,1,0,100,180,25,211,22,22,0,-44,-56,0,0,100,-90,0,211,22,21,0,6,-13,0,0,100,0,279,0,32,31,0,-75,-103,0,0,100,0,230,300,114,29,0,-42,-183,0,1,100,0,394,295,50,174,0,-24,-53,0,0,100,0,146,32,10,11,0,-43,-104,0,0,100,0,84,51,49,90,0,-15,-65,0,0,100,0,293,155,34,30,0,8,-35,0,0,100,0,319,443,27,26,0,-24,-54,0,0,100,0,142,81,48,48,0,-21,-19,0,0,100,0,145,130,42,24,0,6,-53,0,0,100,0,417,1,28,20,0,-7,-43,0,0,100,0,357,23,9,7,0,-16,-21,0,0,100,0,99,235,47,18,0,2,-46,0,0,100,0,235,593,43,36,0,-24,-9,0,0,65,0,0,0,48,18,0,
0,16,46,-34,1,0,100,180,25,211,22,22,0,-44,-56,0,0,100,-90,0,211,22,21,0,6,-13,0,0,100,0,279,0,32,31,0,-86,-102,0,0,100,0,218,330,139,28,0,-50,-188,0,1,100,0,445,290,67,186,0,-24,-53,0,0,100,0,146,32,10,11,0,-43,-104,0,0,100,0,84,51,49,90,0,-15,-65,0,0,100,0,293,155,34,30,0,8,-35,0,0,100,0,348,443,24,26,0,-24,-54,0,0,100,0,142,81,48,48,0,-21,-19,0,0,100,0,145,130,42,24,0,6,-53,0,0,100,0,447,1,28,20,0,-8,-43,0,0,100,0,357,23,9,7,0,-16,-21,0,0,100,0,148,235,47,18,0,2,-46,0,0,100,0,280,593,43,36,0,-24,-9,0,0,65,0,0,0,48,18,0,
0,16,46,-34,1,0,100,180,25,211,22,22,0,-44,-56,0,0,100,-90,0,211,22,21,0,6,-13,0,0,100,0,279,0,32,31,0,-86,-102,0,0,50,0,218,330,139,28,0,-50,-188,0,1,50,0,445,290,67,186,0,-24,-53,0,0,100,0,146,32,10,11,0,-43,-104,0,0,100,0,84,51,49,90,0,-15,-65,0,0,100,0,293,155,34,30,0,8,-35,0,0,100,0,261,443,27,26,0,-24,-54,0,0,100,0,142,81,48,48,0,-21,-19,0,0,100,0,145,130,42,24,0,6,-53,0,0,100,0,357,1,28,20,0,-8,-43,0,0,100,0,357,23,9,7,0,-16,-21,0,0,100,0,1,235,47,18,0,2,-46,0,0,100,0,145,593,43,36,0,-24,-9,0,0,65,0,0,0,48,18,0,
0,16,46,-34,1,0,100,180,25,211,22,22,0,-44,-56,0,0,100,-90,0,211,22,21,0,6,-13,0,0,100,0,279,0,32,31,0,-86,-102,0,0,20,0,218,330,139,28,0,-50,-188,0,1,20,0,445,290,67,186,0,-24,-53,0,0,100,0,146,32,10,11,0,-43,-104,0,0,100,0,84,51,49,90,0,-15,-65,0,0,100,0,293,155,34,30,0,8,-35,0,0,100,0,290,443,27,26,0,-24,-54,0,0,100,0,142,81,48,48,0,-21,-19,0,0,100,0,145,130,42,24,0,6,-53,0,0,100,0,387,1,28,20,0,-7,-43,0,0,100,0,357,23,9,7,0,-16,-21,0,0,100,0,50,235,47,18,0,2,-46,0,0,100,0,190,593,43,36,0,-24,-9,0,0,65,0,0,0,48,18,0,
0,14,46,-34,1,0,100,180,25,211,22,22,0,-44,-56,0,0,100,-90,0,211,22,21,0,6,-13,0,0,100,0,279,0,32,31,0,-24,-53,0,0,100,0,146,32,10,11,0,-43,-104,0,0,100,0,84,51,49,90,0,-15,-65,0,0,100,0,293,155,34,30,0,8,-35,0,0,100,0,319,443,27,26,0,-24,-54,0,0,100,0,142,81,48,48,0,-21,-19,0,0,100,0,145,130,42,24,0,6,-53,0,0,100,0,417,1,28,20,0,-7,-43,0,0,100,0,357,23,9,7,0,-16,-21,0,0,100,0,99,235,47,18,0,2,-46,0,0,100,0,235,593,43,36,0,-24,-9,0,0,65,0,0,0,48,18,0,
0,14,46,-34,1,0,100,180,25,211,22,22,0,-44,-56,0,0,100,-90,0,211,22,21,0,6,-13,0,0,100,0,279,0,32,31,0,-24,-53,0,0,100,0,146,32,10,11,0,-43,-104,0,0,100,0,84,51,49,90,0,-15,-65,0,0,100,0,293,155,34,30,0,8,-35,0,0,100,0,348,443,24,26,0,-24,-54,0,0,100,0,142,81,48,48,0,-21,-19,0,0,100,0,145,130,42,24,0,6,-53,0,0,100,0,447,1,28,20,0,-8,-43,0,0,100,0,357,23,9,7,0,-16,-21,0,0,100,0,148,235,47,18,0,2,-46,0,0,100,0,280,593,43,36,0,-24,-9,0,0,65,0,0,0,48,18,0,
0,16,0,-12,0,0,100,0,25,211,22,22,0,-49,-56,0,0,100,0,0,211,22,21,0,-53,-29,0,0,100,0,0,184,29,26,0,-18,-36,0,0,100,0,133,33,11,11,0,-62,-90,0,0,100,0,0,39,74,92,0,-71,-97,1,0,100,270,209,513,54,74,0,-16,-65,0,0,100,0,221,155,34,30,0,9,-34,0,0,100,0,261,443,27,26,0,-18,-48,0,0,100,0,201,86,39,43,0,-17,-39,0,0,100,0,289,75,15,12,0,-21,-21,0,0,100,0,198,129,22,25,0,2,-21,0,0,100,0,220,129,19,25,0,-17,-19,0,0,100,0,1,235,47,18,0,-13,-42,0,0,100,0,273,107,58,46,0,-9,-55,0,0,100,0,329,155,44,34,0,-24,-9,0,0,65,0,0,0,48,18,0,
0,17,-40,-49,0,0,100,0,48,203,18,13,0,8,-13,0,0,100,0,51,185,13,15,0,-40,-28,0,0,100,0,33,185,17,16,0,-40,-92,0,0,100,0,80,41,55,101,0,-56,-98,0,0,100,0,434,499,72,50,0,-52,-79,0,0,50,0,237,190,95,88,0,-21,-39,0,0,100,0,243,75,18,14,0,-15,-66,0,0,100,0,221,155,34,30,0,10,-35,0,0,100,0,261,443,27,26,0,-17,-49,0,0,100,0,201,86,39,43,0,-16,-40,0,0,100,0,289,75,15,12,0,-21,-21,0,0,100,0,198,129,22,25,0,2,-21,0,0,100,0,220,129,19,25,0,-16,-20,0,0,100,0,1,235,47,18,0,-12,-43,0,0,100,0,273,107,58,46,0,-8,-56,0,0,100,0,329,155,44,34,0,-24,-9,0,0,65,0,0,0,48,18,0,
0,16,-26,-53,0,0,100,0,56,216,13,13,0,0,-14,0,0,100,0,51,185,13,15,0,-41,-31,0,0,100,0,33,185,17,16,0,-38,-72,1,0,100,0,65,153,63,74,0,-52,-79,0,0,80,0,237,190,95,88,0,-21,-39,0,0,100,0,243,75,18,14,0,-15,-66,0,0,100,0,221,155,34,30,0,10,-35,0,0,100,0,290,443,27,26,0,-17,-49,0,0,100,0,201,86,39,43,0,-16,-40,0,0,100,0,289,75,15,12,0,-21,-21,0,0,100,0,198,129,22,25,0,2,-21,0,0,100,0,220,129,19,25,0,-16,-20,0,0,100,0,50,235,47,18,0,-12,-43,0,0,100,0,333,107,58,46,0,-8,-56,0,0,100,0,375,155,44,34,0,-24,-9,0,0,65,0,0,0,48,18,0,
0,16,-20,-52,0,0,100,0,56,216,13,13,0,-28,-19,0,0,100,0,56,216,13,13,0,-36,-40,0,0,100,0,56,216,13,13,0,-38,-54,1,0,100,-90,126,152,52,68,0,-51,-79,0,0,80,0,326,190,92,86,0,-21,-39,0,0,100,0,243,75,18,14,0,-15,-66,0,0,100,0,221,155,34,30,0,10,-35,0,0,100,0,319,443,27,26,0,-17,-49,0,0,100,0,201,86,39,43,0,-16,-40,0,0,100,0,289,75,15,12,0,-21,-21,0,0,100,0,198,129,22,25,0,2,-21,0,0,100,0,220,129,19,25,0,-16,-20,0,0,100,0,99,235,47,18,0,-12,-43,0,0,100,0,393,107,58,46,0,-8,-56,0,0,100,0,421,155,44,34,0,-24,-9,0,0,65,0,0,0,48,18,0,
0,16,-20,-52,0,0,100,0,56,216,13,13,0,-36,-29,0,0,100,0,56,216,13,13,0,-32,-48,0,0,100,0,56,216,13,13,0,-33,-42,0,0,100,90,28,142,30,35,0,-54,-79,0,0,30,0,420,190,92,86,0,-21,-39,0,0,100,0,243,75,18,14,0,-15,-66,0,0,100,0,221,155,34,30,0,10,-35,0,0,100,0,348,443,24,26,0,-17,-49,0,0,100,0,201,86,39,43,0,-16,-40,0,0,100,0,289,75,15,12,0,-21,-21,0,0,100,0,198,129,22,25,0,2,-21,0,0,100,0,220,129,19,25,0,-16,-20,0,0,100,0,148,235,47,18,0,-12,-43,0,0,100,0,453,107,58,46,0,-8,-56,0,0,100,0,467,155,44,34,0,-24,-9,0,0,65,0,0,0,48,18,0,
0,15,-20,-52,0,0,100,0,56,216,13,13,0,-36,-36,0,0,100,0,56,216,13,13,0,-32,-48,0,0,100,0,56,216,13,13,0,-16,-65,0,0,100,0,221,155,34,30,0,9,-34,0,0,100,0,348,443,24,26,0,-18,-48,0,0,100,0,201,86,39,43,0,-20,-35,0,0,100,0,260,75,13,13,0,-26,-44,0,0,100,0,1,149,23,21,0,-16,-38,0,0,100,0,304,71,16,16,0,-21,-21,0,0,100,0,198,129,22,25,0,2,-21,0,0,100,0,220,129,19,25,0,-17,-19,0,0,100,0,148,235,47,18,0,-13,-42,0,0,100,0,453,107,58,46,0,-9,-55,0,0,100,0,467,155,44,34,0,-24,-9,0,0,65,0,0,0,48,18,0,
0,16,-16,-65,0,0,100,0,221,155,34,30,0,9,-34,0,0,100,0,348,443,24,26,0,-18,-48,0,0,100,0,201,86,39,43,0,-20,-34,0,0,100,0,260,75,13,13,0,-20,-51,0,0,100,0,56,216,13,13,0,-36,-35,0,0,100,0,56,216,13,13,0,-32,-47,0,0,100,0,56,216,13,13,0,-26,-43,0,0,100,0,1,149,23,21,0,-23,-40,0,0,100,0,161,53,18,17,0,-16,-37,0,0,100,0,304,71,16,16,0,-21,-21,0,0,100,0,198,129,22,25,0,2,-21,0,0,100,0,220,129,19,25,0,-17,-19,0,0,100,0,148,235,47,18,0,-13,-42,0,0,100,0,453,107,58,46,0,-9,-55,0,0,100,0,467,155,44,34,0,-24,-9,0,0,65,0,0,0,48,18,0,
0,15,-11,-87,0,0,100,0,3,171,9,9,0,-24,-88,0,0,100,0,3,171,9,9,0,-29,-77,0,0,100,0,3,171,9,9,0,-25,-85,0,0,100,0,1,149,23,21,0,-22,-84,0,0,100,0,161,53,18,17,0,-14,-67,0,0,100,0,293,155,34,30,0,-19,-54,0,0,100,0,273,68,17,23,0,10,-35,0,0,100,0,319,443,27,26,0,-17,-49,0,0,100,0,201,86,39,43,0,-21,-21,0,0,100,0,198,129,22,25,0,2,-21,0,0,100,0,220,129,19,25,0,-16,-20,0,0,100,0,1,235,47,18,0,-12,-43,0,0,100,0,393,107,58,46,0,-7,-55,0,0,100,0,467,155,44,34,0,-24,-9,0,0,65,0,0,0,48,18,0,
0,11,-22,-88,0,0,100,0,161,53,18,17,0,-14,-67,0,0,100,0,293,155,34,30,0,-19,-55,0,0,100,0,273,68,17,23,0,10,-35,0,0,100,0,319,443,27,26,0,-17,-49,0,0,100,0,201,86,39,43,0,-21,-21,0,0,100,0,198,129,22,25,0,2,-21,0,0,100,0,220,129,19,25,0,-16,-20,0,0,100,0,50,235,47,18,0,-12,-43,0,0,100,0,393,107,58,46,0,-7,-55,0,0,100,0,467,155,44,34,0,-24,-9,0,0,65,0,0,0,48,18,0,
0,11,-22,-81,0,0,100,0,161,53,18,17,0,-14,-67,0,0,100,0,293,155,34,30,0,10,-35,0,0,100,0,319,443,27,26,0,-17,-49,0,0,100,0,201,86,39,43,0,-25,-44,0,0,100,0,280,91,25,15,0,-21,-21,0,0,100,0,198,129,22,25,0,2,-21,0,0,100,0,220,129,19,25,0,-16,-20,0,0,100,0,50,235,47,18,0,-12,-43,0,0,100,0,393,107,58,46,0,-7,-55,0,0,100,0,467,155,44,34,0,-24,-9,0,0,65,0,0,0,48,18,0,
0,12,-23,-39,0,0,100,0,307,88,23,18,0,-16,-65,0,0,100,0,221,155,34,30,0,9,-34,0,0,100,0,348,443,24,26,0,-18,-48,0,0,100,0,201,86,39,43,0,-22,-40,0,0,100,0,161,53,18,17,0,-16,-37,0,0,100,0,304,71,16,16,0,-21,-21,0,0,100,0,198,129,22,25,0,2,-21,0,0,100,0,220,129,19,25,0,-17,-19,0,0,100,0,148,235,47,18,0,-13,-42,0,0,100,0,453,107,58,46,0,-9,-55,0,0,100,0,467,155,44,34,0,-24,-9,0,0,65,0,0,0,48,18,0,
0,9,-15,-66,0,0,100,0,257,155,34,30,0,-7,-45,0,0,100,0,319,69,29,19,0,11,-35,0,0,100,0,290,443,27,26,0,-16,-49,0,0,100,0,201,86,39,43,0,-20,-21,0,0,100,0,198,129,41,25,0,-15,-20,0,0,100,0,50,235,47,18,0,-11,-43,0,0,100,0,333,107,58,46,0,-8,-56,0,0,100,0,375,155,44,34,0,-24,-9,0,0,65,0,0,0,48,18,0,
0,9,-15,-66,0,0,100,0,257,155,34,30,0,-9,-44,0,0,100,0,319,69,29,19,0,11,-35,0,0,100,0,319,443,27,26,0,-16,-49,0,0,100,0,201,86,39,43,0,-20,-21,0,0,100,0,198,129,41,25,0,-15,-20,0,0,100,0,99,235,47,18,0,-11,-43,0,0,100,0,393,107,58,46,0,-8,-56,0,0,100,0,421,155,44,34,0,-24,-9,0,0,65,0,0,0,48,18,0,
0,9,-15,-66,0,0,100,0,257,155,34,30,0,-9,-44,0,0,100,0,319,69,29,19,0,11,-35,0,0,100,0,348,443,27,26,0,-16,-49,0,0,100,0,201,86,39,43,0,-20,-21,0,0,100,0,198,129,41,25,0,-15,-20,0,0,100,0,148,235,47,18,0,-11,-43,0,0,100,0,453,107,58,46,0,-8,-56,0,0,100,0,467,155,44,34,0,-24,-9,0,0,65,0,0,0,48,18,0,
0,9,-15,-66,0,0,100,0,257,155,34,30,0,-9,-44,0,0,100,0,319,69,29,19,0,11,-35,0,0,100,0,261,443,27,26,0,-16,-49,0,0,100,0,201,86,39,43,0,-20,-21,0,0,100,0,198,129,41,25,0,-15,-20,0,0,100,0,1,235,47,18,0,-11,-43,0,0,100,0,273,107,58,46,0,-8,-56,0,0,100,0,329,155,44,34,0,-24,-9,0,0,65,0,0,0,48,18,0,
0,9,-15,-66,0,0,100,0,257,155,34,30,0,-9,-44,0,0,100,0,319,69,29,19,0,11,-35,0,0,100,0,290,443,27,26,0,-16,-49,0,0,100,0,201,86,39,43,0,-20,-21,0,0,100,0,198,129,41,25,0,-15,-20,0,0,100,0,50,235,47,18,0,-11,-43,0,0,100,0,333,107,58,46,0,-8,-56,0,0,100,0,375,155,44,34,0,-24,-9,0,0,65,0,0,0,48,18,0,
0,14,-24,-59,0,0,100,0,185,155,34,30,0,-19,-29,0,0,100,0,133,33,11,11,0,-61,-80,0,0,100,0,0,39,74,92,0,3,-36,0,0,100,0,116,22,12,15,0,-1,-31,0,0,100,0,290,443,27,26,0,-17,-38,0,0,100,0,189,186,30,22,0,-24,-22,0,0,100,0,180,208,42,19,0,-22,-35,0,0,100,0,133,46,14,15,0,-23,-20,1,0,100,0,85,0,45,24,0,-23,-19,0,0,100,0,50,235,47,18,0,-2,-45,0,0,100,0,190,593,43,36,0,-16,-36,0,0,100,0,357,23,9,7,0,-3,-48,0,0,100,0,357,1,28,20,0,-24,-9,0,0,65,0,0,0,48,18,0,
