0,4,-21,-63,0,0,100,0,0,0,40,40,1,-58,-72,0,0,100,0,0,128,112,88,0,-25,-53,0,0,100,0,720,32,48,48,1,-40,-16,0,0,65,0,632,160,80,32,0,
0,4,-21,-63,0,0,100,0,40,0,40,40,1,-58,-72,0,0,100,0,112,128,112,88,0,-25,-53,0,0,100,0,768,32,48,48,1,-40,-16,0,0,65,0,632,160,80,32,0,
0,4,-21,-63,0,0,100,0,80,0,40,40,1,-58,-72,0,0,100,0,224,128,112,88,0,-25,-53,0,0,100,0,816,32,48,48,1,-40,-16,0,0,65,0,632,160,80,32,0,
0,4,-21,-63,0,0,100,0,120,0,40,40,1,-58,-72,0,0,100,0,336,128,112,88,0,-25,-53,0,0,100,0,864,32,48,48,1,-40,-16,0,0,65,0,632,160,80,32,0,
0,4,-21,-63,0,0,100,0,0,0,40,40,1,-58,-72,0,0,100,0,0,128,112,88,0,-25,-53,0,0,100,0,720,32,48,48,1,-40,-16,0,0,65,0,632,160,80,32,0,
0,4,-22,-63,0,0,100,0,200,0,40,40,1,-58,-88,0,0,100,0,0,216,112,104,0,-26,-53,0,0,100,0,720,80,48,48,1,-40,-16,0,0,65,0,632,160,80,32,0,
0,4,-21,-63,0,0,100,0,240,0,40,40,1,-58,-88,0,0,100,0,112,216,112,104,0,-25,-53,0,0,100,0,768,80,48,48,1,-40,-16,0,0,65,0,632,160,80,32,0,
0,4,-21,-64,0,0,100,0,280,0,40,40,1,-58,-88,0,0,100,0,224,216,112,104,0,-25,-54,0,0,100,0,816,80,48,48,1,-40,-16,0,0,65,0,632,160,80,32,0,
0,4,-21,-63,0,0,100,0,320,0,40,40,1,-58,-88,0,0,100,0,336,216,112,104,0,-25,-53,0,0,100,0,864,80,48,48,1,-40,-16,0,0,65,0,632,160,80,32,0,
0,4,-21,-62,0,0,100,0,360,0,40,40,1,-58,-88,0,0,100,0,448,216,112,104,0,-25,-52,0,0,100,0,912,80,48,48,1,-40,-16,0,0,65,0,632,160,80,32,0,
0,4,-21,-62,0,0,100,0,400,0,40,40,1,-58,-88,0,0,100,0,560,216,112,104,0,-25,-52,0,0,100,0,960,80,48,48,1,-40,-16,0,0,65,0,632,160,80,32,0,
0,4,-21,-63,0,0,100,0,440,0,40,40,1,-58,-88,0,0,100,0,672,216,112,104,0,-25,-53,0,0,100,0,720,32,48,48,1,-40,-16,0,0,65,0,632,160,80,32,0,
0,4,-21,-63,0,0,100,0,480,0,40,40,1,-58,-88,0,0,100,0,784,216,112,104,0,-25,-54,0,0,100,0,768,32,48,48,1,-40,-16,0,0,65,0,632,160,80,32,0,
0,4,-21,-63,0,0,100,0,520,0,40,40,1,-58,-88,0,0,100,0,896,216,112,104,0,-25,-54,0,0,100,0,816,32,48,48,1,-40,-16,0,0,65,0,632,160,80,32,0,
0,4,-21,-63,0,0,100,0,560,0,40,40,1,-58,-88,0,0,100,0,896,112,112,104,0,-25,-53,0,0,100,0,864,32,48,48,1,-40,-16,0,0,65,0,632,160,80,32,0,
0,4,-21,-63,0,0,100,0,0,0,40,40,1,-58,-72,0,0,100,0,0,128,112,88,0,-25,-54,0,0,100,0,720,32,48,48,1,-40,-16,0,0,65,0,632,160,80,32,0,
0,4,-20,-61,0,0,100,0,0,40,40,40,1,-50,-88,0,0,100,0,0,320,112,104,0,-20,-51,0,0,100,0,0,80,40,48,1,-38,-16,0,0,65,0,632,160,80,32,0,
0,4,-16,-61,0,0,100,0,40,40,40,40,1,-50,-88,0,0,100,0,112,320,112,104,0,-16,-51,0,0,100,0,40,80,40,48,1,-37,-16,0,0,65,0,632,160,80,32,0,
0,4,-13,-60,0,0,100,0,80,40,40,40,1,-50,-88,0,0,100,0,224,320,112,104,0,-13,-50,0,0,100,0,80,80,40,48,1,-36,-16,0,0,65,0,632,160,80,32,0,
0,4,-13,-60,0,0,100,0,120,40,40,40,1,-50,-88,0,0,100,0,336,320,112,104,0,-13,-50,0,0,100,0,120,80,40,48,1,-36,-16,0,0,65,0,632,160,80,32,0,
0,4,-13,-60,0,0,100,0,160,40,40,40,1,-50,-88,0,0,100,0,448,320,112,104,0,-13,-50,0,0,100,0,160,80,40,48,1,-36,-16,0,0,65,0,632,160,80,32,0,
0,4,-14,-60,0,0,100,0,200,40,40,40,1,-50,-88,0,0,100,0,560,320,112,104,0,-14,-50,0,0,100,0,200,80,40,48,1,-36,-16,0,0,65,0,632,160,80,32,0,
0,5,-50,-88,0,0,100,0,0,528,112,104,0,-12,-62,0,0,100,0,240,40,40,40,1,-50,-88,0,0,100,0,672,320,112,104,0,-8,-52,0,0,100,0,240,80,40,48,1,-39,-16,0,0,65,0,632,160,80,32,0,
0,5,-50,-88,0,0,100,0,112,528,112,104,0,-15,-62,0,0,100,0,280,40,40,40,1,-50,-88,0,0,100,0,784,320,112,104,0,-11,-52,0,0,100,0,280,80,40,48,1,-39,-16,0,0,65,0,632,160,80,32,0,
0,4,-15,-62,0,0,100,0,320,40,40,40,1,-50,-88,0,0,100,0,896,320,112,104,0,-11,-52,0,0,100,0,320,80,40,48,1,-39,-16,0,0,65,0,632,160,80,32,0,
0,4,-15,-62,0,0,100,0,360,40,40,40,1,-50,-88,0,0,100,0,0,424,112,104,0,-11,-52,0,0,100,0,360,80,40,48,1,-39,-16,0,0,65,0,632,160,80,32,0,
0,4,-15,-62,0,0,100,0,400,40,40,40,1,-50,-88,0,0,100,0,112,424,112,104,0,-11,-52,0,0,100,0,400,80,40,48,1,-39,-16,0,0,65,0,632,160,80,32,0,
0,5,-58,-80,0,0,100,0,224,528,112,104,0,-22,-56,0,0,100,0,440,40,40,40,1,-50,-88,0,0,100,0,224,424,112,104,0,-18,-46,0,0,100,0,440,80,40,48,1,-42,-16,0,0,65,0,632,160,80,32,0,
0,5,-58,-80,0,0,100,0,336,528,88,104,0,-24,-56,0,0,100,0,480,40,40,40,1,-50,-88,0,0,100,0,336,424,112,104,0,-16,-46,0,0,100,0,480,80,40,48,1,-40,-16,0,0,65,0,632,160,80,32,0,
0,5,-50,-80,0,0,100,0,424,528,56,104,0,-25,-56,0,0,100,0,520,40,40,40,1,-50,-88,0,0,100,0,448,424,112,104,0,-17,-46,0,0,100,0,520,80,40,48,1,-41,-16,0,0,65,0,632,160,80,32,0,
0,4,-25,-56,0,0,100,0,560,40,40,40,1,-50,-88,0,0,100,0,560,424,112,104,0,-25,-46,0,0,100,0,560,80,40,48,1,-41,-16,0,0,65,0,632,160,80,32,0,
0,4,-25,-56,0,0,100,0,600,40,40,40,1,-50,-88,0,0,100,0,672,424,112,104,0,-25,-46,0,0,100,0,600,80,40,48,1,-41,-16,0,0,65,0,632,160,80,32,0,
0,4,-23,-58,0,0,100,0,640,40,40,40,1,-50,-88,0,0,100,0,784,424,112,104,0,-23,-48,0,0,100,0,640,80,40,48,1,-40,-16,0,0,65,0,632,160,80,32,0,
0,4,-21,-62,0,0,100,0,680,40,40,40,1,-50,-88,0,0,100,0,896,424,112,104,0,-21,-52,0,0,100,0,680,80,40,48,1,-40,-16,0,0,65,0,632,160,80,32,0,
0,4,-28,-57,0,0,100,0,160,0,40,40,1,-63,-71,0,0,100,0,448,128,112,88,0,-28,-47,0,0,100,0,912,32,48,48,1,-43,-16,0,0,65,0,632,160,80,32,0,
