5,0,0,4,
6,0,0,4,
7,0,0,4,
8,0,0,4,
9,0,0,6,
10,0,0,7,
11,0,0,7,
12,0,0,7,
13,0,0,3,
14,0,0,1,
15,0,0,1,
16,0,0,1,
17,0,0,1,
18,0,0,1,
19,0,0,3,
20,0,0,3,
21,0,0,4,
22,0,0,4,
23,0,0,4,
24,0,0,6,
25,0,0,7,
26,0,0,1,
27,0,0,1,
28,0,0,1,
29,0,0,3,
30,0,0,4,
31,0,0,6,
32,0,0,14,
33,0,0,3,
34,0,0,3,
