0,7,-20,-56,0,0,100,0,0,200,32,32,0,-27,-52,0,0,100,0,640,32,48,48,1,-23,-62,0,0,100,0,0,0,40,40,1,-52,-64,0,0,100,0,0,128,104,72,0,-52,-80,0,1,90,0,0,576,112,112,0,-60,-72,0,0,100,0,0,480,112,96,0,-40,-16,0,0,65,0,632,160,80,32,0,
0,7,-20,-55,0,0,100,0,32,200,32,32,0,-27,-51,0,0,100,0,688,32,48,48,1,-23,-61,0,0,100,0,40,0,40,40,1,-52,-64,0,0,100,0,104,128,104,72,0,-52,-80,0,1,90,0,0,576,112,112,0,-60,-72,0,0,100,0,0,480,112,96,0,-40,-16,0,0,65,0,632,160,80,32,0,
0,7,-20,-55,0,0,100,0,64,200,32,32,0,-27,-51,0,0,100,0,736,32,48,48,1,-23,-61,0,0,100,0,80,0,40,40,1,-52,-64,0,0,100,0,208,128,104,72,0,-52,-79,0,1,90,0,0,576,112,112,0,-60,-71,0,0,100,0,0,480,112,96,0,-40,-16,0,0,65,0,632,160,80,32,0,
0,7,-20,-56,0,0,100,0,96,200,32,32,0,-27,-52,0,0,100,0,784,32,48,48,1,-23,-62,0,0,100,0,120,0,40,40,1,-52,-64,0,0,100,0,312,128,104,72,0,-52,-79,0,1,90,0,0,576,112,112,0,-60,-71,0,0,100,0,0,480,112,96,0,-40,-16,0,0,65,0,632,160,80,32,0,
0,7,-16,-56,0,0,100,0,608,400,32,32,0,-36,-55,0,0,100,0,0,80,48,48,1,-23,-62,0,0,100,0,0,40,40,40,1,-28,-72,0,0,100,0,0,320,64,80,0,-52,-80,0,1,90,0,0,576,112,112,0,-60,-72,0,0,100,0,0,480,112,96,0,-40,-16,0,0,65,0,632,160,80,32,0,
0,8,-32,-40,0,0,100,0,608,432,32,32,0,-35,-51,0,1,90,0,960,576,32,48,0,-44,-59,1,0,100,0,160,480,48,48,0,-13,-55,0,0,100,0,800,400,32,32,0,-20,-61,0,0,100,0,40,40,40,40,1,-33,-54,0,0,100,0,48,80,48,48,1,-20,-72,0,0,100,0,64,320,64,80,0,-39,-16,0,0,65,0,632,160,80,32,0,
0,8,-4,-40,0,0,100,0,640,432,16,32,0,-53,-38,0,1,90,0,304,640,128,32,0,-53,-54,0,0,100,0,160,528,112,48,0,-9,-53,0,0,100,0,800,400,32,32,0,-16,-59,0,0,100,0,40,40,40,40,1,-29,-52,0,0,100,0,96,80,48,48,1,-28,-72,0,0,100,0,128,320,64,80,0,-38,-16,0,0,65,0,632,160,80,32,0,
0,8,-4,-40,0,0,100,0,640,432,16,32,0,-53,-38,0,1,90,0,304,640,128,32,0,-53,-54,0,0,100,0,160,528,112,48,0,-9,-53,0,0,100,0,608,400,32,32,0,-16,-59,0,0,100,0,0,40,40,40,1,-29,-52,0,0,100,0,48,80,48,48,1,-28,-72,0,0,100,0,192,320,64,80,0,-38,-16,0,0,65,0,632,160,80,32,0,
0,8,-39,-90,0,1,90,0,112,576,80,112,0,-39,-82,0,0,100,0,112,480,48,96,0,-54,-42,0,0,100,0,656,432,32,32,0,-38,-58,0,0,100,0,640,400,32,32,0,-47,-61,0,0,100,0,160,40,40,40,1,-56,-52,0,0,100,0,144,80,48,48,1,-38,-74,0,0,100,0,256,320,64,80,0,-53,-16,0,0,65,0,632,160,80,32,0,
0,10,-132,-40,0,1,80,0,0,768,128,64,0,-83,-40,0,0,100,0,688,432,32,32,0,-69,-56,0,0,100,0,672,400,32,32,0,-77,-61,0,0,100,0,200,40,40,40,1,-87,-54,0,0,100,0,192,80,48,48,1,-69,-72,0,0,100,0,320,320,64,80,0,-116,-72,0,1,90,0,192,576,112,80,0,-108,-49,1,0,100,0,432,496,96,48,0,-144,-72,0,0,90,0,640,768,80,96,0,-86,-16,0,0,65,0,632,160,80,32,0,
0,10,-116,-24,0,1,40,0,128,784,48,48,0,-80,-40,0,0,100,0,688,432,32,32,0,-67,-56,0,0,100,0,672,400,32,32,0,-75,-61,0,0,100,0,240,40,40,40,1,-88,-54,0,0,100,0,0,80,48,48,1,-69,-72,0,0,100,0,384,320,64,80,0,-118,-53,1,1,90,0,880,624,112,48,0,-105,-49,1,0,100,0,432,496,96,48,0,-160,-72,0,1,50,0,720,768,112,96,0,-85,-16,0,0,65,0,632,160,80,32,0,
0,9,-76,-42,0,0,100,0,688,432,32,32,0,-66,-56,0,0,100,0,672,400,32,32,0,-74,-61,0,0,100,0,280,40,40,40,1,-87,-54,0,0,100,0,240,80,48,48,1,-69,-72,0,0,100,0,448,320,64,80,0,-109,-39,0,1,90,0,880,576,80,48,0,-85,-38,0,0,100,0,160,496,48,32,0,-176,-72,0,1,20,0,832,768,128,96,0,-84,-16,0,0,65,0,632,160,80,32,0,
0,10,-133,-56,0,1,80,0,176,784,112,48,0,-152,-68,0,0,90,90,640,768,80,96,0,-71,-39,0,0,100,0,720,432,32,32,0,-117,-56,0,1,90,0,304,576,112,48,0,-117,-40,0,0,100,0,160,544,112,32,0,-69,-56,0,0,100,0,704,400,32,32,0,-73,-60,0,0,100,0,40,40,40,40,1,-86,-53,0,0,100,0,96,80,48,48,1,-69,-72,0,0,100,0,512,320,64,80,0,-83,-16,0,0,65,0,632,160,80,32,0,
0,10,-133,-54,0,1,40,0,288,784,64,32,0,-152,-84,0,1,50,90,720,768,112,96,0,-71,-39,0,0,100,0,720,432,32,32,0,-117,-40,0,1,90,0,304,640,112,32,0,-117,-40,0,0,100,0,160,544,112,32,0,-69,-56,0,0,100,0,704,400,32,32,0,-73,-60,0,0,100,0,0,40,40,40,1,-86,-53,0,0,100,0,48,80,48,48,1,-69,-72,0,0,100,0,576,320,64,80,0,-83,-16,0,0,65,0,632,160,80,32,0,
0,9,-152,-84,0,1,20,90,832,768,128,96,0,-69,-38,0,0,100,0,752,432,32,32,0,-117,-49,0,1,90,0,432,576,128,64,0,-97,-40,1,0,100,0,432,496,96,48,0,-68,-50,0,0,100,0,704,400,32,32,0,-72,-54,0,0,100,0,280,40,40,40,1,-86,-49,0,0,100,0,0,80,48,48,1,-69,-72,0,0,100,0,640,320,64,80,0,-83,-16,0,0,65,0,632,160,80,32,0,
0,9,-117,-104,0,1,80,0,352,752,128,128,0,-53,-72,0,0,100,0,784,432,32,48,0,-101,-104,0,1,90,0,560,576,112,96,0,-85,-88,0,0,100,0,272,496,80,80,0,-53,-56,0,0,100,0,736,400,32,32,0,-62,-65,0,0,100,0,320,40,40,40,1,-75,-59,0,0,100,0,96,80,48,48,1,-69,-72,0,0,100,0,704,320,64,80,0,-85,-16,0,0,65,0,632,160,80,32,0,
0,9,-117,-88,0,1,60,0,480,768,80,112,0,-53,-72,0,0,100,0,816,432,32,48,0,-101,-104,0,1,90,0,672,576,112,96,0,-87,-86,0,0,100,0,272,496,80,80,0,-54,-56,0,0,100,0,736,400,32,32,0,-63,-65,0,0,100,0,400,40,40,40,1,-76,-59,0,0,100,0,48,80,48,48,1,-85,-72,0,0,100,0,768,320,80,80,0,-86,-16,0,0,65,0,632,160,80,32,0,
0,9,-117,-88,0,1,30,0,560,768,80,112,0,-53,-72,0,0,100,0,816,432,32,48,0,-85,-104,0,1,90,0,784,576,96,96,0,-87,-86,0,0,100,0,272,496,80,80,0,-54,-56,0,0,100,0,736,400,32,32,0,-63,-65,0,0,100,0,360,40,40,40,1,-77,-59,0,0,100,0,0,80,48,48,1,-85,-72,0,0,100,0,848,320,80,80,0,-86,-16,0,0,65,0,632,160,80,32,0,
0,8,-53,-72,0,0,100,0,816,432,32,48,0,-85,-104,0,1,90,0,784,576,96,96,0,-87,-86,0,0,100,0,272,496,80,80,0,-54,-56,0,0,100,0,736,400,32,32,0,-63,-65,0,0,100,0,360,40,40,40,1,-77,-59,0,0,100,0,0,80,48,48,1,-85,-72,0,0,100,0,928,320,80,80,0,-86,-16,0,0,65,0,632,160,80,32,0,
0,8,-53,-72,0,0,100,0,848,432,32,48,0,-101,-88,0,1,90,0,0,688,112,80,0,-85,-77,1,0,100,0,432,496,96,48,0,-54,-56,0,0,100,0,736,400,32,32,0,-63,-65,0,0,100,0,440,40,40,40,1,-76,-56,0,0,100,0,288,80,48,48,1,-69,-72,0,0,100,0,0,400,48,80,0,-86,-16,0,0,65,0,632,160,80,32,0,
0,8,-53,-56,0,0,100,0,880,448,32,32,0,-85,-88,0,1,90,0,112,688,112,80,0,-87,-78,0,0,100,0,432,496,96,48,0,-53,-57,0,0,100,0,736,400,32,32,0,-62,-66,0,0,100,0,360,40,40,40,1,-74,-58,0,0,100,0,336,80,48,48,1,-69,-72,0,0,100,0,48,400,48,80,0,-86,-16,0,0,65,0,632,160,80,32,0,
0,8,-53,-56,0,0,100,0,880,448,32,32,0,-101,-89,0,1,90,0,224,688,128,64,0,-84,-78,1,0,100,0,432,496,96,48,0,-53,-57,0,0,100,0,736,400,32,32,0,-62,-66,0,0,100,0,440,40,40,40,1,-75,-57,0,0,100,0,288,80,48,48,1,-85,-72,0,0,100,0,96,400,64,80,0,-86,-16,0,0,65,0,632,160,80,32,0,
0,10,-149,-104,0,1,80,0,0,848,176,128,0,-37,-56,0,1,90,0,416,672,64,80,0,-72,-53,0,0,100,0,384,80,48,48,1,-69,-40,0,0,100,0,912,432,32,32,0,-53,-56,0,0,100,0,832,400,32,32,0,-58,-59,0,0,100,0,320,40,40,40,1,-69,-72,0,0,100,0,160,400,64,80,0,-69,-104,0,1,90,0,352,672,64,80,0,-61,-72,0,0,100,0,352,496,80,80,0,-82,-16,0,0,65,0,632,160,80,32,0,
0,10,-149,-88,0,1,60,0,176,848,144,128,0,-149,-104,0,1,30,0,0,848,176,128,0,-69,-54,0,0,100,0,432,80,48,48,1,-66,-41,0,0,100,0,912,432,32,32,0,-50,-57,0,0,100,0,768,400,32,32,0,-55,-60,0,0,100,0,280,40,40,40,1,-69,-72,0,0,100,0,224,400,64,80,0,-71,-87,0,1,90,0,480,672,112,96,0,-69,-62,0,0,100,0,432,496,96,48,0,-80,-16,0,0,65,0,632,160,80,32,0,
0,10,-149,-56,0,1,60,0,320,880,144,80,0,-149,-88,0,1,20,0,176,848,144,128,0,-69,-52,0,0,100,0,480,80,48,48,1,-67,-40,0,0,100,0,912,432,32,32,0,-51,-56,0,0,100,0,768,400,32,32,0,-56,-59,0,0,100,0,480,40,40,40,1,-69,-72,0,0,100,0,288,400,64,80,0,-71,-87,0,1,90,0,592,672,112,96,0,-70,-60,0,0,100,0,432,496,96,48,0,-81,-16,0,0,65,0,632,160,80,32,0,
0,8,-69,-52,0,0,100,0,528,80,48,48,1,-67,-40,0,0,100,0,912,432,32,32,0,-51,-56,0,0,100,0,768,400,32,32,0,-56,-59,0,0,100,0,480,40,40,40,1,-69,-72,0,0,100,0,352,400,64,80,0,-74,-64,0,1,90,0,880,624,112,48,0,-70,-60,0,0,100,0,432,496,96,48,0,-81,-16,0,0,65,0,632,160,80,32,0,
0,8,-68,-48,0,0,100,0,576,80,48,48,1,-69,-40,0,0,100,0,944,432,32,32,0,-52,-52,0,0,100,0,768,400,32,32,0,-57,-55,0,0,100,0,280,40,40,40,1,-69,-72,0,0,100,0,416,400,64,80,0,-68,-87,0,1,90,0,704,672,112,96,0,-60,-68,0,0,100,0,352,496,80,80,0,-81,-16,0,0,65,0,632,160,80,32,0,
0,8,-33,-45,0,0,100,0,912,464,32,16,0,-31,-66,0,0,100,0,768,400,32,32,0,-36,-69,0,0,100,0,280,40,40,40,1,-49,-61,0,0,100,0,96,80,48,48,1,-53,-72,0,0,100,0,480,400,64,80,0,-64,-64,0,1,90,0,816,672,128,48,0,-53,-72,0,0,100,0,432,496,96,48,0,-65,-16,0,0,65,0,632,160,80,32,0,
0,8,-4,-40,0,0,100,0,640,432,16,32,0,-51,-55,0,1,90,0,816,720,128,48,0,-52,-54,0,0,100,0,160,528,112,48,0,-29,-52,0,0,100,0,96,80,48,48,1,-9,-53,0,0,100,0,608,400,32,32,0,-16,-59,0,0,100,0,80,40,40,40,1,-28,-72,0,0,100,0,544,400,64,80,0,-40,-16,0,0,65,0,632,160,80,32,0,
0,7,-20,-56,0,0,100,0,0,200,32,32,0,-27,-52,0,0,100,0,640,32,48,48,1,-23,-62,0,0,100,0,0,0,40,40,1,-52,-64,0,0,100,0,0,128,104,72,0,-52,-80,0,1,90,0,0,576,112,112,0,-60,-72,0,0,100,0,0,480,112,96,0,-40,-16,0,0,65,0,632,160,80,32,0,
0,8,-32,-40,0,0,100,0,608,432,32,32,0,-41,-53,0,1,80,0,528,480,40,48,0,-45,-60,1,0,100,0,160,480,48,48,0,-14,-56,0,0,100,0,800,400,32,32,0,-21,-62,0,0,100,0,40,40,40,40,1,-34,-55,0,0,100,0,48,80,48,48,1,-29,-64,0,0,100,0,0,248,72,72,0,-40,-16,0,0,65,0,632,160,80,32,0,
0,8,-5,-70,0,0,100,0,976,432,32,48,0,-54,-64,0,1,80,0,528,528,128,48,0,-46,-77,1,0,100,0,160,528,112,48,0,-7,-53,0,0,100,0,736,400,32,32,0,-16,-62,0,0,100,0,360,40,40,40,1,-30,-56,0,0,100,0,0,80,48,48,1,-29,-63,0,0,100,0,72,248,72,72,0,-40,-16,0,0,65,0,632,160,80,32,0,
0,8,-5,-70,0,0,100,0,816,432,32,48,0,-47,-89,0,1,80,0,656,480,120,80,0,-42,-74,0,0,100,0,432,496,96,48,0,-6,-54,0,0,100,0,736,400,32,32,0,-15,-63,0,0,100,0,360,40,40,40,1,-29,-57,0,0,100,0,0,80,48,48,1,-37,-63,0,0,100,0,144,248,72,72,0,-40,-16,0,0,65,0,632,160,80,32,0,
0,8,-5,-70,0,0,100,0,848,432,32,48,0,-54,-86,0,1,80,0,776,480,128,72,0,-37,-75,1,0,100,0,432,496,96,48,0,-6,-54,0,0,100,0,736,400,32,32,0,-15,-63,0,0,100,0,440,40,40,40,1,-28,-54,0,0,100,0,288,80,48,48,1,-37,-63,0,0,100,0,216,248,72,72,0,-40,-16,0,0,65,0,632,160,80,32,0,
0,8,-5,-53,0,0,100,0,880,448,32,32,0,-44,-90,0,1,80,0,656,480,120,80,0,-39,-75,0,0,100,0,432,496,96,48,0,-5,-54,0,0,100,0,736,400,32,32,0,-14,-63,0,0,100,0,360,40,40,40,1,-26,-55,0,0,100,0,336,80,48,48,1,-37,-63,0,0,100,0,288,248,72,72,0,-39,-16,0,0,65,0,632,160,80,32,0,
0,8,-5,-53,0,0,100,0,880,448,32,32,0,-52,-86,0,1,80,0,776,480,128,72,0,-36,-75,1,0,100,0,432,496,96,48,0,-5,-54,0,0,100,0,736,400,32,32,0,-14,-63,0,0,100,0,440,40,40,40,1,-27,-54,0,0,100,0,288,80,48,48,1,-37,-63,0,0,100,0,360,248,72,72,0,-39,-16,0,0,65,0,632,160,80,32,0,
0,9,-8,-47,0,1,80,0,784,152,72,72,0,-30,-52,0,0,100,0,384,80,48,48,1,-11,-55,0,0,100,0,832,400,32,32,0,-16,-58,0,0,100,0,320,40,40,40,1,-27,-39,0,0,100,0,912,432,32,32,0,-36,-63,0,0,100,0,432,248,72,72,0,-28,-95,0,1,80,0,720,152,64,72,0,-20,-71,0,0,100,0,352,496,80,80,0,-39,-16,0,0,65,0,632,160,80,32,0,
0,8,-30,-52,0,0,100,0,432,80,48,48,1,-11,-55,0,0,100,0,768,400,32,32,0,-16,-58,0,0,100,0,280,40,40,40,1,-27,-39,0,0,100,0,912,432,32,32,0,-38,-63,0,0,100,0,504,248,72,72,0,-34,-71,0,1,70,0,856,152,112,80,0,-30,-60,0,0,100,0,432,496,96,48,0,-39,-16,0,0,65,0,632,160,80,32,0,
0,8,-29,-51,0,0,100,0,480,80,48,48,1,-11,-55,0,0,100,0,768,400,32,32,0,-16,-58,0,0,100,0,480,40,40,40,1,-27,-39,0,0,100,0,912,432,32,32,0,-37,-63,0,0,100,0,576,248,72,72,0,-34,-63,0,1,90,0,880,624,112,48,0,-30,-59,0,0,100,0,432,496,96,48,0,-39,-16,0,0,65,0,632,160,80,32,0,
0,8,-20,-48,0,0,100,0,640,32,48,48,1,-11,-55,0,0,100,0,768,400,32,32,0,-16,-58,0,0,100,0,120,0,40,40,1,-27,-39,0,0,100,0,912,432,32,32,0,-37,-63,0,0,100,0,648,248,72,72,0,-34,-63,0,1,90,0,880,624,112,48,0,-30,-59,0,0,100,0,432,496,96,48,0,-39,-16,0,0,65,0,632,160,80,32,0,
0,8,-20,-48,0,0,100,0,688,32,48,48,1,-11,-55,0,0,100,0,864,400,32,32,0,-16,-58,0,0,100,0,0,0,40,40,1,-27,-39,0,0,100,0,912,432,32,32,0,-37,-63,0,0,100,0,720,248,72,72,0,-34,-63,0,1,90,0,880,624,112,48,0,-30,-59,0,0,100,0,432,496,96,48,0,-39,-16,0,0,65,0,632,160,80,32,0,
0,8,-20,-48,0,0,100,0,736,32,48,48,1,-11,-55,0,0,100,0,896,400,32,32,0,-16,-58,0,0,100,0,40,0,40,40,1,-27,-39,0,0,100,0,912,432,32,32,0,-37,-63,0,0,100,0,792,248,72,72,0,-34,-63,0,1,90,0,880,624,112,48,0,-30,-59,0,0,100,0,432,496,96,48,0,-39,-16,0,0,65,0,632,160,80,32,0,
0,8,-20,-48,0,0,100,0,784,32,48,48,1,-11,-55,0,0,100,0,928,400,32,32,0,-16,-58,0,0,100,0,0,0,40,40,1,-27,-39,0,0,100,0,912,432,32,32,0,-37,-63,0,0,100,0,864,248,72,72,0,-34,-63,0,1,90,0,880,624,112,48,0,-30,-59,0,0,100,0,432,496,96,48,0,-39,-16,0,0,65,0,632,160,80,32,0,
0,9,-9,-34,0,0,100,0,520,144,16,16,0,-52,-50,0,1,90,0,520,160,112,48,0,-49,-43,0,0,100,90,112,480,48,96,0,-42,-41,0,0,100,0,656,432,32,32,0,-26,-57,0,0,100,0,640,400,32,32,0,-35,-60,0,0,100,0,160,40,40,40,1,-44,-51,0,0,100,0,144,80,48,48,1,-58,-64,0,0,100,0,416,128,104,72,0,-42,-16,0,0,65,0,632,160,80,32,0,
