0,4,-46,-50,0,1,100,0,432,24,32,40,0,-42,-39,0,1,100,0,432,0,24,24,0,-46,-60,0,0,100,0,0,0,72,64,0,-20,-8,0,0,65,0,456,0,40,16,0,
0,5,-46,-50,0,1,100,0,464,24,32,40,0,-42,-39,0,1,50,0,432,0,24,24,0,-42,-39,0,1,100,0,432,0,24,24,0,-46,-60,0,0,100,0,72,0,72,64,0,-20,-8,0,0,65,0,456,0,40,16,0,
0,5,-46,-50,0,1,100,0,464,24,32,40,0,-42,-39,0,1,50,0,432,0,24,24,0,-42,-39,0,1,100,0,432,0,24,24,0,-46,-60,0,0,100,0,144,0,72,64,0,-20,-8,0,0,65,0,456,0,40,16,0,
0,4,-46,-50,0,1,100,0,496,24,32,40,0,-42,-39,0,1,100,0,432,0,24,24,0,-46,-60,0,0,100,0,216,0,72,64,0,-20,-8,0,0,65,0,456,0,40,16,0,
0,4,-46,-50,0,1,100,0,528,24,40,40,0,-42,-39,0,1,80,0,432,0,24,24,0,-46,-60,0,0,100,0,288,0,72,64,0,-20,-8,0,0,65,0,456,0,40,16,0,
0,4,-46,-50,0,1,100,0,528,24,40,40,0,-42,-39,0,1,80,0,432,0,24,24,0,-46,-60,0,0,100,0,360,0,72,64,0,-20,-8,0,0,65,0,456,0,40,16,0,
0,4,-49,-50,1,1,50,0,448,264,40,40,0,-57,-57,0,1,100,0,592,392,48,48,0,-46,-60,0,0,100,0,0,120,72,64,0,-20,-8,0,0,65,0,456,0,40,16,0,
0,5,-45,-80,0,1,100,0,528,144,112,104,0,-49,-50,1,1,100,0,448,264,40,40,0,-61,-61,0,1,100,0,568,0,56,56,0,-46,-60,0,0,100,0,0,120,72,64,0,-20,-8,0,0,65,0,456,0,40,16,0,
0,5,-28,-72,0,1,100,0,552,248,80,80,0,-49,-50,1,1,100,0,448,264,40,40,0,-61,-61,0,1,100,0,568,0,56,56,0,-46,-60,0,0,100,0,0,120,72,64,0,-20,-8,0,0,65,0,456,0,40,16,0,
0,5,-18,-56,0,1,100,0,552,328,56,56,0,-49,-50,1,1,100,0,448,264,40,40,0,-61,-61,0,1,100,0,568,0,56,56,0,-46,-60,0,0,100,0,0,120,72,64,0,-20,-8,0,0,65,0,456,0,40,16,0,
0,9,-46,-87,2,1,100,0,112,560,24,24,0,-42,-30,1,1,50,0,128,584,16,16,0,-59,-58,0,1,50,0,136,560,24,24,0,-50,-63,0,1,100,0,80,504,32,32,0,-59,-100,0,1,100,0,440,200,88,64,0,-34,-96,0,1,100,0,568,0,56,56,0,-53,-81,0,1,100,0,264,144,64,56,0,-30,-84,0,0,100,0,72,64,64,88,0,-20,-8,0,0,65,0,456,0,40,16,0,
0,10,19,-75,1,1,100,0,40,504,40,40,0,39,-42,1,1,100,0,136,536,24,24,0,6,-74,2,1,80,0,40,552,40,24,0,-16,-86,0,1,50,0,112,584,16,16,0,-34,-67,0,1,20,0,112,600,16,16,0,-12,-46,2,1,100,0,440,144,80,56,0,3,-48,0,1,100,0,568,0,56,56,0,-9,-79,0,1,100,0,328,144,80,80,0,-23,-60,0,0,100,0,136,64,72,72,0,-20,-8,0,0,65,0,456,0,40,16,0,
0,11,25,-46,0,1,100,0,80,568,32,32,0,45,-49,1,1,60,0,112,560,24,24,0,26,-70,3,1,60,0,112,584,16,16,0,2,-84,1,1,20,0,128,584,16,16,0,-29,-33,1,1,100,0,440,200,88,64,0,-22,-35,2,1,50,0,440,144,80,56,0,-30,-30,0,1,100,0,568,0,56,56,0,-30,-30,0,1,100,0,568,0,56,56,0,-18,-30,0,1,100,0,176,208,72,56,0,-29,-60,0,0,100,0,208,64,56,72,0,-20,-8,0,0,65,0,456,0,40,16,0,
0,10,-25,-18,2,1,100,0,0,552,40,24,0,-6,-22,0,1,100,0,112,504,32,32,0,12,-28,1,1,50,0,136,536,24,24,0,53,-50,0,1,50,0,128,584,16,16,0,-63,-35,0,1,100,0,448,264,48,40,0,-83,-47,0,1,100,0,448,200,80,64,0,-69,-43,0,1,100,0,568,0,56,56,0,-53,-36,0,1,100,0,256,208,80,48,0,-54,-60,0,0,100,0,264,64,80,72,0,-20,-8,0,0,65,0,456,0,40,16,0,
0,6,-65,-39,0,1,100,0,592,392,48,48,0,-2,-15,0,1,100,0,112,600,16,16,0,-42,-14,2,1,100,0,40,552,40,24,0,-83,-48,2,1,100,0,448,200,80,64,0,-54,-60,0,0,100,0,344,64,88,80,0,-20,-8,0,0,65,0,456,0,40,16,0,
0,4,-69,-43,0,1,100,0,568,0,56,56,0,-84,-42,0,1,100,0,440,144,80,56,0,-54,-60,0,0,100,0,432,64,88,80,0,-20,-8,0,0,65,0,456,0,40,16,0,
0,4,-65,-39,0,1,100,0,592,392,48,48,0,-77,-49,3,1,100,0,448,200,80,64,0,-54,-60,0,0,100,0,520,64,88,80,0,-20,-8,0,0,65,0,456,0,40,16,0,
0,5,-52,-97,0,1,100,0,568,0,56,56,0,-68,-111,0,1,100,0,448,200,80,64,0,-63,-78,0,1,100,0,456,304,56,56,0,-50,-84,0,0,100,0,0,184,88,88,0,-20,-8,0,0,65,0,456,0,40,16,0,
0,7,-63,-78,0,1,40,0,456,304,56,56,0,-47,-100,0,1,100,0,592,392,48,48,0,-79,-116,0,1,100,0,448,200,80,64,0,-50,-117,3,1,100,0,448,200,80,64,0,-54,-190,0,1,100,0,0,272,56,144,0,-50,-84,0,0,100,0,88,152,88,88,0,-20,-8,0,0,65,0,456,0,40,16,0,
0,4,-72,-118,2,1,100,0,448,200,80,64,0,-95,-278,0,1,100,0,56,272,136,232,0,-50,-84,0,0,100,0,0,184,88,88,0,-20,-8,0,0,65,0,456,0,40,16,0,
0,6,-59,-122,3,1,100,0,448,200,80,64,0,-92,-282,1,1,100,0,56,272,136,232,0,-72,-118,2,1,60,0,448,200,80,64,0,-95,-278,0,1,60,0,56,272,136,232,0,-50,-84,0,0,100,0,0,184,88,88,0,-20,-8,0,0,65,0,456,0,40,16,0,
0,13,9,-173,0,1,80,0,112,504,32,32,0,-83,-111,0,1,80,0,112,560,24,24,0,-5,-130,0,1,80,0,80,504,32,32,0,-55,-62,0,1,80,0,136,560,24,24,0,14,-72,0,1,80,0,80,536,32,32,0,22,-122,0,1,80,0,40,544,40,40,0,-103,-83,0,1,80,0,0,544,40,40,0,-93,-161,0,1,80,0,40,504,40,40,0,-114,-144,0,1,80,0,0,504,40,40,0,-68,-117,0,1,100,0,448,200,80,64,0,-74,-281,0,1,100,0,192,272,80,200,0,-50,-84,0,0,100,0,88,152,88,88,0,-20,-8,0,0,65,0,456,0,40,16,0,
0,25,-61,-352,1,1,100,0,192,272,80,200,0,9,-173,0,1,50,0,112,504,32,32,0,-83,-111,0,1,50,0,112,560,24,24,0,-5,-130,0,1,50,0,80,504,32,32,0,-55,-62,0,1,50,0,136,560,24,24,0,14,-72,0,1,50,0,80,536,32,32,0,22,-122,0,1,50,0,40,544,40,40,0,-103,-83,0,1,50,0,0,544,40,40,0,-93,-161,0,1,50,0,40,504,40,40,0,-114,-144,0,1,50,0,0,504,40,40,0,-68,-117,0,1,50,0,448,200,80,64,0,-74,-281,0,1,50,0,192,272,80,200,0,9,-173,0,1,80,0,112,504,32,32,0,-83,-111,0,1,80,0,112,560,24,24,0,-5,-130,0,1,80,0,80,504,32,32,0,-55,-62,0,1,80,0,136,560,24,24,0,14,-72,0,1,80,0,80,536,32,32,0,22,-122,0,1,80,0,40,544,40,40,0,-103,-83,0,1,80,0,0,544,40,40,0,-93,-161,0,1,80,0,40,504,40,40,0,-114,-144,0,1,80,0,0,504,40,40,0,-68,-117,0,1,100,0,448,200,80,64,0,-74,-281,0,1,100,0,192,272,80,200,0,-50,-84,0,0,100,0,88,152,88,88,0,-20,-8,0,0,65,0,456,0,40,16,0,
0,14,19,-141,0,1,50,0,136,560,24,24,0,-114,-109,0,1,50,0,144,584,16,16,0,-131,-163,0,1,50,0,112,584,16,16,0,-62,-56,0,1,50,0,112,600,16,16,0,58,-119,0,1,50,0,128,584,16,16,0,-99,-175,0,1,50,0,112,560,24,24,0,-123,-53,0,1,50,0,136,560,24,24,0,46,-49,0,1,50,0,136,536,24,24,0,30,-183,1,1,50,0,112,536,24,24,0,-61,-115,3,1,50,0,448,144,72,56,0,-49,-103,1,1,50,0,448,264,48,40,0,-49,-351,0,1,100,0,384,224,40,232,0,-50,-84,0,0,100,0,0,184,88,88,0,-20,-8,0,0,65,0,456,0,40,16,0,
0,27,-49,-379,1,1,100,0,384,224,40,232,0,19,-141,0,1,50,0,136,560,24,24,0,-114,-109,0,1,50,0,144,584,16,16,0,-131,-163,0,1,50,0,112,584,16,16,0,-62,-56,0,1,50,0,112,600,16,16,0,58,-119,0,1,50,0,128,584,16,16,0,-99,-175,0,1,50,0,112,560,24,24,0,-123,-53,0,1,50,0,136,560,24,24,0,46,-49,0,1,50,0,136,536,24,24,0,30,-183,1,1,50,0,112,536,24,24,0,-61,-115,3,1,50,0,448,144,72,56,0,-49,-103,1,1,50,0,448,264,48,40,0,-49,-351,0,1,100,0,384,224,40,232,0,19,-141,0,1,50,0,136,560,24,24,0,-114,-109,0,1,50,0,144,584,16,16,0,-131,-163,0,1,50,0,112,584,16,16,0,-62,-56,0,1,50,0,112,600,16,16,0,58,-119,0,1,50,0,128,584,16,16,0,-99,-175,0,1,50,0,112,560,24,24,0,-123,-53,0,1,50,0,136,560,24,24,0,46,-49,0,1,50,0,136,536,24,24,0,30,-183,1,1,50,0,112,536,24,24,0,-61,-115,3,1,50,0,448,144,72,56,0,-49,-103,1,1,50,0,448,264,48,40,0,-49,-351,0,1,100,0,384,224,40,232,0,-50,-84,0,0,100,0,0,184,88,88,0,-20,-8,0,0,65,0,456,0,40,16,0,
0,3,-45,-43,0,1,100,0,432,0,24,24,0,-46,-60,0,0,100,0,176,144,72,64,0,-20,-8,0,0,65,0,456,0,40,16,0,
0,5,-62,-40,0,1,80,0,448,264,40,40,0,-61,-49,0,1,100,0,592,392,48,48,0,-53,-54,0,0,100,0,0,64,72,56,0,9,-15,0,1,50,0,128,584,16,16,0,-20,-8,0,0,65,0,456,0,40,16,0,
0,4,-53,-45,0,1,100,0,448,264,40,40,0,-55,-49,0,1,100,0,592,392,48,48,0,-46,-60,0,0,100,0,640,0,72,64,0,-20,-8,0,0,65,0,456,0,40,16,0,
0,3,-60,-55,0,1,50,0,568,0,56,56,0,-46,-60,0,0,100,0,640,64,72,64,0,-20,-8,0,0,65,0,456,0,40,16,0,
0,2,-46,-60,0,0,100,0,640,64,72,64,0,-20,-8,0,0,65,0,456,0,40,16,0,
0,2,-46,-60,0,0,100,0,640,64,72,64,0,-20,-8,0,0,65,0,456,0,40,16,0,
0,3,-33,-83,0,0,100,0,720,88,56,72,0,-33,-59,0,0,100,0,640,128,56,64,0,-20,-8,0,0,65,0,456,0,40,16,0,
0,3,-33,-84,0,0,100,0,720,88,56,72,0,-25,-59,0,0,100,0,192,472,48,64,0,-20,-8,0,0,65,0,456,0,40,16,0,
0,7,-73,-99,0,0,10,0,144,512,8,8,0,-27,-110,0,0,10,0,152,520,8,8,0,18,-47,0,0,10,0,152,512,8,8,0,-54,-57,0,0,10,0,144,504,8,8,0,-33,-83,0,0,100,0,720,88,56,72,0,-22,-59,0,0,100,0,240,472,48,64,0,-20,-8,0,0,65,0,456,0,40,16,0,
0,7,-67,-97,0,0,20,0,144,512,8,8,0,-21,-108,0,0,20,0,152,520,8,8,0,24,-45,0,0,20,0,152,512,8,8,0,-48,-55,0,0,20,0,144,504,8,8,0,-33,-83,0,0,100,0,720,88,56,72,0,-22,-59,0,0,100,0,288,472,56,64,0,-20,-8,0,0,65,0,456,0,40,16,0,
0,7,-59,-93,0,0,50,0,144,512,8,8,0,-13,-104,0,0,50,0,152,520,8,8,0,32,-41,0,0,50,0,152,512,8,8,0,-40,-51,0,0,50,0,144,504,8,8,0,-26,-78,0,0,100,0,272,368,48,64,0,-25,-59,0,0,100,0,648,192,56,64,0,-20,-8,0,0,65,0,456,0,40,16,0,
0,11,-1,-100,0,0,100,0,160,520,8,8,0,44,-37,0,0,100,0,160,512,8,8,0,-44,-87,0,0,100,0,152,512,8,8,0,24,-19,0,0,50,0,152,504,8,8,0,14,-85,0,0,50,0,144,512,8,8,0,-37,-70,0,0,50,0,152,520,8,8,0,-32,-47,0,0,100,0,160,504,8,8,0,-51,-34,0,0,50,0,152,512,8,8,0,-33,-83,0,0,100,0,720,88,56,72,0,-33,-59,0,0,100,0,640,256,64,64,0,-20,-8,0,0,65,0,456,0,40,16,0,
0,15,54,-33,0,0,20,0,144,512,8,8,0,-35,-83,0,0,20,0,160,512,8,8,0,-29,-45,0,0,20,0,160,504,8,8,0,11,-95,0,0,20,0,144,520,8,8,0,-27,-67,0,0,100,0,160,520,8,8,0,-41,-29,0,0,100,0,160,512,8,8,0,27,-77,0,0,100,0,152,512,8,8,0,36,-15,0,0,100,0,144,504,8,8,0,-26,-96,0,0,50,0,152,504,8,8,0,19,-39,0,0,50,0,160,512,8,8,0,-58,-85,0,0,50,0,152,520,8,8,0,21,-63,0,0,50,0,152,512,8,8,0,-27,-81,0,0,100,0,328,368,48,72,0,-25,-59,0,0,100,0,648,320,56,64,0,-20,-8,0,0,65,0,456,0,40,16,0,
0,11,31,-58,0,0,20,0,144,512,8,8,0,31,-30,0,0,20,0,176,504,8,8,0,-16,-93,0,0,20,0,160,504,8,8,0,-47,-79,0,0,20,0,144,520,8,8,0,44,-11,0,0,50,0,152,504,8,8,0,34,-76,0,0,50,0,160,512,8,8,0,-16,-61,0,0,50,0,152,520,8,8,0,-33,-26,0,0,50,0,152,512,8,8,0,-26,-82,0,0,100,0,464,360,40,72,0,-25,-59,0,0,100,0,648,384,56,64,0,-20,-8,0,0,65,0,456,0,40,16,0,
0,11,25,-58,0,0,100,0,160,520,8,8,0,21,-25,0,0,100,0,160,512,8,8,0,-30,-61,0,0,100,0,152,512,8,8,0,-30,-99,0,0,100,0,144,504,8,8,0,-27,-18,0,0,20,0,144,512,8,8,0,47,-71,0,0,20,0,152,512,8,8,0,54,-10,0,0,20,0,160,504,8,8,0,-8,-57,0,0,20,0,144,520,8,8,0,-27,-81,0,0,100,0,328,368,48,72,0,-33,-59,0,0,100,0,640,448,64,64,0,-20,-8,0,0,65,0,456,0,40,16,0,
0,11,-1,-100,0,0,100,0,160,520,8,8,0,44,-37,0,0,100,0,160,512,8,8,0,-47,-89,0,0,100,0,152,512,8,8,0,-32,-47,0,0,100,0,160,504,8,8,0,24,-19,0,0,50,0,152,504,8,8,0,13,-85,0,0,50,0,160,512,8,8,0,-37,-70,0,0,50,0,152,520,8,8,0,-51,-34,0,0,50,0,152,512,8,8,0,-33,-83,0,0,100,0,720,88,56,72,0,-33,-59,0,0,100,0,640,256,64,64,0,-20,-8,0,0,65,0,456,0,40,16,0,
0,15,54,-33,0,0,20,0,144,512,8,8,0,-39,-88,0,0,20,0,160,512,8,8,0,-29,-45,0,0,20,0,160,504,8,8,0,11,-95,0,0,20,0,144,520,8,8,0,-27,-67,0,0,100,0,160,520,8,8,0,-41,-29,0,0,100,0,160,512,8,8,0,26,-80,0,0,100,0,144,512,8,8,0,36,-15,0,0,100,0,144,504,8,8,0,-26,-96,0,0,50,0,152,504,8,8,0,20,-38,0,0,50,0,160,512,8,8,0,-58,-85,0,0,50,0,152,520,8,8,0,21,-63,0,0,50,0,152,512,8,8,0,-27,-81,0,0,100,0,328,368,48,72,0,-25,-59,0,0,100,0,648,320,56,64,0,-20,-8,0,0,65,0,456,0,40,16,0,
0,11,31,-58,0,0,20,0,144,512,8,8,0,31,-32,0,0,20,0,152,512,8,8,0,-16,-93,0,0,20,0,160,504,8,8,0,-47,-79,0,0,20,0,144,520,8,8,0,44,-11,0,0,50,0,152,504,8,8,0,33,-77,0,0,50,0,160,512,8,8,0,-16,-61,0,0,50,0,152,520,8,8,0,-33,-26,0,0,50,0,152,512,8,8,0,-26,-82,0,0,100,0,464,360,40,72,0,-25,-59,0,0,100,0,648,384,56,64,0,-20,-8,0,0,65,0,456,0,40,16,0,
0,7,-27,-18,0,0,20,0,144,512,8,8,0,44,-72,0,0,20,0,176,504,8,8,0,54,-10,0,0,20,0,160,504,8,8,0,-8,-57,0,0,20,0,144,520,8,8,0,-27,-81,0,0,100,0,328,368,48,72,0,-33,-59,0,0,100,0,640,448,64,64,0,-20,-8,0,0,65,0,456,0,40,16,0,
0,11,25,-58,0,0,100,0,160,520,8,8,0,21,-25,0,0,100,0,160,512,8,8,0,-30,-61,0,0,100,0,152,512,8,8,0,-30,-99,0,0,100,0,144,504,8,8,0,-27,-18,0,0,20,0,144,512,8,8,0,47,-71,0,0,20,0,152,512,8,8,0,54,-10,0,0,20,0,160,504,8,8,0,-8,-57,0,0,20,0,144,520,8,8,0,-35,-82,0,0,100,0,720,88,56,72,0,-25,-59,0,0,100,0,648,512,56,64,0,-20,-8,0,0,65,0,456,0,40,16,0,
0,11,-1,-100,0,0,100,0,160,520,8,8,0,44,-37,0,0,100,0,160,512,8,8,0,-47,-89,0,0,100,0,152,512,8,8,0,-32,-47,0,0,100,0,160,504,8,8,0,24,-19,0,0,50,0,152,504,8,8,0,13,-85,0,0,50,0,160,512,8,8,0,-37,-70,0,0,50,0,152,520,8,8,0,-51,-34,0,0,50,0,152,512,8,8,0,-30,-69,0,0,100,0,424,360,40,72,0,-45,-60,0,0,100,0,640,576,80,64,0,-17,-8,0,0,65,0,456,0,40,16,0,
0,15,54,-33,0,0,20,0,144,512,8,8,0,-39,-88,0,0,20,0,160,512,8,8,0,-29,-45,0,0,20,0,160,504,8,8,0,11,-95,0,0,20,0,144,520,8,8,0,-27,-67,0,0,100,0,160,520,8,8,0,-41,-29,0,0,100,0,160,512,8,8,0,26,-80,0,0,100,0,144,512,8,8,0,36,-15,0,0,100,0,144,504,8,8,0,-26,-96,0,0,50,0,152,504,8,8,0,20,-38,0,0,50,0,160,512,8,8,0,-58,-85,0,0,50,0,152,520,8,8,0,21,-63,0,0,50,0,152,512,8,8,0,-29,-67,0,0,100,0,424,360,40,72,0,-45,-60,0,0,100,0,720,576,80,64,0,-17,-8,0,0,65,0,456,0,40,16,0,
0,11,31,-58,0,0,20,0,144,512,8,8,0,31,-32,0,0,20,0,152,512,8,8,0,-16,-93,0,0,20,0,160,504,8,8,0,-47,-79,0,0,20,0,144,520,8,8,0,44,-11,0,0,50,0,152,504,8,8,0,33,-77,0,0,50,0,160,512,8,8,0,-16,-61,0,0,50,0,152,520,8,8,0,-33,-26,0,0,50,0,152,512,8,8,0,-30,-70,0,0,100,0,424,360,40,72,0,-45,-60,0,0,100,0,720,512,80,64,0,-17,-8,0,0,65,0,456,0,40,16,0,
0,11,31,-58,0,0,20,0,144,512,8,8,0,31,-32,0,0,20,0,152,512,8,8,0,-16,-93,0,0,20,0,160,504,8,8,0,-47,-79,0,0,20,0,144,520,8,8,0,44,-11,0,0,50,0,152,504,8,8,0,33,-77,0,0,50,0,160,512,8,8,0,-16,-61,0,0,50,0,152,520,8,8,0,-33,-26,0,0,50,0,152,512,8,8,0,-30,-70,0,0,100,0,424,360,40,72,0,-47,-66,0,0,100,0,712,160,80,72,0,-17,-8,0,0,65,0,456,0,40,16,0,
0,11,25,-58,0,0,100,0,160,520,8,8,0,21,-25,0,0,100,0,160,512,8,8,0,-30,-61,0,0,100,0,152,512,8,8,0,-30,-99,0,0,100,0,144,504,8,8,0,-27,-18,0,0,20,0,144,512,8,8,0,47,-71,0,0,20,0,152,512,8,8,0,54,-10,0,0,20,0,160,504,8,8,0,-8,-57,0,0,20,0,144,520,8,8,0,-30,-70,0,0,100,0,424,360,40,72,0,-47,-66,0,0,100,0,712,232,80,72,0,-17,-8,0,0,65,0,456,0,40,16,0,
0,11,-1,-100,0,0,100,0,160,520,8,8,0,44,-37,0,0,100,0,160,512,8,8,0,-47,-89,0,0,100,0,152,512,8,8,0,-32,-47,0,0,100,0,160,504,8,8,0,24,-19,0,0,50,0,152,504,8,8,0,13,-85,0,0,50,0,160,512,8,8,0,-37,-70,0,0,50,0,152,520,8,8,0,-51,-34,0,0,50,0,152,512,8,8,0,-30,-70,0,0,100,0,424,360,40,72,0,-47,-66,0,0,100,0,712,304,80,72,0,-17,-8,0,0,65,0,456,0,40,16,0,
0,13,-29,-45,0,0,20,0,160,504,8,8,0,11,-95,0,0,20,0,144,520,8,8,0,-27,-67,0,0,100,0,160,520,8,8,0,-41,-29,0,0,100,0,160,512,8,8,0,26,-80,0,0,100,0,144,512,8,8,0,36,-15,0,0,100,0,144,504,8,8,0,-26,-96,0,0,50,0,152,504,8,8,0,20,-38,0,0,50,0,160,512,8,8,0,-58,-85,0,0,50,0,152,520,8,8,0,21,-63,0,0,50,0,152,512,8,8,0,-30,-70,0,0,100,0,424,360,40,72,0,-47,-66,0,0,100,0,712,376,80,72,0,-17,-8,0,0,65,0,456,0,40,16,0,
