0,4,-18,-64,0,0,100,0,0,0,40,40,1,-48,-68,0,0,100,0,0,128,104,80,0,-20,-56,0,0,100,0,680,0,48,48,1,-40,-16,0,0,65,0,632,160,80,32,0,
0,4,-18,-64,0,0,100,0,40,0,40,40,1,-48,-68,0,0,100,0,104,128,104,80,0,-20,-55,0,0,100,0,728,0,48,48,1,-40,-16,0,0,65,0,632,160,80,32,0,
0,4,-18,-64,0,0,100,0,80,0,40,40,1,-48,-68,0,0,100,0,208,128,104,80,0,-19,-55,0,0,100,0,776,0,48,48,1,-40,-16,0,0,65,0,632,160,80,32,0,
0,4,-18,-64,0,0,100,0,120,0,40,40,1,-48,-68,0,0,100,0,312,128,104,80,0,-19,-56,0,0,100,0,824,0,48,48,1,-40,-16,0,0,65,0,632,160,80,32,0,
0,4,-18,-64,0,0,100,0,0,0,40,40,1,-48,-68,0,0,100,0,0,128,104,80,0,-20,-56,0,0,100,0,680,0,48,48,1,-40,-16,0,0,65,0,632,160,80,32,0,
0,4,-18,-63,0,0,100,0,0,40,40,40,1,-96,-68,0,0,100,0,0,208,160,80,0,-20,-55,0,0,100,0,0,80,48,48,1,-37,-16,0,0,65,0,632,160,80,32,0,
0,4,-18,-57,0,0,100,0,40,40,40,40,1,-96,-68,0,0,100,0,160,208,160,80,0,-20,-49,0,0,100,0,0,80,48,48,1,-35,-16,0,0,65,0,632,160,80,32,0,
0,4,-18,-57,0,0,100,0,80,40,40,40,1,-96,-68,0,0,100,0,320,208,160,80,0,-20,-49,0,0,100,0,0,80,48,48,1,-35,-16,0,0,65,0,632,160,80,32,0,
0,4,-22,-58,0,0,100,0,120,40,40,40,1,-96,-68,0,0,100,0,480,208,160,80,0,-24,-50,0,0,100,0,48,80,48,48,1,-36,-16,0,0,65,0,632,160,80,32,0,
0,5,-80,-68,0,0,100,0,0,704,128,80,0,-61,-58,0,0,100,0,160,40,40,40,1,-96,-68,0,0,100,0,640,208,160,80,0,-63,-50,0,0,100,0,96,80,48,48,1,-70,-16,0,0,65,0,632,160,80,32,0,
0,5,-80,-68,0,0,100,0,128,704,128,80,0,-56,-58,0,0,100,0,200,40,40,40,1,-96,-68,0,0,100,0,800,208,160,80,0,-58,-50,0,0,100,0,144,80,48,48,1,-67,-16,0,0,65,0,632,160,80,32,0,
0,5,-80,-68,0,0,100,0,256,704,128,80,0,-57,-58,0,0,100,0,240,40,40,40,1,-96,-68,0,0,100,0,0,288,160,80,0,-59,-50,0,0,100,0,192,80,48,48,1,-67,-16,0,0,65,0,632,160,80,32,0,
0,4,-43,-58,0,0,100,0,280,40,40,40,1,-101,-68,0,0,100,0,160,288,160,80,0,-59,-50,0,0,100,0,240,80,48,48,1,-62,-16,0,0,65,0,632,160,80,32,0,
0,4,-36,-57,0,0,100,0,320,40,40,40,1,-101,-68,0,0,100,0,320,288,160,80,0,-44,-50,0,0,100,0,288,80,48,48,1,-61,-16,0,0,65,0,632,160,80,32,0,
0,4,-36,-57,0,0,100,0,360,40,40,40,1,-101,-68,0,0,100,0,480,288,160,80,0,-41,-48,0,0,100,0,336,80,48,48,1,-61,-16,0,0,65,0,632,160,80,32,0,
0,4,-36,-57,0,0,100,0,400,40,40,40,1,-93,-68,0,0,100,0,640,288,160,80,0,-46,-49,0,0,100,0,48,80,48,48,1,-61,-16,0,0,65,0,632,160,80,32,0,
0,5,-152,-52,0,0,100,0,384,704,208,56,0,-67,-59,0,0,100,0,440,40,40,40,1,-61,-51,0,0,100,0,384,80,48,48,1,-128,-68,0,0,100,0,800,288,160,80,0,-74,-16,0,0,65,0,632,160,80,32,0,
0,5,-152,-52,0,0,100,0,592,704,208,56,0,-62,-59,0,0,100,0,480,40,40,40,1,-56,-51,0,0,100,0,432,80,48,48,1,-128,-68,0,0,100,0,0,368,160,80,0,-69,-16,0,0,65,0,632,160,80,32,0,
0,5,-152,-52,0,0,100,0,800,704,208,56,0,-63,-59,0,0,100,0,520,40,40,40,1,-57,-51,0,0,100,0,480,80,48,48,1,-128,-68,0,0,100,0,160,368,160,80,0,-70,-16,0,0,65,0,632,160,80,32,0,
0,4,-63,-59,0,0,100,0,560,40,40,40,1,-57,-51,0,0,100,0,528,80,48,48,1,-128,-68,0,0,100,0,320,368,160,80,0,-70,-16,0,0,65,0,632,160,80,32,0,
0,4,-54,-57,0,0,100,0,600,40,40,40,1,-96,-68,0,0,100,0,480,368,160,80,0,-56,-49,0,0,100,0,576,80,48,48,1,-67,-16,0,0,65,0,632,160,80,32,0,
0,4,-37,-62,0,0,100,0,600,0,40,40,1,-96,-68,0,0,100,0,640,368,160,80,0,-39,-54,0,0,100,0,624,80,48,48,1,-56,-16,0,0,65,0,632,160,80,32,0,
0,4,-28,-57,0,0,100,0,640,0,40,40,1,-96,-68,0,0,100,0,800,368,160,80,0,-30,-49,0,0,100,0,672,80,48,48,1,-44,-16,0,0,65,0,632,160,80,32,0,
0,4,-18,-64,0,0,100,0,0,0,40,40,1,-48,-68,0,0,100,0,0,128,104,80,0,-20,-56,0,0,100,0,680,0,48,48,1,-40,-16,0,0,65,0,632,160,80,32,0,
0,4,-18,-64,0,0,100,0,200,0,40,40,1,-48,-116,0,0,100,0,0,448,104,128,0,-20,-56,0,0,100,0,720,80,48,48,1,-40,-16,0,0,65,0,632,160,80,32,0,
0,4,-18,-64,0,0,100,0,240,0,40,40,1,-48,-116,0,0,100,0,104,448,104,128,0,-20,-56,0,0,100,0,720,80,48,48,1,-40,-16,0,0,65,0,632,160,80,32,0,
0,4,-18,-64,0,0,100,0,280,0,40,40,1,-48,-116,0,0,100,0,208,448,104,128,0,-20,-56,0,0,100,0,720,80,48,48,1,-40,-16,0,0,65,0,632,160,80,32,0,
0,4,-18,-64,0,0,100,0,320,0,40,40,1,-48,-116,0,0,100,0,312,448,104,128,0,-20,-56,0,0,100,0,720,80,48,48,1,-40,-16,0,0,65,0,632,160,80,32,0,
0,4,-18,-63,0,0,100,0,360,0,40,40,1,-48,-116,0,0,100,0,416,448,104,128,0,-20,-55,0,0,100,0,768,80,48,48,1,-40,-16,0,0,65,0,632,160,80,32,0,
0,4,-18,-64,0,0,100,0,400,0,40,40,1,-48,-116,0,0,100,0,520,448,104,128,0,-20,-56,0,0,100,0,816,80,48,48,1,-40,-16,0,0,65,0,632,160,80,32,0,
0,4,-17,-64,0,0,100,0,440,0,40,40,1,-48,-116,0,0,100,0,624,448,104,128,0,-19,-56,0,0,100,0,816,80,48,48,1,-39,-16,0,0,65,0,632,160,80,32,0,
0,4,-16,-65,0,0,100,0,480,0,40,40,1,-48,-116,0,0,100,0,728,448,104,128,0,-18,-57,0,0,100,0,864,80,48,48,1,-36,-16,0,0,65,0,632,160,80,32,0,
0,4,-16,-65,0,0,100,0,520,0,40,40,1,-48,-116,0,0,100,0,832,448,104,128,0,-18,-57,0,0,100,0,912,80,48,48,1,-36,-16,0,0,65,0,632,160,80,32,0,
0,4,-16,-65,0,0,100,0,560,0,40,40,1,-48,-116,0,0,100,0,0,576,104,128,0,-18,-57,0,0,100,0,960,80,48,48,1,-36,-16,0,0,65,0,632,160,80,32,0,
0,5,-31,-48,0,0,100,0,520,160,48,48,0,-17,-66,0,0,100,0,80,0,40,40,1,-48,-116,0,0,100,0,104,576,104,128,0,-18,-57,0,0,100,0,776,0,48,48,1,-36,-16,0,0,65,0,632,160,80,32,0,
0,5,-31,-48,0,0,100,0,520,160,48,48,0,-17,-65,0,0,100,0,120,0,40,40,1,-48,-116,0,0,100,0,208,576,104,128,0,-18,-57,0,0,100,0,824,0,48,48,1,-36,-16,0,0,65,0,632,160,80,32,0,
0,5,-31,-48,0,0,100,0,520,160,48,48,0,-16,-65,0,0,100,0,0,0,40,40,1,-48,-116,0,0,100,0,312,576,104,128,0,-18,-57,0,0,100,0,680,0,48,48,1,-36,-16,0,0,65,0,632,160,80,32,0,
0,5,-31,-48,0,0,100,0,520,160,48,48,0,-16,-66,0,0,100,0,40,0,40,40,1,-48,-116,0,0,100,0,416,576,104,128,0,-18,-57,0,0,100,0,728,0,48,48,1,-36,-16,0,0,65,0,632,160,80,32,0,
0,4,-34,-58,0,0,100,0,160,0,40,40,1,-32,-50,0,0,100,0,872,0,48,48,1,-60,-72,0,0,100,0,416,128,104,80,0,-42,-16,0,0,65,0,632,160,80,32,0,
