0,10,0,-64,0,1,90,0,48,192,56,64,0,-17,-47,0,0,100,0,864,384,16,32,0,-20,-55,0,0,100,0,640,32,48,48,1,-24,-68,0,0,100,0,712,128,48,32,0,-19,-67,0,0,100,0,0,0,40,40,1,-48,-48,0,0,100,0,0,128,104,64,0,-24,-68,0,0,100,0,712,160,48,32,0,2,-63,0,0,100,0,288,320,48,64,0,-48,-64,0,1,90,0,0,192,48,64,0,-40,-16,0,0,65,0,632,160,80,32,0,
0,10,0,-64,0,1,90,0,152,192,56,64,0,-17,-46,0,0,100,0,976,400,16,32,0,-20,-54,0,0,100,0,688,32,48,48,1,-24,-67,0,0,100,0,760,128,48,32,0,-19,-66,0,0,100,0,40,40,40,40,1,-48,-48,0,0,100,0,104,128,104,64,0,-24,-67,0,0,100,0,760,160,48,32,0,2,-63,0,0,100,0,288,320,48,64,0,-48,-64,0,1,90,0,104,192,48,64,0,-40,-16,0,0,65,0,632,160,80,32,0,
0,10,0,-64,0,1,90,0,256,192,56,64,0,-17,-46,0,0,100,0,992,400,16,32,0,-20,-54,0,0,100,0,736,32,48,48,1,-24,-67,0,0,100,0,808,128,48,32,0,-19,-66,0,0,100,0,0,40,40,40,1,-48,-48,0,0,100,0,208,128,104,64,0,-24,-67,0,0,100,0,808,160,48,32,0,2,-62,0,0,100,0,288,320,48,64,0,-48,-64,0,1,90,0,208,192,48,64,0,-40,-16,0,0,65,0,632,160,80,32,0,
0,10,0,-64,0,1,90,0,360,192,56,64,0,-17,-47,0,0,100,0,1008,400,16,32,0,-20,-55,0,0,100,0,784,32,48,48,1,-24,-68,0,0,100,0,856,128,48,32,0,-19,-67,0,0,100,0,80,40,40,40,1,-48,-48,0,0,100,0,312,128,104,64,0,-24,-68,0,0,100,0,856,160,48,32,0,2,-62,0,0,100,0,288,320,48,64,0,-48,-64,0,1,90,0,312,192,48,64,0,-40,-16,0,0,65,0,632,160,80,32,0,
0,9,-40,-64,0,1,90,0,0,448,96,80,0,-17,-47,0,0,100,0,864,384,16,32,0,2,-63,0,0,100,0,288,320,48,64,0,-20,-55,0,0,100,0,640,32,48,48,1,-24,-68,0,0,100,0,0,320,48,32,0,-19,-67,0,0,100,0,0,0,40,40,1,-30,-47,0,0,100,0,0,384,64,64,0,-10,-64,0,0,100,0,0,352,32,32,0,-40,-16,0,0,65,0,632,160,80,32,0,
0,8,-16,-47,0,0,100,0,864,384,16,32,0,-14,-63,0,0,100,90,336,320,80,64,0,-19,-55,0,0,100,0,48,80,48,48,1,-23,-68,0,0,100,0,0,320,48,32,0,-18,-67,0,0,100,0,80,40,40,40,1,-30,-47,0,0,100,0,64,384,64,64,0,-9,-64,0,0,100,0,0,352,32,32,0,-39,-16,0,0,65,0,632,160,80,32,0,
0,8,-19,-62,0,0,100,180,336,320,80,64,0,-14,-47,0,0,100,0,864,384,32,32,0,-17,-55,0,0,100,0,0,80,48,48,1,-21,-68,0,0,100,0,48,320,48,32,0,-16,-67,0,0,100,0,0,0,40,40,1,-28,-47,0,0,100,0,128,384,64,64,0,-7,-64,0,0,100,0,0,352,32,32,0,-38,-16,0,0,65,0,632,160,80,32,0,
0,8,-13,-79,0,0,100,-90,416,320,80,64,0,-14,-47,0,0,100,0,864,384,32,32,0,-17,-55,0,0,100,0,96,80,48,48,1,-21,-68,0,0,100,0,96,320,48,32,0,-16,-67,0,0,100,0,40,40,40,40,1,-14,-47,0,0,100,0,192,384,48,64,0,-7,-64,0,0,100,0,0,352,32,32,0,-38,-16,0,0,65,0,632,160,80,32,0,
0,8,-39,-56,3,0,100,0,496,320,96,64,0,-14,-47,0,0,100,0,864,384,32,32,0,-17,-55,0,0,100,0,144,80,48,48,1,-21,-68,0,0,100,0,48,320,48,32,0,-16,-67,0,0,100,0,120,40,40,40,1,-14,-47,0,0,100,0,240,384,48,64,0,-7,-64,0,0,100,0,0,352,32,32,0,-38,-16,0,0,65,0,632,160,80,32,0,
0,8,-26,-70,0,0,100,90,592,320,80,64,0,-14,-39,0,0,100,0,896,384,32,16,0,-16,-55,0,0,100,0,192,80,48,48,1,-18,-67,0,0,100,0,144,320,48,32,0,-15,-67,0,0,100,0,120,40,40,40,1,-14,-47,0,0,100,0,288,384,48,64,0,-6,-64,0,0,100,0,32,352,32,32,0,-37,-16,0,0,65,0,632,160,80,32,0,
0,8,-14,-37,0,0,100,0,928,384,32,16,0,-14,-79,0,0,100,-90,496,320,96,64,0,-16,-55,0,0,100,0,240,80,48,48,1,-19,-70,0,0,100,0,192,320,48,32,0,-15,-67,0,0,100,0,40,40,40,40,1,-14,-47,0,0,100,0,336,384,48,64,0,-6,-64,0,0,100,0,64,352,32,32,0,-37,-16,0,0,65,0,632,160,80,32,0,
0,8,-14,-37,0,0,100,0,928,384,32,16,0,-14,-79,0,0,100,-90,496,320,96,64,0,-16,-55,0,0,100,0,288,80,48,48,1,-18,-67,0,0,100,0,144,320,48,32,0,-15,-67,0,0,100,0,0,0,40,40,1,-27,-47,0,0,100,0,384,384,48,64,0,-6,-64,0,0,100,0,32,352,32,32,0,-37,-16,0,0,65,0,632,160,80,32,0,
0,9,-44,-83,0,1,90,0,720,448,96,96,0,-15,-38,0,0,100,0,960,384,32,16,0,-13,-80,0,0,100,-90,496,320,96,64,0,-16,-55,0,0,100,0,336,80,48,48,1,-20,-65,0,0,100,0,752,352,48,32,0,-15,-67,0,0,100,0,80,40,40,40,1,-29,-47,0,0,100,0,432,384,48,64,0,-6,-64,0,0,100,0,0,352,32,32,0,-37,-16,0,0,65,0,632,160,80,32,0,
0,10,-45,-91,0,1,90,0,912,448,112,48,0,6,-85,0,1,80,0,832,448,64,96,0,-15,-35,0,0,100,0,992,384,32,16,0,-31,-47,0,0,100,0,672,336,80,48,0,-22,-53,0,0,100,0,240,80,48,48,1,-26,-66,0,0,100,0,240,320,48,32,0,-21,-65,0,0,100,0,40,40,40,40,1,-28,-47,0,0,100,0,480,384,48,64,0,-12,-62,0,0,100,0,96,352,32,32,0,-38,-16,0,0,65,0,632,160,80,32,0,
0,12,-42,-99,0,1,90,0,912,496,112,64,0,-98,-66,0,1,80,0,368,528,112,80,0,-90,-82,0,1,80,0,0,512,160,112,0,6,-85,0,1,30,0,832,448,64,96,0,-5,-39,0,0,100,0,896,400,16,16,0,-27,-55,0,0,100,0,192,80,48,48,1,-31,-68,0,0,100,0,192,352,48,32,0,-26,-67,0,0,100,0,40,40,40,40,1,-31,-47,0,0,100,0,528,384,64,64,0,-17,-64,0,0,100,0,96,352,32,32,0,-70,-62,0,0,100,180,672,336,80,48,0,-40,-16,0,0,65,0,632,160,80,32,0,
0,11,-137,-83,0,1,90,0,480,544,96,96,0,-78,-77,0,1,90,0,160,528,160,112,0,-90,-82,0,1,30,0,0,512,160,112,0,-11,-43,0,0,100,0,912,400,32,16,0,-24,-56,0,0,100,0,384,80,48,48,1,-28,-69,0,0,100,0,240,352,48,32,0,-23,-68,0,0,100,0,160,40,40,40,1,-31,-47,0,0,100,0,592,384,64,64,0,-30,-65,0,0,100,0,128,352,48,32,0,-53,-84,1,0,100,-90,592,320,80,64,0,-40,-16,0,0,65,0,632,160,80,32,0,
0,10,-152,-83,0,1,90,0,576,544,96,112,0,-78,-79,0,1,40,0,320,528,48,80,0,-9,-45,0,0,100,0,912,400,32,16,0,-23,-56,0,0,100,0,432,80,48,48,1,-27,-66,0,0,100,0,800,352,48,32,0,-22,-68,0,0,100,0,200,40,40,40,1,-31,-47,0,0,100,0,656,384,64,64,0,-13,-65,0,0,100,0,96,352,32,32,0,-52,-83,1,0,100,-90,592,320,80,64,0,-40,-16,0,0,65,0,632,160,80,32,0,
0,10,-169,-83,0,1,40,0,672,544,112,96,0,-78,-79,0,1,20,0,320,528,48,80,0,-9,-45,0,0,100,0,912,400,32,16,0,-23,-56,0,0,100,0,240,80,48,48,1,-27,-66,0,0,100,0,752,352,48,32,0,-22,-68,0,0,100,0,0,0,40,40,1,-29,-47,0,0,100,0,720,384,48,64,0,-13,-65,0,0,100,0,0,352,32,32,0,-52,-83,1,0,100,-90,592,320,80,64,0,-40,-16,0,0,65,0,632,160,80,32,0,
0,9,-168,-83,0,1,20,0,784,544,96,96,0,-9,-45,0,0,100,0,912,400,32,16,0,-23,-56,0,0,100,0,288,80,48,48,1,-27,-66,0,0,100,0,752,352,48,32,0,-22,-68,0,0,100,0,0,0,40,40,1,-31,-47,0,0,100,0,768,384,48,64,0,-13,-65,0,0,100,0,0,352,32,32,0,-52,-83,1,0,100,-90,592,320,80,64,0,-40,-16,0,0,65,0,632,160,80,32,0,
0,8,-9,-45,0,0,100,0,912,400,32,16,0,-23,-56,0,0,100,0,288,80,48,48,1,-27,-66,0,0,100,0,752,352,48,32,0,-22,-68,0,0,100,0,0,0,40,40,1,-31,-47,0,0,100,0,768,384,48,64,0,-13,-65,0,0,100,0,0,352,32,32,0,-52,-83,1,0,100,-90,592,320,80,64,0,-40,-16,0,0,65,0,632,160,80,32,0,
0,10,-47,-79,0,1,80,0,880,560,96,80,0,-29,-31,0,1,60,0,976,608,48,32,0,-20,-44,0,0,100,0,944,400,32,32,0,-37,-48,0,0,100,0,672,336,80,48,0,-22,-55,0,0,100,0,480,80,48,48,1,-26,-65,0,0,100,0,752,352,48,32,0,-21,-67,0,0,100,0,240,40,40,40,1,-31,-47,0,0,100,0,816,384,48,64,0,-12,-64,0,0,100,0,0,352,32,32,0,-40,-16,0,0,65,0,632,160,80,32,0,
0,9,-40,-64,0,1,90,0,0,448,96,64,0,-17,-47,0,0,100,0,864,384,16,32,0,2,-63,0,0,100,0,288,320,48,64,0,-20,-55,0,0,100,0,640,32,48,48,1,-24,-68,0,0,100,0,0,320,48,32,0,-19,-67,0,0,100,0,0,0,40,40,1,-30,-47,0,0,100,0,0,384,64,64,0,-10,-64,0,0,100,0,0,352,32,32,0,-39,-16,0,0,65,0,632,160,80,32,0,
0,9,-38,-71,0,1,75,0,632,192,96,64,0,-16,-47,0,0,100,0,864,384,16,32,0,-14,-63,0,0,100,90,336,320,80,64,0,-19,-55,0,0,100,0,48,80,48,48,1,-23,-68,0,0,100,0,0,320,48,32,0,-18,-67,0,0,100,0,80,40,40,40,1,-30,-47,0,0,100,0,0,256,64,64,0,-9,-64,0,0,100,0,0,352,32,32,0,-38,-16,0,0,65,0,632,160,80,32,0,
0,9,-38,-71,0,1,65,0,728,192,96,64,0,-19,-62,0,0,100,180,336,320,80,64,0,-14,-47,0,0,100,0,864,384,32,32,0,-17,-55,0,0,100,0,0,80,48,48,1,-21,-68,0,0,100,0,48,320,48,32,0,-16,-67,0,0,100,0,0,0,40,40,1,-28,-47,0,0,100,0,64,256,64,64,0,-7,-64,0,0,100,0,0,352,32,32,0,-37,-16,0,0,65,0,632,160,80,32,0,
0,10,-30,-55,0,1,45,0,824,192,64,64,0,-17,-80,0,0,100,-90,416,320,80,64,0,-14,-47,0,0,100,0,864,384,16,32,0,0,-47,0,0,100,0,880,384,16,32,0,-17,-55,0,0,100,0,96,80,48,48,1,-21,-68,0,0,100,0,96,320,48,32,0,-16,-67,0,0,100,0,40,40,40,40,1,-30,-47,0,0,100,0,128,256,64,64,0,-7,-64,0,0,100,0,0,352,32,32,0,-37,-16,0,0,65,0,632,160,80,32,0,
0,10,-14,-55,0,1,40,0,888,192,64,64,0,-47,-73,1,0,100,0,496,320,96,64,0,-14,-47,0,0,100,0,864,416,16,32,0,-2,-47,0,0,100,0,880,384,16,32,0,-17,-55,0,0,100,0,144,80,48,48,1,-21,-68,0,0,100,0,48,320,48,32,0,-16,-67,0,0,100,0,120,40,40,40,1,-30,-47,0,0,100,0,192,256,64,64,0,-7,-64,0,0,100,0,0,352,32,32,0,-37,-16,0,0,65,0,632,160,80,32,0,
0,11,-25,-81,0,1,40,0,952,192,64,64,0,-11,-40,0,0,100,0,912,432,16,16,0,-40,-71,0,0,100,90,592,320,80,64,0,-16,-55,0,0,100,0,192,80,48,48,1,-20,-67,0,0,100,0,144,320,48,32,0,-12,-46,0,0,100,0,880,416,16,32,0,0,-45,0,0,100,0,880,384,16,32,0,-17,-67,0,0,100,0,120,40,40,40,1,-32,-47,0,0,100,0,256,256,64,64,0,-8,-64,0,0,100,0,32,352,32,32,0,-38,-16,0,0,65,0,632,160,80,32,0,
0,9,-28,-40,0,0,100,0,912,416,32,16,0,-39,-78,0,0,100,-90,496,320,96,64,0,-17,-55,0,0,100,0,288,80,48,48,1,-22,-68,0,0,100,0,616,128,48,32,0,-21,-47,0,0,100,0,896,416,16,32,0,-17,-67,0,0,100,0,40,40,40,40,1,-32,-47,0,0,100,0,320,256,64,64,0,-22,-68,0,0,100,0,808,160,48,32,0,-38,-16,0,0,65,0,632,160,80,32,0,
0,8,-32,-45,0,0,100,0,912,416,32,16,0,-43,-81,0,0,100,-90,496,320,96,64,0,-18,-55,0,0,100,0,784,32,48,48,1,-22,-68,0,0,100,0,664,128,48,32,0,-17,-67,0,0,100,0,0,0,40,40,1,-32,-47,0,0,100,0,384,256,64,64,0,-22,-68,0,0,100,0,856,160,48,32,0,-38,-16,0,0,65,0,632,160,80,32,0,
0,8,-32,-43,0,0,100,0,912,416,32,16,0,-43,-78,0,0,100,-90,496,320,96,64,0,-18,-55,0,0,100,0,688,32,48,48,1,-22,-68,0,0,100,0,568,128,48,32,0,-17,-67,0,0,100,0,40,40,40,40,1,-32,-47,0,0,100,0,448,256,64,64,0,-22,-68,0,0,100,0,760,160,48,32,0,-38,-16,0,0,65,0,632,160,80,32,0,
0,8,-32,-44,0,0,100,0,912,416,32,16,0,-43,-79,0,0,100,-90,496,320,96,64,0,-18,-55,0,0,100,0,640,32,48,48,1,-22,-68,0,0,100,0,664,128,48,32,0,-17,-67,0,0,100,0,0,0,40,40,1,-32,-47,0,0,100,0,512,256,64,64,0,-22,-68,0,0,100,0,856,160,48,32,0,-38,-16,0,0,65,0,632,160,80,32,0,
0,8,-32,-44,0,0,100,0,912,416,32,16,0,-43,-79,0,0,100,-90,496,320,96,64,0,-18,-55,0,0,100,0,688,32,48,48,1,-22,-68,0,0,100,0,520,128,48,32,0,-17,-67,0,0,100,0,80,40,40,40,1,-32,-47,0,0,100,0,576,256,64,64,0,-22,-68,0,0,100,0,712,160,48,32,0,-38,-16,0,0,65,0,632,160,80,32,0,
0,8,-32,-44,0,0,100,0,912,416,32,16,0,-43,-79,0,0,100,-90,496,320,96,64,0,-18,-55,0,0,100,0,736,32,48,48,1,-22,-68,0,0,100,0,568,128,48,32,0,-17,-67,0,0,100,0,0,40,40,40,1,-32,-47,0,0,100,0,640,256,64,64,0,-22,-68,0,0,100,0,760,160,48,32,0,-38,-16,0,0,65,0,632,160,80,32,0,
0,8,-32,-44,0,0,100,0,912,416,32,16,0,-43,-79,0,0,100,-90,496,320,96,64,0,-18,-55,0,0,100,0,784,32,48,48,1,-22,-68,0,0,100,0,616,128,48,32,0,-17,-67,0,0,100,0,40,40,40,40,1,-32,-47,0,0,100,0,704,256,64,64,0,-22,-68,0,0,100,0,808,160,48,32,0,-38,-16,0,0,65,0,632,160,80,32,0,
0,8,-32,-44,0,0,100,0,912,416,32,16,0,-43,-79,0,0,100,-90,496,320,96,64,0,-18,-55,0,0,100,0,640,32,48,48,1,-22,-68,0,0,100,0,664,128,48,32,0,-17,-67,0,0,100,0,0,40,40,40,1,-32,-47,0,0,100,0,768,256,64,64,0,-22,-68,0,0,100,0,856,160,48,32,0,-38,-16,0,0,65,0,632,160,80,32,0,
0,7,-64,-49,0,1,80,0,416,192,104,64,0,-40,-56,0,0,100,0,904,128,48,32,0,-37,-58,0,0,100,0,40,0,40,40,1,-64,-49,0,0,100,0,416,128,104,64,0,-28,-55,0,0,100,0,832,32,48,48,1,-40,-56,0,0,100,0,904,160,48,32,0,-40,-16,0,0,65,0,632,160,80,32,0,
