4,0,0,6,
5,0,0,4,
6,0,0,4,
7,0,0,3,
8,0,0,4,
9,0,0,3,
10,0,0,4,
11,0,0,4,
12,0,0,4,
13,0,0,5,
14,0,0,4,
15,0,0,3,
16,0,0,4,
17,0,0,2,
18,0,0,3,
19,0,0,4,
20,0,0,5,
21,0,0,6,
22,0,0,2,
23,0,0,2,
24,0,0,2,
25,0,0,4,
26,0,0,5,
27,0,0,5,
28,0,0,6,
29,0,0,6,
30,0,0,6,
31,0,0,6,
32,0,0,6,
33,0,0,4,
34,0,0,4,
35,0,0,4,
