0,3,-44,-65,0,1,100,0,320,16,80,64,0,-42,-60,0,0,100,0,0,0,80,64,0,-20,-10,0,0,65,0,320,0,40,16,0,
0,3,-44,-65,0,1,100,0,400,16,80,64,0,-42,-60,0,0,100,0,80,0,80,64,0,-20,-10,0,0,65,0,320,0,40,16,0,
0,3,-44,-65,0,1,100,0,320,80,80,64,0,-42,-60,0,0,100,0,160,0,80,64,0,-20,-10,0,0,65,0,320,0,40,16,0,
0,3,-44,-65,0,1,100,0,400,80,80,64,0,-42,-60,0,0,100,0,240,0,80,64,0,-20,-10,0,0,65,0,320,0,40,16,0,
0,3,-44,-65,0,1,100,0,320,16,80,64,0,-42,-60,0,0,100,0,0,64,80,64,0,-20,-10,0,0,65,0,320,0,40,16,0,
0,4,-44,-65,0,1,100,0,400,16,80,64,0,-42,-68,0,1,25,0,0,256,80,64,0,-42,-60,0,0,100,0,80,64,80,64,0,-20,-10,0,0,65,0,320,0,40,16,0,
0,4,-44,-65,0,1,100,0,320,80,80,64,0,-42,-68,0,1,50,0,80,256,80,64,0,-42,-60,0,0,100,0,160,64,80,64,0,-20,-10,0,0,65,0,320,0,40,16,0,
0,4,-44,-65,0,1,100,0,400,80,80,64,0,-42,-68,0,1,75,0,160,256,80,64,0,-42,-60,0,0,100,0,240,64,80,64,0,-20,-10,0,0,65,0,320,0,40,16,0,
0,4,-44,-65,0,1,100,0,320,16,80,64,0,-42,-68,0,1,100,0,0,320,80,64,0,-42,-60,0,0,100,0,0,128,80,64,0,-20,-10,0,0,65,0,320,0,40,16,0,
0,4,-44,-65,0,1,100,0,400,16,80,64,0,-42,-68,0,1,100,0,80,320,80,64,0,-42,-60,0,0,100,0,80,128,80,64,0,-20,-10,0,0,65,0,320,0,40,16,0,
0,5,-44,-65,0,1,100,0,320,80,80,64,0,-42,-68,0,1,50,0,80,256,80,64,0,-63,-68,0,1,100,0,160,320,80,64,0,-42,-60,0,0,100,0,160,128,80,64,0,-20,-10,0,0,65,0,320,0,40,16,0,
0,5,-44,-65,0,1,100,0,400,80,80,64,0,4,-50,0,1,100,0,240,256,24,24,0,-72,-60,0,1,100,0,240,320,80,64,0,-42,-60,0,0,100,0,240,128,80,64,0,-20,-10,0,0,65,0,320,0,40,16,0,
0,5,-44,-65,0,1,100,0,320,16,80,64,0,2,-52,0,1,100,0,264,256,24,24,0,-74,-60,0,1,100,0,0,384,80,64,0,-42,-60,0,0,100,0,0,192,80,64,0,-20,-10,0,0,65,0,320,0,40,16,0,
0,4,-44,-65,0,1,100,0,400,16,80,64,0,-68,-60,0,1,50,0,80,384,80,64,0,-42,-60,0,0,100,0,80,192,80,64,0,-20,-10,0,0,65,0,320,0,40,16,0,
0,4,-44,-65,0,1,100,0,320,80,80,64,0,-68,-62,0,1,25,0,160,384,80,64,0,-42,-60,0,0,100,0,160,192,80,64,0,-20,-10,0,0,65,0,320,0,40,16,0,
0,4,-44,-65,0,1,100,0,400,80,80,64,0,-42,-68,0,1,50,0,80,256,80,64,0,-42,-60,0,0,100,0,240,192,80,64,0,-20,-10,0,0,65,0,320,0,40,16,0,
0,4,-29,-67,0,1,100,0,400,80,80,64,0,-45,-58,0,0,100,0,320,192,80,64,0,-52,-62,0,0,100,0,320,160,40,32,0,-20,-10,0,0,65,0,320,0,40,16,0,
0,2,-42,-60,0,0,100,0,0,448,80,64,0,-20,-10,0,0,65,0,320,0,40,16,0,
0,3,82,-146,0,0,100,0,0,576,48,48,0,-42,-60,0,0,100,0,80,448,80,64,0,-20,-10,0,0,65,0,320,0,40,16,0,
0,3,-13,-144,0,0,100,0,0,576,48,48,0,-42,-60,0,0,100,0,480,448,80,64,0,-20,-10,0,0,65,0,320,0,40,16,0,
0,3,-8,-147,0,0,100,0,48,576,48,48,0,-42,-60,0,0,100,0,160,448,80,64,0,-20,-10,0,0,65,0,320,0,40,16,0,
0,4,1,-81,0,0,100,0,192,576,32,16,0,-2,-150,0,0,100,0,96,576,48,48,0,-42,-60,0,0,100,0,160,448,80,64,0,-20,-10,0,0,65,0,320,0,40,16,0,
0,3,-5,-148,0,0,100,0,144,576,48,48,0,-42,-60,0,0,100,0,240,448,80,64,0,-20,-10,0,0,65,0,320,0,40,16,0,
0,3,-25,-139,0,0,100,0,96,576,48,48,0,-42,-60,0,0,100,0,240,448,80,64,0,-20,-10,0,0,65,0,320,0,40,16,0,
0,3,-69,-148,0,0,100,0,144,576,48,48,0,-42,-60,0,0,100,0,320,448,80,64,0,-20,-10,0,0,65,0,320,0,40,16,0,
0,3,-129,-190,0,0,100,0,224,576,48,48,0,-42,-60,0,0,100,0,320,448,80,64,0,-20,-10,0,0,65,0,320,0,40,16,0,
0,2,-42,-60,0,0,100,0,320,448,80,64,0,-20,-10,0,0,65,0,320,0,40,16,0,
0,3,-27,-81,0,0,100,0,192,592,32,32,0,-42,-60,0,0,100,0,400,448,80,64,0,-20,-10,0,0,65,0,320,0,40,16,0,
0,3,-27,-81,0,0,100,0,192,592,32,32,0,-42,-60,0,0,100,0,0,512,80,64,0,-20,-10,0,0,65,0,320,0,40,16,0,
0,3,-27,-81,0,0,100,0,192,592,32,32,0,-42,-60,0,0,100,0,80,512,80,64,0,-20,-10,0,0,65,0,320,0,40,16,0,
0,3,-27,-81,0,0,60,0,192,592,32,32,0,-42,-60,0,0,100,0,160,512,80,64,0,-20,-10,0,0,65,0,320,0,40,16,0,
0,3,-27,-81,0,0,30,0,192,592,32,32,0,-42,-60,0,0,100,0,240,512,80,64,0,-20,-10,0,0,65,0,320,0,40,16,0,
0,2,-42,-60,0,0,100,0,320,512,80,64,0,-20,-10,0,0,65,0,320,0,40,16,0,
0,2,-42,-60,0,0,100,0,400,512,80,64,0,-20,-10,0,0,65,0,320,0,40,16,0,
0,2,-42,-60,0,0,100,0,480,512,80,64,0,-20,-10,0,0,65,0,320,0,40,16,0,
0,2,-42,-60,0,0,100,0,480,576,80,64,0,-20,-10,0,0,65,0,320,0,40,16,0,
