0,2,-73,-80,0,0,100,0,0,0,140,100,0,-24,-9,0,0,100,0,560,0,48,16,0,
0,2,-74,-81,0,0,100,0,139,0,140,100,0,-24,-9,0,0,100,0,560,0,48,16,0,
0,2,-73,-82,0,0,100,0,280,0,140,100,0,-24,-9,0,0,100,0,560,0,48,16,0,
0,2,-73,-82,0,0,100,0,420,0,140,100,0,-24,-9,0,0,100,0,560,0,48,16,0,
0,12,44,-54,0,1,25,0,322,208,7,8,0,-10,-67,0,1,25,0,322,208,7,8,0,-52,-37,0,1,25,0,322,208,7,8,0,39,-53,0,1,25,0,315,206,7,8,0,-16,-70,0,1,25,0,315,206,7,8,0,28,-55,0,1,75,0,285,204,10,10,0,-25,-69,0,1,75,0,285,204,10,10,0,-29,-4,0,1,75,0,306,205,7,9,0,-44,-44,0,1,75,0,306,205,7,9,0,-57,-34,0,1,75,0,306,205,7,9,0,-84,-80,0,0,100,0,0,301,140,100,0,-24,-9,0,0,100,0,560,0,48,16,0,
0,4,-69,-27,0,1,100,0,282,216,35,26,0,-71,-79,0,1,50,0,0,400,140,100,0,-71,-81,0,0,100,0,0,99,140,100,0,-24,-9,0,0,100,0,560,0,48,16,0,
0,4,-104,-77,0,1,50,0,140,402,140,100,0,-104,-23,0,1,100,0,282,216,35,26,0,-109,-83,0,0,100,0,141,97,140,100,0,-46,-9,0,0,100,0,560,0,48,16,0,
0,4,-107,-38,0,1,100,0,318,216,44,32,0,-102,-77,0,1,50,0,279,402,140,100,0,-103,-82,0,0,100,0,279,98,140,100,0,-53,-9,0,0,100,0,560,0,48,16,0,
0,4,-78,-52,0,1,100,0,318,216,44,32,0,-92,-68,0,1,50,0,426,405,121,74,0,-101,-78,0,0,100,0,421,102,138,100,0,-54,-9,0,0,100,0,560,0,48,16,0,
0,5,-78,-52,0,1,100,0,318,216,44,32,0,-78,-52,0,1,100,0,318,216,44,32,0,-92,-68,0,1,100,0,426,405,121,74,0,-101,-78,0,0,100,0,421,102,138,100,0,-54,-9,0,0,100,0,560,0,48,16,0,
0,7,-92,-12,0,1,100,0,339,204,62,10,0,-131,-28,0,1,100,0,339,204,62,10,0,-117,-50,0,1,100,0,339,204,62,10,0,-154,-19,2,1,100,0,279,253,83,47,0,-154,-65,0,1,100,0,279,253,83,47,0,-155,-79,0,0,100,0,0,201,140,100,0,-90,-9,0,0,100,0,560,0,48,16,0,
0,6,-162,-22,2,1,100,0,403,208,155,92,0,-162,-113,0,1,100,0,403,208,155,92,0,-155,-19,2,1,100,0,279,253,83,47,0,-155,-65,0,1,100,0,279,253,83,47,0,-156,-82,0,0,100,0,140,198,140,100,0,-91,-9,0,0,100,0,560,0,48,16,0,
0,6,-162,-21,2,1,100,0,397,302,163,68,0,-162,-88,0,1,100,0,397,302,163,68,0,-165,-22,2,1,50,0,403,208,155,92,0,-165,-113,0,1,50,0,403,208,155,92,0,-159,-82,0,0,100,0,140,198,140,100,0,-94,-9,0,0,100,0,560,0,48,16,0,
0,6,-164,-21,2,1,100,0,141,311,247,43,0,-164,-63,0,1,100,0,141,311,247,43,0,-163,-21,2,1,50,0,397,302,163,68,0,-163,-88,0,1,50,0,397,302,163,68,0,-160,-82,0,0,100,0,140,198,140,100,0,-95,-9,0,0,100,0,560,0,48,16,0,
0,7,-184,-21,2,1,100,0,132,380,362,20,0,-184,-40,0,1,100,0,132,380,362,20,0,-167,-20,2,1,50,0,141,311,247,43,0,-167,-63,0,1,50,0,141,311,247,43,0,-164,-36,0,1,100,0,318,216,44,32,0,-163,-82,0,0,100,0,140,198,140,100,0,-98,-9,0,0,100,0,560,0,48,16,0,
0,7,-193,-20,2,1,30,0,132,380,362,20,0,-193,-39,0,1,30,0,132,380,362,20,0,-168,-20,2,1,30,0,141,311,247,43,0,-168,-63,0,1,30,0,141,311,247,43,0,-165,-36,0,1,100,0,318,216,44,32,0,-164,-82,0,0,100,0,140,198,140,100,0,-99,-9,0,0,100,0,560,0,48,16,0,
0,5,-198,-20,2,1,15,0,132,380,362,20,0,-198,-39,0,1,15,0,132,380,362,20,0,-166,-36,0,1,100,0,318,216,44,32,0,-165,-82,0,0,100,0,140,198,140,100,0,-100,-9,0,0,100,0,560,0,48,16,0,
0,2,-165,-82,0,0,100,0,140,198,140,100,0,-100,-9,0,0,100,0,560,0,48,16,0,
0,2,-109,-80,0,0,100,0,0,0,140,100,0,-62,-9,0,0,100,0,560,0,48,16,0,
0,2,-73,-80,0,0,100,0,0,0,140,100,0,-24,-9,0,0,100,0,560,0,48,16,0,
0,2,-65,-80,0,0,100,0,0,496,112,104,0,-24,-9,0,0,100,0,560,0,48,16,0,
0,2,-65,-80,0,0,100,0,112,496,112,104,0,-24,-9,0,0,100,0,560,0,48,16,0,
0,2,-65,-80,0,0,100,0,224,496,112,104,0,-24,-9,0,0,100,0,560,0,48,16,0,
0,2,-65,-80,0,0,100,0,336,496,112,104,0,-24,-9,0,0,100,0,560,0,48,16,0,
0,1,-65,-80,0,0,100,0,448,496,112,104,0,
0,3,-19,-22,0,1,100,0,712,408,40,40,0,-19,-22,0,0,100,0,752,408,40,40,0,-65,-80,0,0,100,0,560,496,112,104,0,
0,3,-33,-32,0,1,100,0,608,72,80,56,0,-33,-32,0,0,100,0,608,128,80,56,0,-65,-80,0,0,100,0,672,496,112,104,0,
0,5,-41,-40,0,1,100,0,600,224,72,64,0,-41,-40,0,0,100,0,600,328,72,64,0,-65,-80,0,0,100,0,0,600,112,104,0,-1,-64,0,1,100,0,712,448,40,40,0,-41,-56,0,0,100,0,600,416,88,80,0,
0,5,-41,-48,0,1,100,0,712,112,72,72,0,-41,-48,0,0,100,0,712,216,72,72,0,-65,-80,0,0,100,0,112,600,112,104,0,-1,-64,0,1,100,0,752,448,40,40,0,-41,-64,0,0,100,0,712,304,88,88,0,
0,5,-65,-80,0,1,100,0,448,808,112,104,0,-65,-80,0,0,100,0,112,808,112,104,0,-65,-80,0,0,100,0,224,600,112,104,0,-1,-64,0,1,100,0,696,864,40,40,0,-65,-80,0,0,100,0,0,808,112,104,0,
0,5,-65,-80,0,1,100,0,336,808,112,104,0,-65,-80,0,0,100,0,112,808,112,104,0,-65,-80,0,0,100,0,336,600,112,104,0,-1,-64,0,1,100,0,736,824,40,40,0,-65,-80,0,0,100,0,0,808,112,104,0,
0,5,-65,-80,0,1,100,0,224,808,112,104,0,-65,-80,0,0,100,0,112,808,112,104,0,-65,-80,0,0,100,0,448,600,112,104,0,-1,-64,0,1,100,0,696,824,40,40,0,-65,-80,0,0,100,0,0,808,112,104,0,
0,5,-65,-80,0,1,100,0,336,808,112,104,0,-65,-80,0,0,100,0,112,808,112,104,0,-65,-80,0,0,100,0,560,600,112,104,0,-1,-64,0,1,100,0,736,824,40,40,0,-65,-80,0,0,100,0,0,808,112,104,0,
0,5,-65,-80,0,1,100,0,448,808,112,104,0,-65,-80,0,0,100,0,112,808,112,104,0,-65,-80,0,0,100,0,672,600,112,104,0,-1,-64,0,1,100,0,696,864,40,40,0,-65,-80,0,0,100,0,0,808,112,104,0,
0,5,-65,-80,0,1,100,0,560,808,112,104,0,-65,-80,0,0,100,0,112,808,112,104,0,-65,-80,0,0,100,0,0,704,112,104,0,-1,-64,0,1,100,0,736,864,40,40,0,-65,-80,0,0,100,0,0,808,112,104,0,
0,5,-65,-80,0,1,100,0,448,808,112,104,0,-65,-80,0,0,100,0,112,808,112,104,0,-65,-80,0,0,100,0,112,704,112,104,0,-1,-64,0,1,100,0,696,864,40,40,0,-65,-80,0,0,100,0,0,808,112,104,0,
0,5,-65,-80,0,1,100,0,336,808,112,104,0,-65,-80,0,0,100,0,112,808,112,104,0,-65,-80,0,0,100,0,224,704,112,104,0,-1,-64,0,1,100,0,736,824,40,40,0,-65,-80,0,0,100,0,0,808,112,104,0,
0,5,-65,-80,0,1,100,0,224,808,112,104,0,-65,-80,0,0,100,0,112,808,112,104,0,-65,-80,0,0,100,0,336,704,112,104,0,-1,-64,0,1,100,0,696,824,40,40,0,-65,-80,0,0,100,0,0,808,112,104,0,
0,5,-65,-80,0,1,100,0,336,808,112,104,0,-65,-80,0,0,100,0,112,808,112,104,0,-65,-80,0,0,100,0,448,704,112,104,0,-1,-64,0,1,100,0,736,824,40,40,0,-65,-80,0,0,100,0,0,808,112,104,0,
0,5,-65,-80,0,1,100,0,448,808,112,104,0,-65,-80,0,0,100,0,112,808,112,104,0,-65,-80,0,0,100,0,560,704,112,104,0,-1,-64,0,1,100,0,696,864,40,40,0,-65,-80,0,0,100,0,0,808,112,104,0,
0,5,-65,-80,0,1,100,0,560,808,112,104,0,-65,-80,0,0,100,0,112,808,112,104,0,-65,-80,0,0,100,0,672,704,112,104,0,-1,-64,0,1,100,0,736,864,40,40,0,-65,-80,0,0,100,0,0,808,112,104,0,
