0,2,-51,-79,0,0,100,0,0,0,120,96,0,-27,-12,0,0,65,0,0,464,56,24,0,
0,2,-51,-79,0,0,100,0,120,0,120,96,0,-27,-12,0,0,65,0,0,464,56,24,0,
0,2,-51,-79,0,0,100,0,240,0,120,96,0,-27,-12,0,0,65,0,0,464,56,24,0,
0,2,-51,-79,0,0,100,0,360,0,120,96,0,-27,-12,0,0,65,0,0,464,56,24,0,
0,3,-15,-42,0,0,100,0,56,464,72,40,0,-70,-79,0,0,100,0,480,0,120,96,0,-27,-12,0,0,65,0,0,464,56,24,0,
0,2,-53,-96,0,0,100,0,600,0,96,112,0,-30,-12,0,0,65,0,0,464,56,24,0,
0,2,-53,-96,0,0,100,0,696,0,96,112,0,-31,-12,0,0,65,0,0,464,56,24,0,
0,4,-121,-105,0,1,100,0,608,472,160,128,0,-68,-72,0,0,100,0,0,96,120,88,0,-91,-25,0,0,100,0,720,112,80,40,0,-33,-12,0,0,65,0,0,464,56,24,0,
0,4,-68,-72,0,0,100,0,120,96,120,88,0,-120,-96,0,1,100,0,456,616,112,120,0,-91,-24,0,0,100,0,720,112,80,40,0,-34,-12,0,0,65,0,0,464,56,24,0,
0,4,-120,-73,0,1,100,0,568,616,104,96,0,-68,-72,0,0,100,0,240,96,120,88,0,-91,-25,0,0,100,0,720,112,80,40,0,-34,-12,0,0,65,0,0,464,56,24,0,
0,3,-68,-72,0,0,100,0,240,96,120,88,0,-91,-25,0,0,100,0,720,112,80,40,0,-34,-12,0,0,65,0,0,464,56,24,0,
0,3,-68,-71,0,0,100,0,360,96,120,88,0,-47,-65,0,0,100,0,720,152,80,32,0,-31,-12,0,0,65,0,0,464,56,24,0,
0,3,-68,-71,0,0,100,0,480,96,120,88,0,-49,-64,0,0,100,0,720,152,80,32,0,-32,-12,0,0,65,0,0,464,56,24,0,
0,4,-118,-110,0,1,100,0,192,376,168,136,0,-29,-38,0,0,100,0,720,240,80,56,0,-70,-71,0,0,100,0,0,184,120,88,0,-35,-12,0,0,65,0,0,464,56,24,0,
0,4,-119,-108,0,1,100,0,360,376,168,136,0,-30,-36,0,0,100,0,720,240,80,56,0,-70,-71,0,0,100,0,120,184,120,88,0,-36,-12,0,0,65,0,0,464,56,24,0,
0,4,-103,-68,0,1,100,0,528,376,144,96,0,-30,-36,0,0,100,0,720,240,80,56,0,-70,-71,0,0,100,0,240,184,120,88,0,-36,-12,0,0,65,0,0,464,56,24,0,
0,3,-30,-36,0,0,100,0,720,240,80,56,0,-70,-71,0,0,100,0,240,184,120,88,0,-36,-12,0,0,65,0,0,464,56,24,0,
0,2,-52,-80,0,0,100,0,0,272,120,96,0,-27,-12,0,0,65,0,0,464,56,24,0,
0,4,-1,-55,0,0,100,270,600,304,72,72,0,7,-85,0,1,100,270,672,304,104,80,0,-58,-80,0,0,100,0,480,184,120,96,0,-27,-12,0,0,65,0,0,464,56,24,0,
0,4,-28,-57,0,0,100,180,600,304,72,72,0,-29,-49,0,1,100,180,672,304,104,80,0,-58,-80,0,0,100,0,600,112,120,96,0,-27,-12,0,0,65,0,0,464,56,24,0,
0,4,-26,-85,0,0,100,90,600,304,72,72,0,-42,-87,0,1,100,90,672,304,104,80,0,-58,-80,0,0,100,0,600,208,120,96,0,-27,-12,0,0,65,0,0,464,56,24,0,
0,4,2,-82,0,0,100,0,600,304,72,72,0,-28,-98,0,1,100,0,672,304,104,80,0,-58,-80,0,0,100,0,360,184,120,96,0,-27,-12,0,0,65,0,0,464,56,24,0,
0,3,-47,-80,0,0,100,0,120,272,96,96,0,-32,-81,0,0,100,0,720,184,80,56,0,-27,-12,0,0,65,0,0,464,56,24,0,
0,3,-47,-80,0,0,100,0,216,272,96,96,0,-31,-82,0,0,100,0,720,184,80,56,0,-28,-12,0,0,65,0,0,464,56,24,0,
0,5,-64,-95,0,0,100,0,0,512,152,104,0,-64,-95,0,1,100,0,0,616,152,104,0,7,-43,0,0,100,0,56,464,72,40,0,-48,-80,0,0,100,0,312,280,96,96,0,-26,-12,0,0,65,0,0,464,56,24,0,
0,5,-64,-95,0,0,100,0,152,512,152,104,0,-64,-95,0,1,100,0,152,616,152,104,0,6,-43,0,0,100,0,56,464,72,40,0,-48,-80,0,0,100,0,408,280,96,96,0,-26,-12,0,0,65,0,0,464,56,24,0,
0,5,-64,-95,0,0,100,0,304,512,152,104,0,-64,-95,0,1,100,0,304,616,152,104,0,6,-43,0,0,100,0,56,464,72,40,0,-48,-80,0,0,100,0,504,280,96,96,0,-26,-12,0,0,65,0,0,464,56,24,0,
0,4,-64,-95,0,0,100,0,456,512,152,104,0,6,-43,0,0,100,0,56,464,72,40,0,-48,-80,0,0,100,0,0,368,96,96,0,-26,-12,0,0,65,0,0,464,56,24,0,
0,3,6,-43,0,0,100,0,56,464,72,40,0,-48,-80,0,0,100,0,96,368,96,96,0,-26,-12,0,0,65,0,0,464,56,24,0,
0,3,6,-43,0,0,100,0,56,464,72,40,0,-48,-80,0,0,100,0,408,280,96,96,0,-26,-12,0,0,65,0,0,464,56,24,0,
0,3,6,-43,0,0,100,0,56,464,72,40,0,-48,-80,0,0,100,0,504,280,96,96,0,-26,-12,0,0,65,0,0,464,56,24,0,
0,3,6,-43,0,0,100,0,56,464,72,40,0,-48,-80,0,0,100,0,0,368,96,96,0,-26,-12,0,0,65,0,0,464,56,24,0,
0,3,6,-43,0,0,100,0,56,464,72,40,0,-48,-80,0,0,100,0,96,368,96,96,0,-26,-12,0,0,65,0,0,464,56,24,0,
