0,2,-63,-64,0,0,100,0,0,0,120,104,0,-63,-59,0,0,65,0,0,104,120,104,0,
0,2,-63,-64,0,0,100,0,120,0,120,104,0,-63,-59,0,0,65,0,0,104,120,104,0,
0,2,-63,-64,0,0,100,0,240,0,120,104,0,-63,-59,0,0,65,0,0,104,120,104,0,
0,2,-63,-64,0,0,100,0,360,0,120,104,0,-63,-59,0,0,65,0,0,104,120,104,0,
0,2,-64,-66,0,0,100,0,480,0,120,104,0,-63,-59,0,0,65,0,0,104,120,104,0,
0,2,-63,-64,0,0,100,0,120,104,120,104,0,-63,-59,0,0,65,0,0,104,120,104,0,
0,2,-63,-64,0,0,100,0,240,104,120,104,0,-63,-59,0,0,65,0,0,104,120,104,0,
0,2,-63,-64,0,0,100,0,360,104,120,104,0,-63,-59,0,0,65,0,0,104,120,104,0,
0,2,-63,-64,0,0,100,0,480,104,120,104,0,-63,-59,0,0,65,0,0,104,120,104,0,
0,3,-63,-64,0,0,100,0,600,0,120,104,0,-63,-64,0,0,100,0,600,104,120,104,0,-63,-59,0,0,65,0,0,104,120,104,0,
0,4,-55,-64,0,0,100,0,784,0,56,104,0,-47,-64,0,0,100,0,736,0,48,104,0,-63,-64,0,0,100,0,720,104,120,104,0,-63,-59,0,0,65,0,0,104,120,104,0,
0,4,-55,-8,0,0,100,0,888,56,40,48,0,-63,-64,0,0,100,0,840,0,48,104,0,-63,-64,0,0,100,0,840,104,120,104,0,-63,-59,0,0,65,0,0,104,120,104,0,
0,4,-55,-8,0,0,100,0,992,56,40,48,0,-63,-24,0,0,100,0,960,40,32,56,0,-63,-64,0,0,100,0,840,104,120,104,0,-63,-59,0,0,65,0,0,104,120,104,0,
0,4,-55,-8,0,0,100,0,1112,56,40,48,0,-63,-24,0,0,100,0,1080,40,32,56,0,-63,-64,0,0,100,0,960,104,120,104,0,-63,-59,0,0,65,0,0,104,120,104,0,
0,3,-63,-24,0,0,100,0,1152,40,32,56,0,-63,-64,0,0,100,0,960,104,120,104,0,-63,-59,0,0,65,0,0,104,120,104,0,
0,2,-63,-64,0,0,100,0,960,104,120,104,0,-63,-59,0,0,65,0,0,104,120,104,0,
0,2,-63,-64,0,0,100,0,0,208,120,104,0,-63,-59,0,0,65,0,0,104,120,104,0,
0,2,-63,-67,0,0,100,0,120,208,120,104,0,-63,-59,0,0,65,0,0,104,120,104,0,
0,2,-63,-67,0,0,100,0,240,208,120,104,0,-63,-59,0,0,65,0,0,104,120,104,0,
0,3,-63,-64,0,0,75,0,0,312,120,104,0,-63,-64,0,0,100,0,360,208,120,104,0,-63,-59,0,0,65,0,0,104,120,104,0,
0,3,-63,-64,0,0,80,0,120,312,120,104,0,-63,-64,0,0,100,0,360,208,120,104,0,-63,-59,0,0,65,0,0,104,120,104,0,
0,3,-63,-64,0,0,80,0,240,312,120,104,0,-63,-64,0,0,100,0,360,208,120,104,0,-63,-59,0,0,65,0,0,104,120,104,0,
0,4,-63,-64,0,0,80,0,360,312,120,104,0,-63,-56,0,0,50,0,480,312,120,104,0,-63,-64,0,0,100,0,360,208,120,104,0,-63,-59,0,0,65,0,0,104,120,104,0,
0,5,-63,-64,0,0,20,0,360,312,120,104,0,-63,-64,0,0,100,0,600,312,120,104,0,-63,-64,0,0,100,0,840,208,120,104,0,-63,-63,0,0,50,0,0,416,120,104,0,-63,-59,0,0,65,0,0,104,120,104,0,
0,4,-63,-64,0,0,95,0,600,312,120,104,0,-63,-64,0,0,100,0,840,208,120,104,0,-63,-63,0,0,20,0,120,416,120,104,0,-63,-59,0,0,65,0,0,104,120,104,0,
0,4,-63,-64,0,0,90,0,600,312,120,104,0,-63,-64,0,0,100,0,840,208,120,104,0,-63,-64,0,0,5,0,120,416,120,104,0,-63,-59,0,0,65,0,0,104,120,104,0,
0,3,-63,-64,0,0,90,0,600,312,120,104,0,-63,-64,0,0,100,0,840,208,120,104,0,-63,-59,0,0,65,0,0,104,120,104,0,
0,3,-63,-64,0,0,90,0,960,312,120,104,0,-63,-64,0,0,100,0,960,208,120,104,0,-63,-59,0,0,65,0,0,104,120,104,0,
0,3,-63,-64,0,0,90,0,1080,312,120,104,0,-63,-64,0,0,100,0,1080,208,120,104,0,-63,-59,0,0,65,0,0,104,120,104,0,
