0,2,-40,-64,0,0,100,0,0,0,72,72,0,-24,-8,0,0,65,0,504,144,48,16,0,
0,2,-40,-64,0,0,100,0,72,0,72,72,0,-24,-8,0,0,65,0,504,144,48,16,0,
0,2,-40,-64,0,0,100,0,144,0,72,72,0,-24,-8,0,0,65,0,504,144,48,16,0,
0,2,-40,-64,0,0,100,0,216,0,72,72,0,-24,-8,0,0,65,0,504,144,48,16,0,
0,2,-40,-64,0,0,100,0,0,72,72,72,0,-22,-8,0,0,65,0,504,144,48,16,0,
0,2,-40,-64,0,0,100,0,72,72,72,72,0,-26,-8,0,0,65,0,504,144,48,16,0,
0,2,-40,-64,0,0,100,0,144,72,72,72,0,-25,-8,0,0,65,0,504,144,48,16,0,
0,3,0,-80,0,0,100,0,288,0,32,64,0,-40,-64,0,0,100,0,216,72,72,72,0,-26,-8,0,0,65,0,504,144,48,16,0,
0,3,-12,-42,0,0,100,0,320,0,64,32,0,-40,-64,0,0,100,0,288,72,72,72,0,-31,-8,0,0,65,0,504,144,48,16,0,
0,4,-101,-70,0,1,100,0,0,432,128,80,0,-52,-64,0,0,100,0,360,72,72,72,0,-72,-64,0,0,100,0,408,288,64,40,0,-33,-8,0,0,65,0,504,144,48,16,0,
0,4,-101,-70,0,1,100,0,128,432,80,80,0,-52,-64,0,0,100,0,432,72,72,72,0,-71,-65,0,0,100,0,408,288,64,40,0,-34,-8,0,0,65,0,504,144,48,16,0,
0,4,-101,-70,0,1,100,0,208,432,80,40,0,-52,-64,0,0,100,0,0,144,72,72,0,-71,-65,0,0,100,0,408,288,64,40,0,-34,-8,0,0,65,0,504,144,48,16,0,
0,3,-46,-64,0,0,100,0,72,144,72,72,0,-39,-76,0,0,100,0,416,0,64,56,0,-35,-8,0,0,65,0,504,144,48,16,0,
0,4,-144,-64,0,1,100,0,0,512,176,80,0,-16,-44,0,0,100,0,408,336,48,24,0,-56,-64,0,0,100,0,144,144,72,72,0,-38,-8,0,0,65,0,504,144,48,16,0,
0,4,-144,-64,0,1,100,0,176,512,184,72,0,-15,-45,0,0,100,0,408,336,48,24,0,-56,-64,0,0,100,0,216,144,72,72,0,-39,-8,0,0,65,0,504,144,48,16,0,
0,4,-40,-48,0,1,100,0,360,512,80,48,0,-15,-45,0,0,100,0,408,336,48,24,0,-56,-64,0,0,100,0,288,144,72,72,0,-39,-8,0,0,65,0,504,144,48,16,0,
0,3,-20,-42,0,0,100,0,320,0,64,32,0,-48,-64,0,0,100,0,288,72,72,72,0,-38,-8,0,0,65,0,504,144,48,16,0,
0,5,-120,-132,0,1,100,0,504,0,136,144,0,-120,-40,0,0,100,0,896,0,96,64,0,-48,-88,0,0,100,0,360,144,72,72,0,-16,-136,0,0,100,0,288,0,32,64,0,-30,-8,0,0,46,0,504,160,32,16,0,
0,5,-192,-128,0,0,100,0,568,152,168,160,0,-117,-133,0,1,100,0,640,0,136,144,0,-47,-90,0,0,100,0,432,144,72,72,0,-13,-137,0,0,100,0,288,0,32,64,0,-29,-8,0,0,46,0,504,160,32,16,0,
0,5,-192,-128,0,0,100,0,736,152,168,160,0,-100,-134,0,1,100,0,776,0,120,104,0,-46,-91,0,0,100,0,0,216,72,72,0,-12,-138,0,0,100,0,288,0,32,64,0,-28,-8,0,0,46,0,504,160,32,16,0,
0,4,-192,-128,0,0,100,0,568,312,168,160,0,-44,-92,0,0,100,0,72,216,72,72,0,-14,-135,0,0,100,0,384,0,32,64,0,-26,-8,0,0,46,0,504,160,32,16,0,
0,4,-192,-128,0,0,100,0,736,312,168,160,0,-40,-96,0,0,100,0,144,216,72,72,0,-26,-125,0,0,100,0,416,0,64,56,0,-27,-8,0,0,46,0,504,160,32,16,0,
0,4,-192,-128,0,0,100,0,568,152,168,160,0,-48,-104,0,0,100,0,216,216,72,72,0,-24,-92,2,0,100,0,320,0,64,32,0,-27,-8,0,0,46,0,504,160,32,16,0,
0,12,-144,-56,0,1,100,0,904,64,120,72,0,-104,-40,0,1,100,0,920,368,16,16,0,-136,-48,0,1,100,0,904,368,16,16,0,-96,-24,0,1,100,0,952,352,16,16,0,-120,-56,0,1,100,0,920,352,16,16,0,-136,-32,0,1,100,0,936,352,16,16,0,-144,-72,0,1,100,0,904,352,16,16,0,-140,-124,0,1,100,0,0,592,136,136,0,-75,-20,0,0,100,0,320,32,56,32,0,-72,-64,0,0,100,0,288,216,72,72,0,-184,-128,0,0,100,0,472,504,152,152,0,-54,-8,0,0,65,0,504,144,48,16,0,
0,17,-168,-64,0,1,80,0,904,136,120,72,0,-88,-48,0,1,100,0,936,368,16,16,0,-144,-52,0,1,100,0,920,368,16,16,0,-112,-32,0,1,100,0,904,352,16,16,0,-104,-72,0,1,100,0,936,352,16,16,0,-144,-40,0,1,100,0,952,352,16,16,0,-152,-80,0,1,100,0,920,352,16,16,0,-96,-24,0,1,40,0,952,352,16,16,0,-120,-56,0,1,40,0,920,352,16,16,0,-136,-32,0,1,40,0,936,352,16,16,0,-144,-72,0,1,40,0,904,352,16,16,0,-147,-123,0,1,100,0,136,592,136,136,0,-74,-19,0,0,100,0,320,32,56,32,0,-72,-64,0,0,100,0,360,216,72,72,0,-188,-136,0,1,80,0,624,496,152,160,0,-184,-128,0,1,50,0,472,504,152,152,0,-54,-8,0,0,65,0,504,144,48,16,0,
0,22,-192,-88,0,1,70,0,904,208,120,72,0,-72,-56,0,1,60,0,952,368,16,16,0,-160,-60,0,1,60,0,936,368,16,16,0,-120,-24,0,1,60,0,920,352,16,16,0,-88,-88,0,1,60,0,952,352,16,16,0,-168,-48,0,1,60,0,904,352,16,16,0,-160,-96,0,1,60,0,936,352,16,16,0,-112,-32,0,1,40,0,904,352,16,16,0,-104,-72,0,1,40,0,936,352,16,16,0,-144,-40,0,1,40,0,952,352,16,16,0,-152,-80,0,1,40,0,920,352,16,16,0,-96,-24,0,1,10,0,952,352,16,16,0,-120,-56,0,1,10,0,920,352,16,16,0,-136,-32,0,1,10,0,936,352,16,16,0,-144,-72,0,1,10,0,904,352,16,16,0,-131,-35,0,1,100,0,272,592,112,56,0,-75,-20,0,0,100,0,320,32,56,32,0,-72,-64,0,0,100,0,432,216,72,72,0,-196,-128,0,1,80,0,776,504,152,152,0,-188,-136,0,1,50,0,624,496,152,160,0,-184,-128,0,1,20,0,472,504,152,152,0,-54,-8,0,0,65,0,504,144,48,16,0,
0,20,-208,-104,0,1,50,0,904,280,120,72,0,-56,-56,0,1,40,0,904,368,16,16,0,-184,-80,0,1,40,0,952,368,16,16,0,-128,-8,0,1,40,0,936,352,16,16,0,-72,-96,0,1,40,0,904,352,16,16,0,-192,-40,0,1,40,0,920,352,16,16,0,-160,-112,0,1,40,0,952,352,16,16,0,-120,-24,0,1,20,0,920,352,16,16,0,-88,-88,0,1,20,0,952,352,16,16,0,-168,-48,0,1,20,0,904,352,16,16,0,-160,-96,0,1,20,0,936,352,16,16,0,-112,-32,0,1,10,0,904,352,16,16,0,-104,-72,0,1,10,0,936,352,16,16,0,-144,-40,0,1,10,0,952,352,16,16,0,-152,-80,0,1,10,0,920,352,16,16,0,-75,-20,0,0,100,0,320,32,56,32,0,-72,-64,0,0,100,0,0,288,72,72,0,-196,-128,0,1,50,0,776,504,152,152,0,-188,-128,0,1,20,0,624,504,152,152,0,-54,-8,0,0,65,0,504,144,48,16,0,
0,18,-40,-48,0,1,20,0,920,368,16,16,0,-192,-88,0,1,20,0,904,368,16,16,0,-144,8,0,1,20,0,952,352,16,16,0,-56,-104,0,1,20,0,920,352,16,16,0,-200,-24,0,1,20,0,936,352,16,16,0,-160,-128,0,1,20,0,920,352,16,16,0,-128,-8,0,1,10,0,936,352,16,16,0,-72,-96,0,1,10,0,904,352,16,16,0,-192,-40,0,1,10,0,920,352,16,16,0,-160,-112,0,1,10,0,952,352,16,16,0,-120,-24,0,1,5,0,920,352,16,16,0,-88,-88,0,1,5,0,952,352,16,16,0,-168,-48,0,1,5,0,904,352,16,16,0,-160,-96,0,1,5,0,936,352,16,16,0,-75,-20,0,0,100,0,320,32,56,32,0,-72,-64,0,0,100,0,0,288,72,72,0,-196,-128,0,1,20,0,776,504,152,152,0,-54,-8,0,0,65,0,504,144,48,16,0,
0,9,-40,-48,0,1,10,0,920,368,16,16,0,-192,-88,0,1,10,0,904,368,16,16,0,-144,8,0,1,10,0,952,352,16,16,0,-56,-104,0,1,10,0,920,352,16,16,0,-200,-24,0,1,10,0,936,352,16,16,0,-160,-128,0,1,10,0,920,352,16,16,0,-75,-20,0,0,100,0,320,32,56,32,0,-72,-64,0,0,100,0,0,288,72,72,0,-54,-8,0,0,65,0,504,144,48,16,0,
0,3,-50,-49,0,0,100,0,344,320,64,40,0,-56,-64,0,0,100,0,72,288,72,72,0,-43,-8,0,0,46,0,504,144,48,16,0,
0,3,-32,-56,0,0,100,0,408,288,64,40,0,-40,-64,0,0,100,0,144,288,72,72,0,-26,-8,0,0,46,0,504,144,48,16,0,
0,4,-40,-64,0,0,100,0,0,360,72,72,0,-37,-69,0,0,100,0,408,288,64,40,0,-51,-89,0,1,50,0,288,432,72,48,0,-23,-8,0,0,65,0,504,144,48,16,0,
0,4,-40,-64,0,0,100,0,72,360,72,72,0,-19,-100,1,0,100,0,384,0,32,64,0,-40,-112,0,1,100,0,360,432,56,64,0,-23,-8,0,0,65,0,504,144,48,16,0,
0,4,-40,-64,0,0,100,0,144,360,72,72,0,-22,-102,1,0,100,0,384,0,32,64,0,-40,-119,0,1,100,0,416,432,64,72,0,-23,-8,0,0,65,0,504,144,48,16,0,
0,7,-40,-128,0,1,50,0,904,64,120,72,0,-23,-31,0,0,100,0,472,312,16,16,0,-40,-64,0,0,100,0,216,360,72,72,0,-16,-64,0,0,100,0,216,320,32,32,0,-21,-32,0,0,100,0,456,328,48,32,0,-24,-80,0,1,100,0,928,424,96,96,0,-25,-8,0,0,65,0,504,144,48,16,0,
0,7,-56,-120,0,1,100,0,904,136,120,72,0,-23,-31,0,0,100,0,472,312,16,16,0,-40,-64,0,0,100,0,288,360,72,72,0,-16,-64,0,0,100,0,248,320,32,32,0,-21,-32,0,0,100,0,456,328,48,32,0,-24,-80,0,1,100,0,928,520,96,96,0,-25,-8,0,0,65,0,504,144,48,16,0,
0,8,-32,-104,0,1,50,0,904,64,120,72,0,-72,-112,0,1,100,0,904,208,120,72,0,-23,-31,0,0,100,0,472,312,16,16,0,-40,-64,0,0,100,0,360,360,72,72,0,-16,-64,0,0,100,0,280,320,32,32,0,-21,-32,0,0,100,0,456,328,48,32,0,-24,-80,0,1,100,0,928,616,96,96,0,-25,-8,0,0,65,0,504,144,48,16,0,
0,8,-40,-96,0,1,100,0,904,136,120,72,0,-88,-104,0,1,60,0,904,280,120,72,0,-23,-31,0,0,100,0,472,312,16,16,0,-40,-64,0,0,100,0,432,360,72,72,0,-16,-64,0,0,100,0,312,320,32,32,0,-21,-32,0,0,100,0,456,328,48,32,0,-24,-80,0,1,100,0,928,712,96,96,0,-25,-8,0,0,65,0,504,144,48,16,0,
0,7,-56,-88,0,1,100,0,904,208,120,72,0,-96,-96,0,1,20,0,904,280,120,72,0,-23,-31,0,0,100,0,472,312,16,16,0,-40,-64,0,0,100,0,216,360,72,72,0,-16,-64,0,0,100,0,216,320,32,32,0,-21,-32,0,0,100,0,456,328,48,32,0,-25,-8,0,0,65,0,504,144,48,16,0,
0,7,-72,-80,0,1,60,0,904,280,120,72,0,-64,-80,0,1,50,0,904,64,120,72,0,-23,-31,0,0,100,0,472,312,16,16,0,-40,-64,0,0,100,0,288,360,72,72,0,-16,-64,0,0,100,0,248,320,32,32,0,-21,-32,0,0,100,0,456,328,48,32,0,-25,-8,0,0,65,0,504,144,48,16,0,
0,7,-80,-72,0,1,20,0,904,280,120,72,0,-64,-72,0,1,100,0,904,136,120,72,0,-23,-31,0,0,100,0,472,312,16,16,0,-40,-64,0,0,100,0,360,360,72,72,0,-16,-64,0,0,100,0,280,320,32,32,0,-21,-32,0,0,100,0,456,328,48,32,0,-25,-8,0,0,65,0,504,144,48,16,0,
0,6,-64,-64,0,1,100,0,904,208,120,72,0,-23,-31,0,0,100,0,472,312,16,16,0,-40,-64,0,0,100,0,432,360,72,72,0,-16,-64,0,0,100,0,312,320,32,32,0,-21,-32,0,0,100,0,456,328,48,32,0,-25,-8,0,0,65,0,504,144,48,16,0,
0,6,-64,-56,0,1,60,0,904,280,120,72,0,-23,-31,0,0,100,0,472,312,16,16,0,-40,-64,0,0,100,0,216,360,72,72,0,-16,-64,0,0,100,0,216,320,32,32,0,-21,-32,0,0,100,0,456,328,48,32,0,-25,-8,0,0,65,0,504,144,48,16,0,
0,6,-64,-48,0,1,20,0,904,280,120,72,0,-23,-31,0,0,100,0,472,312,16,16,0,-40,-64,0,0,100,0,288,360,72,72,0,-16,-64,0,0,100,0,248,320,32,32,0,-21,-32,0,0,100,0,456,328,48,32,0,-25,-8,0,0,65,0,504,144,48,16,0,
0,5,-23,-31,0,0,100,0,472,312,16,16,0,-40,-64,0,0,100,0,360,360,72,72,0,-16,-64,0,0,100,0,344,288,32,32,0,-21,-32,0,0,100,0,456,328,48,32,0,-25,-8,0,0,65,0,504,144,48,16,0,
0,5,-23,-31,0,0,100,0,472,312,16,16,0,-40,-64,0,0,100,0,432,360,72,72,0,-16,-64,0,0,100,0,376,288,32,32,0,-21,-32,0,0,100,0,456,328,48,32,0,-25,-8,0,0,65,0,504,144,48,16,0,
0,5,-23,-31,0,0,100,0,472,312,16,16,0,-40,-64,0,0,100,0,216,360,72,72,0,-16,-64,0,0,100,0,216,288,32,32,0,-21,-32,0,0,100,0,456,328,48,32,0,-25,-8,0,0,65,0,504,144,48,16,0,
0,5,-23,-31,0,0,100,0,472,312,16,16,0,-40,-64,0,0,100,0,288,360,72,72,0,-16,-64,0,0,100,0,248,288,32,32,0,-21,-32,0,0,100,0,456,328,48,32,0,-25,-8,0,0,65,0,504,144,48,16,0,
0,5,-23,-31,0,0,100,0,472,312,16,16,0,-40,-64,0,0,100,0,360,360,72,72,0,-16,-64,0,0,100,0,280,288,32,32,0,-21,-32,0,0,100,0,456,328,48,32,0,-25,-8,0,0,65,0,504,144,48,16,0,
0,5,-23,-31,0,0,100,0,472,312,16,16,0,-40,-64,0,0,100,0,432,360,72,72,0,-16,-64,0,0,100,0,312,288,32,32,0,-21,-32,0,0,100,0,456,328,48,32,0,-25,-8,0,0,65,0,504,144,48,16,0,
0,4,-40,-64,0,0,100,0,144,360,72,72,0,-22,-102,1,0,100,0,384,0,32,64,0,-40,-119,0,1,100,0,480,432,64,72,0,-25,-8,0,0,65,0,504,144,48,16,0,
