0,2,-63,-78,0,0,100,0,0,0,128,96,0,-48,-28,0,0,65,0,576,880,96,48,0,
0,2,-63,-78,0,0,100,0,128,0,128,96,0,-48,-28,0,0,65,0,576,880,96,48,0,
0,2,-63,-78,0,0,100,0,256,0,128,96,0,-48,-28,0,0,65,0,576,880,96,48,0,
0,2,-63,-78,0,0,100,0,384,0,128,96,0,-48,-28,0,0,65,0,576,880,96,48,0,
0,2,-63,-78,0,0,100,0,512,0,128,96,0,-48,-28,0,0,65,0,576,880,96,48,0,
0,3,-33,-37,0,1,100,0,256,96,96,48,0,-63,-78,0,0,100,0,0,96,128,96,0,-40,-28,0,0,65,0,576,880,96,48,0,
0,3,11,-36,0,1,100,0,352,96,48,48,0,-47,-78,0,0,100,0,128,96,128,96,0,-36,-28,0,0,65,0,576,880,96,48,0,
0,3,14,-51,0,1,100,0,400,96,64,64,0,-47,-78,0,0,100,0,0,192,128,96,0,-36,-28,0,0,65,0,576,880,96,48,0,
0,3,16,-50,0,1,100,0,464,96,64,64,0,-47,-78,0,0,100,0,128,192,128,96,0,-36,-28,0,0,65,0,576,880,96,48,0,
0,3,19,-50,0,1,100,0,528,96,64,64,0,-47,-78,0,0,100,0,256,192,128,96,0,-36,-28,0,0,65,0,576,880,96,48,0,
0,3,16,-50,0,1,100,0,592,96,64,64,0,-47,-78,0,0,100,0,384,192,128,96,0,-36,-28,0,0,65,0,576,880,96,48,0,
0,3,16,-45,0,1,100,0,656,96,48,48,0,-47,-78,0,0,100,0,512,192,128,96,0,-36,-28,0,0,65,0,576,880,96,48,0,
0,4,-57,-84,0,1,100,0,640,160,112,96,0,-90,-105,0,0,100,0,576,288,144,128,0,-63,-110,0,0,100,0,0,288,144,128,0,-38,-28,0,0,65,0,576,880,96,48,0,
0,4,-68,-90,0,1,100,0,752,160,96,96,0,-96,-108,0,0,100,0,720,288,144,128,0,-63,-110,0,0,100,0,144,288,144,128,0,-39,-28,0,0,65,0,576,880,96,48,0,
0,4,-35,-82,0,1,80,0,848,160,32,32,0,-104,-112,0,0,100,0,576,416,144,144,0,-63,-110,0,0,100,0,288,288,144,128,0,-39,-28,0,0,65,0,576,880,96,48,0,
0,4,-34,-81,0,1,65,0,848,192,32,32,0,-107,-113,0,0,100,0,720,416,144,144,0,-63,-110,0,0,100,0,432,288,144,128,0,-39,-28,0,0,65,0,576,880,96,48,0,
0,3,-115,-112,0,0,100,0,720,560,144,144,0,-63,-110,0,0,100,0,0,416,144,128,0,-39,-28,0,0,65,0,576,880,96,48,0,
0,2,-63,-110,0,0,100,0,144,416,144,128,0,-39,-28,0,0,65,0,576,880,96,48,0,
0,2,-63,-94,0,0,100,0,288,416,144,112,0,-41,-28,0,0,65,0,576,880,96,48,0,
0,2,-63,-94,0,0,100,0,432,416,144,112,0,-45,-28,0,0,65,0,576,880,96,48,0,
0,2,-63,-94,0,0,100,0,0,544,128,112,0,-48,-28,0,0,65,0,576,880,96,48,0,
0,3,-65,-86,0,1,100,0,688,864,64,64,0,-63,-94,0,0,100,0,128,544,128,112,0,-48,-28,0,0,65,0,576,880,96,48,0,
0,3,-78,-95,0,1,100,0,384,752,128,112,0,-47,-78,0,0,100,0,256,560,96,96,0,-48,-28,0,0,65,0,576,880,96,48,0,
0,3,-68,-95,0,1,100,0,512,752,128,112,0,-47,-78,0,0,100,0,352,560,96,96,0,-51,-28,0,0,65,0,576,880,96,48,0,
0,3,-53,-93,0,1,100,0,640,752,112,112,0,-47,-78,0,0,100,0,448,560,96,96,0,-54,-28,0,0,65,0,576,880,96,48,0,
0,3,-43,-93,0,1,100,0,752,752,112,112,0,-47,-78,0,0,100,0,0,656,96,96,0,-54,-28,0,0,65,0,576,880,96,48,0,
0,3,-34,-77,0,1,100,0,384,864,96,96,0,-47,-78,0,0,100,0,96,656,96,96,0,-54,-28,0,0,65,0,576,880,96,48,0,
0,3,-12,-64,0,1,80,0,480,864,80,80,0,-47,-78,0,0,100,0,192,656,96,96,0,-54,-28,0,0,65,0,576,880,96,48,0,
0,3,-11,-41,0,1,50,0,752,864,80,80,0,-47,-78,0,0,100,0,288,656,96,96,0,-54,-28,0,0,65,0,576,880,96,48,0,
0,2,-47,-78,0,0,100,0,384,656,96,96,0,-54,-28,0,0,65,0,576,880,96,48,0,
0,3,-12,-55,0,1,100,0,0,944,80,80,0,-47,-78,0,0,100,0,480,656,96,96,0,-54,-28,0,0,65,0,576,880,96,48,0,
0,3,-39,-65,0,1,100,0,80,944,80,80,0,-47,-78,0,0,100,0,576,656,96,96,0,-54,-28,0,0,65,0,576,880,96,48,0,
0,3,-49,-76,0,1,100,0,0,848,96,96,0,-47,-78,0,0,100,0,0,752,96,96,0,-54,-28,0,0,65,0,576,880,96,48,0,
0,3,-50,-80,0,1,100,0,96,848,96,96,0,-47,-78,0,0,100,0,96,752,96,96,0,-54,-28,0,0,65,0,576,880,96,48,0,
0,3,-47,-81,0,1,100,0,192,848,96,96,0,-47,-78,0,0,100,0,192,752,96,96,0,-54,-28,0,0,65,0,576,880,96,48,0,
0,3,-47,-78,0,1,100,0,288,848,96,96,0,-47,-78,0,0,100,0,288,752,96,96,0,-54,-28,0,0,65,0,576,880,96,48,0,
