5,0,0,6,
6,0,0,3,
7,0,0,3,
8,0,0,3,
9,0,0,3,
10,0,0,3,
11,0,0,3,
12,0,0,3,
13,0,0,3,
14,0,0,3,
15,0,0,6,
16,0,0,6,
17,0,0,3,
18,0,0,5,
19,0,0,4,
20,0,0,3,
21,0,0,7,
22,0,0,4,
23,0,0,3,
24,0,0,2,
25,0,0,2,
26,0,0,5,
27,0,0,4,
28,0,0,3,
29,0,0,3,
30,0,0,6,
31,0,0,4,
32,0,0,3,
33,0,0,6,
34,0,0,6,
35,0,0,6,
36,0,0,6,
37,0,0,8,
