0,2,-45,-79,0,0,100,0,0,0,80,80,0,-36,-18,0,0,65,0,430,481,79,29,0,
0,2,-45,-79,0,0,100,0,80,0,80,80,0,-36,-18,0,0,65,0,430,481,79,29,0,
0,2,-45,-79,0,0,100,0,160,0,80,80,0,-36,-18,0,0,65,0,430,481,79,29,0,
0,2,-45,-79,0,0,100,0,240,0,80,80,0,-36,-18,0,0,65,0,430,481,79,29,0,
0,2,-45,-79,0,0,100,0,0,80,80,80,0,-37,-18,0,0,65,0,430,481,79,29,0,
0,2,-45,-79,0,0,100,0,80,80,80,80,0,-37,-18,0,0,65,0,430,481,79,29,0,
0,2,-45,-79,0,0,100,0,160,80,80,80,0,-37,-18,0,0,65,0,430,481,79,29,0,
0,2,-45,-79,0,0,100,0,240,80,80,80,0,-37,-18,0,0,65,0,430,481,79,29,0,
0,2,-45,-79,0,0,100,0,0,160,80,80,0,-36,-18,0,0,65,0,430,481,79,29,0,
0,2,-45,-78,0,0,100,0,80,161,80,80,0,-36,-18,0,0,65,0,430,481,79,29,0,
0,2,-43,-79,0,0,100,0,162,160,80,80,0,-35,-18,0,0,65,0,430,481,79,29,0,
0,4,-18,-39,0,0,100,0,176,240,43,17,0,-45,-79,0,0,100,0,240,160,80,80,0,-40,-41,0,0,100,0,176,280,38,16,0,-34,-18,0,0,65,0,430,481,79,29,0,
0,5,-49,-63,0,1,100,0,320,0,48,56,0,-13,-42,0,0,100,0,176,259,43,20,0,-45,-79,0,0,100,0,0,240,80,80,0,-39,-41,0,0,100,0,176,280,38,16,0,-34,-18,0,0,65,0,430,481,79,29,0,
0,5,-64,-44,0,1,100,0,375,6,52,19,0,-19,-41,0,0,100,0,176,259,43,20,0,-45,-79,0,0,100,0,80,240,80,80,0,-39,-41,0,0,100,0,176,280,40,16,0,-34,-18,0,0,65,0,430,481,79,29,0,
0,5,-49,-41,0,1,100,0,384,27,44,21,0,-19,-39,0,0,100,0,176,240,43,17,0,-45,-79,0,0,100,0,240,160,80,80,0,-40,-41,0,0,100,0,176,280,38,16,0,-34,-18,0,0,65,0,430,481,79,29,0,
0,5,-67,-59,0,1,100,0,433,3,47,42,0,-15,-39,0,0,100,0,176,240,43,17,0,-45,-79,0,0,100,0,0,240,80,80,0,-34,-45,0,0,100,0,176,297,37,19,0,-34,-18,0,0,65,0,430,481,79,29,0,
0,5,-69,-46,0,1,100,0,438,48,42,20,0,-16,-39,0,0,100,0,176,240,43,17,0,-45,-79,0,0,100,0,80,240,80,80,0,-37,-44,0,0,100,0,176,296,36,18,0,-34,-18,0,0,65,0,430,481,79,29,0,
0,5,-55,-41,0,1,100,0,398,48,31,16,0,-18,-39,0,0,100,0,176,240,43,17,0,-45,-79,0,0,100,0,240,160,80,80,0,-40,-41,0,0,100,0,176,280,38,16,0,-34,-18,0,0,65,0,430,481,79,29,0,
0,1,-5,-8,0,1,100,0,328,96,24,16,0,
0,1,-7,-17,0,1,100,0,360,87,24,34,0,
0,1,-4,-24,0,1,100,0,399,80,31,48,0,
0,1,-6,-24,0,1,100,0,437,80,35,48,0,
0,1,-6,-26,0,1,100,0,333,134,36,52,0,
0,1,-6,-27,0,1,100,0,381,134,28,52,0,
0,1,-5,-28,0,1,100,0,414,134,14,53,0,
0,2,-51,-76,0,0,100,0,544,0,96,80,0,-36,-18,0,0,65,0,430,481,79,29,0,
0,2,-51,-76,0,0,100,0,640,0,96,80,0,-36,-18,0,0,65,0,430,481,79,29,0,
0,2,-51,-76,0,0,100,0,736,0,96,80,0,-36,-18,0,0,65,0,430,481,79,29,0,
0,2,-51,-76,0,0,100,0,832,0,96,80,0,-36,-18,0,0,65,0,430,481,79,29,0,
0,2,-51,-76,0,0,100,0,928,0,96,80,0,-36,-18,0,0,65,0,430,481,79,29,0,
0,3,-51,-76,0,0,100,0,544,80,96,80,0,-61,-76,0,0,100,0,264,240,152,80,0,-36,-18,0,0,65,0,430,481,79,29,0,
0,3,-51,-76,0,0,100,0,640,80,96,80,0,-61,-76,0,0,100,0,416,240,152,80,0,-36,-18,0,0,65,0,430,481,79,29,0,
0,3,-51,-76,0,0,100,0,640,80,96,80,0,-61,-76,0,0,100,0,568,240,152,80,0,-36,-18,0,0,65,0,430,481,79,29,0,
0,3,-51,-76,0,0,100,0,640,80,96,80,0,-61,-76,0,0,100,0,720,240,152,80,0,-36,-18,0,0,65,0,430,481,79,29,0,
0,3,-51,-76,0,0,100,0,640,80,96,80,0,-61,-76,0,0,100,0,872,240,152,80,0,-36,-18,0,0,65,0,430,481,79,29,0,
0,2,-51,-76,0,0,100,0,640,80,96,80,0,-36,-18,0,0,65,0,430,481,79,29,0,
0,2,-51,-76,0,0,100,0,736,80,96,80,0,-36,-18,0,0,65,0,430,481,79,29,0,
0,2,-51,-76,0,0,100,0,832,80,96,80,0,-36,-18,0,0,65,0,430,481,79,29,0,
0,3,-51,-76,0,0,100,0,928,80,96,80,0,-6,-100,0,0,80,0,736,320,72,40,0,-36,-18,0,0,65,0,430,481,79,29,0,
0,3,-51,-76,0,0,100,0,544,160,96,80,0,-6,-100,0,0,80,0,736,320,72,40,0,-36,-18,0,0,65,0,430,481,79,29,0,
0,3,-51,-76,0,0,100,0,640,160,96,80,0,-6,-100,0,0,80,0,808,320,72,40,0,-36,-18,0,0,65,0,430,481,79,29,0,
0,3,-51,-76,0,0,100,0,640,160,96,80,0,-6,-100,0,0,80,0,880,320,72,40,0,-36,-18,0,0,65,0,430,481,79,29,0,
0,3,-6,-100,0,0,80,0,952,320,72,40,0,-51,-76,0,0,100,0,736,160,96,80,0,-36,-18,0,0,65,0,430,481,79,29,0,
