0,11,9,-39,0,0,100,0,0,160,32,32,0,-1,-44,0,0,100,0,224,64,32,32,0,-4,-59,0,0,100,0,0,64,32,32,0,-16,-42,0,0,100,0,0,192,32,32,0,-2,-43,0,0,100,0,0,96,32,32,0,-11,-30,0,0,100,0,0,128,48,32,0,-39,-33,0,0,100,0,0,224,32,32,0,-23,-49,0,0,100,0,0,304,32,32,0,-35,-37,0,0,100,0,0,256,48,48,0,-2,-31,0,0,100,0,0,336,48,32,0,-31,-16,0,0,65,0,416,0,64,32,0,
0,11,9,-39,0,0,100,0,32,160,32,32,0,-1,-44,0,0,100,0,256,64,32,32,0,-4,-59,0,0,100,0,32,64,32,32,0,-16,-42,0,0,100,0,32,192,32,32,0,-2,-43,0,0,100,0,32,96,32,32,0,-11,-30,0,0,100,0,48,128,48,32,0,-39,-32,0,0,100,0,0,224,32,32,0,-23,-48,0,0,100,0,32,304,32,32,0,-35,-37,0,0,100,0,48,256,48,48,0,-2,-31,0,0,100,0,48,336,48,32,0,-31,-16,0,0,65,0,416,0,64,32,0,
0,11,9,-39,0,0,100,0,64,160,32,32,0,-1,-44,0,0,100,0,288,64,32,32,0,-4,-59,0,0,100,0,64,64,32,32,0,-16,-42,0,0,100,0,64,192,32,32,0,-2,-43,0,0,100,0,64,96,32,32,0,-11,-30,0,0,100,0,96,128,48,32,0,-39,-30,0,0,100,0,32,224,32,32,0,-23,-47,0,0,100,0,32,304,32,32,0,-35,-37,0,0,100,0,96,256,48,48,0,-2,-31,0,0,100,0,96,336,48,32,0,-31,-16,0,0,65,0,416,0,64,32,0,
0,11,9,-39,0,0,100,0,96,160,32,32,0,-1,-44,0,0,100,0,320,64,32,32,0,-4,-59,0,0,100,0,96,64,32,32,0,-16,-42,0,0,100,0,96,192,32,32,0,-2,-43,0,0,100,0,96,96,32,32,0,-11,-30,0,0,100,0,144,128,48,32,0,-39,-32,0,0,100,0,32,224,32,32,0,-23,-48,0,0,100,0,0,304,32,32,0,-35,-37,0,0,100,0,48,256,48,48,0,-2,-31,0,0,100,0,144,336,48,32,0,-31,-16,0,0,65,0,416,0,64,32,0,
0,11,4,-42,0,0,100,0,96,160,32,32,0,-9,-41,0,0,100,0,288,64,32,32,0,-12,-54,0,0,100,0,0,64,32,32,0,-6,-42,0,0,100,0,0,96,32,32,0,-9,-30,0,0,100,0,192,128,48,32,0,-18,-38,0,0,100,0,32,192,32,32,0,-47,-36,0,0,100,0,0,224,32,32,0,-31,-49,0,0,100,0,32,304,32,32,0,-47,-39,0,0,100,0,144,256,64,48,0,-6,-33,0,0,100,0,48,336,48,32,0,-31,-16,0,0,65,0,416,0,64,32,0,
0,10,-4,-41,0,0,100,0,128,160,32,32,0,-14,-59,0,0,100,0,96,64,32,32,0,-12,-43,0,0,100,0,0,96,32,32,0,-19,-30,0,0,100,0,240,128,48,32,0,-24,-39,0,0,100,0,96,192,32,32,0,-39,-33,0,0,100,0,0,224,32,32,0,-23,-49,0,0,100,0,0,304,32,32,0,-35,-37,0,0,100,0,0,256,48,48,0,-2,-31,0,0,100,0,0,336,48,32,0,-31,-16,0,0,65,0,416,0,64,32,0,
0,10,-7,-41,0,0,100,0,128,160,32,32,0,-17,-59,0,0,100,0,96,64,32,32,0,-15,-43,0,0,100,0,0,96,32,32,0,-17,-30,0,0,100,0,288,128,48,32,0,-22,-37,0,0,100,0,128,192,32,32,0,-39,-37,0,0,100,0,0,224,32,32,0,-19,-45,0,0,100,0,64,304,32,32,0,-35,-37,0,0,100,0,208,256,48,48,0,-2,-31,0,0,100,0,48,336,48,32,0,-31,-16,0,0,65,0,416,0,64,32,0,
0,10,-5,-39,0,0,100,0,160,160,32,32,0,-18,-59,0,0,100,0,128,64,32,32,0,-12,-43,0,0,100,0,128,96,32,32,0,-17,-30,0,0,100,0,336,128,48,32,0,-21,-36,0,0,100,0,160,192,32,32,0,-40,-43,0,0,100,0,256,224,32,32,0,-19,-45,0,0,100,0,64,304,32,32,0,-37,-37,0,0,100,0,256,256,48,48,0,-2,-26,0,0,100,0,48,336,48,32,0,-31,-16,0,0,65,0,416,0,64,32,0,
0,10,-5,-39,0,0,100,0,160,160,32,32,0,-18,-59,0,0,100,0,128,64,32,32,0,-12,-43,0,0,100,0,128,96,32,32,0,-17,-30,0,0,100,0,336,128,48,32,0,-38,-48,0,0,100,0,256,224,32,32,0,-21,-36,0,0,100,0,160,192,32,32,0,-19,-45,0,0,100,0,64,304,32,32,0,-37,-37,0,0,100,0,256,256,48,48,0,-2,-28,0,0,100,0,192,336,48,32,0,-31,-16,0,0,65,0,416,0,64,32,0,
0,10,-5,-39,0,0,100,0,160,160,32,32,0,-18,-59,0,0,100,0,128,64,32,32,0,-12,-43,0,0,100,0,128,96,32,32,0,-17,-30,0,0,100,0,336,128,48,32,0,-38,-48,0,0,100,0,256,224,32,32,0,-26,-39,0,0,100,0,160,192,32,32,0,-19,-45,0,0,100,0,64,304,32,32,0,-37,-37,0,0,100,0,256,256,48,48,0,-2,-28,0,0,100,0,0,336,48,32,0,-31,-16,0,0,65,0,416,0,64,32,0,
0,10,-5,-39,0,0,100,0,192,160,32,32,0,-18,-59,0,0,100,0,160,64,32,32,0,-12,-43,0,0,100,0,160,96,32,32,0,-17,-30,0,0,100,0,384,128,48,32,0,-38,-47,0,0,100,0,256,224,32,32,0,-24,-36,0,0,100,0,160,192,32,32,0,-19,-45,0,0,100,0,64,304,32,32,0,-37,-37,0,0,100,0,256,256,48,48,0,-2,-28,0,0,100,0,48,336,48,32,0,-31,-16,0,0,65,0,416,0,64,32,0,
0,10,-5,-39,0,0,100,0,224,160,32,32,0,-18,-59,0,0,100,0,192,64,32,32,0,-12,-43,0,0,100,0,192,96,32,32,0,-17,-30,0,0,100,0,432,128,48,32,0,-38,-46,0,0,100,0,288,224,32,32,0,-23,-35,0,0,100,0,160,192,32,32,0,-19,-45,0,0,100,0,64,304,32,32,0,-37,-37,0,0,100,0,256,256,48,48,0,-2,-28,0,0,100,0,96,336,48,32,0,-31,-16,0,0,65,0,416,0,64,32,0,
0,10,-5,-39,0,0,100,0,256,160,32,32,0,-18,-59,0,0,100,0,160,64,32,32,0,-12,-43,0,0,100,0,224,96,32,32,0,-17,-30,0,0,100,0,384,128,48,32,0,-38,-48,0,0,100,0,288,224,32,32,0,-23,-36,0,0,100,0,160,192,32,32,0,-19,-45,0,0,100,0,64,304,32,32,0,-37,-37,0,0,100,0,256,256,48,48,0,-2,-28,0,0,100,0,144,336,48,32,0,-31,-16,0,0,65,0,416,0,64,32,0,
0,10,0,-44,0,0,100,0,64,160,32,32,0,-8,-59,0,0,100,0,64,64,32,32,0,-20,-49,0,0,100,0,0,192,32,32,0,-6,-43,0,0,100,0,64,96,32,32,0,-15,-30,0,0,100,0,240,128,48,32,0,-39,-33,0,0,100,0,0,224,32,32,0,-23,-49,0,0,100,0,0,304,32,32,0,-35,-37,0,0,100,0,0,256,48,48,0,-2,-31,0,0,100,0,0,336,48,32,0,-31,-16,0,0,65,0,416,0,64,32,0,
0,10,1,-46,0,0,100,0,96,160,32,32,0,-9,-59,0,0,100,0,64,64,32,32,0,-13,-66,0,0,100,0,192,192,32,32,0,-8,-43,0,0,100,0,128,96,32,32,0,-13,-30,0,0,100,0,480,128,48,32,0,-39,-32,0,0,100,0,0,224,32,32,0,-23,-48,0,0,100,0,32,304,32,32,0,-35,-37,0,0,100,0,48,256,48,48,0,-2,-31,0,0,100,0,48,336,48,32,0,-31,-16,0,0,65,0,416,0,64,32,0,
0,10,2,-46,0,0,100,0,64,160,32,32,0,-10,-59,0,0,100,0,64,64,32,32,0,-12,-66,0,0,100,0,192,192,32,32,0,-9,-43,0,0,100,0,128,96,32,32,0,-14,-30,0,0,100,0,480,128,48,32,0,-39,-30,0,0,100,0,32,224,32,32,0,-23,-47,0,0,100,0,32,304,32,32,0,-35,-37,0,0,100,0,96,256,48,48,0,-2,-31,0,0,100,0,96,336,48,32,0,-31,-16,0,0,65,0,416,0,64,32,0,
0,10,-1,-44,0,0,100,0,96,160,32,32,0,-16,-57,0,0,100,0,64,64,32,32,0,-29,-43,0,0,100,0,224,192,32,32,0,-10,-42,0,0,100,0,128,96,32,32,0,-19,-30,0,0,100,0,0,128,48,32,0,-39,-30,0,0,100,0,32,224,32,32,0,-23,-47,0,0,100,0,32,304,32,32,0,-35,-37,0,0,100,0,96,256,48,48,0,-2,-31,0,0,100,0,96,336,48,32,0,-31,-16,0,0,65,0,416,0,64,32,0,
0,10,-1,-43,0,0,100,0,64,160,32,32,0,-16,-57,0,0,100,0,96,64,32,32,0,-29,-43,0,0,100,0,256,192,32,32,0,-10,-42,0,0,100,0,128,96,32,32,0,-19,-30,0,0,100,0,48,128,48,32,0,-49,-41,0,0,100,0,96,224,32,32,0,-51,-54,0,0,100,0,304,256,64,64,0,-29,-50,0,0,100,0,32,304,32,32,0,-8,-33,0,0,100,0,48,336,48,32,0,-31,-16,0,0,65,0,416,0,64,32,0,
0,11,-72,-69,0,1,100,0,480,0,80,80,0,-1,-44,0,0,100,0,96,160,32,32,0,-16,-57,0,0,100,0,0,64,32,32,0,-29,-43,0,0,100,0,224,192,32,32,0,-10,-42,0,0,100,0,128,96,32,32,0,-19,-30,0,0,100,0,96,128,48,32,0,-59,-36,0,0,100,0,368,256,64,48,0,-57,-26,0,0,100,0,96,224,32,32,0,-40,-44,0,0,100,0,32,304,32,32,0,-12,-33,0,0,100,0,48,336,48,32,0,-31,-16,0,0,65,0,416,0,64,32,0,
0,11,-72,-68,0,1,100,0,560,0,48,80,0,-1,-43,0,0,100,0,64,160,32,32,0,-16,-57,0,0,100,0,32,64,32,32,0,-29,-43,0,0,100,0,256,192,32,32,0,-10,-42,0,0,100,0,128,96,32,32,0,-19,-30,0,0,100,0,144,128,48,32,0,-59,-36,0,0,100,0,368,256,64,48,0,-57,-26,0,0,100,0,96,224,32,32,0,-40,-44,0,0,100,0,32,304,32,32,0,-12,-33,0,0,100,0,48,336,48,32,0,-31,-16,0,0,65,0,416,0,64,32,0,
0,10,-1,-44,0,0,100,0,96,160,32,32,0,-16,-57,0,0,100,0,64,64,32,32,0,-29,-43,0,0,100,0,224,192,32,32,0,-10,-42,0,0,100,0,128,96,32,32,0,-19,-30,0,0,100,0,0,128,48,32,0,-49,-30,0,0,100,0,32,224,32,32,0,-33,-47,0,0,100,0,32,304,32,32,0,-45,-37,0,0,100,0,96,256,48,48,0,-12,-31,0,0,100,0,96,336,48,32,0,-31,-16,0,0,65,0,416,0,64,32,0,
0,10,-1,-43,0,0,100,0,64,160,32,32,0,-16,-57,0,0,100,0,96,64,32,32,0,-29,-43,0,0,100,0,256,192,32,32,0,-10,-42,0,0,100,0,128,96,32,32,0,-19,-30,0,0,100,0,48,128,48,32,0,-58,-45,0,0,100,0,128,224,48,32,0,-32,-52,0,0,100,0,32,304,32,32,0,-44,-37,0,0,100,0,0,368,48,48,0,-12,-31,0,0,100,0,96,336,48,32,0,-31,-16,0,0,65,0,416,0,64,32,0,
0,10,-1,-44,0,0,100,0,96,160,32,32,0,-16,-57,0,0,100,0,0,64,32,32,0,-29,-43,0,0,100,0,224,192,32,32,0,-10,-42,0,0,100,0,128,96,32,32,0,-19,-30,0,0,100,0,96,128,48,32,0,-59,-50,0,0,100,0,176,224,48,32,0,-35,-53,0,0,100,0,32,304,32,32,0,-44,-37,0,0,100,0,0,368,48,48,0,-13,-31,0,0,100,0,96,336,48,32,0,-31,-16,0,0,65,0,416,0,64,32,0,
0,12,-84,1,2,1,50,0,0,416,64,80,0,-84,-88,0,1,50,0,0,416,64,80,0,-1,-43,0,0,100,0,64,160,32,32,0,-16,-57,0,0,100,0,32,64,32,32,0,-29,-43,0,0,100,0,256,192,32,32,0,-10,-42,0,0,100,0,128,96,32,32,0,-19,-30,0,0,100,0,144,128,48,32,0,-69,-27,0,0,100,0,224,224,32,32,0,-41,-42,0,0,100,0,96,304,32,32,0,-57,-37,0,0,100,0,48,368,64,48,0,-16,-37,0,0,100,0,240,336,48,32,0,-31,-16,0,0,65,0,416,0,64,32,0,
0,12,-95,-18,2,1,100,0,0,416,64,80,0,-95,-62,0,1,100,0,0,416,64,80,0,-1,-44,0,0,100,0,96,160,32,32,0,-16,-57,0,0,100,0,64,64,32,32,0,-29,-43,0,0,100,0,224,192,32,32,0,-10,-42,0,0,100,0,128,96,32,32,0,-19,-30,0,0,100,0,0,128,48,32,0,-69,-26,0,0,100,0,224,224,32,32,0,-41,-42,0,0,100,0,96,304,32,32,0,-57,-37,0,0,100,0,48,368,64,48,0,-15,-29,0,0,100,0,0,336,48,32,0,-31,-16,0,0,65,0,416,0,64,32,0,
0,12,-95,-21,2,1,100,0,64,416,64,80,0,-95,-59,0,1,100,0,64,416,64,80,0,-1,-43,0,0,100,0,64,160,32,32,0,-16,-57,0,0,100,0,96,64,32,32,0,-29,-43,0,0,100,0,256,192,32,32,0,-10,-42,0,0,100,0,128,96,32,32,0,-19,-30,0,0,100,0,48,128,48,32,0,-69,-26,0,0,100,0,224,224,32,32,0,-41,-42,0,0,100,0,96,304,32,32,0,-57,-37,0,0,100,0,48,368,64,48,0,-15,-29,0,0,100,0,0,336,48,32,0,-31,-16,0,0,65,0,416,0,64,32,0,
0,12,-95,-22,2,1,50,0,64,416,64,80,0,-95,-57,0,1,50,0,64,416,64,80,0,-1,-44,0,0,100,0,96,160,32,32,0,-16,-57,0,0,100,0,96,64,32,32,0,-29,-43,0,0,100,0,224,192,32,32,0,-10,-42,0,0,100,0,128,96,32,32,0,-19,-30,0,0,100,0,48,128,48,32,0,-55,-42,0,0,100,0,96,224,32,32,0,-32,-52,0,0,100,0,32,304,32,32,0,-44,-37,0,0,100,0,0,368,48,48,0,-12,-31,0,0,100,0,96,336,48,32,0,-31,-16,0,0,65,0,416,0,64,32,0,
0,12,-95,-24,2,1,20,0,64,416,64,80,0,-95,-55,0,1,20,0,64,416,64,80,0,0,-44,0,0,100,0,64,160,32,32,0,-8,-59,0,0,100,0,64,64,32,32,0,-20,-49,0,0,100,0,0,192,32,32,0,-6,-43,0,0,100,0,64,96,32,32,0,-15,-30,0,0,100,0,240,128,48,32,0,-39,-33,0,0,100,0,0,224,32,32,0,-23,-49,0,0,100,0,0,304,32,32,0,-35,-37,0,0,100,0,0,256,48,48,0,-2,-31,0,0,100,0,96,336,48,32,0,-31,-16,0,0,65,0,416,0,64,32,0,
