0,3,-43,-69,0,0,100,0,0,0,72,72,0,-47,-77,0,0,100,0,288,0,48,56,0,-21,-11,0,0,65,0,449,29,42,18,0,
0,3,-43,-69,0,0,100,0,72,0,72,72,0,-46,-77,0,0,100,0,336,0,48,56,0,-21,-11,0,0,65,0,449,29,42,18,0,
0,3,-43,-69,0,0,100,0,144,0,72,72,0,-46,-76,0,0,100,0,384,0,48,56,0,-21,-11,0,0,65,0,449,29,42,18,0,
0,3,-43,-69,0,0,100,0,216,0,72,72,0,-47,-76,0,0,100,0,384,56,48,56,0,-21,-11,0,0,65,0,449,29,42,18,0,
0,2,-42,-85,0,0,100,0,0,72,80,88,0,-21,-11,0,0,65,0,449,29,42,18,0,
0,2,-39,-85,0,0,100,0,80,72,80,88,0,-21,-11,0,0,65,0,449,29,42,18,0,
0,2,-39,-85,0,0,100,0,160,72,88,88,0,-21,-11,0,0,65,0,449,29,42,18,0,
0,2,-36,-87,0,0,100,0,248,72,96,88,0,-21,-11,0,0,65,0,449,29,42,18,0,
0,2,-74,-70,0,0,100,0,0,160,104,72,0,-24,-11,0,0,65,0,449,29,42,18,0,
0,3,-82,-86,0,1,100,0,0,232,104,80,0,-74,-78,0,0,100,0,104,160,104,80,0,-24,-11,0,0,65,0,449,29,42,18,0,
0,3,-74,-85,0,1,100,0,104,240,104,56,0,-66,-78,0,0,100,0,208,160,104,80,0,-24,-11,0,0,65,0,449,29,42,18,0,
0,3,-35,-78,0,0,100,0,312,160,72,80,0,-8,-84,0,0,100,0,288,0,48,56,0,-24,-11,0,0,65,0,449,29,42,18,0,
0,2,-32,-64,0,0,100,0,0,320,64,64,0,-21,-11,0,0,65,0,449,29,42,18,0,
0,2,-44,-60,0,0,100,0,64,320,80,80,0,-21,-11,0,0,65,0,449,29,42,18,0,
0,2,-44,-60,0,0,100,0,144,320,80,80,0,-21,-11,0,0,65,0,449,29,42,18,0,
0,2,-39,-60,0,0,100,0,224,320,80,80,0,-21,-11,0,0,65,0,449,29,42,18,0,
0,2,-39,-60,0,0,100,0,304,320,80,80,0,-21,-11,0,0,65,0,449,29,42,18,0,
0,2,-39,-62,0,0,100,0,0,384,80,80,0,-21,-11,0,0,65,0,449,29,42,18,0,
0,2,-39,-62,0,0,100,0,80,384,80,80,0,-21,-11,0,0,65,0,449,29,42,18,0,
0,2,-39,-62,0,0,100,0,160,384,80,80,0,-21,-11,0,0,65,0,449,29,42,18,0,
0,2,-40,-46,0,0,100,0,240,400,80,64,0,-21,-11,0,0,65,0,449,29,42,18,0,
0,3,-60,-61,0,0,100,0,388,112,96,72,0,-21,-11,0,0,65,0,449,29,42,18,0,-72,-66,0,0,100,0,288,0,48,56,0,
