4,0,0,7,
5,0,0,7,
6,0,0,7,
7,0,0,18,
8,0,0,7,
9,0,0,6,
10,0,0,6,
11,0,0,6,
12,0,0,6,
13,0,0,6,
14,0,0,6,
15,0,0,6,
16,0,0,6,
13,0,0,6,
14,0,0,6,
15,0,0,6,
16,0,0,6,
13,0,0,6,
14,0,0,6,
15,0,0,6,
16,0,0,6,
13,0,0,6,
14,0,0,6,
15,0,0,6,
16,0,0,6,
13,0,0,6,
14,0,0,6,
15,0,0,6,
16,0,0,6,
17,0,0,6,
18,0,0,6,
19,0,0,6,
