0,19,-40,-64,0,0,100,0,0,0,80,72,0,-54,-36,0,0,100,0,896,0,48,48,0,-54,-36,0,1,80,0,896,48,48,48,0,-45,-34,0,0,100,0,800,0,48,48,0,-45,-34,0,1,80,0,800,48,48,48,0,-2,-35,0,0,100,0,848,0,48,48,0,-2,-35,0,1,80,0,848,48,48,48,0,6,-37,0,0,100,0,1040,0,48,48,0,6,-37,0,1,80,0,1040,48,48,48,0,-45,-50,0,0,100,0,704,0,48,48,0,-45,-50,0,1,80,0,704,48,48,48,0,-4,-50,0,0,100,0,752,0,48,48,0,-4,-50,0,1,80,0,752,48,48,48,0,-31,-49,0,0,100,0,944,0,48,48,0,-31,-49,0,1,80,0,944,48,48,48,0,-14,-43,0,0,100,0,992,0,48,48,0,-14,-43,0,1,80,0,992,48,48,48,0,-48,-80,0,1,100,0,320,0,96,96,0,-24,-8,0,0,65,0,320,288,48,16,0,
0,19,-40,-64,0,0,100,0,80,0,80,72,0,-54,-36,0,0,100,0,896,0,48,48,0,-54,-36,0,1,70,0,896,48,48,48,0,-45,-34,0,0,100,0,800,0,48,48,0,-45,-34,0,1,70,0,800,48,48,48,0,-2,-35,0,0,100,0,848,0,48,48,0,-2,-35,0,1,70,0,848,48,48,48,0,6,-37,0,0,100,0,1040,0,48,48,0,6,-37,0,1,70,0,1040,48,48,48,0,-45,-49,0,0,100,0,704,0,48,48,0,-45,-49,0,1,70,0,704,48,48,48,0,-4,-49,0,0,100,0,752,0,48,48,0,-4,-49,0,1,70,0,752,48,48,48,0,-31,-49,0,0,100,0,944,0,48,48,0,-31,-49,0,1,70,0,944,48,48,48,0,-14,-43,0,0,100,0,992,0,48,48,0,-14,-43,0,1,70,0,992,48,48,48,0,-48,-80,0,1,80,0,416,0,96,96,0,-24,-8,0,0,65,0,320,288,48,16,0,
0,19,-40,-64,0,0,100,0,160,0,80,72,0,-54,-36,0,0,100,0,896,0,48,48,0,-54,-36,0,1,50,0,896,48,48,48,0,-45,-33,0,0,100,0,800,0,48,39,0,-45,-33,0,1,50,0,800,48,48,48,0,-2,-34,0,0,100,0,848,0,48,39,0,-2,-34,0,1,50,0,848,48,48,48,0,6,-37,0,0,100,0,1040,0,48,48,0,6,-37,0,1,50,0,1040,48,48,48,0,-45,-50,0,0,100,0,704,0,48,48,0,-45,-50,0,1,50,0,704,48,48,48,0,-4,-50,0,0,100,0,752,0,48,48,0,-4,-50,0,1,50,0,752,48,48,48,0,-31,-49,0,0,100,0,944,0,48,48,0,-31,-49,0,1,50,0,944,48,48,48,0,-14,-43,0,0,100,0,992,0,48,48,0,-14,-43,0,1,50,0,992,48,48,48,0,-48,-80,0,1,60,0,512,0,96,96,0,-24,-8,0,0,65,0,320,288,48,16,0,
0,19,-40,-64,0,0,100,0,240,0,80,72,0,-54,-35,0,0,100,0,896,0,48,38,0,-54,-35,0,1,60,0,896,48,48,48,0,-45,-34,0,0,100,0,800,0,48,48,0,-45,-34,0,1,60,0,800,48,48,48,0,-2,-35,0,0,100,0,848,0,48,48,0,-2,-35,0,1,60,0,848,48,48,48,0,6,-36,0,0,100,0,1040,0,48,37,0,6,-36,0,1,60,0,1040,48,48,48,0,-45,-51,0,0,100,0,704,0,48,48,0,-45,-51,0,1,60,0,704,48,48,48,0,-4,-51,0,0,100,0,752,0,48,48,0,-4,-51,0,1,60,0,752,48,48,48,0,-31,-50,0,0,100,0,944,0,48,48,0,-31,-50,0,1,60,0,944,48,48,48,0,-14,-44,0,0,100,0,992,0,48,48,0,-14,-44,0,1,60,0,992,48,48,48,0,-48,-80,0,1,75,0,608,0,96,96,0,-24,-8,0,0,65,0,320,288,48,16,0,
0,18,-33,-91,0,0,100,0,576,96,64,64,0,-33,-91,0,1,80,0,576,160,64,64,0,-13,-77,0,0,100,0,640,96,64,64,0,-13,-77,0,1,80,0,640,160,64,64,0,-8,-56,0,0,100,0,704,96,64,64,0,-8,-56,0,1,80,0,704,160,64,64,0,-13,-36,0,0,100,0,768,96,64,64,0,-13,-36,0,1,80,0,768,160,64,64,0,-40,-64,0,0,100,0,0,72,80,72,0,-50,-79,0,0,100,0,320,96,64,64,0,-50,-79,0,1,80,0,320,160,64,64,0,-57,-68,0,0,100,0,384,96,64,64,0,-57,-68,0,1,80,0,384,160,64,64,0,-57,-52,0,0,100,0,448,96,64,64,0,-57,-52,0,1,80,0,448,160,64,64,0,-52,-38,0,0,100,0,512,96,64,64,0,-52,-38,0,1,80,0,512,160,64,64,0,-24,-8,0,0,65,0,320,288,48,16,0,
0,18,-34,-92,0,0,100,0,576,96,64,64,0,-34,-92,0,1,70,0,576,160,64,64,0,-15,-77,0,0,100,0,640,96,64,64,0,-15,-77,0,1,70,0,640,160,64,64,0,-10,-56,0,0,100,0,704,96,64,64,0,-10,-56,0,1,70,0,704,160,64,64,0,-14,-35,0,0,100,0,768,96,64,64,0,-14,-35,0,1,70,0,768,160,64,64,0,-40,-64,0,0,100,0,80,72,80,72,0,-51,-79,0,0,100,0,320,96,64,64,0,-51,-79,0,1,70,0,320,160,64,64,0,-59,-68,0,0,100,0,384,96,64,64,0,-59,-68,0,1,70,0,384,160,64,64,0,-59,-52,0,0,100,0,448,96,64,64,0,-59,-52,0,1,70,0,448,160,64,64,0,-53,-38,0,0,100,0,512,96,64,64,0,-53,-38,0,1,70,0,512,160,64,64,0,-24,-8,0,0,65,0,320,288,48,16,0,
0,18,-33,-91,0,0,100,0,576,96,64,64,0,-33,-91,0,1,50,0,576,160,64,64,0,-13,-77,0,0,100,0,640,96,64,64,0,-13,-77,0,1,50,0,640,160,64,64,0,-8,-56,0,0,100,0,704,96,64,64,0,-8,-56,0,1,50,0,704,160,64,64,0,-13,-36,0,0,100,0,768,96,64,64,0,-13,-36,0,1,50,0,768,160,64,64,0,-40,-64,0,0,100,0,160,72,80,72,0,-50,-79,0,0,100,0,320,96,64,64,0,-50,-79,0,1,50,0,320,160,64,64,0,-57,-68,0,0,100,0,384,96,64,64,0,-57,-68,0,1,50,0,384,160,64,64,0,-57,-52,0,0,100,0,448,96,64,64,0,-57,-52,0,1,50,0,448,160,64,64,0,-52,-38,0,0,100,0,512,96,64,64,0,-52,-38,0,1,50,0,512,160,64,64,0,-24,-8,0,0,65,0,320,288,48,16,0,
0,18,-32,-90,0,0,100,0,576,96,64,64,0,-32,-90,0,1,60,0,576,160,64,64,0,-12,-77,0,0,100,0,640,96,64,64,0,-12,-77,0,1,60,0,640,160,64,64,0,-7,-56,0,0,100,0,704,96,64,64,0,-7,-56,0,1,60,0,704,160,64,64,0,-12,-37,0,0,100,0,768,96,64,64,0,-12,-37,0,1,60,0,768,160,64,64,0,-40,-64,0,0,100,0,240,72,80,72,0,-49,-78,0,0,100,0,320,96,64,64,0,-49,-78,0,1,60,0,320,160,64,64,0,-56,-68,0,0,100,0,384,96,64,64,0,-56,-68,0,1,60,0,384,160,64,64,0,-56,-52,0,0,100,0,448,96,64,64,0,-56,-52,0,1,60,0,448,160,64,64,0,-51,-39,0,0,100,0,512,96,64,64,0,-51,-39,0,1,60,0,512,160,64,64,0,-24,-8,0,0,65,0,320,288,48,16,0,
0,18,-18,-69,0,0,100,0,576,96,64,64,0,-18,-69,0,1,80,0,576,160,64,64,0,-23,-60,2,0,100,0,704,96,64,64,0,-23,-60,2,1,80,0,704,160,64,64,0,-23,-48,0,0,100,0,704,96,64,64,0,-23,-48,0,1,80,0,704,160,64,64,0,-18,-39,2,0,100,0,576,96,64,64,0,-18,-39,2,1,80,0,576,160,64,64,0,-40,-56,0,0,100,0,0,144,80,72,0,-53,-65,2,0,100,0,512,96,64,64,0,-53,-65,2,1,80,0,512,160,64,64,0,-63,-56,2,0,100,0,448,96,64,64,0,-63,-56,2,1,80,0,448,160,64,64,0,-63,-46,0,0,100,0,448,96,64,64,0,-63,-46,0,1,80,0,448,160,64,64,0,-53,-39,0,0,100,0,512,96,64,64,0,-53,-39,0,1,80,0,512,160,64,64,0,-24,-8,0,0,65,0,320,288,48,16,0,
0,18,-51,-89,0,0,75,0,576,96,64,64,0,-51,-89,0,1,75,0,576,160,64,64,0,-58,-73,0,0,100,0,640,96,64,64,0,-58,-73,0,1,100,0,640,160,64,64,0,-41,-55,0,0,75,0,704,96,64,64,0,-41,-55,0,1,75,0,704,160,64,64,0,-55,-38,0,0,100,0,768,96,64,64,0,-55,-38,0,1,100,0,768,160,64,64,0,-68,-85,0,0,100,0,320,96,64,64,0,-68,-85,0,1,100,0,320,160,64,64,0,-95,-71,0,0,75,0,384,96,64,64,0,-95,-71,0,1,75,0,384,160,64,64,0,-82,-53,0,0,100,0,448,96,64,64,0,-82,-53,0,1,100,0,448,160,64,64,0,-70,-37,0,0,75,0,512,96,64,64,0,-70,-37,0,1,75,0,512,160,64,64,0,-32,-56,0,0,100,0,80,144,80,72,0,-22,-8,0,0,65,0,320,288,48,16,0,
0,18,-50,-92,0,0,75,0,576,96,64,64,0,-50,-92,0,1,75,0,576,160,64,64,0,-54,-75,0,0,100,0,640,96,64,64,0,-54,-75,0,1,100,0,640,160,64,64,0,-45,-56,0,0,75,0,704,96,64,64,0,-45,-56,0,1,75,0,704,160,64,64,0,-52,-39,0,0,100,0,768,96,64,64,0,-52,-39,0,1,100,0,768,160,64,64,0,-65,-88,0,0,100,0,320,96,64,64,0,-65,-88,0,1,100,0,320,160,64,64,0,-74,-73,0,0,75,0,384,96,64,64,0,-74,-73,0,1,75,0,384,160,64,64,0,-77,-56,0,0,100,0,448,96,64,64,0,-77,-56,0,1,100,0,448,160,64,64,0,-65,-39,0,0,75,0,512,96,64,64,0,-65,-39,0,1,75,0,512,160,64,64,0,-24,-56,0,0,100,0,160,144,80,72,0,-10,-8,0,0,65,0,320,288,48,16,0,
0,18,-46,-92,0,0,75,0,576,96,64,64,0,-46,-92,0,1,75,0,576,160,64,64,0,-50,-75,0,0,100,0,640,96,64,64,0,-50,-75,0,1,100,0,640,160,64,64,0,-40,-58,0,0,75,0,704,96,64,64,0,-40,-58,0,1,75,0,704,160,64,64,0,-46,-41,0,0,100,0,768,96,64,64,0,-46,-41,0,1,100,0,768,160,64,64,0,-59,-88,0,0,100,0,320,96,64,64,0,-59,-88,0,1,100,0,320,160,64,64,0,-71,-73,0,0,75,0,384,96,64,64,0,-71,-73,0,1,75,0,384,160,64,64,0,-74,-57,0,0,100,0,448,96,64,64,0,-74,-57,0,1,100,0,448,160,64,64,0,-61,-40,0,0,75,0,512,96,64,64,0,-61,-40,0,1,75,0,512,160,64,64,0,-24,-56,0,0,100,0,240,144,80,72,0,-8,-8,0,0,65,0,320,288,48,16,0,
0,24,-29,-85,0,1,100,0,792,544,48,48,0,-16,-72,0,1,100,0,840,544,48,48,0,-64,-40,0,1,100,0,792,544,48,48,0,-72,-72,0,1,100,0,840,544,48,48,0,-80,-56,0,1,100,0,744,544,48,48,0,-46,-92,0,0,75,0,576,96,64,64,0,-46,-92,0,1,75,0,576,160,64,64,0,-50,-75,0,0,100,0,640,96,64,64,0,-50,-75,0,1,100,0,640,160,64,64,0,-40,-58,0,0,75,0,704,96,64,64,0,-40,-58,0,1,75,0,704,160,64,64,0,-46,-41,0,0,100,0,768,96,64,64,0,-46,-41,0,1,100,0,768,160,64,64,0,-71,-74,0,0,75,0,384,96,64,64,0,-71,-74,0,1,75,0,384,160,64,64,0,-74,-57,0,0,100,0,448,96,64,64,0,-74,-57,0,1,100,0,448,160,64,64,0,-61,-40,0,0,75,0,512,96,64,64,0,-61,-40,0,1,75,0,512,160,64,64,0,-24,-64,0,0,100,0,0,328,80,72,0,-200,-144,0,0,85,0,0,400,248,200,0,-200,-144,0,1,85,0,0,800,248,200,0,-184,-104,0,1,100,0,744,400,144,144,0,-8,-8,0,0,65,0,320,288,48,16,0,
0,24,-29,-85,0,1,100,0,840,544,48,48,0,-16,-72,0,1,100,0,888,544,48,48,0,-64,-40,0,1,100,0,840,544,48,48,0,-72,-72,0,1,100,0,888,544,48,48,0,-80,-56,0,1,100,0,792,544,48,48,0,-46,-92,0,0,75,0,576,96,64,64,0,-46,-92,0,1,75,0,576,160,64,64,0,-50,-75,0,0,100,0,640,96,64,64,0,-50,-75,0,1,100,0,640,160,64,64,0,-40,-58,0,0,75,0,704,96,64,64,0,-40,-58,0,1,75,0,704,160,64,64,0,-46,-41,0,0,100,0,768,96,64,64,0,-46,-41,0,1,100,0,768,160,64,64,0,-71,-74,0,0,75,0,384,96,64,64,0,-71,-74,0,1,75,0,384,160,64,64,0,-75,-57,0,0,25,0,448,96,64,64,0,-61,-40,0,0,75,0,512,96,64,64,0,-61,-40,0,1,75,0,512,160,64,64,0,-24,-64,0,0,100,0,80,328,80,72,0,-200,-144,0,0,85,0,248,400,248,200,0,-200,-144,0,1,85,0,248,800,248,200,0,-184,-104,0,1,100,0,888,400,144,144,0,-200,-144,0,0,15,0,0,400,248,200,0,-8,-8,0,0,65,0,320,288,48,16,0,
0,22,-29,-85,0,1,100,0,888,544,48,48,0,-16,-72,0,1,100,0,936,544,48,48,0,-72,-40,0,1,100,0,888,544,48,48,0,-72,-72,0,1,100,0,936,544,48,48,0,-80,-56,0,1,100,0,840,544,48,48,0,-46,-92,0,0,75,0,576,96,64,64,0,-46,-92,0,1,75,0,576,160,64,64,0,-51,-75,0,0,25,0,640,96,64,64,0,-40,-58,0,0,75,0,704,96,64,64,0,-40,-58,0,1,75,0,704,160,64,64,0,-46,-41,0,0,100,0,768,96,64,64,0,-46,-41,0,1,100,0,768,160,64,64,0,-62,-40,0,0,25,0,512,96,64,64,0,-71,-74,0,0,75,0,384,96,64,64,0,-71,-74,0,1,75,0,384,160,64,64,0,-24,-64,0,0,100,0,160,328,80,72,0,-200,-144,0,0,85,0,496,400,248,200,0,-200,-144,0,1,85,0,496,600,248,200,0,-160,-96,0,1,85,0,744,400,144,144,0,-184,-104,0,1,25,0,888,400,144,144,0,-200,-144,0,0,15,0,248,400,248,200,0,-8,-8,0,0,65,0,320,288,48,16,0,
0,17,-29,-85,0,1,100,0,936,544,48,48,0,-16,-72,0,1,100,0,984,544,48,48,0,-64,-40,0,1,100,0,936,544,48,48,0,-72,-72,0,1,100,0,984,544,48,48,0,-80,-56,0,1,100,0,888,544,48,48,0,-47,-93,0,0,25,0,576,96,64,64,0,-40,-58,0,0,75,0,704,96,64,64,0,-40,-58,0,1,75,0,704,160,64,64,0,-71,-74,0,0,75,0,384,96,64,64,0,-71,-74,0,1,75,0,384,160,64,64,0,-47,-40,0,0,25,0,768,96,64,64,0,-24,-64,0,0,100,0,240,328,80,72,0,-200,-144,0,0,85,0,0,600,248,200,0,-200,-144,0,1,85,0,0,1000,248,200,0,-160,-96,0,1,85,0,888,400,144,144,0,-200,-144,0,0,15,0,496,400,248,200,0,-8,-8,0,0,65,0,320,288,48,16,0,
0,14,-125,-77,0,1,100,0,984,544,48,48,0,-120,-56,0,1,100,0,792,544,48,48,0,-64,-40,0,1,100,0,984,544,48,48,0,-136,-48,0,1,100,0,888,544,48,48,0,-80,-56,0,1,100,0,888,544,48,48,0,-42,-57,0,0,25,0,704,96,64,64,0,-72,-74,0,0,25,0,384,96,64,64,0,-24,-64,0,0,100,0,320,328,80,72,0,-200,-144,0,0,85,0,248,600,248,200,0,-200,-144,0,1,85,0,248,1000,248,200,0,-176,-112,0,1,75,0,744,400,144,144,0,-160,-96,0,1,35,0,888,400,144,144,0,-200,-144,0,0,15,0,0,600,248,200,0,-8,-8,0,0,65,0,320,288,48,16,0,
0,13,-125,-77,0,1,50,0,984,544,48,48,0,-141,-61,0,1,100,0,744,544,48,48,0,-120,-56,0,1,50,0,984,544,48,48,0,-152,-72,0,1,100,0,888,544,48,48,0,-136,-48,0,1,100,0,984,544,48,48,0,-80,-56,0,1,100,0,936,544,48,48,0,-24,-64,0,0,100,0,400,328,80,72,0,-200,-144,0,0,85,0,496,600,248,200,0,-200,-144,0,1,85,0,496,1000,248,200,0,-176,-112,0,1,25,0,744,400,144,144,0,-176,-112,0,1,25,0,888,400,144,144,0,-200,-144,0,0,15,0,248,600,248,200,0,-8,-8,0,0,65,0,320,288,48,16,0,
0,7,-141,-61,0,1,100,0,888,544,48,48,0,-152,-72,0,1,100,0,888,544,48,48,0,-80,-56,0,1,100,0,984,544,48,48,0,-24,-64,0,0,100,0,160,328,80,72,0,-201,-144,0,0,15,0,496,600,248,200,0,-176,-112,0,1,25,0,888,400,144,144,0,-8,-8,0,0,65,0,320,288,48,16,0,
0,6,-141,-61,0,1,100,0,936,544,48,48,0,-152,-72,0,1,50,0,936,544,48,48,0,-80,-56,0,1,50,0,984,544,48,48,0,-24,-64,0,0,100,0,240,328,80,72,0,-176,-112,0,1,10,0,888,400,144,144,0,-8,-8,0,0,65,0,320,288,48,16,0,
0,5,-141,-61,0,1,100,0,984,544,48,48,0,-152,-72,0,1,15,0,936,544,48,48,0,-80,-56,0,1,25,0,984,544,48,48,0,-24,-64,0,0,100,0,320,328,80,72,0,-8,-8,0,0,65,0,320,288,48,16,0,
0,2,-24,-64,0,0,100,0,400,328,80,72,0,-8,-8,0,0,65,0,320,288,48,16,0,
0,19,-54,-36,0,0,100,0,896,0,48,48,0,-54,-36,0,1,80,0,896,48,48,48,0,-45,-34,0,0,100,0,800,0,48,48,0,-45,-34,0,1,80,0,800,48,48,48,0,-2,-35,0,0,100,0,848,0,48,48,0,-2,-35,0,1,80,0,848,48,48,48,0,6,-37,0,0,100,0,1040,0,48,48,0,6,-37,0,1,80,0,1040,48,48,48,0,-40,-64,0,0,100,0,0,0,80,72,0,-45,-50,0,0,100,0,704,0,48,48,0,-45,-50,0,1,80,0,704,48,48,48,0,-4,-50,0,0,100,0,752,0,48,48,0,-4,-50,0,1,80,0,752,48,48,48,0,-31,-49,0,0,100,0,944,0,48,48,0,-31,-49,0,1,80,0,944,48,48,48,0,-14,-43,0,0,100,0,992,0,48,48,0,-14,-43,0,1,80,0,992,48,48,48,0,-48,-80,0,1,100,0,320,0,96,96,0,-24,-8,0,0,65,0,320,288,48,16,0,
0,19,-54,-36,0,0,100,0,896,0,48,48,0,-54,-36,0,1,70,0,896,48,48,48,0,-45,-34,0,0,100,0,800,0,48,48,0,-45,-34,0,1,70,0,800,48,48,48,0,-2,-35,0,0,100,0,848,0,48,48,0,-2,-35,0,1,70,0,848,48,48,48,0,6,-37,0,0,100,0,1040,0,48,48,0,6,-37,0,1,70,0,1040,48,48,48,0,-40,-64,0,0,100,0,80,0,80,72,0,-45,-49,0,0,100,0,704,0,48,48,0,-45,-49,0,1,70,0,704,48,48,48,0,-4,-49,0,0,100,0,752,0,48,48,0,-4,-49,0,1,70,0,752,48,48,48,0,-31,-49,0,0,100,0,944,0,48,48,0,-31,-49,0,1,70,0,944,48,48,48,0,-14,-43,0,0,100,0,992,0,48,48,0,-14,-43,0,1,70,0,992,48,48,48,0,-48,-80,0,1,80,0,416,0,96,96,0,-24,-8,0,0,65,0,320,288,48,16,0,
0,19,-54,-36,0,0,100,0,896,0,48,48,0,-54,-36,0,1,50,0,896,48,48,48,0,-45,-33,0,0,100,0,800,0,48,39,0,-45,-33,0,1,50,0,800,48,48,48,0,-2,-34,0,0,100,0,848,0,48,39,0,-2,-34,0,1,50,0,848,48,48,48,0,6,-37,0,0,100,0,1040,0,48,48,0,6,-37,0,1,50,0,1040,48,48,48,0,-40,-64,0,0,100,0,160,0,80,72,0,-45,-50,0,0,100,0,704,0,48,48,0,-45,-50,0,1,50,0,704,48,48,48,0,-4,-50,0,0,100,0,752,0,48,48,0,-4,-50,0,1,50,0,752,48,48,48,0,-31,-49,0,0,100,0,944,0,48,48,0,-31,-49,0,1,50,0,944,48,48,48,0,-14,-43,0,0,100,0,992,0,48,48,0,-14,-43,0,1,50,0,992,48,48,48,0,-48,-80,0,1,60,0,512,0,96,96,0,-24,-8,0,0,65,0,320,288,48,16,0,
0,19,-54,-35,0,0,100,0,896,0,48,38,0,-54,-35,0,1,60,0,896,48,48,48,0,-45,-34,0,0,100,0,800,0,48,48,0,-45,-34,0,1,60,0,800,48,48,48,0,-2,-35,0,0,100,0,848,0,48,48,0,-2,-35,0,1,60,0,848,48,48,48,0,6,-36,0,0,100,0,1040,0,48,37,0,-44,-56,0,0,100,0,0,144,80,72,0,6,-36,0,1,60,0,1040,48,48,48,0,-45,-51,0,0,100,0,704,0,48,48,0,-45,-51,0,1,60,0,704,48,48,48,0,-4,-51,0,0,100,0,752,0,48,48,0,-4,-51,0,1,60,0,752,48,48,48,0,-31,-50,0,0,100,0,944,0,48,48,0,-31,-50,0,1,60,0,944,48,48,48,0,-14,-44,0,0,100,0,992,0,48,48,0,-14,-44,0,1,60,0,992,48,48,48,0,-48,-80,0,1,75,0,608,0,96,96,0,-24,-8,0,0,65,0,320,288,48,16,0,
0,19,-54,-36,0,0,100,0,896,0,48,48,0,-54,-36,0,1,80,0,896,48,48,48,0,-45,-34,0,0,100,0,800,0,48,48,0,-45,-34,0,1,80,0,800,48,48,48,0,-2,-35,0,0,100,0,848,0,48,48,0,-2,-35,0,1,80,0,848,48,48,48,0,6,-37,0,0,100,0,1040,0,48,48,0,6,-37,0,1,80,0,1040,48,48,48,0,-40,-56,0,0,100,0,80,144,80,72,0,-45,-50,0,0,100,0,704,0,48,48,0,-45,-50,0,1,80,0,704,48,48,48,0,-4,-50,0,0,100,0,752,0,48,48,0,-4,-50,0,1,80,0,752,48,48,48,0,-31,-49,0,0,100,0,944,0,48,48,0,-31,-49,0,1,80,0,944,48,48,48,0,-14,-43,0,0,100,0,992,0,48,48,0,-14,-43,0,1,80,0,992,48,48,48,0,-48,-80,0,1,100,0,320,0,96,96,0,-28,-8,0,0,65,0,320,288,48,16,0,
0,19,-55,-37,1,0,100,0,1232,0,48,48,0,-55,-37,1,1,70,0,1232,48,48,48,0,-44,-31,0,0,100,0,1088,0,48,48,0,-44,-31,0,1,70,0,1088,48,48,48,0,-3,-37,0,0,100,0,1136,0,48,48,0,-3,-37,0,1,70,0,1136,48,48,48,0,11,-41,0,0,100,0,1232,0,48,48,0,11,-41,0,1,70,0,1232,48,48,48,0,-40,-64,0,0,100,0,400,328,80,72,0,-49,-57,0,0,100,0,1088,0,48,48,0,-49,-57,0,1,70,0,1088,48,48,48,0,0,-57,0,0,100,0,1136,0,48,48,0,0,-57,0,1,70,0,1136,48,48,48,0,-31,-47,1,0,75,0,1232,0,48,48,0,-31,-47,1,1,70,0,1232,48,48,48,0,-13,-42,0,0,75,0,1184,0,48,48,0,-13,-42,0,1,70,0,1184,48,48,48,0,-48,-80,0,1,75,0,512,0,96,96,0,-28,-8,0,0,65,0,320,288,48,16,0,
0,19,-71,-64,1,0,100,0,1232,0,48,48,0,-71,-64,1,1,70,0,1232,48,48,48,0,-58,-59,0,0,100,0,1088,0,48,48,0,-58,-59,0,1,70,0,1088,48,48,48,0,8,-60,0,0,100,0,1136,0,48,48,0,8,-60,0,1,70,0,1136,48,48,48,0,22,-63,0,0,100,0,1232,0,48,48,0,22,-63,0,1,70,0,1232,48,48,48,0,-40,-64,0,0,100,0,160,328,80,72,0,-56,-79,0,0,100,0,1088,0,48,48,0,-56,-79,0,1,70,0,1088,48,48,48,0,4,-82,0,0,100,0,1136,0,48,48,0,4,-82,0,1,70,0,1136,48,48,48,0,-39,-70,1,0,75,0,1232,0,48,48,0,-39,-70,1,1,70,0,1232,48,48,48,0,-5,-67,0,0,75,0,1184,0,48,48,0,-5,-67,0,1,70,0,1184,48,48,48,0,-48,-80,0,1,50,0,416,0,96,96,0,-24,-8,0,0,65,0,320,288,48,16,0,
0,19,-73,-72,1,0,100,0,1184,96,48,48,0,-73,-72,1,1,70,0,1184,144,48,48,0,-60,-67,1,0,100,0,1088,96,48,48,0,-60,-67,1,1,70,0,1088,144,48,48,0,10,-68,0,0,100,0,1088,96,48,48,0,10,-68,0,1,70,0,1088,144,48,48,0,24,-71,0,0,100,0,1184,96,48,48,0,24,-71,0,1,70,0,1184,144,48,48,0,-40,-64,0,0,100,0,240,328,80,72,0,-58,-93,1,0,100,0,1088,96,48,48,0,-58,-93,1,1,70,0,1088,144,48,48,0,8,-95,0,0,100,0,1088,96,48,48,0,8,-95,0,1,70,0,1088,144,48,48,0,-41,-78,1,0,75,0,1184,96,48,48,0,-41,-78,1,1,70,0,1184,144,48,48,0,-3,-75,0,0,75,0,1184,96,48,48,0,-3,-75,0,1,70,0,1184,144,48,48,0,-48,-80,0,1,25,0,608,0,96,96,0,-24,-8,0,0,65,0,320,288,48,16,0,
0,18,-68,-81,1,1,100,0,1232,144,48,48,0,-68,-81,1,0,100,0,1232,96,48,48,0,-59,-77,1,1,100,0,1136,144,48,48,0,-59,-77,1,0,100,0,1136,96,48,48,0,7,-73,0,1,100,0,1136,144,48,48,0,7,-73,0,0,100,0,1136,96,48,48,0,21,-76,0,1,100,0,1232,144,48,48,0,21,-76,0,0,100,0,1232,96,48,48,0,-40,-64,0,0,100,0,320,328,80,72,0,-54,-100,1,1,85,0,1136,144,48,48,0,-54,-100,1,0,100,0,1136,96,48,48,0,4,-105,0,1,85,0,1136,144,48,48,0,4,-105,0,0,100,0,1136,96,48,48,0,-37,-86,1,1,85,0,1232,144,48,48,0,-37,-86,1,0,75,0,1232,96,48,48,0,-7,-79,0,1,85,0,1232,144,48,48,0,-7,-79,0,0,75,0,1232,96,48,48,0,-24,-8,0,0,65,0,320,288,48,16,0,
0,18,-67,-40,1,1,100,0,1232,144,48,48,0,-67,-40,1,0,75,0,1232,96,48,48,0,-51,-35,1,1,100,0,1136,144,48,48,0,-51,-35,1,0,75,0,1136,96,48,48,0,3,-36,0,1,100,0,1136,144,48,48,0,3,-36,0,0,75,0,1136,96,48,48,0,18,-42,0,1,100,0,1232,144,48,48,0,18,-42,0,0,75,0,1232,96,48,48,0,-40,-64,0,0,100,0,800,328,80,72,0,-49,-55,1,1,85,0,1136,144,48,48,0,-49,-55,1,0,50,0,1136,96,48,48,0,0,-58,0,1,85,0,1136,144,48,48,0,0,-58,0,0,50,0,1136,96,48,48,0,-36,-46,1,1,85,0,1232,144,48,48,0,-36,-46,1,0,50,0,1232,96,48,48,0,-8,-43,0,1,85,0,1232,144,48,48,0,-8,-43,0,0,50,0,1232,96,48,48,0,-24,-8,0,0,65,0,320,288,48,16,0,
0,19,-6,-50,0,1,100,0,744,592,96,48,0,-67,-42,1,1,100,0,1232,144,48,48,0,-67,-42,1,0,75,0,1232,96,48,48,0,-51,-37,1,1,100,0,1136,144,48,48,0,-51,-37,1,0,75,0,1136,96,48,48,0,3,-38,0,1,100,0,1136,144,48,48,0,3,-38,0,0,75,0,1136,96,48,48,0,18,-44,0,1,100,0,1232,144,48,48,0,18,-44,0,0,75,0,1232,96,48,48,0,-40,-64,0,0,100,0,480,328,80,72,0,-49,-57,1,1,85,0,1136,144,48,48,0,-49,-57,1,0,50,0,1136,96,48,48,0,0,-60,0,1,85,0,1136,144,48,48,0,0,-60,0,0,50,0,1136,96,48,48,0,-36,-48,1,1,85,0,1232,144,48,48,0,-36,-48,1,0,50,0,1232,96,48,48,0,-8,-45,0,1,85,0,1232,144,48,48,0,-8,-45,0,0,50,0,1232,96,48,48,0,-24,-8,0,0,65,0,320,288,48,16,0,
0,22,8,-64,0,1,100,0,880,328,72,72,0,-21,-44,0,1,100,0,744,592,96,48,0,-24,-65,0,1,100,0,744,592,96,48,0,-6,-50,0,1,100,0,840,592,96,48,0,-67,-40,1,1,100,0,1232,144,48,48,0,-67,-40,1,0,75,0,1232,96,48,48,0,-51,-38,1,1,100,0,1136,144,48,48,0,-51,-38,1,0,75,0,1136,96,48,48,0,3,-37,0,1,100,0,1136,144,48,48,0,3,-37,0,0,75,0,1136,96,48,48,0,18,-43,0,1,100,0,1232,144,48,48,0,18,-43,0,1,75,0,1232,96,48,48,0,-40,-64,0,0,100,0,560,328,80,72,0,-49,-56,1,1,85,0,1136,144,48,48,0,-49,-56,1,0,50,0,1136,96,48,48,0,0,-58,0,1,85,0,1136,144,48,48,0,0,-58,0,0,50,0,1136,96,48,48,0,-36,-47,1,1,85,0,1232,144,48,48,0,-36,-47,1,0,50,0,1232,96,48,48,0,-8,-46,0,1,85,0,1232,144,48,48,0,-8,-46,0,0,50,0,1232,96,48,48,0,-24,-8,0,0,65,0,320,288,48,16,0,
0,23,-8,-56,0,1,100,0,880,328,72,72,0,-10,-80,0,1,100,0,880,328,72,72,0,8,-64,0,1,100,0,952,328,72,72,0,-32,-55,0,1,100,0,744,592,96,48,0,-21,-44,0,1,100,0,840,592,96,48,0,-24,-65,0,1,100,0,840,592,96,48,0,-6,-50,0,1,100,0,936,592,96,48,0,-67,-42,1,1,100,0,1232,144,48,48,0,-67,-42,1,0,75,0,1232,96,48,48,0,-51,-39,1,1,100,0,1136,144,48,48,0,-51,-39,1,0,75,0,1136,96,48,48,0,3,-36,0,1,100,0,1136,144,48,48,0,3,-36,0,1,75,0,1136,96,48,48,0,-40,-64,0,0,100,0,640,328,80,72,0,-49,-55,1,1,85,0,1136,144,48,48,0,-49,-55,1,0,50,0,1136,96,48,48,0,0,-59,0,1,85,0,1136,144,48,48,0,0,-59,0,1,50,0,1136,96,48,48,0,-36,-46,1,1,85,0,1232,144,48,48,0,-36,-46,1,0,50,0,1232,96,48,48,0,-8,-48,0,1,85,0,1232,144,48,48,0,-8,-48,0,0,50,0,1232,96,48,48,0,-24,-8,0,0,65,0,320,288,48,16,0,
0,20,-22,-68,0,1,100,0,880,328,72,72,0,-8,-56,0,1,100,0,952,328,72,72,0,-10,-80,0,1,100,0,952,328,72,72,0,-61,-55,0,1,100,0,744,592,96,48,0,-32,-55,0,1,100,0,840,592,96,48,0,-21,-44,0,1,100,0,936,592,96,48,0,-24,-65,0,1,100,0,936,592,96,48,0,-6,-50,0,1,100,0,744,640,96,48,0,-67,-43,1,1,100,0,1232,144,48,48,0,-67,-43,1,0,75,0,1232,96,48,48,0,-51,-38,1,1,100,0,1136,144,48,48,0,-51,-38,1,0,75,0,1136,96,48,48,0,-40,-64,0,0,100,0,720,328,80,72,0,-49,-56,1,1,85,0,1136,144,48,48,0,-49,-56,1,0,50,0,1136,96,48,48,0,-36,-48,1,1,85,0,1232,144,48,48,0,-36,-48,1,0,50,0,1232,96,48,48,0,-8,-47,0,1,85,0,1232,144,48,48,0,-8,-47,0,1,50,0,1232,96,48,48,0,-24,-8,0,0,65,0,320,288,48,16,0,
0,19,-46,-68,0,1,100,0,880,328,72,72,0,-22,-68,0,1,100,0,952,328,72,72,0,-76,-44,0,1,100,0,744,592,96,48,0,-74,-64,0,1,100,0,744,592,96,48,0,-61,-55,0,1,100,0,840,592,96,48,0,-32,-55,0,1,100,0,936,592,96,48,0,-21,-44,0,1,100,0,744,640,96,48,0,-24,-65,0,1,100,0,744,640,96,48,0,-6,-50,0,1,100,0,840,640,96,48,0,-67,-42,1,1,100,0,1232,144,48,48,0,-67,-42,1,0,75,0,1232,96,48,48,0,-51,-37,1,1,100,0,1136,144,48,48,0,-51,-37,1,0,75,0,1136,96,48,48,0,-40,-64,0,0,100,0,480,328,80,72,0,-49,-57,1,1,85,0,1136,144,48,48,0,-49,-57,1,1,50,0,1136,96,48,48,0,-36,-48,1,1,85,0,1232,144,48,48,0,-36,-48,1,1,50,0,1232,96,48,48,0,-24,-8,0,0,65,0,320,288,48,16,0,
0,19,-62,-56,0,1,100,0,880,328,72,72,0,-62,-76,0,1,100,0,880,328,72,72,0,-46,-68,0,1,100,0,952,328,72,72,0,-92,-47,0,1,100,0,744,592,96,48,0,-76,-44,0,1,100,0,840,592,96,48,0,-74,-64,0,1,100,0,840,592,96,48,0,-61,-55,0,1,100,0,936,592,96,48,0,-32,-55,0,1,100,0,744,640,96,48,0,-21,-44,0,1,100,0,840,640,96,48,0,-24,-65,0,1,100,0,840,640,96,48,0,-6,-50,0,1,100,0,936,640,96,48,0,-67,-40,1,1,100,0,1232,144,48,48,0,-67,-40,1,0,75,0,1232,96,48,48,0,-51,-38,1,1,100,0,1136,144,48,48,0,-51,-38,1,1,75,0,1136,96,48,48,0,-40,-64,0,0,100,0,560,328,80,72,0,-49,-56,1,1,85,0,1136,144,48,48,0,-49,-56,1,1,50,0,1136,96,48,48,0,-24,-8,0,0,65,0,320,288,48,16,0,
0,14,-78,-60,0,1,75,0,880,328,72,72,0,-62,-56,0,1,100,0,952,328,72,72,0,-62,-76,0,1,100,0,952,328,72,72,0,-92,-47,0,1,100,0,936,592,96,48,0,-76,-44,0,1,100,0,936,592,96,48,0,-74,-64,0,1,100,0,936,592,96,48,0,-61,-55,0,1,100,0,744,640,96,48,0,-51,-38,1,1,25,0,1136,144,48,48,0,-49,-56,1,1,25,0,1136,144,48,48,0,-67,-42,1,1,100,0,1232,144,48,48,0,-32,-55,0,1,100,0,840,640,96,48,0,-21,-44,0,1,100,0,936,640,96,48,0,-40,-64,0,0,100,0,640,328,80,72,0,-24,-8,0,0,65,0,320,288,48,16,0,
0,8,-78,-60,0,1,25,0,952,328,72,72,0,-92,-47,0,1,100,0,744,640,96,48,0,-76,-44,0,1,100,0,840,640,96,48,0,-67,-42,1,1,15,0,1232,144,48,48,0,-74,-64,0,1,100,0,840,640,96,48,0,-61,-55,0,1,100,0,936,640,96,48,0,-40,-64,0,0,100,0,720,328,80,72,0,-24,-8,0,0,65,0,320,288,48,16,0,
0,2,-40,-64,0,0,100,0,480,328,80,72,0,-24,-8,0,0,65,0,320,288,48,16,0,
0,2,-40,-64,0,0,100,0,560,328,80,72,0,-24,-8,0,0,65,0,320,288,48,16,0,
0,2,-40,-64,0,0,100,0,640,328,80,72,0,-24,-8,0,0,65,0,320,288,48,16,0,
0,2,-40,-64,0,0,100,0,720,328,80,72,0,-24,-8,0,0,65,0,320,288,48,16,0,
