0,2,-64,-125,0,0,100,0,0,0,152,120,0,-48,-24,0,0,65,0,608,0,96,56,0,
0,2,-64,-125,0,0,100,0,152,0,152,120,0,-48,-24,0,0,65,0,608,0,96,56,0,
0,2,-64,-125,0,0,100,0,304,0,152,120,0,-48,-24,0,0,65,0,608,0,96,56,0,
0,2,-64,-125,0,0,100,0,456,0,152,120,0,-48,-24,0,0,65,0,608,0,96,56,0,
0,5,1,-121,0,0,100,0,0,240,56,88,0,-48,-100,0,1,100,0,720,0,48,48,0,-52,-124,0,0,100,0,0,120,96,112,0,-50,-131,0,0,100,0,0,328,56,80,0,-46,-24,0,0,65,0,608,0,96,56,0,
0,5,4,-122,0,0,100,0,0,240,56,88,0,-46,-101,0,1,100,0,720,48,48,48,0,-50,-125,0,0,100,0,0,120,96,112,0,-47,-132,0,0,100,0,0,328,56,80,0,-45,-24,0,0,65,0,608,0,96,56,0,
0,5,-7,-131,0,0,100,0,56,240,88,80,0,-124,-94,0,1,100,0,784,0,96,88,0,-53,-118,0,0,100,0,336,120,112,112,0,-45,-122,0,0,100,0,56,328,88,64,0,-49,-24,0,0,65,0,608,0,96,56,0,
0,6,-22,-135,0,0,100,0,240,240,96,80,0,-66,-112,0,0,100,0,216,120,120,112,0,-13,-98,0,0,100,0,128,408,64,64,0,-40,-148,0,0,100,0,208,328,64,80,0,-175,-99,0,1,100,0,880,336,144,112,0,-54,-24,0,0,65,0,608,0,96,56,0,
0,6,-22,-135,0,0,100,0,144,240,96,80,0,-66,-112,0,0,100,0,96,120,120,112,0,-13,-98,0,0,100,0,192,408,64,64,0,-40,-148,0,0,100,0,144,328,64,80,0,-177,-99,0,1,100,0,880,0,144,112,0,-54,-24,0,0,65,0,608,0,96,56,0,
0,6,-22,-135,0,0,100,0,240,240,96,80,0,-66,-112,0,0,100,0,216,120,120,112,0,-13,-98,0,0,100,0,0,408,64,64,0,-40,-148,0,0,100,0,208,328,64,80,0,-177,-99,0,1,100,0,880,112,144,112,0,-54,-24,0,0,65,0,608,0,96,56,0,
0,6,-22,-135,0,0,100,0,144,240,96,80,0,-66,-112,0,0,100,0,96,120,120,112,0,-13,-98,0,0,100,0,64,408,64,64,0,-40,-148,0,0,100,0,144,328,64,80,0,-177,-99,0,1,100,0,880,224,144,112,0,-54,-24,0,0,65,0,608,0,96,56,0,
0,6,-22,-135,0,0,100,0,240,240,96,80,0,-66,-112,0,0,100,0,216,120,120,112,0,-13,-98,0,0,100,0,128,408,64,64,0,-40,-148,0,0,100,0,208,328,64,80,0,-177,-99,0,1,100,0,880,336,144,112,0,-54,-24,0,0,65,0,608,0,96,56,0,
0,6,-23,-134,0,0,100,0,336,240,96,80,0,-66,-111,0,0,100,0,216,120,120,112,0,-13,-97,0,0,100,0,64,408,64,64,0,-40,-147,0,0,100,0,272,328,64,80,0,-177,-99,0,1,100,0,880,224,144,112,0,-54,-24,0,0,65,0,608,0,96,56,0,
0,6,-44,-80,0,0,100,0,432,240,88,64,0,-66,-109,0,0,100,0,96,120,120,112,0,-13,-95,0,0,100,0,128,408,64,64,0,-72,-79,0,0,100,0,432,336,88,48,0,-167,-105,0,1,100,0,768,88,112,96,0,-56,-24,0,0,65,0,608,0,96,56,0,
0,5,-57,-78,0,0,100,0,520,240,72,88,0,-66,-105,0,0,100,0,0,120,96,112,0,-81,-73,0,0,100,0,520,328,80,80,0,-173,-106,0,1,100,0,768,184,112,88,0,-60,-24,0,0,65,0,608,0,96,56,0,
0,5,-54,-80,0,0,100,0,520,240,72,88,0,-64,-106,0,0,100,0,0,120,96,112,0,-78,-75,0,0,100,0,520,328,80,80,0,-173,-106,0,1,100,0,768,184,112,88,0,-59,-24,0,0,65,0,608,0,96,56,0,
0,5,-12,-105,0,0,100,0,592,240,72,88,0,-60,-113,0,0,100,0,0,120,96,112,0,-59,-86,0,0,100,0,600,336,64,72,0,-159,-100,0,1,100,0,768,272,32,32,0,-53,-24,0,0,65,0,608,0,96,56,0,
0,0,
0,0,
0,0,
0,4,-18,-124,0,0,100,0,88,592,88,88,0,-65,-127,0,0,100,0,0,472,96,120,0,-75,-126,0,0,100,0,88,680,88,88,0,-48,-24,0,0,65,0,608,0,96,56,0,
0,4,-18,-123,0,0,100,0,88,592,88,88,0,-65,-127,0,0,100,0,96,472,96,120,0,-75,-125,0,0,100,0,88,680,88,88,0,-48,-24,0,0,65,0,608,0,96,56,0,
0,4,-20,-122,0,0,100,0,88,592,88,88,0,-55,-134,0,0,100,0,192,472,96,120,0,-77,-125,0,0,100,0,88,680,88,88,0,-48,-24,0,0,65,0,608,0,96,56,0,
0,5,-23,-122,0,0,100,0,88,592,88,88,0,-49,-141,0,1,100,0,816,272,32,64,0,-51,-147,0,0,100,0,288,472,96,120,0,-72,-125,0,0,100,0,88,680,88,88,0,-48,-24,0,0,65,0,608,0,96,56,0,
0,5,-24,-121,0,0,100,0,88,592,88,88,0,-49,-141,0,1,100,0,848,272,32,64,0,-51,-146,0,0,100,0,384,472,96,120,0,-71,-124,0,0,100,0,88,680,88,88,0,-48,-24,0,0,65,0,608,0,96,56,0,
0,4,-23,-122,0,0,100,0,88,592,88,88,0,-51,-139,0,0,100,0,480,480,96,112,0,-72,-125,0,0,100,0,88,680,88,88,0,-48,-24,0,0,65,0,608,0,96,56,0,
0,4,-23,-122,0,0,100,0,176,592,88,88,0,-48,-139,0,0,100,0,576,480,96,112,0,-76,-128,0,0,100,0,176,680,88,88,0,-48,-24,0,0,65,0,608,0,96,56,0,
0,5,-16,-122,0,0,100,0,0,592,88,88,0,-66,-158,0,1,100,0,704,120,64,64,0,-48,-139,0,0,100,0,672,480,96,112,0,-89,-148,0,0,100,0,0,680,88,80,0,-48,-24,0,0,65,0,608,0,96,56,0,
0,8,-17,-170,0,0,100,0,264,592,96,88,0,-87,-160,0,1,100,0,680,184,88,64,0,-27,-83,0,0,100,0,920,592,48,48,0,-51,-139,0,0,100,0,768,480,96,112,0,-35,-83,0,0,100,0,784,592,40,40,0,-78,-170,0,0,100,0,264,680,96,88,0,-9,-114,0,0,100,0,192,408,64,64,0,-48,-24,0,0,65,0,608,0,96,56,0,
0,8,-17,-170,0,0,100,0,360,592,96,88,0,-87,-160,0,1,100,0,680,248,88,64,0,-27,-83,0,0,100,0,920,592,48,48,0,-51,-139,0,0,100,0,864,480,96,112,0,-35,-83,0,0,100,0,784,592,40,40,0,-78,-172,0,0,100,0,360,680,96,88,0,-9,-115,0,0,100,0,0,408,64,64,0,-48,-24,0,0,65,0,608,0,96,56,0,
0,8,-17,-169,0,0,100,0,456,592,96,88,0,-77,-165,0,1,100,0,680,312,88,64,0,-27,-83,0,0,100,0,920,592,48,48,0,-51,-139,0,0,100,0,768,480,96,112,0,-35,-83,0,0,100,0,784,592,40,40,0,-79,-169,0,0,100,0,456,680,96,88,0,-9,-115,0,0,100,0,64,408,64,64,0,-48,-24,0,0,65,0,608,0,96,56,0,
0,8,-17,-167,0,0,100,0,552,592,96,88,0,-72,-163,0,1,100,0,680,376,88,64,0,-27,-83,0,0,100,0,920,592,48,48,0,-51,-139,0,0,100,0,768,480,96,112,0,-35,-83,0,0,100,0,784,592,40,40,0,-79,-168,0,0,100,0,552,680,96,88,0,-9,-115,0,0,100,0,128,408,64,64,0,-48,-24,0,0,65,0,608,0,96,56,0,
0,7,-17,-168,0,0,100,0,264,592,96,88,0,-27,-82,0,0,100,0,920,592,48,48,0,-51,-138,0,0,100,0,768,480,96,112,0,-35,-82,0,0,100,0,784,592,40,40,0,-79,-169,0,0,100,0,264,680,96,88,0,-9,-114,0,0,100,0,192,408,64,64,0,-48,-24,0,0,65,0,608,0,96,56,0,
0,7,-17,-168,0,0,100,0,264,592,96,88,0,-27,-82,0,0,100,0,920,592,48,48,0,-51,-138,0,0,100,0,768,480,96,112,0,-35,-82,0,0,100,0,784,592,40,40,0,-79,-169,0,0,100,0,264,680,96,88,0,-9,-114,0,0,100,0,192,408,64,64,0,-48,-24,0,0,65,0,608,0,96,56,0,
0,7,-17,-168,0,0,100,0,360,592,96,88,0,-27,-81,0,0,100,0,872,592,48,48,0,-51,-137,0,0,100,0,768,480,96,112,0,-35,-81,0,0,100,0,744,592,40,40,0,-78,-170,0,0,100,0,360,680,96,88,0,-9,-113,0,0,100,0,0,408,64,64,0,-48,-24,0,0,65,0,608,0,96,56,0,
0,7,-17,-169,0,0,100,0,456,592,96,88,0,-27,-83,0,0,100,0,824,592,48,48,0,-51,-139,0,0,100,0,768,480,96,112,0,-35,-83,0,0,100,0,704,592,40,40,0,-79,-169,0,0,100,0,456,680,96,88,0,-9,-114,0,0,100,0,64,408,64,64,0,-48,-24,0,0,65,0,608,0,96,56,0,
0,7,-17,-168,0,0,100,0,552,592,96,88,0,-27,-84,0,0,100,0,872,592,48,48,0,-51,-140,0,0,100,0,768,480,96,112,0,-35,-84,0,0,100,0,744,592,40,40,0,-79,-169,0,0,100,0,552,680,96,88,0,-9,-116,0,0,100,0,128,408,64,64,0,-48,-24,0,0,65,0,608,0,96,56,0,
0,7,-17,-169,0,0,100,0,264,592,96,88,0,-27,-83,0,0,100,0,920,592,48,48,0,-51,-139,0,0,100,0,768,480,96,112,0,-35,-83,0,0,100,0,784,592,40,40,0,-79,-170,0,0,100,0,264,680,96,88,0,-9,-115,0,0,100,0,192,408,64,64,0,-48,-24,0,0,65,0,608,0,96,56,0,
0,4,-11,-137,0,0,100,0,336,240,96,80,0,-58,-111,0,0,100,0,448,120,128,96,0,-30,-151,0,0,100,0,272,328,64,80,0,-48,-24,0,0,65,0,608,0,96,56,0,
