0,4,-59,-79,0,1,50,0,384,576,96,96,0,-59,-79,0,1,100,0,96,576,96,96,0,-47,-79,0,0,100,0,0,0,96,96,0,-47,-24,0,0,65,0,480,0,96,48,0,
0,4,-59,-79,0,1,50,0,96,576,96,96,0,-59,-79,0,1,100,0,192,576,96,96,0,-47,-79,0,0,100,0,96,0,96,96,0,-47,-24,0,0,65,0,480,0,96,48,0,
0,4,-59,-79,0,1,50,0,192,576,96,96,0,-59,-79,0,1,100,0,288,576,96,96,0,-47,-79,0,0,100,0,192,0,96,96,0,-47,-24,0,0,65,0,480,0,96,48,0,
0,4,-59,-79,0,1,50,0,288,576,96,96,0,-59,-79,0,1,100,0,384,576,96,96,0,-47,-79,0,0,100,0,288,0,96,96,0,-47,-24,0,0,65,0,480,0,96,48,0,
0,2,-47,-79,0,0,100,0,384,0,96,96,0,-47,-24,0,0,65,0,480,0,96,48,0,
0,3,-47,-79,0,1,100,0,0,864,96,96,0,-47,-79,0,0,100,0,0,96,96,95,0,-47,-24,0,0,65,0,480,0,96,48,0,
0,3,-47,-79,0,1,100,0,96,864,96,96,0,-47,-79,0,0,100,0,96,96,96,96,0,-47,-24,0,0,65,0,480,0,96,48,0,
0,3,-47,-79,0,1,100,0,192,864,96,96,0,-47,-79,0,0,100,0,192,96,96,96,0,-47,-24,0,0,65,0,480,0,96,48,0,
0,3,-67,-99,0,1,100,0,0,672,96,96,0,-47,-79,0,0,100,0,288,96,96,96,0,-47,-24,0,0,65,0,480,0,96,48,0,
0,3,-67,-99,0,1,100,0,96,672,96,96,0,-47,-79,0,0,100,0,384,96,96,96,0,-47,-24,0,0,65,0,480,0,96,48,0,
0,4,-67,-99,0,1,50,0,96,672,96,96,0,-67,-99,0,1,100,0,192,672,96,96,0,-47,-79,0,0,100,0,0,192,96,96,0,-47,-24,0,0,65,0,480,0,96,48,0,
0,4,-67,-99,0,1,50,0,192,672,96,96,0,-67,-99,0,1,100,0,288,672,96,96,0,-47,-79,0,0,100,0,96,192,96,96,0,-47,-24,0,0,65,0,480,0,96,48,0,
0,4,-67,-99,0,1,50,0,288,672,96,96,0,-67,-99,0,1,100,0,96,672,96,96,0,-47,-79,0,0,100,0,192,192,96,96,0,-47,-24,0,0,65,0,480,0,96,48,0,
0,4,-67,-99,0,1,50,0,96,672,96,96,0,-67,-99,0,1,100,0,192,672,96,96,0,-47,-79,0,0,100,0,288,192,96,96,0,-47,-24,0,0,65,0,480,0,96,48,0,
0,4,-67,-99,0,1,50,0,192,672,96,96,0,-67,-99,0,1,100,0,288,672,96,96,0,-47,-79,0,0,100,0,384,192,96,96,0,-47,-24,0,0,65,0,480,0,96,48,0,
0,3,-67,-99,0,1,100,0,384,672,96,96,0,-47,-79,0,0,100,0,0,288,96,96,0,-47,-24,0,0,65,0,480,0,96,48,0,
0,3,-67,-99,0,1,100,0,0,768,96,96,0,-47,-79,0,0,100,0,96,288,96,96,0,-47,-24,0,0,65,0,480,0,96,48,0,
0,3,-67,-99,0,1,100,0,96,768,96,96,0,-47,-79,0,0,100,0,192,288,96,96,0,-47,-24,0,0,65,0,480,0,96,48,0,
0,3,-67,-99,0,1,100,0,192,768,96,96,0,-47,-79,0,0,100,0,288,288,96,96,0,-47,-24,0,0,65,0,480,0,96,48,0,
0,2,-47,-79,0,0,100,0,384,288,96,96,0,-47,-24,0,0,65,0,480,0,96,48,0,
0,4,-59,-79,0,1,50,0,96,576,96,96,0,-47,-79,0,1,100,0,288,768,96,96,0,-47,-79,0,0,100,0,0,384,96,96,0,-47,-24,0,0,65,0,480,0,96,48,0,
0,4,-47,-79,0,1,50,0,288,768,96,96,0,-47,-79,0,1,100,0,384,768,96,96,0,-47,-79,0,0,100,0,96,384,96,96,0,-47,-24,0,0,65,0,480,0,96,48,0,
0,3,-47,-79,0,1,50,0,384,768,96,96,0,-47,-79,0,0,100,0,192,384,96,96,0,-47,-24,0,0,65,0,480,0,96,48,0,
0,2,-47,-79,0,0,100,0,288,384,96,96,0,-47,-24,0,0,65,0,480,0,96,48,0,
0,2,-47,-79,0,0,100,0,384,384,96,96,0,-47,-24,0,0,65,0,480,0,96,48,0,
0,2,-47,-79,0,0,100,0,0,480,96,96,0,-47,-24,0,0,65,0,480,0,96,48,0,
0,2,-47,-79,0,0,100,0,96,480,96,96,0,-47,-24,0,0,65,0,480,0,96,48,0,
0,2,-47,-79,0,0,100,0,192,480,96,96,0,-47,-24,0,0,65,0,480,0,96,48,0,
0,2,-47,-79,0,0,100,0,288,480,96,96,0,-47,-24,0,0,65,0,480,0,96,48,0,
0,2,-47,-79,0,0,100,0,384,480,96,96,0,-47,-24,0,0,65,0,480,0,96,48,0,
0,2,-47,-79,0,0,100,0,0,576,96,96,0,-47,-24,0,0,65,0,480,0,96,48,0,
