0,2,-20,-30,0,0,100,0,0,0,40,40,0,-19,-7,0,0,65,0,126,22,39,14,0,
0,2,-20,-30,0,0,100,0,40,0,40,40,0,-19,-7,0,0,65,0,126,22,39,14,0,
0,2,-20,-30,0,0,100,0,80,0,40,40,0,-19,-7,0,0,65,0,126,22,39,14,0,
0,2,-23,-36,0,0,100,0,0,40,40,40,0,-19,-7,0,0,65,0,126,22,39,14,0,
0,2,-22,-33,0,0,100,0,40,40,40,40,0,-19,-7,0,0,65,0,126,22,39,14,0,
0,2,-20,-30,0,0,100,0,0,80,40,40,0,-19,-7,0,0,65,0,126,22,39,14,0,
0,2,-43,-38,0,0,100,0,40,80,40,40,0,-38,-7,0,0,65,0,126,22,39,14,0,
0,2,-61,-35,0,0,100,0,40,40,40,40,0,-58,-7,0,0,65,0,126,22,39,14,0,
0,2,-69,-32,0,0,100,0,80,79,40,40,0,-66,-7,0,0,65,0,126,22,39,14,0,
0,2,-69,-30,0,0,100,0,0,0,40,40,0,-66,-7,0,0,65,0,126,22,39,14,0,
0,2,-68,-30,0,0,100,0,0,0,40,40,0,-65,-7,0,0,65,0,126,22,39,14,0,
0,2,-20,-30,0,0,100,0,80,40,40,40,0,-19,-7,0,0,65,0,126,22,39,14,0,
0,2,-20,-35,0,0,100,0,0,120,40,40,0,-19,-7,0,0,65,0,126,22,39,14,0,
0,2,-20,-40,0,0,100,0,40,120,40,40,0,-19,-7,0,0,65,0,126,22,39,14,0,
0,2,-20,-45,0,0,100,0,80,120,40,40,0,-19,-7,0,0,65,0,126,22,39,14,0,
0,2,-20,-50,0,0,100,0,120,120,40,40,0,-19,-7,0,0,65,0,126,22,39,14,0,
0,2,-20,-50,0,0,100,0,0,160,40,40,0,-19,-7,0,0,65,0,126,22,39,14,0,
0,2,-20,-45,0,0,100,0,40,160,40,40,0,-19,-7,0,0,65,0,126,22,39,14,0,
0,2,-20,-40,0,0,100,0,80,160,40,40,0,-19,-7,0,0,65,0,126,22,39,14,0,
0,2,-20,-35,0,0,100,0,120,160,40,40,0,-19,-7,0,0,65,0,126,22,39,14,0,
0,2,-20,-35,0,0,100,0,0,120,40,40,0,-19,-7,0,0,65,0,126,22,39,14,0,
0,2,-17,-33,0,0,100,0,0,160,40,40,0,-19,-7,0,0,65,0,126,22,39,14,0,
