0,0,0,2,
1,0,0,2,
0,0,0,2,
1,0,0,2,
0,0,0,2,
1,0,0,2,
2,0,0,2,
3,0,0,2,
2,0,0,2,
3,0,0,2,
2,0,0,2,
3,0,0,2,
4,0,0,2,
5,0,0,2,
4,0,0,2,
5,0,0,2,
4,0,0,2,
5,0,0,2,
6,0,0,2,
7,0,0,2,
6,0,0,2,
7,0,0,2,
6,0,0,2,
7,0,0,2,
